Input param:JobHistoryConnection:E:\mgalfa\AutomationCode\Sensitivities\FP_IntDn100_1YROUT\Log\ClearExecutionJobHistory.txt
Input param:JobInstanceID:4
Input param:UseDBJobHistory:false
Input param:DirectoryToClear:E:\MGALFA\Model\Executionfolder\Sensitivities\FP_IntDn100_1YROUT
Input param:DeleteSubdirectories:true
FinishTime:02/10/2018 15:32:05.758
