Input param:JobHistoryConnection:E:\mgalfa\AutomationCode\Sensitivities\FP_IntDn100_1YROUT\Log\TextReportConsolidation.txt
Input param:JobInstanceID:1
Input param:LogFileDirectory:E:\mgalfa\AutomationCode\Sensitivities\FP_IntDn100_1YROUT\Log
Input param:OutputFile:E:\MGALFA\Model\Executionfolder\Sensitivities\FP_IntDn100_1YROUT\FP_IntDn100_1YROUTreports.xlsx
FinishTime:02/10/2018 15:31:51.561
