Input param:JobHistoryConnection:E:\MGALFA\AutomationCode\Sensitivities\FP_Type_I_UW_Sensitivities_LapseUp20_1YROUT\Log\FP_Type_I_UW_Sensitivities_LapseUp20_1YROUT_Perm_Table_wscale8.txt
Input param:JobInstanceID:1
Input param:SourceWorkbookLocation:E:\mgalfa\Staging\FairValue\Sensitivity\ModelInputs\IFRS_Model_Inputs.xlsx
Input param:SourceSheetName:FP Type I UW Inputs
Input param:SourceRow:11
Input param:SourceColumn:E
Input param:DestinationWorkbookLocation:E:\MGALFA\Model\Executionfolder\Sensitivities\FP_Type_I_UW_Sensitivities_LapseUp20_1YROUT\FVQtrly.xlsx
Input param:DestinationSheetName:wscale
Input param:DestinationRangeStartRow:11
Input param:DestinationRangeStartColumn:C
Input param:DestinationEndRangeRow:11
Input param:DestinationEndRangeColumn:EV
E11:1.2
FinishTime:02/14/2018 13:10:14.086
