Input param:JobHistoryConnection:E:\MGALFA\AutomationCode\Sensitivities\FP_Type_I_UW_Sensitivities_MortDn10_1QTROUT\Log\FP_Type_I_UW_Sensitivities_MortDn10_1QTROUT_Perm_Table_QsecScaleIE.txt
Input param:JobInstanceID:1
Input param:SourceWorkbookLocation:E:\mgalfa\Staging\FairValue\Sensitivity\ModelInputs\IFRS_Model_Inputs.xlsx
Input param:SourceSheetName:FP Type I UW Inputs
Input param:SourceRow:33
Input param:SourceColumn:E
Input param:DestinationWorkbookLocation:E:\MGALFA\Model\Executionfolder\Sensitivities\FP_Type_I_UW_Sensitivities_MortDn10_1QTROUT\FVQtrly.xlsx
Input param:DestinationSheetName:QsecScaleIE
Input param:DestinationRangeStartRow:4
Input param:DestinationRangeStartColumn:B
Input param:DestinationEndRangeRow:4
Input param:DestinationEndRangeColumn:EU
E33:0.9
FinishTime:02/20/2018 12:58:02.715
