Input param:JobHistoryConnection:E:\mgalfa\AutomationCode\Base\Log\BaseCopySensitivityHistory.txt
Input param:JobInstanceID:4
Input param:UseDBJobHistory:false
Input param:DirectoryToCreatePattern:\\us.aegon.com\ait\Actuary\TCMActuary\ACTFINAPP\DEV\Model\Archive\Q{QuarterHolder}{YearHolderTwoDigit}\{CurrentYearHolderFourDigit}{CurrentMonthHolderLeadingZero}{CurrentDayHolderLeadingZero}\IFRS_Base_{CurrentDayHourHolderLeadingZero}{CurrentDayMinuteHolderLeadingZero}{CurrentDaySecondHolderLeadingZero}
Input param:SourceDirectoryPattern:E:\MGALFA\Model\Executionfolder\Base
Input param:Q1MonthMap:1,2,3
Input param:Q2MonthMap:4,5,6
Input param:Q3MonthMap:7,8,9
Input param:Q4MonthMap:10,11,12
Input param:ProcessTimeToMonthOffset:-4
Input param:TwoDigitYear:true
Input param:MonthLeadingZero:true
Input param:OverwriteDestinationFile:true
Input param:ExpectedNumberOfFiles:-1
Input param:Wildcard:*.*
Input param:WildcardExclusions:
Input param:ReplaceFromString:
Input param:ReplaceToString:
Input param:DestinationDirectory:\\us.aegon.com\ait\Actuary\TCMActuary\ACTFINAPP\DEV\Model\Archive\Q417\20180427\IFRS_Base_044747
FinishTime:04/27/2018 16:49:10.338
