Input param:JobHistoryConnection:E:\mgalfa\AutomationCode\Base\Log\DeletePostRunFilJobHistory.txt
Input param:JobInstanceID:4
Input param:UseDBJobHistory:false
Input param:FileToDelete:E:\MGALFA\AlfaPostProcessingTriggerFiles\Base.txt
FinishTime:04/27/2018 16:51:01.276
