Input param:JobHistoryConnection:E:\MGALFA\AutomationCode\Base\Log\FactorFileDynSepAcctWgtJobHistory.txt
Input param:JobInstanceID:4
Input param:UseDBJobHistory:false
Input param:ProcessLocation:E:\MGALFA\AutomationCode\Common\AFDImportTool\AfdImportTool.exe
Input param:Arguments:import E:\MGALFA\Staging\FairValue\FactorFiles\DynSepAcctWgt.afd.txt E:\MGALFA\Model\Executionfolder\Base\DynSepAcctWgt.afd
Input param:ErrorSearchString:error
FinishTime:04/27/2018 16:18:06.070
