Input param:JobHistoryConnection:E:\MGALFA\AutomationCode\Base\Log\GMWBLapse10YrRateHist Perm Table.txt
Input param:JobInstanceID:2
Input param:SourceWorkbookLocation:E:\MGALFA\Staging\FairValue\HistoricalRates\Historical 10 Year Treasury Rates.xlsx
Input param:SourceSheetName:Historical
Input param:SourceRangeStartRow:3
Input param:SourceRangeStartColumn:M
Input param:SourceEndRangeRow:374
Input param:SourceEndRangeColumn:M
Input param:DestinationWorkbookLocation:E:\MGALFA\Model\Executionfolder\Base\Treasury10yrHist.xlsx
Input param:DestinationSheetName:GMWBLapse10YrRateHist
Input param:DestinationRangeStartRow:5
Input param:DestinationRangeStartColumn:B
Input param:DestinationEndRangeRow:5
Input param:DestinationEndRangeColumn:NI
Source Cells:,,,,,,,,,,,,,,,,,,,,,,,,,,,,,,,,,,,,,,,,,,,,,,,,,,,,,,,,,,,,,,,,,,,,,,,,,,,,,,,,,,,,,,,,,,,,,,,,,,,,,,,,,,,,,,,,,,,,,,,,,,,,,,,,,,,,,,,,,,,,,,,,,,,,,,,,,,,,,,,,,,,,,,,,,,,,,,,,,,,,,,,,,,,,,,,,,,,,,,,,,,,,,,,,,,,,,,,,,,,,,,,,,,,,,,,,,,,,,,,,,,,,,,,,,,,,,,,,,,,,,,,,,,,,,,,,,,,,,,,,,,,,,,,,,,,,,,,,,,,,,,,,,,,,,,,,,,,,,,,,,,,,,,,,,,,,,,,,,,,,,,,,,,,,,,,,,,,,,,,,,,,,,,,,,,,
M3:0.0860766224999998
M4:0.0869105025000001
M5:0.0883705625
M6:0.0924430399999998
M7:0.0878489999999998
M8:0.0860766224999998
M9:0.0853472400000002
M10:0.0905624899999999
M11:0.09014481
M12:0.0883705625
M13:0.0843056899999999
M14:0.08243216
M15:0.0819120224999998
M16:0.08180801
M17:0.0821200624999998
M18:0.08180801
M19:0.08222409
M20:0.0840974399999999
M21:0.0836809999999999
M22:0.0797288099999998
M23:0.0760950224999999
M24:0.0760950224999999
M25:0.0751616099999999
M26:0.0682256024999999
M27:0.0744359025000001
M28:0.0740213225000002
M29:0.07682129
M30:0.0775478024999998
M31:0.0746432225000002
M32:0.07267449
M33:0.0683289600000001
M34:0.0672956099999997
M35:0.0647144224999998
M36:0.069156
M37:0.0707075625000002
M38:0.0681222500000003
M39:0.0649208024999999
M40:0.0612090224999997
M41:0.0612090224999997
M42:0.0614150625000003
M43:0.0625486399999999
M44:0.0588409999999999
M45:0.0591497224999999
M46:0.0552425624999999
M47:0.0547289999999998
M48:0.0550371224999999
M49:0.0591497224999999
M50:0.0591497224999999
M51:0.05781225
M52:0.0624455625000002
M53:0.0688458224999999
M54:0.0718460899999998
M55:0.0729852224999998
M56:0.0747468899999999
M57:0.0724673600000001
M58:0.0731924024999999
M59:0.07765161
M60:0.0796249025
M61:0.0806642024999999
M62:0.0799366399999999
M63:0.0774440000000001
M64:0.0735032100000002
M65:0.073296
M66:0.0719496225
M67:0.0639922500000001
M68:0.0630641025000001
M69:0.0655400624999998
M70:0.0637859600000001
M71:0.0626517225000001
M72:0.0612090224999997
M73:0.0584294399999998
M74:0.05657841
M75:0.0567839999999999
M76:0.0622394225
M77:0.06440489
M78:0.0677088900000002
M79:0.0696730624999997
M80:0.0684323224999999
M81:0.069156
M82:0.0708110399999999
M83:0.0683289600000001
M84:0.0647144224999998
M85:0.0615180900000001
M86:0.0653336224999999
M87:0.0663660225000002
M88:0.0666758399999998
M89:0.07039716
M90:0.0683289600000001
M91:0.0678122225
M92:0.0661595025000001
M93:0.06110601
M94:0.06440489
M95:0.06213636
M96:0.0592526399999997
M97:0.0594584900000001
M98:0.0583265625
M99:0.0560645224999998
M100:0.05698961
M101:0.0575037225000001
M102:0.05760656
M103:0.0563728400000001
M104:0.0551398400000003
M105:0.0557562500000002
M106:0.0511375624999999
M107:0.0448928399999999
M108:0.0469382400000002
M109:0.0479616900000002
M110:0.0470405624999999
M111:0.0471428900000002
M112:0.0535996025000001
M113:0.0531890625000002
M114:0.05431824
M115:0.05719524
M116:0.0589439025
M117:0.0600761600000002
M118:0.0606940100000002
M119:0.0598702500000001
M120:0.06110601
M121:0.0627548099999999
M122:0.0655400624999998
M123:0.0679155600000001
M124:0.0652304100000001
M125:0.0612090224999997
M126:0.0632703225
M127:0.0638891024999999
M128:0.0612090224999997
M129:0.06131204
M130:0.0581208225000001
M131:0.0588409999999999
M132:0.0585323225000001
M133:0.0555507600000003
M134:0.0518553600000002
M135:0.0525734024999998
M136:0.04980516
M137:0.0499076225000001
M138:0.0542155625
M139:0.0550371224999999
M140:0.0549344099999998
M141:0.0513426225
M142:0.0490880625000003
M143:0.0465289999999998
M144:0.0434622500000001
M145:0.04837121
M146:0.0513426225
M147:0.0513426225
M148:0.0493953599999999
M149:0.0549344099999998
M150:0.0517528025
M151:0.0514451600000001
M152:0.04919049
M153:0.0456085025000001
M154:0.0418284899999999
M155:0.0366294224999997
M156:0.0396861224999998
M157:0.0426452099999999
M158:0.0386667224999999
M159:0.0404
M160:0.0374441025000001
M161:0.0386667224999999
M162:0.0392783024999999
M163:0.0339839225
M164:0.0357132900000001
M165:0.0454040025000002
M166:0.0449950625000002
M167:0.03999204
M168:0.0437687224999999
M169:0.0438708900000002
M170:0.0431558224999999
M171:0.04203264
M172:0.0402980024999999
M173:0.0389724900000001
M174:0.0458130225000002
M175:0.0471428900000002
M176:0.0467336099999998
M177:0.0455062499999999
M178:0.0417264225
M179:0.0418284899999999
M180:0.0409100625000003
M181:0.0440752400000002
M182:0.0428494400000001
M183:0.0418284899999999
M184:0.0440752400000002
M185:0.0455062499999999
M186:0.0425431025
M187:0.0404
M188:0.0397880900000001
M189:0.0432579600000003
M190:0.04060401
M191:0.0438708900000002
M192:0.0462221225000001
M193:0.0454040025000002
M194:0.0443818024999998
M195:0.0458130225000002
M196:0.0460175625000001
M197:0.04919049
M198:0.0513426225
M199:0.0518553600000002
M200:0.0521630624999998
M201:0.0505225025
M202:0.0479616900000002
M203:0.0469382400000002
M204:0.0466313025
M205:0.04509729
M206:0.0476546025
M207:0.0488832224999998
M208:0.0461198399999998
M209:0.0470405624999999
M210:0.0468359224999999
M211:0.0496002499999999
M212:0.0509325224999999
M213:0.04837121
M214:0.0459152899999999
M215:0.0464267025
M216:0.0453017599999999
M217:0.0400940224999999
M218:0.0408080399999999
M219:0.0370367225000001
M220:0.0356115225
M221:0.0347975624999999
M222:0.0380553225
M223:0.0410120899999999
M224:0.0402980024999999
M225:0.0402980024999999
M226:0.0386667224999999
M227:0.0388705624999999
M228:0.0405020024999998
M229:0.0295146225
M230:0.0226265624999999
M231:0.0289059225000001
M232:0.0304280099999998
M233:0.0272836024999998
M234:0.0318496400000001
M235:0.0350010224999999
M236:0.0356115225
M237:0.0355097600000001
M238:0.0342889999999998
M239:0.0333739025000002
M240:0.0343907025000001
M241:0.0323576024999999
M242:0.0388705624999999
M243:0.0366294224999997
M244:0.0364258024999997
M245:0.0387686400000002
M246:0.0372404025000002
M247:0.0333739025000002
M248:0.0299205225000001
M249:0.0296160899999998
M250:0.0248525225000003
M251:0.0254600225000001
M252:0.0264729225
M253:0.0282974024999998
M254:0.03327225
M255:0.0344924099999997
M256:0.0344924099999997
M257:0.0350010224999999
M258:0.0334755599999998
M259:0.0307325624999999
M260:0.0320528100000002
M261:0.0283988100000001
M262:0.0224243225
M263:0.01929216
M264:0.0218177225
M265:0.0209081599999998
M266:0.0189893024999999
M267:0.0183837225000001
M268:0.0198980100000001
M269:0.0224243225
M270:0.0195950624999999
M271:0.0159632024999998
M272:0.0167697225000001
M273:0.0151570024999998
M274:0.0157616224999999
M275:0.0165680625000002
M276:0.0172739599999998
M277:0.01626561
M278:0.0178792099999998
M279:0.02030201
M280:0.0189893024999999
M281:0.0187874225
M282:0.01707225
M283:0.0217166399999997
M284:0.0253587599999998
M285:0.0261689999999999
M286:0.02799321
M287:0.0265742400000002
M288:0.0258651224999999
M289:0.0276890624999999
M290:0.0306310400000003
M291:0.0268782224999999
M292:0.0267768900000003
M293:0.0274863224999999
M294:0.0268782224999999
M295:0.0249537599999998
M296:0.0254600225000001
M297:0.0259664099999999
M298:0.0236380624999999
M299:0.0253587599999998
M300:0.0236380624999999
M301:0.0219188099999998
M302:0.0218177225
M303:0.0168705599999999
M304:0.0201
M305:0.01949409
M306:0.0206050625000003
M307:0.0213123599999998
M308:0.0236380624999999
M309:0.0221209999999998
M310:0.0222221025
M311:0.02070609
M312:0.0217166399999997
M313:0.0222221025
M314:0.0228288225
M315:0.01949409
M316:0.0174756899999999
M317:0.0178792099999998
M318:0.0183837225000001
M319:0.0184846400000003
M320:0.0149555024999999
M321:0.0146532900000003
M322:0.01586241
M323:0.0160640000000001
M324:0.0184846400000003
M325:0.0238404224999997
M326:0.0246500625000001
M327:0.0246500625000001
M328:0.0237392400000001
M329:0.0241439999999999
M330:0.0230311024999998
M331:0.0222221025
M332:0.0232334024999998
M333:0.0231322500000002
M334:0.0213123599999998
M335:0.0234357224999999
M336:0.0239416100000001
M337:0.0243464099999999
M338:0.0241439999999999
M339:0.0241439999999999
M340:0.0241439999999999
M341:0.0241439999999999
M342:0.0241439999999999
M343:0.0241439999999999
M344:0.0241439999999999
M345:0.0241439999999999
M346:0.0241439999999999
M347:0.0241439999999999
M348:0.0241439999999999
M349:0.0241439999999999
M350:0.0241439999999999
M351:0.0241439999999999
M352:0.0241439999999999
M353:0.0241439999999999
M354:0.0241439999999999
M355:0.0241439999999999
M356:0.0241439999999999
M357:0.0241439999999999
M358:0.0241439999999999
M359:0.0241439999999999
M360:0.0241439999999999
M361:0.0241439999999999
M362:0.0241439999999999
M363:0.0241439999999999
M364:0.0241439999999999
M365:0.0241439999999999
M366:0.0241439999999999
M367:0.0241439999999999
M368:0.0241439999999999
M369:0.0241439999999999
M370:0.0241439999999999
M371:0.0241439999999999
M372:0.0241439999999999
M373:0.0241439999999999
M374:0.0241439999999999
FinishTime:04/27/2018 16:16:06.866
