Input param:JobHistoryConnection:E:\MGALFA\AutomationCode\Base\Log\GMWBLapseAnnInt Perm Table.txt
Input param:JobInstanceID:2
Input param:SourceWorkbookLocation:E:\MGALFA\Staging\FairValue\HistoricalRates\Historical 10 Year Treasury Rates.xlsx
Input param:SourceSheetName:Historical
Input param:SourceRangeStartRow:45
Input param:SourceRangeStartColumn:B
Input param:SourceEndRangeRow:45
Input param:SourceEndRangeColumn:B
Input param:DestinationWorkbookLocation:E:\MGALFA\Model\Executionfolder\Base\QtrlySens.xlsx
Input param:DestinationSheetName:GMWBLapseAnnInt
Input param:DestinationRangeStartRow:5
Input param:DestinationRangeStartColumn:B
Input param:DestinationEndRangeRow:5
Input param:DestinationEndRangeColumn:B
Source Cells:
B45:0.0366439999999999
FinishTime:04/27/2018 16:15:52.163
