Input param:JobHistoryConnection:E:\MGALFA\AutomationCode\Base\Log\VarVCF19AllocInit Perm Table.txt
Input param:JobInstanceID:1
Input param:SourceWorkbookLocation:E:\MGALFA\Staging\FairValue\VCFInput\DFM Allocation.xlsx
Input param:SourceSheetName:T-1 Mapping
Input param:SourceRangeStartRow:26
Input param:SourceRangeStartColumn:C
Input param:SourceEndRangeRow:26
Input param:SourceEndRangeColumn:J
Input param:DestinationWorkbookLocation:E:\MGALFA\Model\Executionfolder\Base\Vcf_Inputs.xlsx
Input param:DestinationSheetName:VarVCF19AllocInit
Input param:DestinationRangeStartRow:4
Input param:DestinationRangeStartColumn:B
Input param:DestinationEndRangeRow:4
Input param:DestinationEndRangeColumn:I
Source Cells:,,,,,,,
C26:0
D26:0.5919
E26:0.0401
F26:0
G26:0.08
H26:0.1642
I26:0.1238
J26:0
FinishTime:04/27/2018 16:17:39.991
