Input param:JobHistoryConnection:E:\MGALFA\AutomationCode\Base\Log\VarVCF11AllocInit Perm Table.txt
Input param:JobInstanceID:1
Input param:SourceWorkbookLocation:E:\MGALFA\Staging\FairValue\VCFInput\DFM Allocation.xlsx
Input param:SourceSheetName:T-1 Mapping
Input param:SourceRangeStartRow:18
Input param:SourceRangeStartColumn:C
Input param:SourceEndRangeRow:18
Input param:SourceEndRangeColumn:J
Input param:DestinationWorkbookLocation:E:\MGALFA\Model\Executionfolder\Base\Vcf_Inputs.xlsx
Input param:DestinationSheetName:VarVCF11AllocInit
Input param:DestinationRangeStartRow:4
Input param:DestinationRangeStartColumn:B
Input param:DestinationEndRangeRow:4
Input param:DestinationEndRangeColumn:I
Source Cells:,,,,,,,
C18:0
D18:0.4039
E18:0.0519
F18:0.0211
G18:-0.228
H18:0.7247
I18:0.0001
J18:0.0263
FinishTime:04/27/2018 16:17:22.804
