Input param:JobHistoryConnection:E:\MGALFA\AutomationCode\Base\Log\VarVCF20AllocInit Perm Table.txt
Input param:JobInstanceID:1
Input param:SourceWorkbookLocation:E:\MGALFA\Staging\FairValue\VCFInput\DFM Allocation.xlsx
Input param:SourceSheetName:T-1 Mapping
Input param:SourceRangeStartRow:27
Input param:SourceRangeStartColumn:C
Input param:SourceEndRangeRow:27
Input param:SourceEndRangeColumn:J
Input param:DestinationWorkbookLocation:E:\MGALFA\Model\Executionfolder\Base\Vcf_Inputs.xlsx
Input param:DestinationSheetName:VarVCF20AllocInit
Input param:DestinationRangeStartRow:4
Input param:DestinationRangeStartColumn:B
Input param:DestinationEndRangeRow:4
Input param:DestinationEndRangeColumn:I
Source Cells:,,,,,,,
C27:0
D27:0.282
E27:0.0957
F27:0.0093
G27:0.1236
H27:0.4041
I27:0.0557
J27:0.0296
FinishTime:04/27/2018 16:17:42.148
