Input param:JobHistoryConnection:E:\MGALFA\AutomationCode\Base\Log\Vcf_Inputs_Part3a Perm Table.txt
Input param:JobInstanceID:2
Input param:SourceWorkbookLocation:E:\MGALFA\Staging\FairValue\VCFInput\TCM Equity Scenario Assumptions.xlsx
Input param:SourceSheetName:Risk Neutral Volatilities
Input param:SourceRangeStartRow:7
Input param:SourceRangeStartColumn:E
Input param:SourceEndRangeRow:726
Input param:SourceEndRangeColumn:E
Input param:DestinationWorkbookLocation:E:\MGALFA\Model\Executionfolder\Base\Vcf_Inputs.xlsx
Input param:DestinationSheetName:VarVCFFundVol_IFRS_FV
Input param:DestinationRangeStartRow:6
Input param:DestinationRangeStartColumn:CEG
Input param:DestinationEndRangeRow:6
Input param:DestinationEndRangeColumn:DFX
Source Cells:,,,,,,,,,,,,,,,,,,,,,,,,,,,,,,,,,,,,,,,,,,,,,,,,,,,,,,,,,,,,,,,,,,,,,,,,,,,,,,,,,,,,,,,,,,,,,,,,,,,,,,,,,,,,,,,,,,,,,,,,,,,,,,,,,,,,,,,,,,,,,,,,,,,,,,,,,,,,,,,,,,,,,,,,,,,,,,,,,,,,,,,,,,,,,,,,,,,,,,,,,,,,,,,,,,,,,,,,,,,,,,,,,,,,,,,,,,,,,,,,,,,,,,,,,,,,,,,,,,,,,,,,,,,,,,,,,,,,,,,,,,,,,,,,,,,,,,,,,,,,,,,,,,,,,,,,,,,,,,,,,,,,,,,,,,,,,,,,,,,,,,,,,,,,,,,,,,,,,,,,,,,,,,,,,,,,,,,,,,,,,,,,,,,,,,,,,,,,,,,,,,,,,,,,,,,,,,,,,,,,,,,,,,,,,,,,,,,,,,,,,,,,,,,,,,,,,,,,,,,,,,,,,,,,,,,,,,,,,,,,,,,,,,,,,,,,,,,,,,,,,,,,,,,,,,,,,,,,,,,,,,,,,,,,,,,,,,,,,,,,,,,,,,,,,,,,,,,,,,,,,,,,,,,,,,,,,,,,,,,,,,,,,,,,,,,,,,,,,,,,,,,,,,,,,,,,,,,,,,,,,,,,,,,,,,,,,,,,,,,,,,,,,,,,,,,,,,,,,,,,,,,,,,,,,,,,,,,,,,,,,,,,,,,,,,,,,,,,,,,,,,,,,,,,,,,,,,,,,,,
E7:0.171409736303044
E8:0.171409736303044
E9:0.171409736303044
E10:0.171409736303044
E11:0.171409736303044
E12:0.171409736303044
E13:0.171409736303044
E14:0.171409736303044
E15:0.171409736303044
E16:0.171409736303044
E17:0.171409736303044
E18:0.171409736303044
E19:0.198741756451926
E20:0.198741756451926
E21:0.198741756451926
E22:0.198741756451926
E23:0.198741756451926
E24:0.198741756451926
E25:0.198741756451926
E26:0.198741756451926
E27:0.198741756451926
E28:0.198741756451926
E29:0.198741756451926
E30:0.198741756451926
E31:0.211216775390038
E32:0.211216775390038
E33:0.211216775390038
E34:0.211216775390038
E35:0.211216775390038
E36:0.211216775390038
E37:0.211216775390038
E38:0.211216775390038
E39:0.211216775390038
E40:0.211216775390038
E41:0.211216775390038
E42:0.211216775390038
E43:0.212968652556272
E44:0.212968652556272
E45:0.212968652556272
E46:0.212968652556272
E47:0.212968652556272
E48:0.212968652556272
E49:0.212968652556272
E50:0.212968652556272
E51:0.212968652556272
E52:0.212968652556272
E53:0.212968652556272
E54:0.212968652556272
E55:0.229142620362848
E56:0.229142620362848
E57:0.229142620362848
E58:0.229142620362848
E59:0.229142620362848
E60:0.229142620362848
E61:0.229142620362848
E62:0.229142620362848
E63:0.229142620362848
E64:0.229142620362848
E65:0.229142620362848
E66:0.229142620362848
E67:0.219146415834669
E68:0.220516815566284
E69:0.2218872152979
E70:0.223257615029516
E71:0.224628014761132
E72:0.225998414492747
E73:0.227368814224363
E74:0.228739213955979
E75:0.230109613687595
E76:0.231480013419211
E77:0.232850413150826
E78:0.234220812882442
E79:0.235591212614058
E80:0.236961612345674
E81:0.23833201207729
E82:0.239702411808905
E83:0.241072811540521
E84:0.242443211272137
E85:0.243813611003753
E86:0.245184010735369
E87:0.246554410466984
E88:0.2479248101986
E89:0.249295209930216
E90:0.250665609661832
E91:0.252036009393447
E92:0.253406409125063
E93:0.254776808856679
E94:0.256147208588295
E95:0.257517608319911
E96:0.258888008051526
E97:0.260258407783142
E98:0.261628807514758
E99:0.262999207246374
E100:0.26436960697799
E101:0.265740006709605
E102:0.267110406441221
E103:0.268480806172837
E104:0.269851205904453
E105:0.271221605636068
E106:0.272592005367684
E107:0.2739624050993
E108:0.275332804830916
E109:0.276703204562532
E110:0.278073604294147
E111:0.279444004025763
E112:0.280814403757379
E113:0.282184803488995
E114:0.283555203220611
E115:0.284925602952226
E116:0.286296002683842
E117:0.287666402415458
E118:0.289036802147074
E119:0.290407201878689
E120:0.291777601610305
E121:0.293148001341921
E122:0.294518401073537
E123:0.295888800805153
E124:0.297259200536768
E125:0.298629600268384
E126:0.3
E127:0.3
E128:0.3
E129:0.3
E130:0.3
E131:0.3
E132:0.3
E133:0.3
E134:0.3
E135:0.3
E136:0.3
E137:0.3
E138:0.3
E139:0.3
E140:0.3
E141:0.3
E142:0.3
E143:0.3
E144:0.3
E145:0.3
E146:0.3
E147:0.3
E148:0.3
E149:0.3
E150:0.3
E151:0.3
E152:0.3
E153:0.3
E154:0.3
E155:0.3
E156:0.3
E157:0.3
E158:0.3
E159:0.3
E160:0.3
E161:0.3
E162:0.3
E163:0.3
E164:0.3
E165:0.3
E166:0.3
E167:0.3
E168:0.3
E169:0.3
E170:0.3
E171:0.3
E172:0.3
E173:0.3
E174:0.3
E175:0.3
E176:0.3
E177:0.3
E178:0.3
E179:0.3
E180:0.3
E181:0.3
E182:0.3
E183:0.3
E184:0.3
E185:0.3
E186:0.3
E187:0.3
E188:0.3
E189:0.3
E190:0.3
E191:0.3
E192:0.3
E193:0.3
E194:0.3
E195:0.3
E196:0.3
E197:0.3
E198:0.3
E199:0.3
E200:0.3
E201:0.3
E202:0.3
E203:0.3
E204:0.3
E205:0.3
E206:0.3
E207:0.3
E208:0.3
E209:0.3
E210:0.3
E211:0.3
E212:0.3
E213:0.3
E214:0.3
E215:0.3
E216:0.3
E217:0.3
E218:0.3
E219:0.3
E220:0.3
E221:0.3
E222:0.3
E223:0.3
E224:0.3
E225:0.3
E226:0.3
E227:0.3
E228:0.3
E229:0.3
E230:0.3
E231:0.3
E232:0.3
E233:0.3
E234:0.3
E235:0.3
E236:0.3
E237:0.3
E238:0.3
E239:0.3
E240:0.3
E241:0.3
E242:0.3
E243:0.3
E244:0.3
E245:0.3
E246:0.3
E247:0.3
E248:0.3
E249:0.3
E250:0.3
E251:0.3
E252:0.3
E253:0.3
E254:0.3
E255:0.3
E256:0.3
E257:0.3
E258:0.3
E259:0.3
E260:0.3
E261:0.3
E262:0.3
E263:0.3
E264:0.3
E265:0.3
E266:0.3
E267:0.3
E268:0.3
E269:0.3
E270:0.3
E271:0.3
E272:0.3
E273:0.3
E274:0.3
E275:0.3
E276:0.3
E277:0.3
E278:0.3
E279:0.3
E280:0.3
E281:0.3
E282:0.3
E283:0.3
E284:0.3
E285:0.3
E286:0.3
E287:0.3
E288:0.3
E289:0.3
E290:0.3
E291:0.3
E292:0.3
E293:0.3
E294:0.3
E295:0.3
E296:0.3
E297:0.3
E298:0.3
E299:0.3
E300:0.3
E301:0.3
E302:0.3
E303:0.3
E304:0.3
E305:0.3
E306:0.3
E307:0.3
E308:0.3
E309:0.3
E310:0.3
E311:0.3
E312:0.3
E313:0.3
E314:0.3
E315:0.3
E316:0.3
E317:0.3
E318:0.3
E319:0.3
E320:0.3
E321:0.3
E322:0.3
E323:0.3
E324:0.3
E325:0.3
E326:0.3
E327:0.3
E328:0.3
E329:0.3
E330:0.3
E331:0.3
E332:0.3
E333:0.3
E334:0.3
E335:0.3
E336:0.3
E337:0.3
E338:0.3
E339:0.3
E340:0.3
E341:0.3
E342:0.3
E343:0.3
E344:0.3
E345:0.3
E346:0.3
E347:0.3
E348:0.3
E349:0.3
E350:0.3
E351:0.3
E352:0.3
E353:0.3
E354:0.3
E355:0.3
E356:0.3
E357:0.3
E358:0.3
E359:0.3
E360:0.3
E361:0.3
E362:0.3
E363:0.3
E364:0.3
E365:0.3
E366:0.3
E367:0.3
E368:0.3
E369:0.3
E370:0.3
E371:0.3
E372:0.3
E373:0.3
E374:0.3
E375:0.3
E376:0.3
E377:0.3
E378:0.3
E379:0.3
E380:0.3
E381:0.3
E382:0.3
E383:0.3
E384:0.3
E385:0.3
E386:0.3
E387:0.3
E388:0.3
E389:0.3
E390:0.3
E391:0.3
E392:0.3
E393:0.3
E394:0.3
E395:0.3
E396:0.3
E397:0.3
E398:0.3
E399:0.3
E400:0.3
E401:0.3
E402:0.3
E403:0.3
E404:0.3
E405:0.3
E406:0.3
E407:0.3
E408:0.3
E409:0.3
E410:0.3
E411:0.3
E412:0.3
E413:0.3
E414:0.3
E415:0.3
E416:0.3
E417:0.3
E418:0.3
E419:0.3
E420:0.3
E421:0.3
E422:0.3
E423:0.3
E424:0.3
E425:0.3
E426:0.3
E427:0.3
E428:0.3
E429:0.3
E430:0.3
E431:0.3
E432:0.3
E433:0.3
E434:0.3
E435:0.3
E436:0.3
E437:0.3
E438:0.3
E439:0.3
E440:0.3
E441:0.3
E442:0.3
E443:0.3
E444:0.3
E445:0.3
E446:0.3
E447:0.3
E448:0.3
E449:0.3
E450:0.3
E451:0.3
E452:0.3
E453:0.3
E454:0.3
E455:0.3
E456:0.3
E457:0.3
E458:0.3
E459:0.3
E460:0.3
E461:0.3
E462:0.3
E463:0.3
E464:0.3
E465:0.3
E466:0.3
E467:0.3
E468:0.3
E469:0.3
E470:0.3
E471:0.3
E472:0.3
E473:0.3
E474:0.3
E475:0.3
E476:0.3
E477:0.3
E478:0.3
E479:0.3
E480:0.3
E481:0.3
E482:0.3
E483:0.3
E484:0.3
E485:0.3
E486:0.3
E487:0.3
E488:0.3
E489:0.3
E490:0.3
E491:0.3
E492:0.3
E493:0.3
E494:0.3
E495:0.3
E496:0.3
E497:0.3
E498:0.3
E499:0.3
E500:0.3
E501:0.3
E502:0.3
E503:0.3
E504:0.3
E505:0.3
E506:0.3
E507:0.3
E508:0.3
E509:0.3
E510:0.3
E511:0.3
E512:0.3
E513:0.3
E514:0.3
E515:0.3
E516:0.3
E517:0.3
E518:0.3
E519:0.3
E520:0.3
E521:0.3
E522:0.3
E523:0.3
E524:0.3
E525:0.3
E526:0.3
E527:0.3
E528:0.3
E529:0.3
E530:0.3
E531:0.3
E532:0.3
E533:0.3
E534:0.3
E535:0.3
E536:0.3
E537:0.3
E538:0.3
E539:0.3
E540:0.3
E541:0.3
E542:0.3
E543:0.3
E544:0.3
E545:0.3
E546:0.3
E547:0.3
E548:0.3
E549:0.3
E550:0.3
E551:0.3
E552:0.3
E553:0.3
E554:0.3
E555:0.3
E556:0.3
E557:0.3
E558:0.3
E559:0.3
E560:0.3
E561:0.3
E562:0.3
E563:0.3
E564:0.3
E565:0.3
E566:0.3
E567:0.3
E568:0.3
E569:0.3
E570:0.3
E571:0.3
E572:0.3
E573:0.3
E574:0.3
E575:0.3
E576:0.3
E577:0.3
E578:0.3
E579:0.3
E580:0.3
E581:0.3
E582:0.3
E583:0.3
E584:0.3
E585:0.3
E586:0.3
E587:0.3
E588:0.3
E589:0.3
E590:0.3
E591:0.3
E592:0.3
E593:0.3
E594:0.3
E595:0.3
E596:0.3
E597:0.3
E598:0.3
E599:0.3
E600:0.3
E601:0.3
E602:0.3
E603:0.3
E604:0.3
E605:0.3
E606:0.3
E607:0.3
E608:0.3
E609:0.3
E610:0.3
E611:0.3
E612:0.3
E613:0.3
E614:0.3
E615:0.3
E616:0.3
E617:0.3
E618:0.3
E619:0.3
E620:0.3
E621:0.3
E622:0.3
E623:0.3
E624:0.3
E625:0.3
E626:0.3
E627:0.3
E628:0.3
E629:0.3
E630:0.3
E631:0.3
E632:0.3
E633:0.3
E634:0.3
E635:0.3
E636:0.3
E637:0.3
E638:0.3
E639:0.3
E640:0.3
E641:0.3
E642:0.3
E643:0.3
E644:0.3
E645:0.3
E646:0.3
E647:0.3
E648:0.3
E649:0.3
E650:0.3
E651:0.3
E652:0.3
E653:0.3
E654:0.3
E655:0.3
E656:0.3
E657:0.3
E658:0.3
E659:0.3
E660:0.3
E661:0.3
E662:0.3
E663:0.3
E664:0.3
E665:0.3
E666:0.3
E667:0.3
E668:0.3
E669:0.3
E670:0.3
E671:0.3
E672:0.3
E673:0.3
E674:0.3
E675:0.3
E676:0.3
E677:0.3
E678:0.3
E679:0.3
E680:0.3
E681:0.3
E682:0.3
E683:0.3
E684:0.3
E685:0.3
E686:0.3
E687:0.3
E688:0.3
E689:0.3
E690:0.3
E691:0.3
E692:0.3
E693:0.3
E694:0.3
E695:0.3
E696:0.3
E697:0.3
E698:0.3
E699:0.3
E700:0.3
E701:0.3
E702:0.3
E703:0.3
E704:0.3
E705:0.3
E706:0.3
E707:0.3
E708:0.3
E709:0.3
E710:0.3
E711:0.3
E712:0.3
E713:0.3
E714:0.3
E715:0.3
E716:0.3
E717:0.3
E718:0.3
E719:0.3
E720:0.3
E721:0.3
E722:0.3
E723:0.3
E724:0.3
E725:0.3
E726:0.3
FinishTime:04/27/2018 16:16:24.772
