Input param:JobHistoryConnection:E:\mgalfa\AutomationCode\Sensitivities\MTP_NewBusiness_2YE\Log\DeletePostRunFileJobHistory.txt
Input param:JobInstanceID:4
Input param:UseDBJobHistory:false
Input param:FileToDelete:E:\MGALFA\AlfaPostProcessingTriggerFiles\MTP_NewBusiness_2YE.txt
FinishTime:01/08/2018 09:53:06.596
