Input param:JobHistoryConnection:E:\MGALFA\AutomationCode\Sensitivities\MTP_NewBusiness_2YE\Log\GMWBLapseAnnInt Perm Table.txt
Input param:JobInstanceID:2
Input param:SourceWorkbookLocation:E:\mgalfa\Staging\FairValue\Sensitivity\FPPKSetup\FP PK Setup.xlsx
Input param:SourceSheetName:Setup
Input param:SourceRangeStartRow:10
Input param:SourceRangeStartColumn:D
Input param:SourceEndRangeRow:10
Input param:SourceEndRangeColumn:D
Input param:DestinationWorkbookLocation:E:\MGALFA\Model\Executionfolder\Sensitivities\MTP_NewBusiness_2YE\QtrlySens.xlsx
Input param:DestinationSheetName:GMWBLapseAnnInt
Input param:DestinationRangeStartRow:5
Input param:DestinationRangeStartColumn:B
Input param:DestinationEndRangeRow:5
Input param:DestinationEndRangeColumn:B
Source Cells:
D10:0.03834503
FinishTime:01/08/2018 09:39:37.542
