Input param:JobHistoryConnection:E:\mgalfa\AutomationCode\Sensitivities\MTP_NewBusiness_2YE\Log\TextReportConsolidation.txt
Input param:JobInstanceID:1
Input param:LogFileDirectory:E:\mgalfa\AutomationCode\Sensitivities\MTP_NewBusiness_2YE\Log
Input param:OutputFile:E:\MGALFA\Model\Executionfolder\Sensitivities\MTP_NewBusiness_2YE\MTP_NewBusiness_2YEReports.xlsx
FinishTime:01/08/2018 09:53:01.908
