Input param:JobHistoryConnection:E:\MGALFA\AutomationCode\NewBusiness6pt\Log\AceTempestLimits_ExternalFileCheckerJobHistory.txt
Input param:JobInstanceID:-1
Input param:UseDBJobHistory:false
Input param:SourceDirectoryPattern:\\us.aegon.com\ait\Actuary\TCMActuary\ValTest\{YearHolderFourDigit}M{MonthHolderLeadingZero}\DacVoba\Variable\ML Rein Limits
Input param:Q1MonthMap:1,2,3
Input param:Q2MonthMap:4,5,6
Input param:Q3MonthMap:7,8,9
Input param:Q4MonthMap:10,11,12
Input param:ProcessTimeToMonthOffset:-4
Input param:OverwriteDestinationFile:true
Input param:ExpectedNumberOfFiles:1
Input param:Wildcard:*Ace Tempest Limits.xlsx
NumberOfFilesFound:1
ResolvedDirectoryName:\\us.aegon.com\ait\Actuary\TCMActuary\ValTest\2017M12\DacVoba\Variable\ML Rein Limits
FinishTime:04/27/2018 17:25:11.749
