Input param:JobHistoryConnection:E:\MGALFA\AutomationCode\NewBusiness6pt\Log\Factor_ExternalFileCheckerJobHistory.txt
Input param:JobInstanceID:-1
Input param:UseDBJobHistory:false
Input param:SourceDirectoryPattern:\\us.aegon.com\ait\Actuary\TCMActuary\Valtest\InForce_File\Q{QuarterHolder}{YearHolderTwoDigit}\z_FactorFiles\Dyn
Input param:Q1MonthMap:1,2,3
Input param:Q2MonthMap:4,5,6
Input param:Q3MonthMap:7,8,9
Input param:Q4MonthMap:10,11,12
Input param:ProcessTimeToMonthOffset:-4
Input param:OverwriteDestinationFile:true
Input param:ExpectedNumberOfFiles:2
Input param:Wildcard:*.afd.txt
NumberOfFilesFound:2
ResolvedDirectoryName:\\us.aegon.com\ait\Actuary\TCMActuary\Valtest\InForce_File\Q417\z_FactorFiles\Dyn
FinishTime:04/27/2018 17:25:11.749
