Input param:JobHistoryConnection:E:\MGALFA\AutomationCode\NewBusiness6pt\Log\ModelInputs_ExternalFileCheckerJobHistory.txt
Input param:JobInstanceID:-1
Input param:UseDBJobHistory:false
Input param:SourceDirectoryPattern:\\us.aegon.com\ait\Actuary\TCMActuary\Valtest\{YearHolderFourDigit}M{MonthHolderLeadingZero}\Riders\zAlfa\Projects\Model_Inputs
Input param:Q1MonthMap:1,2,3
Input param:Q2MonthMap:4,5,6
Input param:Q3MonthMap:7,8,9
Input param:Q4MonthMap:10,11,12
Input param:ProcessTimeToMonthOffset:-4
Input param:OverwriteDestinationFile:true
Input param:ExpectedNumberOfFiles:1
Input param:Wildcard:*IFRS_Model_Inputs.xlsx
NumberOfFilesFound:1
ResolvedDirectoryName:\\us.aegon.com\ait\Actuary\TCMActuary\Valtest\2017M12\Riders\zAlfa\Projects\Model_Inputs
FinishTime:04/27/2018 17:25:11.749
