Input param:JobHistoryConnection:E:\MGALFA\AutomationCode\NewBusiness6pt\Log\QtrlySens_VarD3EqAllocFormulaRatio.txt
Input param:JobInstanceID:2
Input param:SourceWorkbookLocation:E:\MGALFA\Staging\FairValue\VCFInput\DFM Allocation.xlsx
Input param:SourceSheetName:DFM
Input param:SourceRangeStartRow:17
Input param:SourceRangeStartColumn:E
Input param:SourceEndRangeRow:17
Input param:SourceEndRangeColumn:E
Input param:DestinationWorkbookLocation:E:\MGALFA\Model\Executionfolder\NewBusiness6pt\QtrlySens.xlsx
Input param:DestinationSheetName:VarD3EqAllocFormulaRatio
Input param:DestinationRangeStartRow:5
Input param:DestinationRangeStartColumn:M
Input param:DestinationEndRangeRow:5
Input param:DestinationEndRangeColumn:M
Source Cells:
E17:0.977736988750026
FinishTime:04/27/2018 17:25:26.358
