Input param:JobHistoryConnection:E:\MGALFA\AutomationCode\NewBusiness6pt\Log\QtrlySens_VarD6EqAllocFormulaRatio.txt
Input param:JobInstanceID:1
Input param:SourceWorkbookLocation:E:\MGALFA\Staging\FairValue\VCFInput\DFM Allocation.xlsx
Input param:SourceSheetName:DFM
Input param:SourceRangeStartRow:20
Input param:SourceRangeStartColumn:E
Input param:SourceEndRangeRow:20
Input param:SourceEndRangeColumn:E
Input param:DestinationWorkbookLocation:E:\MGALFA\Model\Executionfolder\NewBusiness6pt\QtrlySens.xlsx
Input param:DestinationSheetName:VarD6EqAllocFormulaRatio
Input param:DestinationRangeStartRow:5
Input param:DestinationRangeStartColumn:M
Input param:DestinationEndRangeRow:5
Input param:DestinationEndRangeColumn:M
Source Cells:
E20:1.08987811875
FinishTime:04/27/2018 17:25:29.718
