Input param:JobHistoryConnection:E:\mgalfa\AutomationCode\NewBusiness6pt\Log\RunType1 Perm Table.txt
Input param:JobInstanceID:1
Input param:SourceWorkbookLocation:E:\MGALFA\Staging\FairValue\ModelInputs\IFRS_Model_Inputs.xlsx
Input param:SourceSheetName:RunType Inputs
Input param:SourceRangeStartRow:5
Input param:SourceRangeStartColumn:B
Input param:SourceEndRangeRow:5
Input param:SourceEndRangeColumn:B
Input param:DestinationWorkbookLocation:E:\MGALFA\Model\Executionfolder\NewBusiness6pt\FVQtrly.xlsx
Input param:DestinationSheetName:RunType1
Input param:DestinationRangeStartRow:4
Input param:DestinationRangeStartColumn:B
Input param:DestinationEndRangeRow:4
Input param:DestinationEndRangeColumn:B
Source Cells:
B5:Actual
FinishTime:04/27/2018 17:25:16.561
