Input param:JobHistoryConnection:E:\MGALFA\AutomationCode\NewBusiness6pt\Log\Vcf_Inputs_Part1a Perm Table.txt
Input param:JobInstanceID:1
Input param:SourceWorkbookLocation:E:\MGALFA\Staging\FairValue\VCFInput\TCM Equity Scenario Assumptions.xlsx
Input param:SourceSheetName:6 Point Average Volatilities
Input param:SourceRangeStartRow:7
Input param:SourceRangeStartColumn:B
Input param:SourceEndRangeRow:726
Input param:SourceEndRangeColumn:B
Input param:DestinationWorkbookLocation:E:\MGALFA\Model\Executionfolder\NewBusiness6pt\Vcf_Inputs.xlsx
Input param:DestinationSheetName:VarVCFFundVol_IFRS_FV
Input param:DestinationRangeStartRow:6
Input param:DestinationRangeStartColumn:AAU
Input param:DestinationEndRangeRow:6
Input param:DestinationEndRangeColumn:BCL
Source Cells:,,,,,,,,,,,,,,,,,,,,,,,,,,,,,,,,,,,,,,,,,,,,,,,,,,,,,,,,,,,,,,,,,,,,,,,,,,,,,,,,,,,,,,,,,,,,,,,,,,,,,,,,,,,,,,,,,,,,,,,,,,,,,,,,,,,,,,,,,,,,,,,,,,,,,,,,,,,,,,,,,,,,,,,,,,,,,,,,,,,,,,,,,,,,,,,,,,,,,,,,,,,,,,,,,,,,,,,,,,,,,,,,,,,,,,,,,,,,,,,,,,,,,,,,,,,,,,,,,,,,,,,,,,,,,,,,,,,,,,,,,,,,,,,,,,,,,,,,,,,,,,,,,,,,,,,,,,,,,,,,,,,,,,,,,,,,,,,,,,,,,,,,,,,,,,,,,,,,,,,,,,,,,,,,,,,,,,,,,,,,,,,,,,,,,,,,,,,,,,,,,,,,,,,,,,,,,,,,,,,,,,,,,,,,,,,,,,,,,,,,,,,,,,,,,,,,,,,,,,,,,,,,,,,,,,,,,,,,,,,,,,,,,,,,,,,,,,,,,,,,,,,,,,,,,,,,,,,,,,,,,,,,,,,,,,,,,,,,,,,,,,,,,,,,,,,,,,,,,,,,,,,,,,,,,,,,,,,,,,,,,,,,,,,,,,,,,,,,,,,,,,,,,,,,,,,,,,,,,,,,,,,,,,,,,,,,,,,,,,,,,,,,,,,,,,,,,,,,,,,,,,,,,,,,,,,,,,,,,,,,,,,,,,,,,,,,,,,,,,,,,,,,,,,,,,,,,,,,,,,
B7:0.136008107933552
B8:0.136008107933552
B9:0.136008107933552
B10:0.136008107933552
B11:0.136008107933552
B12:0.136008107933552
B13:0.136008107933552
B14:0.136008107933552
B15:0.136008107933552
B16:0.136008107933552
B17:0.136008107933552
B18:0.136008107933552
B19:0.154258604717358
B20:0.154258604717358
B21:0.154258604717358
B22:0.154258604717358
B23:0.154258604717358
B24:0.154258604717358
B25:0.154258604717358
B26:0.154258604717358
B27:0.154258604717358
B28:0.154258604717358
B29:0.154258604717358
B30:0.154258604717358
B31:0.165426247935124
B32:0.165426247935124
B33:0.165426247935124
B34:0.165426247935124
B35:0.165426247935124
B36:0.165426247935124
B37:0.165426247935124
B38:0.165426247935124
B39:0.165426247935124
B40:0.165426247935124
B41:0.165426247935124
B42:0.165426247935124
B43:0.17471394723529
B44:0.17471394723529
B45:0.17471394723529
B46:0.17471394723529
B47:0.17471394723529
B48:0.17471394723529
B49:0.17471394723529
B50:0.17471394723529
B51:0.17471394723529
B52:0.17471394723529
B53:0.17471394723529
B54:0.17471394723529
B55:0.184055780639362
B56:0.184055780639362
B57:0.184055780639362
B58:0.184055780639362
B59:0.184055780639362
B60:0.184055780639362
B61:0.184055780639362
B62:0.184055780639362
B63:0.184055780639362
B64:0.184055780639362
B65:0.184055780639362
B66:0.184055780639362
B67:0.175986458737649
B68:0.177240925538705
B69:0.178495392339762
B70:0.179749859140819
B71:0.181004325941876
B72:0.182258792742933
B73:0.183513259543989
B74:0.184767726345046
B75:0.186022193146103
B76:0.18727665994716
B77:0.188531126748217
B78:0.189785593549273
B79:0.19104006035033
B80:0.192294527151387
B81:0.193548993952444
B82:0.194803460753501
B83:0.196057927554558
B84:0.197312394355614
B85:0.198566861156671
B86:0.199821327957728
B87:0.201075794758785
B88:0.202330261559842
B89:0.203584728360898
B90:0.204839195161955
B91:0.206093661963012
B92:0.207348128764069
B93:0.208602595565126
B94:0.209857062366182
B95:0.211111529167239
B96:0.212365995968296
B97:0.213620462769353
B98:0.21487492957041
B99:0.216129396371466
B100:0.217383863172523
B101:0.21863832997358
B102:0.219892796774637
B103:0.221147263575694
B104:0.22240173037675
B105:0.223656197177807
B106:0.224910663978864
B107:0.226165130779921
B108:0.227419597580978
B109:0.228674064382034
B110:0.229928531183091
B111:0.231182997984148
B112:0.232437464785205
B113:0.233691931586262
B114:0.234946398387318
B115:0.236200865188375
B116:0.237455331989432
B117:0.238709798790489
B118:0.239964265591546
B119:0.241218732392602
B120:0.242473199193659
B121:0.243727665994716
B122:0.244982132795773
B123:0.24623659959683
B124:0.247491066397886
B125:0.248745533198943
B126:0.25
B127:0.25
B128:0.25
B129:0.25
B130:0.25
B131:0.25
B132:0.25
B133:0.25
B134:0.25
B135:0.25
B136:0.25
B137:0.25
B138:0.25
B139:0.25
B140:0.25
B141:0.25
B142:0.25
B143:0.25
B144:0.25
B145:0.25
B146:0.25
B147:0.25
B148:0.25
B149:0.25
B150:0.25
B151:0.25
B152:0.25
B153:0.25
B154:0.25
B155:0.25
B156:0.25
B157:0.25
B158:0.25
B159:0.25
B160:0.25
B161:0.25
B162:0.25
B163:0.25
B164:0.25
B165:0.25
B166:0.25
B167:0.25
B168:0.25
B169:0.25
B170:0.25
B171:0.25
B172:0.25
B173:0.25
B174:0.25
B175:0.25
B176:0.25
B177:0.25
B178:0.25
B179:0.25
B180:0.25
B181:0.25
B182:0.25
B183:0.25
B184:0.25
B185:0.25
B186:0.25
B187:0.25
B188:0.25
B189:0.25
B190:0.25
B191:0.25
B192:0.25
B193:0.25
B194:0.25
B195:0.25
B196:0.25
B197:0.25
B198:0.25
B199:0.25
B200:0.25
B201:0.25
B202:0.25
B203:0.25
B204:0.25
B205:0.25
B206:0.25
B207:0.25
B208:0.25
B209:0.25
B210:0.25
B211:0.25
B212:0.25
B213:0.25
B214:0.25
B215:0.25
B216:0.25
B217:0.25
B218:0.25
B219:0.25
B220:0.25
B221:0.25
B222:0.25
B223:0.25
B224:0.25
B225:0.25
B226:0.25
B227:0.25
B228:0.25
B229:0.25
B230:0.25
B231:0.25
B232:0.25
B233:0.25
B234:0.25
B235:0.25
B236:0.25
B237:0.25
B238:0.25
B239:0.25
B240:0.25
B241:0.25
B242:0.25
B243:0.25
B244:0.25
B245:0.25
B246:0.25
B247:0.25
B248:0.25
B249:0.25
B250:0.25
B251:0.25
B252:0.25
B253:0.25
B254:0.25
B255:0.25
B256:0.25
B257:0.25
B258:0.25
B259:0.25
B260:0.25
B261:0.25
B262:0.25
B263:0.25
B264:0.25
B265:0.25
B266:0.25
B267:0.25
B268:0.25
B269:0.25
B270:0.25
B271:0.25
B272:0.25
B273:0.25
B274:0.25
B275:0.25
B276:0.25
B277:0.25
B278:0.25
B279:0.25
B280:0.25
B281:0.25
B282:0.25
B283:0.25
B284:0.25
B285:0.25
B286:0.25
B287:0.25
B288:0.25
B289:0.25
B290:0.25
B291:0.25
B292:0.25
B293:0.25
B294:0.25
B295:0.25
B296:0.25
B297:0.25
B298:0.25
B299:0.25
B300:0.25
B301:0.25
B302:0.25
B303:0.25
B304:0.25
B305:0.25
B306:0.25
B307:0.25
B308:0.25
B309:0.25
B310:0.25
B311:0.25
B312:0.25
B313:0.25
B314:0.25
B315:0.25
B316:0.25
B317:0.25
B318:0.25
B319:0.25
B320:0.25
B321:0.25
B322:0.25
B323:0.25
B324:0.25
B325:0.25
B326:0.25
B327:0.25
B328:0.25
B329:0.25
B330:0.25
B331:0.25
B332:0.25
B333:0.25
B334:0.25
B335:0.25
B336:0.25
B337:0.25
B338:0.25
B339:0.25
B340:0.25
B341:0.25
B342:0.25
B343:0.25
B344:0.25
B345:0.25
B346:0.25
B347:0.25
B348:0.25
B349:0.25
B350:0.25
B351:0.25
B352:0.25
B353:0.25
B354:0.25
B355:0.25
B356:0.25
B357:0.25
B358:0.25
B359:0.25
B360:0.25
B361:0.25
B362:0.25
B363:0.25
B364:0.25
B365:0.25
B366:0.25
B367:0.25
B368:0.25
B369:0.25
B370:0.25
B371:0.25
B372:0.25
B373:0.25
B374:0.25
B375:0.25
B376:0.25
B377:0.25
B378:0.25
B379:0.25
B380:0.25
B381:0.25
B382:0.25
B383:0.25
B384:0.25
B385:0.25
B386:0.25
B387:0.25
B388:0.25
B389:0.25
B390:0.25
B391:0.25
B392:0.25
B393:0.25
B394:0.25
B395:0.25
B396:0.25
B397:0.25
B398:0.25
B399:0.25
B400:0.25
B401:0.25
B402:0.25
B403:0.25
B404:0.25
B405:0.25
B406:0.25
B407:0.25
B408:0.25
B409:0.25
B410:0.25
B411:0.25
B412:0.25
B413:0.25
B414:0.25
B415:0.25
B416:0.25
B417:0.25
B418:0.25
B419:0.25
B420:0.25
B421:0.25
B422:0.25
B423:0.25
B424:0.25
B425:0.25
B426:0.25
B427:0.25
B428:0.25
B429:0.25
B430:0.25
B431:0.25
B432:0.25
B433:0.25
B434:0.25
B435:0.25
B436:0.25
B437:0.25
B438:0.25
B439:0.25
B440:0.25
B441:0.25
B442:0.25
B443:0.25
B444:0.25
B445:0.25
B446:0.25
B447:0.25
B448:0.25
B449:0.25
B450:0.25
B451:0.25
B452:0.25
B453:0.25
B454:0.25
B455:0.25
B456:0.25
B457:0.25
B458:0.25
B459:0.25
B460:0.25
B461:0.25
B462:0.25
B463:0.25
B464:0.25
B465:0.25
B466:0.25
B467:0.25
B468:0.25
B469:0.25
B470:0.25
B471:0.25
B472:0.25
B473:0.25
B474:0.25
B475:0.25
B476:0.25
B477:0.25
B478:0.25
B479:0.25
B480:0.25
B481:0.25
B482:0.25
B483:0.25
B484:0.25
B485:0.25
B486:0.25
B487:0.25
B488:0.25
B489:0.25
B490:0.25
B491:0.25
B492:0.25
B493:0.25
B494:0.25
B495:0.25
B496:0.25
B497:0.25
B498:0.25
B499:0.25
B500:0.25
B501:0.25
B502:0.25
B503:0.25
B504:0.25
B505:0.25
B506:0.25
B507:0.25
B508:0.25
B509:0.25
B510:0.25
B511:0.25
B512:0.25
B513:0.25
B514:0.25
B515:0.25
B516:0.25
B517:0.25
B518:0.25
B519:0.25
B520:0.25
B521:0.25
B522:0.25
B523:0.25
B524:0.25
B525:0.25
B526:0.25
B527:0.25
B528:0.25
B529:0.25
B530:0.25
B531:0.25
B532:0.25
B533:0.25
B534:0.25
B535:0.25
B536:0.25
B537:0.25
B538:0.25
B539:0.25
B540:0.25
B541:0.25
B542:0.25
B543:0.25
B544:0.25
B545:0.25
B546:0.25
B547:0.25
B548:0.25
B549:0.25
B550:0.25
B551:0.25
B552:0.25
B553:0.25
B554:0.25
B555:0.25
B556:0.25
B557:0.25
B558:0.25
B559:0.25
B560:0.25
B561:0.25
B562:0.25
B563:0.25
B564:0.25
B565:0.25
B566:0.25
B567:0.25
B568:0.25
B569:0.25
B570:0.25
B571:0.25
B572:0.25
B573:0.25
B574:0.25
B575:0.25
B576:0.25
B577:0.25
B578:0.25
B579:0.25
B580:0.25
B581:0.25
B582:0.25
B583:0.25
B584:0.25
B585:0.25
B586:0.25
B587:0.25
B588:0.25
B589:0.25
B590:0.25
B591:0.25
B592:0.25
B593:0.25
B594:0.25
B595:0.25
B596:0.25
B597:0.25
B598:0.25
B599:0.25
B600:0.25
B601:0.25
B602:0.25
B603:0.25
B604:0.25
B605:0.25
B606:0.25
B607:0.25
B608:0.25
B609:0.25
B610:0.25
B611:0.25
B612:0.25
B613:0.25
B614:0.25
B615:0.25
B616:0.25
B617:0.25
B618:0.25
B619:0.25
B620:0.25
B621:0.25
B622:0.25
B623:0.25
B624:0.25
B625:0.25
B626:0.25
B627:0.25
B628:0.25
B629:0.25
B630:0.25
B631:0.25
B632:0.25
B633:0.25
B634:0.25
B635:0.25
B636:0.25
B637:0.25
B638:0.25
B639:0.25
B640:0.25
B641:0.25
B642:0.25
B643:0.25
B644:0.25
B645:0.25
B646:0.25
B647:0.25
B648:0.25
B649:0.25
B650:0.25
B651:0.25
B652:0.25
B653:0.25
B654:0.25
B655:0.25
B656:0.25
B657:0.25
B658:0.25
B659:0.25
B660:0.25
B661:0.25
B662:0.25
B663:0.25
B664:0.25
B665:0.25
B666:0.25
B667:0.25
B668:0.25
B669:0.25
B670:0.25
B671:0.25
B672:0.25
B673:0.25
B674:0.25
B675:0.25
B676:0.25
B677:0.25
B678:0.25
B679:0.25
B680:0.25
B681:0.25
B682:0.25
B683:0.25
B684:0.25
B685:0.25
B686:0.25
B687:0.25
B688:0.25
B689:0.25
B690:0.25
B691:0.25
B692:0.25
B693:0.25
B694:0.25
B695:0.25
B696:0.25
B697:0.25
B698:0.25
B699:0.25
B700:0.25
B701:0.25
B702:0.25
B703:0.25
B704:0.25
B705:0.25
B706:0.25
B707:0.25
B708:0.25
B709:0.25
B710:0.25
B711:0.25
B712:0.25
B713:0.25
B714:0.25
B715:0.25
B716:0.25
B717:0.25
B718:0.25
B719:0.25
B720:0.25
B721:0.25
B722:0.25
B723:0.25
B724:0.25
B725:0.25
B726:0.25
FinishTime:04/27/2018 17:25:38.421
