Input param:DashboardID:FP_Type_I_UW_Sensitivities_NewBusiness_MortUp5_1YROUT
Input param:DashboardProcessName:Copy Input and Output files to Valtest/Valprod
Input param:JobHistoryConnection:E:\mgalfa\AutomationCode\Sensitivities\FP_Type_I_UW_Sensitivities_NewBusiness_MortUp5_1YROUT\Log\CopyInputsFilesHistory.txt
Input param:JobInstanceID:4
Input param:UseDBJobHistory:false
Input param:DirectoryToCreatePattern:\\us.aegon.com\ait\Actuary\TCMActuary\Valtest\{YearHolderFourDigit}M{MonthHolderLeadingZero}\Riders\zAlfa\Projects\Development\{YearHolderFourDigit}Q{QuarterHolder}_FP_TypeI_UW\NB_MortUp5_1YROUT\{CurrentYearHolderFourDigit}{CurrentMonthHolderLeadingZero}{CurrentDayHolderLeadingZero}\BASE_IFRS_NB_MortUp5_1YROUT_{CurrentDayHourHolderLeadingZero}{CurrentDayMinuteHolderLeadingZero}{CurrentDaySecondHolderLeadingZero}
Input param:SourceDirectoryPattern:E:\MGALFA\Model\Executionfolder\Sensitivities\FP_Type_I_UW_Sensitivities_NewBusiness_MortUp5_1YROUT
Input param:Q1MonthMap:1,2,3
Input param:Q2MonthMap:4,5,6
Input param:Q3MonthMap:7,8,9
Input param:Q4MonthMap:10,11,12
Input param:ProcessTimeToMonthOffset:-2
Input param:TwoDigitYear:true
Input param:MonthLeadingZero:true
Input param:OverwriteDestinationFile:true
Input param:ExpectedNumberOfFiles:-1
Input param:Wildcard:*.*
Input param:WildcardExclusions:
Input param:ReplaceFromString:
Input param:ReplaceToString:
Input param:DestinationDirectory:\\us.aegon.com\ait\Actuary\TCMActuary\Valtest\2018M06\Riders\zAlfa\Projects\Development\2018Q2_FP_TypeI_UW\NB_MortUp5_1YROUT\20180801\BASE_IFRS_NB_MortUp5_1YROUT_024311
FinishTime:08/01/2018 14:43:15.720
