Input param:JobHistoryConnection:E:\MGALFA\AutomationCode\Sensitivities\FP_EQSens_EQDn25_1QTROUT\Log\ClearScenarioFolder.txt
Input param:JobInstanceID:4
Input param:UseDBJobHistory:false
Input param:DirectoryToClear:E:\MGALFA\Staging\FairValue\Scenario
Input param:DeleteSubdirectories:true
FinishTime:04/20/2018 14:44:01.270
