Input param:JobHistoryConnection:E:\MGALFA\AutomationCode\Sensitivities\FP_EQSens_EQDn25_1QTROUT\Log\Var4Shock.txt
Input param:JobInstanceID:1
Input param:SourceWorkbookLocation:E:\mgalfa\Staging\FairValue\Sensitivity\FPPKSetup\FP PK Setup.xlsx
Input param:SourceSheetName:Setup
Input param:SourceRangeStartRow:13
Input param:SourceRangeStartColumn:Z
Input param:SourceEndRangeRow:13
Input param:SourceEndRangeColumn:Z
Input param:DestinationWorkbookLocation:E:\MGALFA\Model\Executionfolder\Sensitivities\FP_EQSens_EQDn25_1QTROUT\FVQtrly.xlsx
Input param:DestinationSheetName:Var4Shock%
Input param:DestinationRangeStartRow:5
Input param:DestinationRangeStartColumn:B
Input param:DestinationEndRangeRow:5
Input param:DestinationEndRangeColumn:B
Source Cells:
Z13:-0.25
FinishTime:04/20/2018 14:40:39.530
