Start MG-ALFA script processing: E:\MGALFA\AutomationCode\Base\Executables\AlfaAutomationKC2\modelscript.asc

Start date and time .... 11-15-2017 at 13:30:18
Workspace Id ........... C:\Program Files (x86)\Milliman\MG-ALFA 10.5.2011\UI\MGALFA105
System version ......... MG-ALFA Version 10.5.2011[10.5.016]


11-15-2017 at 13:30:18 --------------------------------------------------------------------------------

OpenModel "E:\MGALFA\Model\Executionfolder\Base\Ifrs_Fair_Value.Ain2"
ValDate 06/2017
Run 102

::AinRun::Message::Begin::

Return Message: 

 Run.102  Yes    Na  Ok (Messages)--11-15-2017 at 13:38:14  TCM IRT VA Partners - Single Scenario 

::AinRun::Message::End::
Close


11-15-2017 at 13:38:14 --------------------------------------------------------------------------------

End date and time ...... 11-15-2017 at 13:38:14
End of script .......... 
