Input param:JobHistoryConnection:E:\MGALFA\AutomationCode\Sensitivities\FP_Type_I_UW_Sensitivities_LapseDn20_1QTROUT\Log\FP_Type_I_UW_Sensitivities_LapseDn20_1QTROUT_Perm_Table_wscale7.txt
Input param:JobInstanceID:1
Input param:SourceWorkbookLocation:E:\mgalfa\Staging\FairValue\Sensitivity\ModelInputs\IFRS_Model_Inputs.xlsx
Input param:SourceSheetName:FP Type I UW Inputs
Input param:SourceRow:21
Input param:SourceColumn:E
Input param:DestinationWorkbookLocation:E:\MGALFA\Model\Executionfolder\Sensitivities\FP_Type_I_UW_Sensitivities_LapseDn20_1QTROUT\FVQtrly.xlsx
Input param:DestinationSheetName:wscale
Input param:DestinationRangeStartRow:10
Input param:DestinationRangeStartColumn:C
Input param:DestinationEndRangeRow:10
Input param:DestinationEndRangeColumn:EV
E21:0.8
FinishTime:02/14/2018 13:53:49.246
