Input param:JobHistoryConnection:E:\mgalfa\AutomationCode\Sensitivities\Type_2_Sens_LTVolUp5\Log\TextReportConsolidation.txt
Input param:JobInstanceID:1
Input param:LogFileDirectory:E:\mgalfa\AutomationCode\Sensitivities\Type_2_Sens_LTVolUp5\Log
Input param:OutputFile:E:\MGALFA\Model\Executionfolder\Sensitivities\Type_2_Sens_LTVolUp5\Type_2_Sens_LTVolUp5reports.xlsx
FinishTime:03/05/2018 11:27:30.648
