Input param:JobHistoryConnection:E:\mgalfa\AutomationCode\Sensitivities\Type_2_Sens_LTVolUp5\Log\VCF_Inputs_Step14_VarVCFFundVol_IFRS_FV_Table.txt
Input param:JobInstanceID:1
Input param:SourceWorkbookLocation:E:\MGALFA\Staging\FairValue\Sensitivity\ModelInputs\Long-term Volatility shocks.xlsx
Input param:SourceSheetName:LT Vol Up5%
Input param:SourceRangeStartRow:724
Input param:SourceRangeStartColumn:D
Input param:SourceEndRangeRow:724
Input param:SourceEndRangeColumn:D
Input param:DestinationWorkbookLocation:E:\MGALFA\Model\Executionfolder\Sensitivities\Type_2_Sens_LTVolUp5\VCF_Inputs.xlsx
Input param:DestinationSheetName:VarVCFFundVol_IFRS_FV
Input param:DestinationRangeStartRow:6
Input param:DestinationRangeStartColumn:HMW
Input param:DestinationEndRangeRow:6
Input param:DestinationEndRangeColumn:HMW
Source Cells:
D724:0.3
FinishTime:03/05/2018 11:04:18.837
