Input param:JobHistoryConnection:E:\mgalfa\AutomationCode\Sensitivities\MTP_NewBusiness_6YE\Log\ClearLogJobHistory.txt
Input param:JobInstanceID:4
Input param:UseDBJobHistory:false
Input param:DirectoryToClear:E:\MGALFA\AutomationCode\Sensitivities\MTP_NewBusiness_6YE\Log
Input param:DeleteSubdirectories:true
FinishTime:01/08/2018 10:12:00.431
