Input param:JobHistoryConnection:E:\mgalfa\AutomationCode\Sensitivities\FV_Greeks_Vol_Dn_5\Log\VarDVol_UpdateValues_Part_1 Perm Table.txt
Input param:JobInstanceID:1
Input param:SourceWorkbookLocation:E:\MGALFA\Staging\FairValue\Sensitivity\ModelInputs\Vega volatilities.xlsx
Input param:SourceSheetName:-5%Vol
Input param:SourceRangeStartRow:5
Input param:SourceRangeStartColumn:C
Input param:SourceEndRangeRow:724
Input param:SourceEndRangeColumn:C
Input param:DestinationWorkbookLocation:E:\MGALFA\Model\Executionfolder\Sensitivities\FV_Greeks_Vol_Dn_5\QtrlySens.xlsx
Input param:DestinationSheetName:VarDVol
Input param:DestinationRangeStartRow:5
Input param:DestinationRangeStartColumn:N
Input param:DestinationEndRangeRow:5
Input param:DestinationEndRangeColumn:ABE
Source Cells:,,,,,,,,,,,,,,,,,,,,,,,,,,,,,,,,,,,,,,,,,,,,,,,,,,,,,,,,,,,,,,,,,,,,,,,,,,,,,,,,,,,,,,,,,,,,,,,,,,,,,,,,,,,,,,,,,,,,,,,,,,,,,,,,,,,,,,,,,,,,,,,,,,,,,,,,,,,,,,,,,,,,,,,,,,,,,,,,,,,,,,,,,,,,,,,,,,,,,,,,,,,,,,,,,,,,,,,,,,,,,,,,,,,,,,,,,,,,,,,,,,,,,,,,,,,,,,,,,,,,,,,,,,,,,,,,,,,,,,,,,,,,,,,,,,,,,,,,,,,,,,,,,,,,,,,,,,,,,,,,,,,,,,,,,,,,,,,,,,,,,,,,,,,,,,,,,,,,,,,,,,,,,,,,,,,,,,,,,,,,,,,,,,,,,,,,,,,,,,,,,,,,,,,,,,,,,,,,,,,,,,,,,,,,,,,,,,,,,,,,,,,,,,,,,,,,,,,,,,,,,,,,,,,,,,,,,,,,,,,,,,,,,,,,,,,,,,,,,,,,,,,,,,,,,,,,,,,,,,,,,,,,,,,,,,,,,,,,,,,,,,,,,,,,,,,,,,,,,,,,,,,,,,,,,,,,,,,,,,,,,,,,,,,,,,,,,,,,,,,,,,,,,,,,,,,,,,,,,,,,,,,,,,,,,,,,,,,,,,,,,,,,,,,,,,,,,,,,,,,,,,,,,,,,,,,,,,,,,,,,,,,,,,,,,,,,,,,,,,,,,,,,,,,,,,,,,,,,,,,
C5:0.0862830812578484
C6:0.0862830812578484
C7:0.0862830812578484
C8:0.0862830812578484
C9:0.0862830812578484
C10:0.0862830812578484
C11:0.0862830812578484
C12:0.0862830812578484
C13:0.0862830812578484
C14:0.0862830812578484
C15:0.0862830812578484
C16:0.0862830812578484
C17:0.127135921212109
C18:0.127135921212109
C19:0.127135921212109
C20:0.127135921212109
C21:0.127135921212109
C22:0.127135921212109
C23:0.127135921212109
C24:0.127135921212109
C25:0.127135921212109
C26:0.127135921212109
C27:0.127135921212109
C28:0.127135921212109
C29:0.133753485099672
C30:0.133753485099672
C31:0.133753485099672
C32:0.133753485099672
C33:0.133753485099672
C34:0.133753485099672
C35:0.133753485099672
C36:0.133753485099672
C37:0.133753485099672
C38:0.133753485099672
C39:0.133753485099672
C40:0.133753485099672
C41:0.149916913630915
C42:0.149916913630915
C43:0.149916913630915
C44:0.149916913630915
C45:0.149916913630915
C46:0.149916913630915
C47:0.149916913630915
C48:0.149916913630915
C49:0.149916913630915
C50:0.149916913630915
C51:0.149916913630915
C52:0.149916913630915
C53:0.168225591299438
C54:0.168225591299438
C55:0.168225591299438
C56:0.168225591299438
C57:0.168225591299438
C58:0.168225591299438
C59:0.168225591299438
C60:0.168225591299438
C61:0.168225591299438
C62:0.168225591299438
C63:0.168225591299438
C64:0.168225591299438
C65:0.152288130065397
C66:0.153944263454119
C67:0.155600396842841
C68:0.157256530231563
C69:0.158912663620286
C70:0.160568797009008
C71:0.16222493039773
C72:0.163881063786452
C73:0.165537197175174
C74:0.167193330563896
C75:0.168849463952618
C76:0.17050559734134
C77:0.172161730730062
C78:0.173817864118784
C79:0.175473997507506
C80:0.177130130896228
C81:0.178786264284951
C82:0.180442397673673
C83:0.182098531062395
C84:0.183754664451117
C85:0.185410797839839
C86:0.187066931228561
C87:0.188723064617283
C88:0.190379198006005
C89:0.192035331394727
C90:0.193691464783449
C91:0.195347598172171
C92:0.197003731560893
C93:0.198659864949615
C94:0.200315998338338
C95:0.20197213172706
C96:0.203628265115782
C97:0.205284398504504
C98:0.206940531893226
C99:0.208596665281948
C100:0.21025279867067
C101:0.211908932059392
C102:0.213565065448114
C103:0.215221198836836
C104:0.216877332225558
C105:0.21853346561428
C106:0.220189599003003
C107:0.221845732391725
C108:0.223501865780447
C109:0.225157999169169
C110:0.226814132557891
C111:0.228470265946613
C112:0.230126399335335
C113:0.231782532724057
C114:0.233438666112779
C115:0.235094799501501
C116:0.236750932890223
C117:0.238407066278945
C118:0.240063199667668
C119:0.24171933305639
C120:0.243375466445112
C121:0.245031599833834
C122:0.246687733222556
C123:0.248343866611278
C124:0.25
C125:0.25
C126:0.25
C127:0.25
C128:0.25
C129:0.25
C130:0.25
C131:0.25
C132:0.25
C133:0.25
C134:0.25
C135:0.25
C136:0.25
C137:0.25
C138:0.25
C139:0.25
C140:0.25
C141:0.25
C142:0.25
C143:0.25
C144:0.25
C145:0.25
C146:0.25
C147:0.25
C148:0.25
C149:0.25
C150:0.25
C151:0.25
C152:0.25
C153:0.25
C154:0.25
C155:0.25
C156:0.25
C157:0.25
C158:0.25
C159:0.25
C160:0.25
C161:0.25
C162:0.25
C163:0.25
C164:0.25
C165:0.25
C166:0.25
C167:0.25
C168:0.25
C169:0.25
C170:0.25
C171:0.25
C172:0.25
C173:0.25
C174:0.25
C175:0.25
C176:0.25
C177:0.25
C178:0.25
C179:0.25
C180:0.25
C181:0.25
C182:0.25
C183:0.25
C184:0.25
C185:0.25
C186:0.25
C187:0.25
C188:0.25
C189:0.25
C190:0.25
C191:0.25
C192:0.25
C193:0.25
C194:0.25
C195:0.25
C196:0.25
C197:0.25
C198:0.25
C199:0.25
C200:0.25
C201:0.25
C202:0.25
C203:0.25
C204:0.25
C205:0.25
C206:0.25
C207:0.25
C208:0.25
C209:0.25
C210:0.25
C211:0.25
C212:0.25
C213:0.25
C214:0.25
C215:0.25
C216:0.25
C217:0.25
C218:0.25
C219:0.25
C220:0.25
C221:0.25
C222:0.25
C223:0.25
C224:0.25
C225:0.25
C226:0.25
C227:0.25
C228:0.25
C229:0.25
C230:0.25
C231:0.25
C232:0.25
C233:0.25
C234:0.25
C235:0.25
C236:0.25
C237:0.25
C238:0.25
C239:0.25
C240:0.25
C241:0.25
C242:0.25
C243:0.25
C244:0.25
C245:0.25
C246:0.25
C247:0.25
C248:0.25
C249:0.25
C250:0.25
C251:0.25
C252:0.25
C253:0.25
C254:0.25
C255:0.25
C256:0.25
C257:0.25
C258:0.25
C259:0.25
C260:0.25
C261:0.25
C262:0.25
C263:0.25
C264:0.25
C265:0.25
C266:0.25
C267:0.25
C268:0.25
C269:0.25
C270:0.25
C271:0.25
C272:0.25
C273:0.25
C274:0.25
C275:0.25
C276:0.25
C277:0.25
C278:0.25
C279:0.25
C280:0.25
C281:0.25
C282:0.25
C283:0.25
C284:0.25
C285:0.25
C286:0.25
C287:0.25
C288:0.25
C289:0.25
C290:0.25
C291:0.25
C292:0.25
C293:0.25
C294:0.25
C295:0.25
C296:0.25
C297:0.25
C298:0.25
C299:0.25
C300:0.25
C301:0.25
C302:0.25
C303:0.25
C304:0.25
C305:0.25
C306:0.25
C307:0.25
C308:0.25
C309:0.25
C310:0.25
C311:0.25
C312:0.25
C313:0.25
C314:0.25
C315:0.25
C316:0.25
C317:0.25
C318:0.25
C319:0.25
C320:0.25
C321:0.25
C322:0.25
C323:0.25
C324:0.25
C325:0.25
C326:0.25
C327:0.25
C328:0.25
C329:0.25
C330:0.25
C331:0.25
C332:0.25
C333:0.25
C334:0.25
C335:0.25
C336:0.25
C337:0.25
C338:0.25
C339:0.25
C340:0.25
C341:0.25
C342:0.25
C343:0.25
C344:0.25
C345:0.25
C346:0.25
C347:0.25
C348:0.25
C349:0.25
C350:0.25
C351:0.25
C352:0.25
C353:0.25
C354:0.25
C355:0.25
C356:0.25
C357:0.25
C358:0.25
C359:0.25
C360:0.25
C361:0.25
C362:0.25
C363:0.25
C364:0.25
C365:0.25
C366:0.25
C367:0.25
C368:0.25
C369:0.25
C370:0.25
C371:0.25
C372:0.25
C373:0.25
C374:0.25
C375:0.25
C376:0.25
C377:0.25
C378:0.25
C379:0.25
C380:0.25
C381:0.25
C382:0.25
C383:0.25
C384:0.25
C385:0.25
C386:0.25
C387:0.25
C388:0.25
C389:0.25
C390:0.25
C391:0.25
C392:0.25
C393:0.25
C394:0.25
C395:0.25
C396:0.25
C397:0.25
C398:0.25
C399:0.25
C400:0.25
C401:0.25
C402:0.25
C403:0.25
C404:0.25
C405:0.25
C406:0.25
C407:0.25
C408:0.25
C409:0.25
C410:0.25
C411:0.25
C412:0.25
C413:0.25
C414:0.25
C415:0.25
C416:0.25
C417:0.25
C418:0.25
C419:0.25
C420:0.25
C421:0.25
C422:0.25
C423:0.25
C424:0.25
C425:0.25
C426:0.25
C427:0.25
C428:0.25
C429:0.25
C430:0.25
C431:0.25
C432:0.25
C433:0.25
C434:0.25
C435:0.25
C436:0.25
C437:0.25
C438:0.25
C439:0.25
C440:0.25
C441:0.25
C442:0.25
C443:0.25
C444:0.25
C445:0.25
C446:0.25
C447:0.25
C448:0.25
C449:0.25
C450:0.25
C451:0.25
C452:0.25
C453:0.25
C454:0.25
C455:0.25
C456:0.25
C457:0.25
C458:0.25
C459:0.25
C460:0.25
C461:0.25
C462:0.25
C463:0.25
C464:0.25
C465:0.25
C466:0.25
C467:0.25
C468:0.25
C469:0.25
C470:0.25
C471:0.25
C472:0.25
C473:0.25
C474:0.25
C475:0.25
C476:0.25
C477:0.25
C478:0.25
C479:0.25
C480:0.25
C481:0.25
C482:0.25
C483:0.25
C484:0.25
C485:0.25
C486:0.25
C487:0.25
C488:0.25
C489:0.25
C490:0.25
C491:0.25
C492:0.25
C493:0.25
C494:0.25
C495:0.25
C496:0.25
C497:0.25
C498:0.25
C499:0.25
C500:0.25
C501:0.25
C502:0.25
C503:0.25
C504:0.25
C505:0.25
C506:0.25
C507:0.25
C508:0.25
C509:0.25
C510:0.25
C511:0.25
C512:0.25
C513:0.25
C514:0.25
C515:0.25
C516:0.25
C517:0.25
C518:0.25
C519:0.25
C520:0.25
C521:0.25
C522:0.25
C523:0.25
C524:0.25
C525:0.25
C526:0.25
C527:0.25
C528:0.25
C529:0.25
C530:0.25
C531:0.25
C532:0.25
C533:0.25
C534:0.25
C535:0.25
C536:0.25
C537:0.25
C538:0.25
C539:0.25
C540:0.25
C541:0.25
C542:0.25
C543:0.25
C544:0.25
C545:0.25
C546:0.25
C547:0.25
C548:0.25
C549:0.25
C550:0.25
C551:0.25
C552:0.25
C553:0.25
C554:0.25
C555:0.25
C556:0.25
C557:0.25
C558:0.25
C559:0.25
C560:0.25
C561:0.25
C562:0.25
C563:0.25
C564:0.25
C565:0.25
C566:0.25
C567:0.25
C568:0.25
C569:0.25
C570:0.25
C571:0.25
C572:0.25
C573:0.25
C574:0.25
C575:0.25
C576:0.25
C577:0.25
C578:0.25
C579:0.25
C580:0.25
C581:0.25
C582:0.25
C583:0.25
C584:0.25
C585:0.25
C586:0.25
C587:0.25
C588:0.25
C589:0.25
C590:0.25
C591:0.25
C592:0.25
C593:0.25
C594:0.25
C595:0.25
C596:0.25
C597:0.25
C598:0.25
C599:0.25
C600:0.25
C601:0.25
C602:0.25
C603:0.25
C604:0.25
C605:0.25
C606:0.25
C607:0.25
C608:0.25
C609:0.25
C610:0.25
C611:0.25
C612:0.25
C613:0.25
C614:0.25
C615:0.25
C616:0.25
C617:0.25
C618:0.25
C619:0.25
C620:0.25
C621:0.25
C622:0.25
C623:0.25
C624:0.25
C625:0.25
C626:0.25
C627:0.25
C628:0.25
C629:0.25
C630:0.25
C631:0.25
C632:0.25
C633:0.25
C634:0.25
C635:0.25
C636:0.25
C637:0.25
C638:0.25
C639:0.25
C640:0.25
C641:0.25
C642:0.25
C643:0.25
C644:0.25
C645:0.25
C646:0.25
C647:0.25
C648:0.25
C649:0.25
C650:0.25
C651:0.25
C652:0.25
C653:0.25
C654:0.25
C655:0.25
C656:0.25
C657:0.25
C658:0.25
C659:0.25
C660:0.25
C661:0.25
C662:0.25
C663:0.25
C664:0.25
C665:0.25
C666:0.25
C667:0.25
C668:0.25
C669:0.25
C670:0.25
C671:0.25
C672:0.25
C673:0.25
C674:0.25
C675:0.25
C676:0.25
C677:0.25
C678:0.25
C679:0.25
C680:0.25
C681:0.25
C682:0.25
C683:0.25
C684:0.25
C685:0.25
C686:0.25
C687:0.25
C688:0.25
C689:0.25
C690:0.25
C691:0.25
C692:0.25
C693:0.25
C694:0.25
C695:0.25
C696:0.25
C697:0.25
C698:0.25
C699:0.25
C700:0.25
C701:0.25
C702:0.25
C703:0.25
C704:0.25
C705:0.25
C706:0.25
C707:0.25
C708:0.25
C709:0.25
C710:0.25
C711:0.25
C712:0.25
C713:0.25
C714:0.25
C715:0.25
C716:0.25
C717:0.25
C718:0.25
C719:0.25
C720:0.25
C721:0.25
C722:0.25
C723:0.25
C724:0.25
FinishTime:03/01/2018 13:20:37.470
