Input param:JobHistoryConnection:E:\mgalfa\AutomationCode\Sensitivities\FV_Greeks_Vol_Dn_5\Log\VCF_Inputs_UpdateValues_Part_6 Perm Table.txt
Input param:JobInstanceID:1
Input param:SourceWorkbookLocation:E:\MGALFA\Staging\FairValue\Sensitivity\ModelInputs\Vega volatilities.xlsx
Input param:SourceSheetName:-5%Vol
Input param:SourceRangeStartRow:724
Input param:SourceRangeStartColumn:F
Input param:SourceEndRangeRow:724
Input param:SourceEndRangeColumn:F
Input param:DestinationWorkbookLocation:E:\MGALFA\Model\Executionfolder\Sensitivities\FV_Greeks_Vol_Dn_5\VCF_Inputs.xlsx
Input param:DestinationSheetName:VarVCFFundVol_IFRS_FV
Input param:DestinationRangeStartRow:6
Input param:DestinationRangeStartColumn:DFY
Input param:DestinationEndRangeRow:6
Input param:DestinationEndRangeColumn:DFY
Source Cells:
F724:0.3
FinishTime:03/01/2018 13:20:22.751
