Input param:JobHistoryConnection:E:\mgalfa\AutomationCode\Sensitivities\FV_Greeks_Vol_Dn_5\Log\VCF_Inputs_UpdateValues_Part_11 Perm Table.txt
Input param:JobInstanceID:1
Input param:SourceWorkbookLocation:E:\MGALFA\Staging\FairValue\Sensitivity\ModelInputs\Vega volatilities.xlsx
Input param:SourceSheetName:-5%Vol
Input param:SourceRangeStartRow:5
Input param:SourceRangeStartColumn:I
Input param:SourceEndRangeRow:724
Input param:SourceEndRangeColumn:I
Input param:DestinationWorkbookLocation:E:\MGALFA\Model\Executionfolder\Sensitivities\FV_Greeks_Vol_Dn_5\VCF_Inputs.xlsx
Input param:DestinationSheetName:VarVCFFundVol_IFRS_FV
Input param:DestinationRangeStartRow:6
Input param:DestinationRangeStartColumn:FJL
Input param:DestinationEndRangeRow:6
Input param:DestinationEndRangeColumn:GLC
Source Cells:,,,,,,,,,,,,,,,,,,,,,,,,,,,,,,,,,,,,,,,,,,,,,,,,,,,,,,,,,,,,,,,,,,,,,,,,,,,,,,,,,,,,,,,,,,,,,,,,,,,,,,,,,,,,,,,,,,,,,,,,,,,,,,,,,,,,,,,,,,,,,,,,,,,,,,,,,,,,,,,,,,,,,,,,,,,,,,,,,,,,,,,,,,,,,,,,,,,,,,,,,,,,,,,,,,,,,,,,,,,,,,,,,,,,,,,,,,,,,,,,,,,,,,,,,,,,,,,,,,,,,,,,,,,,,,,,,,,,,,,,,,,,,,,,,,,,,,,,,,,,,,,,,,,,,,,,,,,,,,,,,,,,,,,,,,,,,,,,,,,,,,,,,,,,,,,,,,,,,,,,,,,,,,,,,,,,,,,,,,,,,,,,,,,,,,,,,,,,,,,,,,,,,,,,,,,,,,,,,,,,,,,,,,,,,,,,,,,,,,,,,,,,,,,,,,,,,,,,,,,,,,,,,,,,,,,,,,,,,,,,,,,,,,,,,,,,,,,,,,,,,,,,,,,,,,,,,,,,,,,,,,,,,,,,,,,,,,,,,,,,,,,,,,,,,,,,,,,,,,,,,,,,,,,,,,,,,,,,,,,,,,,,,,,,,,,,,,,,,,,,,,,,,,,,,,,,,,,,,,,,,,,,,,,,,,,,,,,,,,,,,,,,,,,,,,,,,,,,,,,,,,,,,,,,,,,,,,,,,,,,,,,,,,,,,,,,,,,,,,,,,,,,,,,,,,,,,,,,,,,
I5:0.115213498752203
I6:0.115213498752203
I7:0.115213498752203
I8:0.115213498752203
I9:0.115213498752203
I10:0.115213498752203
I11:0.115213498752203
I12:0.115213498752203
I13:0.115213498752203
I14:0.115213498752203
I15:0.115213498752203
I16:0.115213498752203
I17:0.122612009528967
I18:0.122612009528967
I19:0.122612009528967
I20:0.122612009528967
I21:0.122612009528967
I22:0.122612009528967
I23:0.122612009528967
I24:0.122612009528967
I25:0.122612009528967
I26:0.122612009528967
I27:0.122612009528967
I28:0.122612009528967
I29:0.125683203778352
I30:0.125683203778352
I31:0.125683203778352
I32:0.125683203778352
I33:0.125683203778352
I34:0.125683203778352
I35:0.125683203778352
I36:0.125683203778352
I37:0.125683203778352
I38:0.125683203778352
I39:0.125683203778352
I40:0.125683203778352
I41:0.125802116986127
I42:0.125802116986127
I43:0.125802116986127
I44:0.125802116986127
I45:0.125802116986127
I46:0.125802116986127
I47:0.125802116986127
I48:0.125802116986127
I49:0.125802116986127
I50:0.125802116986127
I51:0.125802116986127
I52:0.125802116986127
I53:0.127986233321864
I54:0.127986233321864
I55:0.127986233321864
I56:0.127986233321864
I57:0.127986233321864
I58:0.127986233321864
I59:0.127986233321864
I60:0.127986233321864
I61:0.127986233321864
I62:0.127986233321864
I63:0.127986233321864
I64:0.127986233321864
I65:0.13
I66:0.13
I67:0.13
I68:0.13
I69:0.13
I70:0.13
I71:0.13
I72:0.13
I73:0.13
I74:0.13
I75:0.13
I76:0.13
I77:0.13
I78:0.13
I79:0.13
I80:0.13
I81:0.13
I82:0.13
I83:0.13
I84:0.13
I85:0.13
I86:0.13
I87:0.13
I88:0.13
I89:0.13
I90:0.13
I91:0.13
I92:0.13
I93:0.13
I94:0.13
I95:0.13
I96:0.13
I97:0.13
I98:0.13
I99:0.13
I100:0.13
I101:0.13
I102:0.13
I103:0.13
I104:0.13
I105:0.13
I106:0.13
I107:0.13
I108:0.13
I109:0.13
I110:0.13
I111:0.13
I112:0.13
I113:0.13
I114:0.13
I115:0.13
I116:0.13
I117:0.13
I118:0.13
I119:0.13
I120:0.13
I121:0.13
I122:0.13
I123:0.13
I124:0.13
I125:0.13
I126:0.13
I127:0.13
I128:0.13
I129:0.13
I130:0.13
I131:0.13
I132:0.13
I133:0.13
I134:0.13
I135:0.13
I136:0.13
I137:0.13
I138:0.13
I139:0.13
I140:0.13
I141:0.13
I142:0.13
I143:0.13
I144:0.13
I145:0.13
I146:0.13
I147:0.13
I148:0.13
I149:0.13
I150:0.13
I151:0.13
I152:0.13
I153:0.13
I154:0.13
I155:0.13
I156:0.13
I157:0.13
I158:0.13
I159:0.13
I160:0.13
I161:0.13
I162:0.13
I163:0.13
I164:0.13
I165:0.13
I166:0.13
I167:0.13
I168:0.13
I169:0.13
I170:0.13
I171:0.13
I172:0.13
I173:0.13
I174:0.13
I175:0.13
I176:0.13
I177:0.13
I178:0.13
I179:0.13
I180:0.13
I181:0.13
I182:0.13
I183:0.13
I184:0.13
I185:0.13
I186:0.13
I187:0.13
I188:0.13
I189:0.13
I190:0.13
I191:0.13
I192:0.13
I193:0.13
I194:0.13
I195:0.13
I196:0.13
I197:0.13
I198:0.13
I199:0.13
I200:0.13
I201:0.13
I202:0.13
I203:0.13
I204:0.13
I205:0.13
I206:0.13
I207:0.13
I208:0.13
I209:0.13
I210:0.13
I211:0.13
I212:0.13
I213:0.13
I214:0.13
I215:0.13
I216:0.13
I217:0.13
I218:0.13
I219:0.13
I220:0.13
I221:0.13
I222:0.13
I223:0.13
I224:0.13
I225:0.13
I226:0.13
I227:0.13
I228:0.13
I229:0.13
I230:0.13
I231:0.13
I232:0.13
I233:0.13
I234:0.13
I235:0.13
I236:0.13
I237:0.13
I238:0.13
I239:0.13
I240:0.13
I241:0.13
I242:0.13
I243:0.13
I244:0.13
I245:0.13
I246:0.13
I247:0.13
I248:0.13
I249:0.13
I250:0.13
I251:0.13
I252:0.13
I253:0.13
I254:0.13
I255:0.13
I256:0.13
I257:0.13
I258:0.13
I259:0.13
I260:0.13
I261:0.13
I262:0.13
I263:0.13
I264:0.13
I265:0.13
I266:0.13
I267:0.13
I268:0.13
I269:0.13
I270:0.13
I271:0.13
I272:0.13
I273:0.13
I274:0.13
I275:0.13
I276:0.13
I277:0.13
I278:0.13
I279:0.13
I280:0.13
I281:0.13
I282:0.13
I283:0.13
I284:0.13
I285:0.13
I286:0.13
I287:0.13
I288:0.13
I289:0.13
I290:0.13
I291:0.13
I292:0.13
I293:0.13
I294:0.13
I295:0.13
I296:0.13
I297:0.13
I298:0.13
I299:0.13
I300:0.13
I301:0.13
I302:0.13
I303:0.13
I304:0.13
I305:0.13
I306:0.13
I307:0.13
I308:0.13
I309:0.13
I310:0.13
I311:0.13
I312:0.13
I313:0.13
I314:0.13
I315:0.13
I316:0.13
I317:0.13
I318:0.13
I319:0.13
I320:0.13
I321:0.13
I322:0.13
I323:0.13
I324:0.13
I325:0.13
I326:0.13
I327:0.13
I328:0.13
I329:0.13
I330:0.13
I331:0.13
I332:0.13
I333:0.13
I334:0.13
I335:0.13
I336:0.13
I337:0.13
I338:0.13
I339:0.13
I340:0.13
I341:0.13
I342:0.13
I343:0.13
I344:0.13
I345:0.13
I346:0.13
I347:0.13
I348:0.13
I349:0.13
I350:0.13
I351:0.13
I352:0.13
I353:0.13
I354:0.13
I355:0.13
I356:0.13
I357:0.13
I358:0.13
I359:0.13
I360:0.13
I361:0.13
I362:0.13
I363:0.13
I364:0.13
I365:0.13
I366:0.13
I367:0.13
I368:0.13
I369:0.13
I370:0.13
I371:0.13
I372:0.13
I373:0.13
I374:0.13
I375:0.13
I376:0.13
I377:0.13
I378:0.13
I379:0.13
I380:0.13
I381:0.13
I382:0.13
I383:0.13
I384:0.13
I385:0.13
I386:0.13
I387:0.13
I388:0.13
I389:0.13
I390:0.13
I391:0.13
I392:0.13
I393:0.13
I394:0.13
I395:0.13
I396:0.13
I397:0.13
I398:0.13
I399:0.13
I400:0.13
I401:0.13
I402:0.13
I403:0.13
I404:0.13
I405:0.13
I406:0.13
I407:0.13
I408:0.13
I409:0.13
I410:0.13
I411:0.13
I412:0.13
I413:0.13
I414:0.13
I415:0.13
I416:0.13
I417:0.13
I418:0.13
I419:0.13
I420:0.13
I421:0.13
I422:0.13
I423:0.13
I424:0.13
I425:0.13
I426:0.13
I427:0.13
I428:0.13
I429:0.13
I430:0.13
I431:0.13
I432:0.13
I433:0.13
I434:0.13
I435:0.13
I436:0.13
I437:0.13
I438:0.13
I439:0.13
I440:0.13
I441:0.13
I442:0.13
I443:0.13
I444:0.13
I445:0.13
I446:0.13
I447:0.13
I448:0.13
I449:0.13
I450:0.13
I451:0.13
I452:0.13
I453:0.13
I454:0.13
I455:0.13
I456:0.13
I457:0.13
I458:0.13
I459:0.13
I460:0.13
I461:0.13
I462:0.13
I463:0.13
I464:0.13
I465:0.13
I466:0.13
I467:0.13
I468:0.13
I469:0.13
I470:0.13
I471:0.13
I472:0.13
I473:0.13
I474:0.13
I475:0.13
I476:0.13
I477:0.13
I478:0.13
I479:0.13
I480:0.13
I481:0.13
I482:0.13
I483:0.13
I484:0.13
I485:0.13
I486:0.13
I487:0.13
I488:0.13
I489:0.13
I490:0.13
I491:0.13
I492:0.13
I493:0.13
I494:0.13
I495:0.13
I496:0.13
I497:0.13
I498:0.13
I499:0.13
I500:0.13
I501:0.13
I502:0.13
I503:0.13
I504:0.13
I505:0.13
I506:0.13
I507:0.13
I508:0.13
I509:0.13
I510:0.13
I511:0.13
I512:0.13
I513:0.13
I514:0.13
I515:0.13
I516:0.13
I517:0.13
I518:0.13
I519:0.13
I520:0.13
I521:0.13
I522:0.13
I523:0.13
I524:0.13
I525:0.13
I526:0.13
I527:0.13
I528:0.13
I529:0.13
I530:0.13
I531:0.13
I532:0.13
I533:0.13
I534:0.13
I535:0.13
I536:0.13
I537:0.13
I538:0.13
I539:0.13
I540:0.13
I541:0.13
I542:0.13
I543:0.13
I544:0.13
I545:0.13
I546:0.13
I547:0.13
I548:0.13
I549:0.13
I550:0.13
I551:0.13
I552:0.13
I553:0.13
I554:0.13
I555:0.13
I556:0.13
I557:0.13
I558:0.13
I559:0.13
I560:0.13
I561:0.13
I562:0.13
I563:0.13
I564:0.13
I565:0.13
I566:0.13
I567:0.13
I568:0.13
I569:0.13
I570:0.13
I571:0.13
I572:0.13
I573:0.13
I574:0.13
I575:0.13
I576:0.13
I577:0.13
I578:0.13
I579:0.13
I580:0.13
I581:0.13
I582:0.13
I583:0.13
I584:0.13
I585:0.13
I586:0.13
I587:0.13
I588:0.13
I589:0.13
I590:0.13
I591:0.13
I592:0.13
I593:0.13
I594:0.13
I595:0.13
I596:0.13
I597:0.13
I598:0.13
I599:0.13
I600:0.13
I601:0.13
I602:0.13
I603:0.13
I604:0.13
I605:0.13
I606:0.13
I607:0.13
I608:0.13
I609:0.13
I610:0.13
I611:0.13
I612:0.13
I613:0.13
I614:0.13
I615:0.13
I616:0.13
I617:0.13
I618:0.13
I619:0.13
I620:0.13
I621:0.13
I622:0.13
I623:0.13
I624:0.13
I625:0.13
I626:0.13
I627:0.13
I628:0.13
I629:0.13
I630:0.13
I631:0.13
I632:0.13
I633:0.13
I634:0.13
I635:0.13
I636:0.13
I637:0.13
I638:0.13
I639:0.13
I640:0.13
I641:0.13
I642:0.13
I643:0.13
I644:0.13
I645:0.13
I646:0.13
I647:0.13
I648:0.13
I649:0.13
I650:0.13
I651:0.13
I652:0.13
I653:0.13
I654:0.13
I655:0.13
I656:0.13
I657:0.13
I658:0.13
I659:0.13
I660:0.13
I661:0.13
I662:0.13
I663:0.13
I664:0.13
I665:0.13
I666:0.13
I667:0.13
I668:0.13
I669:0.13
I670:0.13
I671:0.13
I672:0.13
I673:0.13
I674:0.13
I675:0.13
I676:0.13
I677:0.13
I678:0.13
I679:0.13
I680:0.13
I681:0.13
I682:0.13
I683:0.13
I684:0.13
I685:0.13
I686:0.13
I687:0.13
I688:0.13
I689:0.13
I690:0.13
I691:0.13
I692:0.13
I693:0.13
I694:0.13
I695:0.13
I696:0.13
I697:0.13
I698:0.13
I699:0.13
I700:0.13
I701:0.13
I702:0.13
I703:0.13
I704:0.13
I705:0.13
I706:0.13
I707:0.13
I708:0.13
I709:0.13
I710:0.13
I711:0.13
I712:0.13
I713:0.13
I714:0.13
I715:0.13
I716:0.13
I717:0.13
I718:0.13
I719:0.13
I720:0.13
I721:0.13
I722:0.13
I723:0.13
I724:0.13
FinishTime:03/01/2018 13:20:31.579
