Input param:JobHistoryConnection:E:\MGALFA\AutomationCode\Sensitivities\FV_Greeks_HY_Down_5\Log\RunType1 Perm Table.txt
Input param:JobInstanceID:1
Input param:SourceWorkbookLocation:E:\MGALFA\Staging\FairValue\Sensitivity\ModelInputs\IFRS_Model_Inputs.xlsx
Input param:SourceSheetName:RunType Inputs
Input param:SourceRangeStartRow:5
Input param:SourceRangeStartColumn:B
Input param:SourceEndRangeRow:5
Input param:SourceEndRangeColumn:B
Input param:DestinationWorkbookLocation:E:\MGALFA\Model\Executionfolder\Sensitivities\FV_Greeks_HY_Down_5\FVQtrly.xlsx
Input param:DestinationSheetName:RunType1
Input param:DestinationRangeStartRow:4
Input param:DestinationRangeStartColumn:B
Input param:DestinationEndRangeRow:4
Input param:DestinationEndRangeColumn:B
Source Cells:
B5:Actual
FinishTime:02/27/2018 08:22:30.604
