Input param:JobHistoryConnection:E:\mgalfa\AutomationCode\Sensitivities\FP_IntDn50_1YROUT\Log\CopyFP_IntDn50_1YROUTInputsFilesHistory.txt
Input param:JobInstanceID:4
Input param:UseDBJobHistory:false
Input param:DirectoryToCreatePattern:\\us.aegon.com\ait\Actuary\TCMActuary\Valtest\{YearHolderFourDigit}M{MonthHolderLeadingZero}\Riders\zAlfa\Projects\Development\{CurrentYearHolderFourDigit}{CurrentMonthHolderLeadingZero}{CurrentDayHolderLeadingZero}\FPQ{QuarterHolder}{YearHolderTwoDigit}_IntDn50_IFRS_1YROUT_{CurrentDayHourHolderLeadingZero}{CurrentDayMinuteHolderLeadingZero}{CurrentDaySecondHolderLeadingZero}
Input param:SourceDirectoryPattern:E:\MGALFA\Model\Executionfolder\Sensitivities\FP_IntDn50_1YROUT
Input param:Q1MonthMap:1,2,3
Input param:Q2MonthMap:4,5,6
Input param:Q3MonthMap:7,8,9
Input param:Q4MonthMap:10,11,12
Input param:ProcessTimeToMonthOffset:-2
Input param:TwoDigitYear:true
Input param:MonthLeadingZero:true
Input param:OverwriteDestinationFile:true
Input param:ExpectedNumberOfFiles:-1
Input param:Wildcard:*.*
Input param:WildcardExclusions:
Input param:ReplaceFromString:
Input param:ReplaceToString:
Input param:DestinationDirectory:\\us.aegon.com\ait\Actuary\TCMActuary\Valtest\2017M12\Riders\zAlfa\Projects\Development\20180209\FPQ417_IntDn50_IFRS_1YROUT_044723
FinishTime:02/09/2018 16:47:31.621
