Input param:JobHistoryConnection:E:\mgalfa\AutomationCode\Sensitivities\FP_IntDn50_1YROUT\Log\TextReportConsolidation.txt
Input param:JobInstanceID:1
Input param:LogFileDirectory:E:\mgalfa\AutomationCode\Sensitivities\FP_IntDn50_1YROUT\Log
Input param:OutputFile:E:\MGALFA\Model\Executionfolder\Sensitivities\FP_IntDn50_1YROUT\FP_IntDn50_1YROUTreports.xlsx
FinishTime:02/09/2018 16:47:23.399
