Input param:JobHistoryConnection:E:\MGALFA\AutomationCode\Sensitivities\FV_Greeks_Vol_Down_5\Log\ClearScenarioFolder.txt
Input param:JobInstanceID:4
Input param:UseDBJobHistory:false
Input param:DirectoryToClear:E:\MGALFA\Staging\FairValue\Scenario
Input param:DeleteSubdirectories:true
FinishTime:03/05/2018 13:23:41.561
