Input param:JobHistoryConnection:E:\mgalfa\AutomationCode\Sensitivities\FV_Greeks_Vol_Down_5\Log\VarDVol UpdateValues_Part_1 Perm Table.txt
Input param:JobInstanceID:1
Input param:SourceWorkbookLocation:E:\MGALFA\Staging\FairValue\Sensitivity\ModelInputs\Vega volatilities.xlsx
Input param:SourceSheetName:-5%Vol
Input param:SourceRow:724
Input param:SourceColumn:C
Input param:DestinationWorkbookLocation:E:\MGALFA\Model\Executionfolder\Sensitivities\FV_Greeks_Vol_Down_5\QtrlySens.xlsx
Input param:DestinationSheetName:VarDVol
Input param:DestinationRangeStartRow:5
Input param:DestinationRangeStartColumn:ABF
Input param:DestinationEndRangeRow:5
Input param:DestinationEndRangeColumn:BQS
C724:0.25
FinishTime:03/05/2018 13:20:38.415
