Input param:JobHistoryConnection:E:\mgalfa\AutomationCode\Sensitivities\FV_Greeks_Vol_Down_5\Log\VCF_Inputs_UpdateValues_Part_14 Perm Table.txt
Input param:JobInstanceID:1
Input param:SourceWorkbookLocation:E:\MGALFA\Staging\FairValue\Sensitivity\ModelInputs\Vega volatilities.xlsx
Input param:SourceSheetName:-5%Vol
Input param:SourceRangeStartRow:724
Input param:SourceRangeStartColumn:D
Input param:SourceEndRangeRow:724
Input param:SourceEndRangeColumn:D
Input param:DestinationWorkbookLocation:E:\MGALFA\Model\Executionfolder\Sensitivities\FV_Greeks_Vol_Down_5\VCF_Inputs.xlsx
Input param:DestinationSheetName:VarVCFFundVol_IFRS_FV
Input param:DestinationRangeStartRow:6
Input param:DestinationRangeStartColumn:HMW
Input param:DestinationEndRangeRow:6
Input param:DestinationEndRangeColumn:HMW
Source Cells:
D724:0.25
FinishTime:03/05/2018 13:20:34.341
