Input param:JobHistoryConnection:E:\mgalfa\AutomationCode\Sensitivities\FV_Greeks_Vol_Up_5\Log\TextReportConsolidation.txt
Input param:JobInstanceID:1
Input param:LogFileDirectory:E:\mgalfa\AutomationCode\Sensitivities\FV_Greeks_Vol_Up_5\Log
Input param:OutputFile:E:\MGALFA\Model\Executionfolder\Sensitivities\FV_Greeks_Vol_Up_5\FV_Greeks_Vol_Up_5reports.xlsx
FinishTime:03/06/2018 07:42:21.235
