Input param:JobHistoryConnection:E:\mgalfa\AutomationCode\Sensitivities\FV_Greeks_Vol_Up_5\Log\VCF_Inputs_UpdateValues_Part_12 Perm Table.txt
Input param:JobInstanceID:1
Input param:SourceWorkbookLocation:E:\MGALFA\Staging\FairValue\Sensitivity\ModelInputs\Vega volatilities.xlsx
Input param:SourceSheetName:+5%Vol
Input param:SourceRangeStartRow:724
Input param:SourceRangeStartColumn:I
Input param:SourceEndRangeRow:724
Input param:SourceEndRangeColumn:I
Input param:DestinationWorkbookLocation:E:\MGALFA\Model\Executionfolder\Sensitivities\FV_Greeks_Vol_Up_5\VCF_Inputs.xlsx
Input param:DestinationSheetName:VarVCFFundVol_IFRS_FV
Input param:DestinationRangeStartRow:6
Input param:DestinationRangeStartColumn:GLD
Input param:DestinationEndRangeRow:6
Input param:DestinationEndRangeColumn:GLD
Source Cells:
I724:0.13
FinishTime:03/05/2018 13:30:45.015
