Input param:JobHistoryConnection:E:\mgalfa\AutomationCode\Sensitivities\FV_Greeks_Vol_Up_5\Log\VCF_Inputs_UpdateValues_Part_13 Perm Table.txt
Input param:JobInstanceID:1
Input param:SourceWorkbookLocation:E:\MGALFA\Staging\FairValue\Sensitivity\ModelInputs\Vega volatilities.xlsx
Input param:SourceSheetName:+5%Vol
Input param:SourceRangeStartRow:5
Input param:SourceRangeStartColumn:D
Input param:SourceEndRangeRow:724
Input param:SourceEndRangeColumn:D
Input param:DestinationWorkbookLocation:E:\MGALFA\Model\Executionfolder\Sensitivities\FV_Greeks_Vol_Up_5\VCF_Inputs.xlsx
Input param:DestinationSheetName:VarVCFFundVol_IFRS_FV
Input param:DestinationRangeStartRow:6
Input param:DestinationRangeStartColumn:GLE
Input param:DestinationEndRangeRow:6
Input param:DestinationEndRangeColumn:HMV
Source Cells:,,,,,,,,,,,,,,,,,,,,,,,,,,,,,,,,,,,,,,,,,,,,,,,,,,,,,,,,,,,,,,,,,,,,,,,,,,,,,,,,,,,,,,,,,,,,,,,,,,,,,,,,,,,,,,,,,,,,,,,,,,,,,,,,,,,,,,,,,,,,,,,,,,,,,,,,,,,,,,,,,,,,,,,,,,,,,,,,,,,,,,,,,,,,,,,,,,,,,,,,,,,,,,,,,,,,,,,,,,,,,,,,,,,,,,,,,,,,,,,,,,,,,,,,,,,,,,,,,,,,,,,,,,,,,,,,,,,,,,,,,,,,,,,,,,,,,,,,,,,,,,,,,,,,,,,,,,,,,,,,,,,,,,,,,,,,,,,,,,,,,,,,,,,,,,,,,,,,,,,,,,,,,,,,,,,,,,,,,,,,,,,,,,,,,,,,,,,,,,,,,,,,,,,,,,,,,,,,,,,,,,,,,,,,,,,,,,,,,,,,,,,,,,,,,,,,,,,,,,,,,,,,,,,,,,,,,,,,,,,,,,,,,,,,,,,,,,,,,,,,,,,,,,,,,,,,,,,,,,,,,,,,,,,,,,,,,,,,,,,,,,,,,,,,,,,,,,,,,,,,,,,,,,,,,,,,,,,,,,,,,,,,,,,,,,,,,,,,,,,,,,,,,,,,,,,,,,,,,,,,,,,,,,,,,,,,,,,,,,,,,,,,,,,,,,,,,,,,,,,,,,,,,,,,,,,,,,,,,,,,,,,,,,,,,,,,,,,,,,,,,,,,,,,,,,,,,,,,,,,
D5:0.188449881722899
D6:0.188449881722899
D7:0.188449881722899
D8:0.188449881722899
D9:0.188449881722899
D10:0.188449881722899
D11:0.188449881722899
D12:0.188449881722899
D13:0.188449881722899
D14:0.188449881722899
D15:0.188449881722899
D16:0.188449881722899
D17:0.223088336085904
D18:0.223088336085904
D19:0.223088336085904
D20:0.223088336085904
D21:0.223088336085904
D22:0.223088336085904
D23:0.223088336085904
D24:0.223088336085904
D25:0.223088336085904
D26:0.223088336085904
D27:0.223088336085904
D28:0.223088336085904
D29:0.232384094872955
D30:0.232384094872955
D31:0.232384094872955
D32:0.232384094872955
D33:0.232384094872955
D34:0.232384094872955
D35:0.232384094872955
D36:0.232384094872955
D37:0.232384094872955
D38:0.232384094872955
D39:0.232384094872955
D40:0.232384094872955
D41:0.227037554096223
D42:0.227037554096223
D43:0.227037554096223
D44:0.227037554096223
D45:0.227037554096223
D46:0.227037554096223
D47:0.227037554096223
D48:0.227037554096223
D49:0.227037554096223
D50:0.227037554096223
D51:0.227037554096223
D52:0.227037554096223
D53:0.253484779704187
D54:0.253484779704187
D55:0.253484779704187
D56:0.253484779704187
D57:0.253484779704187
D58:0.253484779704187
D59:0.253484779704187
D60:0.253484779704187
D61:0.253484779704187
D62:0.253484779704187
D63:0.253484779704187
D64:0.253484779704187
D65:0.237841551620714
D66:0.238047627016973
D67:0.238253702413232
D68:0.238459777809491
D69:0.23866585320575
D70:0.238871928602009
D71:0.239078003998268
D72:0.239284079394528
D73:0.239490154790787
D74:0.239696230187046
D75:0.239902305583305
D76:0.240108380979564
D77:0.240314456375823
D78:0.240520531772082
D79:0.240726607168341
D80:0.2409326825646
D81:0.241138757960859
D82:0.241344833357118
D83:0.241550908753378
D84:0.241756984149637
D85:0.241963059545896
D86:0.242169134942155
D87:0.242375210338414
D88:0.242581285734673
D89:0.242787361130932
D90:0.242993436527191
D91:0.24319951192345
D92:0.243405587319709
D93:0.243611662715968
D94:0.243817738112227
D95:0.244023813508487
D96:0.244229888904746
D97:0.244435964301005
D98:0.244642039697264
D99:0.244848115093523
D100:0.245054190489782
D101:0.245260265886041
D102:0.2454663412823
D103:0.245672416678559
D104:0.245878492074818
D105:0.246084567471077
D106:0.246290642867336
D107:0.246496718263596
D108:0.246702793659855
D109:0.246908869056114
D110:0.247114944452373
D111:0.247321019848632
D112:0.247527095244891
D113:0.24773317064115
D114:0.247939246037409
D115:0.248145321433668
D116:0.248351396829927
D117:0.248557472226186
D118:0.248763547622445
D119:0.248969623018705
D120:0.249175698414964
D121:0.249381773811223
D122:0.249587849207482
D123:0.249793924603741
D124:0.25
D125:0.25
D126:0.25
D127:0.25
D128:0.25
D129:0.25
D130:0.25
D131:0.25
D132:0.25
D133:0.25
D134:0.25
D135:0.25
D136:0.25
D137:0.25
D138:0.25
D139:0.25
D140:0.25
D141:0.25
D142:0.25
D143:0.25
D144:0.25
D145:0.25
D146:0.25
D147:0.25
D148:0.25
D149:0.25
D150:0.25
D151:0.25
D152:0.25
D153:0.25
D154:0.25
D155:0.25
D156:0.25
D157:0.25
D158:0.25
D159:0.25
D160:0.25
D161:0.25
D162:0.25
D163:0.25
D164:0.25
D165:0.25
D166:0.25
D167:0.25
D168:0.25
D169:0.25
D170:0.25
D171:0.25
D172:0.25
D173:0.25
D174:0.25
D175:0.25
D176:0.25
D177:0.25
D178:0.25
D179:0.25
D180:0.25
D181:0.25
D182:0.25
D183:0.25
D184:0.25
D185:0.25
D186:0.25
D187:0.25
D188:0.25
D189:0.25
D190:0.25
D191:0.25
D192:0.25
D193:0.25
D194:0.25
D195:0.25
D196:0.25
D197:0.25
D198:0.25
D199:0.25
D200:0.25
D201:0.25
D202:0.25
D203:0.25
D204:0.25
D205:0.25
D206:0.25
D207:0.25
D208:0.25
D209:0.25
D210:0.25
D211:0.25
D212:0.25
D213:0.25
D214:0.25
D215:0.25
D216:0.25
D217:0.25
D218:0.25
D219:0.25
D220:0.25
D221:0.25
D222:0.25
D223:0.25
D224:0.25
D225:0.25
D226:0.25
D227:0.25
D228:0.25
D229:0.25
D230:0.25
D231:0.25
D232:0.25
D233:0.25
D234:0.25
D235:0.25
D236:0.25
D237:0.25
D238:0.25
D239:0.25
D240:0.25
D241:0.25
D242:0.25
D243:0.25
D244:0.25
D245:0.25
D246:0.25
D247:0.25
D248:0.25
D249:0.25
D250:0.25
D251:0.25
D252:0.25
D253:0.25
D254:0.25
D255:0.25
D256:0.25
D257:0.25
D258:0.25
D259:0.25
D260:0.25
D261:0.25
D262:0.25
D263:0.25
D264:0.25
D265:0.25
D266:0.25
D267:0.25
D268:0.25
D269:0.25
D270:0.25
D271:0.25
D272:0.25
D273:0.25
D274:0.25
D275:0.25
D276:0.25
D277:0.25
D278:0.25
D279:0.25
D280:0.25
D281:0.25
D282:0.25
D283:0.25
D284:0.25
D285:0.25
D286:0.25
D287:0.25
D288:0.25
D289:0.25
D290:0.25
D291:0.25
D292:0.25
D293:0.25
D294:0.25
D295:0.25
D296:0.25
D297:0.25
D298:0.25
D299:0.25
D300:0.25
D301:0.25
D302:0.25
D303:0.25
D304:0.25
D305:0.25
D306:0.25
D307:0.25
D308:0.25
D309:0.25
D310:0.25
D311:0.25
D312:0.25
D313:0.25
D314:0.25
D315:0.25
D316:0.25
D317:0.25
D318:0.25
D319:0.25
D320:0.25
D321:0.25
D322:0.25
D323:0.25
D324:0.25
D325:0.25
D326:0.25
D327:0.25
D328:0.25
D329:0.25
D330:0.25
D331:0.25
D332:0.25
D333:0.25
D334:0.25
D335:0.25
D336:0.25
D337:0.25
D338:0.25
D339:0.25
D340:0.25
D341:0.25
D342:0.25
D343:0.25
D344:0.25
D345:0.25
D346:0.25
D347:0.25
D348:0.25
D349:0.25
D350:0.25
D351:0.25
D352:0.25
D353:0.25
D354:0.25
D355:0.25
D356:0.25
D357:0.25
D358:0.25
D359:0.25
D360:0.25
D361:0.25
D362:0.25
D363:0.25
D364:0.25
D365:0.25
D366:0.25
D367:0.25
D368:0.25
D369:0.25
D370:0.25
D371:0.25
D372:0.25
D373:0.25
D374:0.25
D375:0.25
D376:0.25
D377:0.25
D378:0.25
D379:0.25
D380:0.25
D381:0.25
D382:0.25
D383:0.25
D384:0.25
D385:0.25
D386:0.25
D387:0.25
D388:0.25
D389:0.25
D390:0.25
D391:0.25
D392:0.25
D393:0.25
D394:0.25
D395:0.25
D396:0.25
D397:0.25
D398:0.25
D399:0.25
D400:0.25
D401:0.25
D402:0.25
D403:0.25
D404:0.25
D405:0.25
D406:0.25
D407:0.25
D408:0.25
D409:0.25
D410:0.25
D411:0.25
D412:0.25
D413:0.25
D414:0.25
D415:0.25
D416:0.25
D417:0.25
D418:0.25
D419:0.25
D420:0.25
D421:0.25
D422:0.25
D423:0.25
D424:0.25
D425:0.25
D426:0.25
D427:0.25
D428:0.25
D429:0.25
D430:0.25
D431:0.25
D432:0.25
D433:0.25
D434:0.25
D435:0.25
D436:0.25
D437:0.25
D438:0.25
D439:0.25
D440:0.25
D441:0.25
D442:0.25
D443:0.25
D444:0.25
D445:0.25
D446:0.25
D447:0.25
D448:0.25
D449:0.25
D450:0.25
D451:0.25
D452:0.25
D453:0.25
D454:0.25
D455:0.25
D456:0.25
D457:0.25
D458:0.25
D459:0.25
D460:0.25
D461:0.25
D462:0.25
D463:0.25
D464:0.25
D465:0.25
D466:0.25
D467:0.25
D468:0.25
D469:0.25
D470:0.25
D471:0.25
D472:0.25
D473:0.25
D474:0.25
D475:0.25
D476:0.25
D477:0.25
D478:0.25
D479:0.25
D480:0.25
D481:0.25
D482:0.25
D483:0.25
D484:0.25
D485:0.25
D486:0.25
D487:0.25
D488:0.25
D489:0.25
D490:0.25
D491:0.25
D492:0.25
D493:0.25
D494:0.25
D495:0.25
D496:0.25
D497:0.25
D498:0.25
D499:0.25
D500:0.25
D501:0.25
D502:0.25
D503:0.25
D504:0.25
D505:0.25
D506:0.25
D507:0.25
D508:0.25
D509:0.25
D510:0.25
D511:0.25
D512:0.25
D513:0.25
D514:0.25
D515:0.25
D516:0.25
D517:0.25
D518:0.25
D519:0.25
D520:0.25
D521:0.25
D522:0.25
D523:0.25
D524:0.25
D525:0.25
D526:0.25
D527:0.25
D528:0.25
D529:0.25
D530:0.25
D531:0.25
D532:0.25
D533:0.25
D534:0.25
D535:0.25
D536:0.25
D537:0.25
D538:0.25
D539:0.25
D540:0.25
D541:0.25
D542:0.25
D543:0.25
D544:0.25
D545:0.25
D546:0.25
D547:0.25
D548:0.25
D549:0.25
D550:0.25
D551:0.25
D552:0.25
D553:0.25
D554:0.25
D555:0.25
D556:0.25
D557:0.25
D558:0.25
D559:0.25
D560:0.25
D561:0.25
D562:0.25
D563:0.25
D564:0.25
D565:0.25
D566:0.25
D567:0.25
D568:0.25
D569:0.25
D570:0.25
D571:0.25
D572:0.25
D573:0.25
D574:0.25
D575:0.25
D576:0.25
D577:0.25
D578:0.25
D579:0.25
D580:0.25
D581:0.25
D582:0.25
D583:0.25
D584:0.25
D585:0.25
D586:0.25
D587:0.25
D588:0.25
D589:0.25
D590:0.25
D591:0.25
D592:0.25
D593:0.25
D594:0.25
D595:0.25
D596:0.25
D597:0.25
D598:0.25
D599:0.25
D600:0.25
D601:0.25
D602:0.25
D603:0.25
D604:0.25
D605:0.25
D606:0.25
D607:0.25
D608:0.25
D609:0.25
D610:0.25
D611:0.25
D612:0.25
D613:0.25
D614:0.25
D615:0.25
D616:0.25
D617:0.25
D618:0.25
D619:0.25
D620:0.25
D621:0.25
D622:0.25
D623:0.25
D624:0.25
D625:0.25
D626:0.25
D627:0.25
D628:0.25
D629:0.25
D630:0.25
D631:0.25
D632:0.25
D633:0.25
D634:0.25
D635:0.25
D636:0.25
D637:0.25
D638:0.25
D639:0.25
D640:0.25
D641:0.25
D642:0.25
D643:0.25
D644:0.25
D645:0.25
D646:0.25
D647:0.25
D648:0.25
D649:0.25
D650:0.25
D651:0.25
D652:0.25
D653:0.25
D654:0.25
D655:0.25
D656:0.25
D657:0.25
D658:0.25
D659:0.25
D660:0.25
D661:0.25
D662:0.25
D663:0.25
D664:0.25
D665:0.25
D666:0.25
D667:0.25
D668:0.25
D669:0.25
D670:0.25
D671:0.25
D672:0.25
D673:0.25
D674:0.25
D675:0.25
D676:0.25
D677:0.25
D678:0.25
D679:0.25
D680:0.25
D681:0.25
D682:0.25
D683:0.25
D684:0.25
D685:0.25
D686:0.25
D687:0.25
D688:0.25
D689:0.25
D690:0.25
D691:0.25
D692:0.25
D693:0.25
D694:0.25
D695:0.25
D696:0.25
D697:0.25
D698:0.25
D699:0.25
D700:0.25
D701:0.25
D702:0.25
D703:0.25
D704:0.25
D705:0.25
D706:0.25
D707:0.25
D708:0.25
D709:0.25
D710:0.25
D711:0.25
D712:0.25
D713:0.25
D714:0.25
D715:0.25
D716:0.25
D717:0.25
D718:0.25
D719:0.25
D720:0.25
D721:0.25
D722:0.25
D723:0.25
D724:0.25
FinishTime:03/05/2018 13:30:46.737
