Input param:JobHistoryConnection:E:\mgalfa\AutomationCode\Sensitivities\FV_Greeks_Vol_Up_5\Log\VCF_Inputs_UpdateValues_Part_4 Perm Table.txt
Input param:JobInstanceID:1
Input param:SourceWorkbookLocation:E:\MGALFA\Staging\FairValue\Sensitivity\ModelInputs\Vega volatilities.xlsx
Input param:SourceSheetName:+5%Vol
Input param:SourceRangeStartRow:724
Input param:SourceRangeStartColumn:E
Input param:SourceEndRangeRow:724
Input param:SourceEndRangeColumn:E
Input param:DestinationWorkbookLocation:E:\MGALFA\Model\Executionfolder\Sensitivities\FV_Greeks_Vol_Up_5\VCF_Inputs.xlsx
Input param:DestinationSheetName:VarVCFFundVol_IFRS_FV
Input param:DestinationRangeStartRow:6
Input param:DestinationRangeStartColumn:CEF
Input param:DestinationEndRangeRow:6
Input param:DestinationEndRangeColumn:CEF
Source Cells:
E724:0.25
FinishTime:03/05/2018 13:30:31.206
