Input param:JobHistoryConnection:E:\mgalfa\AutomationCode\Sensitivities\FV_Greeks_HY_Up_5\Log\ClearLogJobHistory.txt
Input param:JobInstanceID:4
Input param:UseDBJobHistory:false
Input param:DirectoryToClear:E:\mgalfa\AutomationCode\Sensitivities\FV_Greeks_HY_Up_5\Log
Input param:DeleteSubdirectories:true
FinishTime:03/06/2018 13:30:44.936
