Start MG-ALFA script processing: E:\mgalfa\AutomationCode\RateAttribution\Executables\AlfaAutomation\modelscript.asc

Start date and time .... 01-31-2018 at 10:16:58
Workspace Id ........... C:\Program Files (x86)\Milliman\MG-ALFA 10.5.2011\UI\MGALFA105
System version ......... MG-ALFA Version 10.5.2011[10.5.016]


01-31-2018 at 10:16:58 --------------------------------------------------------------------------------

OpenModel "E:\mgalfa\Model\Executionfolder\RateAttribution\RateAttribution.ain2"
ValDate 09/2017
Run 2-37

::AinRun::Message::Begin::

Return Message: 

 Run.002  Yes    Na  Ok (Messages)--01-31-2018 at 10:48:48  TCM IRT VA Partners                     
 Run.003  Yes    Na  Ok (Messages)--01-31-2018 at 10:57:40  TCM DIRECT VA VANGUARD VOBA             
 Run.004  Yes    Na  Ok (Messages)--01-31-2018 at 11:06:47  TCM DIRECT VA VANGUARD                  
 Run.005  Yes    Na  Ok (Messages)--01-31-2018 at 11:15:19  TCM MKTG VA BANK CLOSED                 
 Run.006  Yes    Na  Ok (Messages)--01-31-2018 at 11:44:18  TCM MKTG VA BANK 2003                   
 Run.007  Yes    Na  Ok (Messages)--01-31-2018 at 11:25:46  TCM MKTG VA BANK 2007                   
 Run.008  Yes    Na  Ok (Messages)--01-31-2018 at 11:33:27  TCM MKTG VA PORTFOLIO SELECT            
 Run.009  Yes    Na  Ok (Messages)--01-31-2018 at 11:53:28  TCM MKTG VA BROKER CLOSED - R           
 Run.010  Yes    Na  Ok (Messages)--01-31-2018 at 12:04:23  TCM MKTG VA BROKER 2003 - NR            
 Run.011  Yes    Na  Ok (Messages)--01-31-2018 at 12:35:21  TCM MKTG VA BROKER 2003 - R             
 Run.012  Yes    Na  Ok (Messages)--01-31-2018 at 13:32:41  TCM MKTG VA BROKER 2007                 
 Run.013  Yes    Na  Ok (Messages)--01-31-2018 at 12:15:36  TCM OTHER PRODUCTS P65                  
 Run.014  Yes    Na  Ok (Messages)--01-31-2018 at 12:25:22  TRM SECURE PATH                         
 Run.015  Yes    Na  Ok (Messages)--01-31-2018 at 12:54:26  TFLIC VA POST 050109                    
 Run.016  Yes    Na  Ok (Messages)--01-31-2018 at 17:34:24  TLIC VA POST 050109                     
 Run.017  Yes    Na  Ok (Messages)--01-31-2018 at 14:32:44  AFP VA P65                              
 Run.018  Yes    Na  Ok (Messages)--01-31-2018 at 12:44:32  TCM MKTG VA TLIC TIRE SOP - R           
 Run.019  Yes    Na  Ok (Messages)--01-31-2018 at 13:03:31  RTP / a / VOBA                          
 Run.020  Yes    Na  Ok (Messages)--01-31-2018 at 13:12:17  IVC / a / Voba                          
 Run.021  Yes    Na  Ok (Messages)--01-31-2018 at 13:51:45  Other / a / Voba                        
 Run.022  Yes    Na  Ok (Messages)--01-31-2018 at 13:21:25  IVC / n / Voba                          
 Run.023  Yes    Na  Ok (Messages)--01-31-2018 at 14:20:07  IVC / a / DAC2008                       
 Run.024  Yes    Na  Ok (Messages)--01-31-2018 at 13:41:49  IVC / n / DAC2008                       
 Run.025  Yes    Na  Ok (Messages)--01-31-2018 at 14:00:57  DIA WB WRAP                             
 Run.026  Yes    Na  Ok (Messages)--01-31-2018 at 14:09:57  TCM MGD VA PUERTO RICO - AB             
 Run.027  Yes    Na  Ok (Messages)--01-31-2018 at 14:42:57  TCM MGD VA PUERTO RICO - WB             
 Run.028  Yes    Na  Ok (Messages)--01-31-2018 at 14:54:51  CUNA                                    
 Run.029  Yes    Na  Ok (Messages)--01-31-2018 at 17:51:29  TCM VA POST 10/01/11 TLIC               
 Run.030  Yes    Na  Ok (Messages)--01-31-2018 at 17:21:06  TCM VA post 050113 2013 and 2015 Issues 
 Run.031  Yes    Na  Ok (Messages)--01-31-2018 at 15:26:44  TCM VA post 05/01/2013 TFLIC            
 Run.032  Yes    Na  Ok (Messages)--01-31-2018 at 15:04:55  TCM VA URL 2013 TFLIC                   
 Run.033  Yes    Na  Ok (Messages)--01-31-2018 at 16:11:26  TCM VA URL 2013 TLIC                    
 Run.034  Yes    Na  Ok (Messages)--01-31-2018 at 16:35:14  TCM VA URL 040115 TLIC                  
 Run.035  Yes    Na  Ok (Messages)--01-31-2018 at 18:09:18  TCM VA post 050113 2014 Issues          
 Run.036  Yes    Na  Ok (Messages)--01-31-2018 at 15:38:10  TCM VA Post 010116                      
 Run.037  Yes    Na  Ok (Messages)--01-31-2018 at 15:15:25  TCM VA Post 010117                      

::AinRun::Message::End::
Close


01-31-2018 at 18:09:23 --------------------------------------------------------------------------------

End date and time ...... 01-31-2018 at 18:09:24
End of script .......... 
