Input param:JobHistoryConnection:E:\MGALFA\AutomationCode\VolatilityAttribution\Log\P65_ML_IVCStagingFileCheckerJobHistory.txt
Input param:JobInstanceID:-1
Input param:UseDBJobHistory:false
Input param:SourceDirectoryPattern:E:\MGALFA\Staging\FairValue\Inforce
Input param:Q1MonthMap:1,2,3
Input param:Q2MonthMap:4,5,6
Input param:Q3MonthMap:7,8,9
Input param:Q4MonthMap:10,11,12
Input param:ProcessTimeToMonthOffset:-3
Input param:OverwriteDestinationFile:true
Input param:ExpectedNumberOfFiles:1
Input param:Wildcard:P65_ML_IVC.Ail2
NumberOfFilesFound:1
ResolvedDirectoryName:E:\MGALFA\Staging\FairValue\Inforce
FinishTime:03/27/2018 08:15:19.920
