Input param:JobHistoryConnection:E:\MGALFA\AutomationCode\VolatilityAttribution\Log\Vcf_Inputs_Part1b Perm Table.txt
Input param:JobInstanceID:1
Input param:SourceWorkbookLocation:E:\MGALFA\Staging\FairValue\VCFInput\TCM Equity Scenario Assumptions.xlsx
Input param:SourceSheetName:Risk Neutral Volatilities
Input param:SourceRangeStartRow:726
Input param:SourceRangeStartColumn:B
Input param:SourceEndRangeRow:726
Input param:SourceEndRangeColumn:B
Input param:DestinationWorkbookLocation:E:\MGALFA\Model\Executionfolder\VolatilityAttribution\Vcf_Inputs.xlsx
Input param:DestinationSheetName:VarVCFFundVol_IFRS_FV
Input param:DestinationRangeStartRow:6
Input param:DestinationRangeStartColumn:BCM
Input param:DestinationEndRangeRow:6
Input param:DestinationEndRangeColumn:BCM
Source Cells:
B726:0.25
FinishTime:03/27/2018 08:15:32.457
