Input param:JobHistoryConnection:E:\mgalfa\AutomationCode\VolatilityAttribution\Log\VolatilityAttributionCopyAin2FileForSVNCommitJobHistory.txt
Input param:JobInstanceID:4
Input param:UseDBJobHistory:false
Input param:DestinationDirectory:E:\MGALFA\PostRunFilesToCommit\VolatilityAttribution
Input param:SourceDirectoryPattern:E:\MGALFA\Model\Executionfolder\VolatilityAttribution
Input param:Q1MonthMap:1,2,3
Input param:Q2MonthMap:4,5,6
Input param:Q3MonthMap:7,8,9
Input param:Q4MonthMap:10,11,12
Input param:ProcessTimeToMonthOffset:-3
Input param:OverwriteDestinationFile:true
Input param:ExpectedNumberOfFiles:-1
Input param:Wildcard:*Scn_RN_1000.ain2
Input param:WildcardExclusions:
Input param:ReplaceFromString:
Input param:ReplaceToString:
File Name Before 1:E:\MGALFA\Model\Executionfolder\VolatilityAttribution\SCN_RN_1000.ain2
File Name After 1:E:\MGALFA\PostRunFilesToCommit\VolatilityAttribution\SCN_RN_1000.ain2
ResolvedDirectoryName:E:\MGALFA\Model\Executionfolder\VolatilityAttribution
FinishTime:03/27/2018 08:34:35.101
