Input param:JobHistoryConnection:E:\MGALFA\AutomationCode\NewBusiness6pt\Log\AceTempestLimitsStagingFileCheckerJobHistory.txt
Input param:JobInstanceID:-1
Input param:UseDBJobHistory:false
Input param:SourceDirectoryPattern:E:\MGALFA\Staging\FairValue\ModelInputs
Input param:Q1MonthMap:1,2,3
Input param:Q2MonthMap:4,5,6
Input param:Q3MonthMap:7,8,9
Input param:Q4MonthMap:10,11,12
Input param:ProcessTimeToMonthOffset:-4
Input param:OverwriteDestinationFile:true
Input param:ExpectedNumberOfFiles:1
Input param:Wildcard:Ace Tempest Limits.xlsx
NumberOfFilesFound:1
ResolvedDirectoryName:E:\MGALFA\Staging\FairValue\ModelInputs
FinishTime:04/27/2018 17:25:14.858
