Input param:JobHistoryConnection:E:\MGALFA\AutomationCode\NewBusiness6pt\Log\GMIBLapseIntAdjHist Perm Table.txt
Input param:JobInstanceID:1
Input param:SourceWorkbookLocation:E:\MGALFA\Staging\FairValue\HistoricalRates\Historical 10 Year Treasury Rates.xlsx
Input param:SourceSheetName:Historical
Input param:SourceRangeStartRow:3
Input param:SourceRangeStartColumn:C
Input param:SourceEndRangeRow:20
Input param:SourceEndRangeColumn:C
Input param:DestinationWorkbookLocation:E:\MGALFA\Model\Executionfolder\NewBusiness6pt\QtrlySens.xlsx
Input param:DestinationSheetName:GMIBLapseIntAdjHist
Input param:DestinationRangeStartRow:4
Input param:DestinationRangeStartColumn:B
Input param:DestinationEndRangeRow:4
Input param:DestinationEndRangeColumn:S
Source Cells:,,,,,,,,,,,,,,,,,
C3:0.0241439999999999
C4:0.0243464099999999
C5:0.0239416100000001
C6:0.0234357224999999
C7:0.0213123599999998
C8:0.0231322500000002
C9:0.0232334024999998
C10:0.0222221025
C11:0.0230311024999998
C12:0.0241439999999999
C13:0.0237392400000001
C14:0.0246500625000001
C15:0.0246500625000001
C16:0.0238404224999997
C17:0.0184846400000003
C18:0.0160640000000001
C19:0.01586241
C20:0.0146532900000003
FinishTime:04/27/2018 17:25:19.155
