Input param:JobHistoryConnection:E:\MGALFA\AutomationCode\NewBusiness6pt\Log\P65_P5_VANG_ExternalFileCheckerJobHistory.txt
Input param:JobInstanceID:-1
Input param:UseDBJobHistory:false
Input param:SourceDirectoryPattern:\\us.aegon.com\ait\Actuary\TCMActuary\ValTest\InForce_File\Q{QuarterHolder}{YearHolderTwoDigit}\AILFiles\Inforce
Input param:Q1MonthMap:1,2,3
Input param:Q2MonthMap:4,5,6
Input param:Q3MonthMap:7,8,9
Input param:Q4MonthMap:10,11,12
Input param:ProcessTimeToMonthOffset:-4
Input param:OverwriteDestinationFile:true
Input param:ExpectedNumberOfFiles:1
Input param:Wildcard:*P65_P5_VANG*.Ail2
NumberOfFilesFound:1
ResolvedDirectoryName:\\us.aegon.com\ait\Actuary\TCMActuary\ValTest\InForce_File\Q417\AILFiles\Inforce
FinishTime:04/27/2018 17:25:11.718
