Input param:JobHistoryConnection:E:\MGALFA\AutomationCode\NewBusiness6pt\Log\QtrlySens_VarD7EqAllocFormulaRatio.txt
Input param:JobInstanceID:2
Input param:SourceWorkbookLocation:E:\MGALFA\Staging\FairValue\VCFInput\DFM Allocation.xlsx
Input param:SourceSheetName:DFM
Input param:SourceRangeStartRow:21
Input param:SourceRangeStartColumn:E
Input param:SourceEndRangeRow:21
Input param:SourceEndRangeColumn:E
Input param:DestinationWorkbookLocation:E:\MGALFA\Model\Executionfolder\NewBusiness6pt\QtrlySens.xlsx
Input param:DestinationSheetName:VarD7EqAllocFormulaRatio
Input param:DestinationRangeStartRow:5
Input param:DestinationRangeStartColumn:M
Input param:DestinationEndRangeRow:5
Input param:DestinationEndRangeColumn:M
Source Cells:
E21:1.23769134
FinishTime:04/27/2018 17:25:30.843
