Input param:JobHistoryConnection:E:\MGALFA\AutomationCode\NewBusiness6pt\Log\ScenarioFileCopyExecutionHistory.txt
Input param:JobInstanceID:4
Input param:UseDBJobHistory:false
Input param:DestinationDirectory:E:\MGALFA\Model\Executionfolder\NewBusiness6pt
Input param:SourceDirectoryPattern:E:\MGALFA\Staging\FairValue\Scenario
Input param:Q1MonthMap:1,2,3
Input param:Q2MonthMap:4,5,6
Input param:Q3MonthMap:7,8,9
Input param:Q4MonthMap:10,11,12
Input param:ProcessTimeToMonthOffset:-4
Input param:OverwriteDestinationFile:true
Input param:ExpectedNumberOfFiles:-1
Input param:Wildcard:TCMALFA1_RN_Base_1000.agu
Input param:WildcardExclusions:
Input param:ReplaceFromString:
Input param:ReplaceToString:
File Name Before 1:E:\MGALFA\Staging\FairValue\Scenario\TCMALFA1_RN_Base_1000.agu
File Name After 1:E:\MGALFA\Model\Executionfolder\NewBusiness6pt\TCMALFA1_RN_Base_1000.agu
ResolvedDirectoryName:E:\MGALFA\Staging\FairValue\Scenario
FinishTime:04/27/2018 17:29:42.429
