Input param:JobHistoryConnection:E:\MGALFA\AutomationCode\NewBusiness6pt\Log\Vcf_Inputs_Part7b Perm Table.txt
Input param:JobInstanceID:1
Input param:SourceWorkbookLocation:E:\MGALFA\Staging\FairValue\VCFInput\TCM Equity Scenario Assumptions.xlsx
Input param:SourceSheetName:6 Point Average Volatilities
Input param:SourceRangeStartRow:726
Input param:SourceRangeStartColumn:C
Input param:SourceEndRangeRow:726
Input param:SourceEndRangeColumn:C
Input param:DestinationWorkbookLocation:E:\MGALFA\Model\Executionfolder\NewBusiness6pt\Vcf_Inputs.xlsx
Input param:DestinationSheetName:VarVCFFundVol_IFRS_FV
Input param:DestinationRangeStartRow:6
Input param:DestinationRangeStartColumn:HMW
Input param:DestinationEndRangeRow:6
Input param:DestinationEndRangeColumn:HMW
Source Cells:
C726:0.3
FinishTime:04/27/2018 17:26:24.108
