Input param:JobHistoryConnection:E:\mgalfa\AutomationCode\Sensitivities\FP_NewBusiness_5YE\Log\DeletePostRunFileJobHistory.txt
Input param:JobInstanceID:4
Input param:UseDBJobHistory:false
Input param:FileToDelete:E:\MGALFA\AlfaPostProcessingTriggerFiles\FP_NewBusiness_5YE.txt
FinishTime:01/05/2018 20:31:38.978
