Input param:JobHistoryConnection:E:\MGALFA\AutomationCode\Sensitivities\FP_Type_I_UW_Sensitivities_LapseUp20_1QTROUT\Log\FP_Type_I_UW_Sensitivities_LapseUp20_1QTROUT_Perm_Table_wscale5.txt
Input param:JobInstanceID:1
Input param:SourceWorkbookLocation:E:\mgalfa\Staging\FairValue\Sensitivity\ModelInputs\IFRS_Model_Inputs.xlsx
Input param:SourceSheetName:FP Type I UW Inputs
Input param:SourceRow:8
Input param:SourceColumn:E
Input param:DestinationWorkbookLocation:E:\MGALFA\Model\Executionfolder\Sensitivities\FP_Type_I_UW_Sensitivities_LapseUp20_1QTROUT\FVQtrly.xlsx
Input param:DestinationSheetName:wscale
Input param:DestinationRangeStartRow:8
Input param:DestinationRangeStartColumn:C
Input param:DestinationEndRangeRow:8
Input param:DestinationEndRangeColumn:EV
E8:1.2
FinishTime:02/14/2018 12:55:08.654
