Input param:JobHistoryConnection:E:\mgalfa\AutomationCode\Sensitivities\FP_Type_I_UW_Sensitivities_Mort100pct1YR_1QTROUT\Log\TextReportConsolidation.txt
Input param:JobInstanceID:1
Input param:LogFileDirectory:E:\mgalfa\AutomationCode\Sensitivities\FP_Type_I_UW_Sensitivities_Mort100pct1YR_1QTROUT\Log
Input param:OutputFile:E:\MGALFA\Model\Executionfolder\Sensitivities\FP_Type_I_UW_Sensitivities_Mort100pct1YR_1QTROUT\FP_Type_I_UW_Sensitivities_Mort100pct1YR_1QTROUTReports.xlsx
FinishTime:02/28/2018 04:13:41.134
