Input param:JobHistoryConnection:E:\MGALFA\AutomationCode\Sensitivities\FP_Type_I_UW_Sensitivities_Mort100pct1YR_1QTROUT\Log\VarVCFFundVol Perm Table.txt
Input param:JobInstanceID:2
Input param:SourceWorkbookLocation:E:\mgalfa\Staging\FairValue\Sensitivity\FPPKSetup\FP PK Setup.xlsx
Input param:SourceSheetName:VarVCFFundVol_IFRS_FV
Input param:SourceRangeStartRow:7
Input param:SourceRangeStartColumn:B
Input param:SourceEndRangeRow:7
Input param:SourceEndRangeColumn:JQI
Input param:DestinationWorkbookLocation:E:\MGALFA\Model\Executionfolder\Sensitivities\FP_Type_I_UW_Sensitivities_Mort100pct1YR_1QTROUT\VCF_Inputs.xlsx
Input param:DestinationSheetName:VarVCFFundVol_IFRS_FV
Input param:DestinationRangeStartRow:6
Input param:DestinationRangeStartColumn:B
Input param:DestinationEndRangeRow:6
Input param:DestinationEndRangeColumn:JQI
Source Cells:,,,,,,,,,,,,,,,,,,,,,,,,,,,,,,,,,,,,,,,,,,,,,,,,,,,,,,,,,,,,,,,,,,,,,,,,,,,,,,,,,,,,,,,,,,,,,,,,,,,,,,,,,,,,,,,,,,,,,,,,,,,,,,,,,,,,,,,,,,,,,,,,,,,,,,,,,,,,,,,,,,,,,,,,,,,,,,,,,,,,,,,,,,,,,,,,,,,,,,,,,,,,,,,,,,,,,,,,,,,,,,,,,,,,,,,,,,,,,,,,,,,,,,,,,,,,,,,,,,,,,,,,,,,,,,,,,,,,,,,,,,,,,,,,,,,,,,,,,,,,,,,,,,,,,,,,,,,,,,,,,,,,,,,,,,,,,,,,,,,,,,,,,,,,,,,,,,,,,,,,,,,,,,,,,,,,,,,,,,,,,,,,,,,,,,,,,,,,,,,,,,,,,,,,,,,,,,,,,,,,,,,,,,,,,,,,,,,,,,,,,,,,,,,,,,,,,,,,,,,,,,,,,,,,,,,,,,,,,,,,,,,,,,,,,,,,,,,,,,,,,,,,,,,,,,,,,,,,,,,,,,,,,,,,,,,,,,,,,,,,,,,,,,,,,,,,,,,,,,,,,,,,,,,,,,,,,,,,,,,,,,,,,,,,,,,,,,,,,,,,,,,,,,,,,,,,,,,,,,,,,,,,,,,,,,,,,,,,,,,,,,,,,,,,,,,,,,,,,,,,,,,,,,,,,,,,,,,,,,,,,,,,,,,,,,,,,,,,,,,,,,,,,,,,,,,,,,,,,,,,,,,,,,,,,,,,,,,,,,,,,,,,,,,,,,,,,,,,,,,,,,,,,,,,,,,,,,,,,,,,,,,,,,,,,,,,,,,,,,,,,,,,,,,,,,,,,,,,,,,,,,,,,,,,,,,,,,,,,,,,,,,,,,,,,,,,,,,,,,,,,,,,,,,,,,,,,,,,,,,,,,,,,,,,,,,,,,,,,,,,,,,,,,,,,,,,,,,,,,,,,,,,,,,,,,,,,,,,,,,,,,,,,,,,,,,,,,,,,,,,,,,,,,,,,,,,,,,,,,,,,,,,,,,,,,,,,,,,,,,,,,,,,,,,,,,,,,,,,,,,,,,,,,,,,,,,,,,,,,,,,,,,,,,,,,,,,,,,,,,,,,,,,,,,,,,,,,,,,,,,,,,,,,,,,,,,,,,,,,,,,,,,,,,,,,,,,,,,,,,,,,,,,,,,,,,,,,,,,,,,,,,,,,,,,,,,,,,,,,,,,,,,,,,,,,,,,,,,,,,,,,,,,,,,,,,,,,,,,,,,,,,,,,,,,,,,,,,,,,,,,,,,,,,,,,,,,,,,,,,,,,,,,,,,,,,,,,,,,,,,,,,,,,,,,,,,,,,,,,,,,,,,,,,,,,,,,,,,,,,,,,,,,,,,,,,,,,,,,,,,,,,,,,,,,,,,,,,,,,,,,,,,,,,,,,,,,,,,,,,,,,,,,,,,,,,,,,,,,,,,,,,,,,,,,,,,,,,,,,,,,,,,,,,,,,,,,,,,,,,,,,,,,,,,,,,,,,,,,,,,,,,,,,,,,,,,,,,,,,,,,,,,,,,,,,,,,,,,,,,,,,,,,,,,,,,,,,,,,,,,,,,,,,,,,,,,,,,,,,,,,,,,,,,,,,,,,,,,,,,,,,,,,,,,,,,,,,,,,,,,,,,,,,,,,,,,,,,,,,,,,,,,,,,,,,,,,,,,,,,,,,,,,,,,,,,,,,,,,,,,,,,,,,,,,,,,,,,,,,,,,,,,,,,,,,,,,,,,,,,,,,,,,,,,,,,,,,,,,,,,,,,,,,,,,,,,,,,,,,,,,,,,,,,,,,,,,,,,,,,,,,,,,,,,,,,,,,,,,,,,,,,,,,,,,,,,,,,,,,,,,,,,,,,,,,,,,,,,,,,,,,,,,,,,,,,,,,,,,,,,,,,,,,,,,,,,,,,,,,,,,,,,,,,,,,,,,,,,,,,,,,,,,,,,,,,,,,,,,,,,,,,,,,,,,,,,,,,,,,,,,,,,,,,,,,,,,,,,,,,,,,,,,,,,,,,,,,,,,,,,,,,,,,,,,,,,,,,,,,,,,,,,,,,,,,,,,,,,,,,,,,,,,,,,,,,,,,,,,,,,,,,,,,,,,,,,,,,,,,,,,,,,,,,,,,,,,,,,,,,,,,,,,,,,,,,,,,,,,,,,,,,,,,,,,,,,,,,,,,,,,,,,,,,,,,,,,,,,,,,,,,,,,,,,,,,,,,,,,,,,,,,,,,,,,,,,,,,,,,,,,,,,,,,,,,,,,,,,,,,,,,,,,,,,,,,,,,,,,,,,,,,,,,,,,,,,,,,,,,,,,,,,,,,,,,,,,,,,,,,,,,,,,,,,,,,,,,,,,,,,,,,,,,,,,,,,,,,,,,,,,,,,,,,,,,,,,,,,,,,,,,,,,,,,,,,,,,,,,,,,,,,,,,,,,,,,,,,,,,,,,,,,,,,,,,,,,,,,,,,,,,,,,,,,,,,,,,,,,,,,,,,,,,,,,,,,,,,,,,,,,,,,,,,,,,,,,,,,,,,,,,,,,,,,,,,,,,,,,,,,,,,,,,,,,,,,,,,,,,,,,,,,,,,,,,,,,,,,,,,,,,,,,,,,,,,,,,,,,,,,,,,,,,,,,,,,,,,,,,,,,,,,,,,,,,,,,,,,,,,,,,,,,,,,,,,,,,,,,,,,,,,,,,,,,,,,,,,,,,,,,,,,,,,,,,,,,,,,,,,,,,,,,,,,,,,,,,,,,,,,,,,,,,,,,,,,,,,,,,,,,,,,,,,,,,,,,,,,,,,,,,,,,,,,,,,,,,,,,,,,,,,,,,,,,,,,,,,,,,,,,,,,,,,,,,,,,,,,,,,,,,,,,,,,,,,,,,,,,,,,,,,,,,,,,,,,,,,,,,,,,,,,,,,,,,,,,,,,,,,,,,,,,,,,,,,,,,,,,,,,,,,,,,,,,,,,,,,,,,,,,,,,,,,,,,,,,,,,,,,,,,,,,,,,,,,,,,,,,,,,,,,,,,,,,,,,,,,,,,,,,,,,,,,,,,,,,,,,,,,,,,,,,,,,,,,,,,,,,,,,,,,,,,,,,,,,,,,,,,,,,,,,,,,,,,,,,,,,,,,,,,,,,,,,,,,,,,,,,,,,,,,,,,,,,,,,,,,,,,,,,,,,,,,,,,,,,,,,,,,,,,,,,,,,,,,,,,,,,,,,,,,,,,,,,,,,,,,,,,,,,,,,,,,,,,,,,,,,,,,,,,,,,,,,,,,,,,,,,,,,,,,,,,,,,,,,,,,,,,,,,,,,,,,,,,,,,,,,,,,,,,,,,,,,,,,,,,,,,,,,,,,,,,,,,,,,,,,,,,,,,,,,,,,,,,,,,,,,,,,,,,,,,,,,,,,,,,,,,,,,,,,,,,,,,,,,,,,,,,,,,,,,,,,,,,,,,,,,,,,,,,,,,,,,,,,,,,,,,,,,,,,,,,,,,,,,,,,,,,,,,,,,,,,,,,,,,,,,,,,,,,,,,,,,,,,,,,,,,,,,,,,,,,,,,,,,,,,,,,,,,,,,,,,,,,,,,,,,,,,,,,,,,,,,,,,,,,,,,,,,,,,,,,,,,,,,,,,,,,,,,,,,,,,,,,,,,,,,,,,,,,,,,,,,,,,,,,,,,,,,,,,,,,,,,,,,,,,,,,,,,,,,,,,,,,,,,,,,,,,,,,,,,,,,,,,,,,,,,,,,,,,,,,,,,,,,,,,,,,,,,,,,,,,,,,,,,,,,,,,,,,,,,,,,,,,,,,,,,,,,,,,,,,,,,,,,,,,,,,,,,,,,,,,,,,,,,,,,,,,,,,,,,,,,,,,,,,,,,,,,,,,,,,,,,,,,,,,,,,,,,,,,,,,,,,,,,,,,,,,,,,,,,,,,,,,,,,,,,,,,,,,,,,,,,,,,,,,,,,,,,,,,,,,,,,,,,,,,,,,,,,,,,,,,,,,,,,,,,,,,,,,,,,,,,,,,,,,,,,,,,,,,,,,,,,,,,,,,,,,,,,,,,,,,,,,,,,,,,,,,,,,,,,,,,,,,,,,,,,,,,,,,,,,,,,,,,,,,,,,,,,,,,,,,,,,,,,,,,,,,,,,,,,,,,,,,,,,,,,,,,,,,,,,,,,,,,,,,,,,,,,,,,,,,,,,,,,,,,,,,,,,,,,,,,,,,,,,,,,,,,,,,,,,,,,,,,,,,,,,,,,,,,,,,,,,,,,,,,,,,,,,,,,,,,,,,,,,,,,,,,,,,,,,,,,,,,,,,,,,,,,,,,,,,,,,,,,,,,,,,,,,,,,,,,,,,,,,,,,,,,,,,,,,,,,,,,,,,,,,,,,,,,,,,,,,,,,,,,,,,,,,,,,,,,,,,,,,,,,,,,,,,,,,,,,,,,,,,,,,,,,,,,,,,,,,,,,,,,,,,,,,,,,,,,,,,,,,,,,,,,,,,,,,,,,,,,,,,,,,,,,,,,,,,,,,,,,,,,,,,,,,,,,,,,,,,,,,,,,,,,,,,,,,,,,,,,,,,,,,,,,,,,,,,,,,,,,,,,,,,,,,,,,,,,,,,,,,,,,,,,,,,,,,,,,,,,,,,,,,,,,,,,,,,,,,,,,,,,,,,,,,,,,,,,,,,,,,,,,,,,,,,,,,,,,,,,,,,,,,,,,,,,,,,,,,,,,,,,,,,,,,,,,,,,,,,,,,,,,,,,,,,,,,,,,,,,,,,,,,,,,,,,,,,,,,,,,,,,,,,,,,,,,,,,,,,,,,,,,,,,,,,,,,,,,,,,,,,,,,,,,,,,,,,,,,,,,,,,,,,,,,,,,,,,,,,,,,,,,,,,,,,,,,,,,,,,,,,,,,,,,,,,,,,,,,,,,,,,,,,,,,,,,,,,,,,,,,,,,,,,,,,,,,,,,,,,,,,,,,,,,,,,,,,,,,,,,,,,,,,,,,,,,,,,,,,,,,,,,,,,,,,,,,,,,,,,,,,,,,,,,,,,,,,,,,,,,,,,,,,,,,,,,,,,,,,,,,,,,,,,,,,,,,,,,,,,,,,,,,,,,,,,,,,,,,,,,,,,,,,,,,,,,,,,,,,,,,,,,,,,,,,,,,,,,,,,,,,,,,,,,,,,,,,,,,,,,,,,,,,,,,,,,,,,,,,,,,,,,,,,,,,,,,,,,,,,,,,,,,,,,,,,,,,,,,,,,,,,,,,,,,,,,,,,,,,,,,,,,,,,,,,,,,,,,,,,,,,,,,,,,,,,,,,,,,,,,,,,,,,,,,,,,,,,,,,,,,,,,,,,,,,,,,,,,,,,,,,,,,,,,,,,,,,,,,,,,,,,,,,,,,,,,,,,,,,,,,,,,,,,,,,,,,,,,,,,,,,,,,,,,,,,,,,,,,,,,,,,,,,,,,,,,,,,,,,,,,,,,,,,,,,,,,,,,,,,,,,,,,,,,,,,,,,,,,,,,,,,,,,,,,,,,,,,,,,,,,,,,,,,,,,,,,,,,,,,,,,,,,,,,,,,,,,,,,,,,,,,,,,,,,,,,,,,,,,,,,,,,,,,,,,,,,,,,,,,,,,,,,,,,,,,,,,,,,,,,,,,,,,,,,,,,,,,,,,,,,,,,,,,,,,,,,,,,,,,,,,,,,,,,,,,,,,,,,,,,,,,,,,,,,,,,,,,,,,,,,,,,,,,,,,,,,,,,,,,,,,,,,,,,,,,,,,,,,,,,,,,,,,,,,,,,,,,,,,,,,,,,,,,,,,,,,,,,,,,,,,,,,,,,,,,,,,,,,,,,,,,,,,,,,,,,,,,,,,,,,,,,,,,,,,,,,,,,,,,,,,,,,,,,,,,,,,,,,,,,,,,,,,,,,,,,,,,,,,,,,,,,,,,,,,,,,,,,,,,,,,,,,,,,,,,,,,,,,,,,,,,,,,,,,,,,,,,,,,,,,,,,,,,,,,,,,,,,,,,,,,,,,,,,,,,,,,,,,,,,,,,,,,,,,,,,,,,,,,,,,,,,,,,,,,,,,,,,,,,,,,,,,,,,,,,,,,,,,,,,,,,,,,,,,,,,,,,,,,,,,,,,,,,,,,,,,,,,,,,,,,,,,,,,,,,,,,,,,,,,,,,,,,,,,,,,,,,,,,,,,,,,,,,,,,,,,,,,,,,,,,,,,,,,,,,,,,,,,,,,,,,,,,,,,,,,,,,,,,,,,,,,,,,,,,,,,,,,,,,,,,,,,,,,,,,,,,,,,,,,,,,,,,,,,,,,,,,,,,,,,,,,,,,,,,,,,,,,,,,,,,,,,,,,,,,,,,,,,,,,,,,,,,,,,,,,,,,,,,,,,,,,,,,,,,,,,,,,,,,,,,,,,,,,,,,,,,,,,,,,,,,,,,,,,,,,,,,,,,,,,,,,,,,,,,,,,,,,,,,,,,,,,,,,,,,,,,,,,,,,,,,,,,,,,,,,,,,,,,,,,,,,,,,,,,,,,,,,,,,,,,,,,,,,,,,,,,,,,,,,,,,,,,,,,,,,,,,,,,,,,,,,,,,,,,,,,,,,,,,,,,,,,,,,,,,,,,,,,,,,,,,,,,,,,,,,,,,,,,,,,,,,,,,,,,,,,,,,,,,,,,,,,,,,,,,,,,,,,,,,,,,,,,,,,,,,,,,,,,,,,,,,,,,,,,,,,,,,,,,,,,,,,,,,,,,,,,,,,,,,,,,,,,,,,,,,,,,,,,,,,,,,,,,,,,,,,,,,,,,,,,,,,,,,,,,,,,,,,,,,,,,,,,,,,,,,,,,,,,,,,,,,,,,,,,,,,,,,,,,,,,,,,,,,,,,,,,,,,,,,,,,,,,,,,,,,,,,,,,,,,,,,,,,,,,,,,,,,,,,,,,,,,,,,,,,,,,,,,,,,,,,,,,,,,,,,,,,,,,,,,,,,,,,,,,,,,,,,,,,,,,,,,,,,,,,,,,,,,,,,,,,,,,,,,,,,,,,,,,,,,,,,,,,,,,,,,,,,,,,,,,,,,,,,,,,,,,,,,,,,,,,,,,,,,,,,,,,,,,,,,,,,,,,,,,,,,,,,,,,,,,,,,,,,,,,,,,,,,,,,,,,,,,,,,,,,,,,,,,,,,,,,,,,,,,,,,,,,,,,,,,,,,,,,,,,,,,,,,,,,,,,,,,,,,,,,,,,,,,,,,,,,,,,,,,,,,,,,,,,,,,,,,,,,,,,,,,,,,,,,,,,,,,,,,,,,,,,,,,,,,,,,,,,,,,,,,,,,,,,,,,,,,,,,,,,,,,,,,,,,,,,,,,,,,,,,,,,,,,,,,,,,,,,,,,,,,,,,,,,,,,,,,,,,,,,,,,,,,,,,,,,,,,,,,,,,,,,,,,,,,,,,,,,,,,,,,,,,,,,,,,,,,,,,,,,,,,,,,,,,,,,,,,,,,,,,,,,,,,,,,,,,,,,,,,,,,,,,,,,,,,,,,,,,,,,,,,,,,,,,,,,,,,,,,,,,,,,,,,,,,,,,,,,,,,,,,,,,,,,,,,,,,,,,,,,,,,,,,,,,,,,,,,,,,,,,,,,,,,,,,,,,,,,,,,,,,,,,,,,,,,,,,,,,,,,,,,,,,,,,,,,,,,,,,,,,,,,,,,,,,,,,,,,,,,,,,,,,,,,,,,,,,,,,,,,,,,,,,,,,,,,,,,,,,,,,,,,,,,,,,,,,,,,,,,,,,,,,,,,,,,,,,,,,,,,,,,,,,,,,,,,,,,,,,,,,,,,
B7:0
C7:0
D7:0
E7:0
F7:0
G7:0
H7:0
I7:0
J7:0
K7:0
L7:0
M7:0
N7:0
O7:0
P7:0
Q7:0
R7:0
S7:0
T7:0
U7:0
V7:0
W7:0
X7:0
Y7:0
Z7:0
AA7:0
AB7:0
AC7:0
AD7:0
AE7:0
AF7:0
AG7:0
AH7:0
AI7:0
AJ7:0
AK7:0
AL7:0
AM7:0
AN7:0
AO7:0
AP7:0
AQ7:0
AR7:0
AS7:0
AT7:0
AU7:0
AV7:0
AW7:0
AX7:0
AY7:0
AZ7:0
BA7:0
BB7:0
BC7:0
BD7:0
BE7:0
BF7:0
BG7:0
BH7:0
BI7:0
BJ7:0
BK7:0
BL7:0
BM7:0
BN7:0
BO7:0
BP7:0
BQ7:0
BR7:0
BS7:0
BT7:0
BU7:0
BV7:0
BW7:0
BX7:0
BY7:0
BZ7:0
CA7:0
CB7:0
CC7:0
CD7:0
CE7:0
CF7:0
CG7:0
CH7:0
CI7:0
CJ7:0
CK7:0
CL7:0
CM7:0
CN7:0
CO7:0
CP7:0
CQ7:0
CR7:0
CS7:0
CT7:0
CU7:0
CV7:0
CW7:0
CX7:0
CY7:0
CZ7:0
DA7:0
DB7:0
DC7:0
DD7:0
DE7:0
DF7:0
DG7:0
DH7:0
DI7:0
DJ7:0
DK7:0
DL7:0
DM7:0
DN7:0
DO7:0
DP7:0
DQ7:0
DR7:0
DS7:0
DT7:0
DU7:0
DV7:0
DW7:0
DX7:0
DY7:0
DZ7:0
EA7:0
EB7:0
EC7:0
ED7:0
EE7:0
EF7:0
EG7:0
EH7:0
EI7:0
EJ7:0
EK7:0
EL7:0
EM7:0
EN7:0
EO7:0
EP7:0
EQ7:0
ER7:0
ES7:0
ET7:0
EU7:0
EV7:0
EW7:0
EX7:0
EY7:0
EZ7:0
FA7:0
FB7:0
FC7:0
FD7:0
FE7:0
FF7:0
FG7:0
FH7:0
FI7:0
FJ7:0
FK7:0
FL7:0
FM7:0
FN7:0
FO7:0
FP7:0
FQ7:0
FR7:0
FS7:0
FT7:0
FU7:0
FV7:0
FW7:0
FX7:0
FY7:0
FZ7:0
GA7:0
GB7:0
GC7:0
GD7:0
GE7:0
GF7:0
GG7:0
GH7:0
GI7:0
GJ7:0
GK7:0
GL7:0
GM7:0
GN7:0
GO7:0
GP7:0
GQ7:0
GR7:0
GS7:0
GT7:0
GU7:0
GV7:0
GW7:0
GX7:0
GY7:0
GZ7:0
HA7:0
HB7:0
HC7:0
HD7:0
HE7:0
HF7:0
HG7:0
HH7:0
HI7:0
HJ7:0
HK7:0
HL7:0
HM7:0
HN7:0
HO7:0
HP7:0
HQ7:0
HR7:0
HS7:0
HT7:0
HU7:0
HV7:0
HW7:0
HX7:0
HY7:0
HZ7:0
IA7:0
IB7:0
IC7:0
ID7:0
IE7:0
IF7:0
IG7:0
IH7:0
II7:0
IJ7:0
IK7:0
IL7:0
IM7:0
IN7:0
IO7:0
IP7:0
IQ7:0
IR7:0
IS7:0
IT7:0
IU7:0
IV7:0
IW7:0
IX7:0
IY7:0
IZ7:0
JA7:0
JB7:0
JC7:0
JD7:0
JE7:0
JF7:0
JG7:0
JH7:0
JI7:0
JJ7:0
JK7:0
JL7:0
JM7:0
JN7:0
JO7:0
JP7:0
JQ7:0
JR7:0
JS7:0
JT7:0
JU7:0
JV7:0
JW7:0
JX7:0
JY7:0
JZ7:0
KA7:0
KB7:0
KC7:0
KD7:0
KE7:0
KF7:0
KG7:0
KH7:0
KI7:0
KJ7:0
KK7:0
KL7:0
KM7:0
KN7:0
KO7:0
KP7:0
KQ7:0
KR7:0
KS7:0
KT7:0
KU7:0
KV7:0
KW7:0
KX7:0
KY7:0
KZ7:0
LA7:0
LB7:0
LC7:0
LD7:0
LE7:0
LF7:0
LG7:0
LH7:0
LI7:0
LJ7:0
LK7:0
LL7:0
LM7:0
LN7:0
LO7:0
LP7:0
LQ7:0
LR7:0
LS7:0
LT7:0
LU7:0
LV7:0
LW7:0
LX7:0
LY7:0
LZ7:0
MA7:0
MB7:0
MC7:0
MD7:0
ME7:0
MF7:0
MG7:0
MH7:0
MI7:0
MJ7:0
MK7:0
ML7:0
MM7:0
MN7:0
MO7:0
MP7:0
MQ7:0
MR7:0
MS7:0
MT7:0
MU7:0
MV7:0
MW7:0
MX7:0
MY7:0
MZ7:0
NA7:0
NB7:0
NC7:0
ND7:0
NE7:0
NF7:0
NG7:0
NH7:0
NI7:0
NJ7:0
NK7:0
NL7:0
NM7:0
NN7:0
NO7:0
NP7:0
NQ7:0
NR7:0
NS7:0
NT7:0
NU7:0
NV7:0
NW7:0
NX7:0
NY7:0
NZ7:0
OA7:0
OB7:0
OC7:0
OD7:0
OE7:0
OF7:0
OG7:0
OH7:0
OI7:0
OJ7:0
OK7:0
OL7:0
OM7:0
ON7:0
OO7:0
OP7:0
OQ7:0
OR7:0
OS7:0
OT7:0
OU7:0
OV7:0
OW7:0
OX7:0
OY7:0
OZ7:0
PA7:0
PB7:0
PC7:0
PD7:0
PE7:0
PF7:0
PG7:0
PH7:0
PI7:0
PJ7:0
PK7:0
PL7:0
PM7:0
PN7:0
PO7:0
PP7:0
PQ7:0
PR7:0
PS7:0
PT7:0
PU7:0
PV7:0
PW7:0
PX7:0
PY7:0
PZ7:0
QA7:0
QB7:0
QC7:0
QD7:0
QE7:0
QF7:0
QG7:0
QH7:0
QI7:0
QJ7:0
QK7:0
QL7:0
QM7:0
QN7:0
QO7:0
QP7:0
QQ7:0
QR7:0
QS7:0
QT7:0
QU7:0
QV7:0
QW7:0
QX7:0
QY7:0
QZ7:0
RA7:0
RB7:0
RC7:0
RD7:0
RE7:0
RF7:0
RG7:0
RH7:0
RI7:0
RJ7:0
RK7:0
RL7:0
RM7:0
RN7:0
RO7:0
RP7:0
RQ7:0
RR7:0
RS7:0
RT7:0
RU7:0
RV7:0
RW7:0
RX7:0
RY7:0
RZ7:0
SA7:0
SB7:0
SC7:0
SD7:0
SE7:0
SF7:0
SG7:0
SH7:0
SI7:0
SJ7:0
SK7:0
SL7:0
SM7:0
SN7:0
SO7:0
SP7:0
SQ7:0
SR7:0
SS7:0
ST7:0
SU7:0
SV7:0
SW7:0
SX7:0
SY7:0
SZ7:0
TA7:0
TB7:0
TC7:0
TD7:0
TE7:0
TF7:0
TG7:0
TH7:0
TI7:0
TJ7:0
TK7:0
TL7:0
TM7:0
TN7:0
TO7:0
TP7:0
TQ7:0
TR7:0
TS7:0
TT7:0
TU7:0
TV7:0
TW7:0
TX7:0
TY7:0
TZ7:0
UA7:0
UB7:0
UC7:0
UD7:0
UE7:0
UF7:0
UG7:0
UH7:0
UI7:0
UJ7:0
UK7:0
UL7:0
UM7:0
UN7:0
UO7:0
UP7:0
UQ7:0
UR7:0
US7:0
UT7:0
UU7:0
UV7:0
UW7:0
UX7:0
UY7:0
UZ7:0
VA7:0
VB7:0
VC7:0
VD7:0
VE7:0
VF7:0
VG7:0
VH7:0
VI7:0
VJ7:0
VK7:0
VL7:0
VM7:0
VN7:0
VO7:0
VP7:0
VQ7:0
VR7:0
VS7:0
VT7:0
VU7:0
VV7:0
VW7:0
VX7:0
VY7:0
VZ7:0
WA7:0
WB7:0
WC7:0
WD7:0
WE7:0
WF7:0
WG7:0
WH7:0
WI7:0
WJ7:0
WK7:0
WL7:0
WM7:0
WN7:0
WO7:0
WP7:0
WQ7:0
WR7:0
WS7:0
WT7:0
WU7:0
WV7:0
WW7:0
WX7:0
WY7:0
WZ7:0
XA7:0
XB7:0
XC7:0
XD7:0
XE7:0
XF7:0
XG7:0
XH7:0
XI7:0
XJ7:0
XK7:0
XL7:0
XM7:0
XN7:0
XO7:0
XP7:0
XQ7:0
XR7:0
XS7:0
XT7:0
XU7:0
XV7:0
XW7:0
XX7:0
XY7:0
XZ7:0
YA7:0
YB7:0
YC7:0
YD7:0
YE7:0
YF7:0
YG7:0
YH7:0
YI7:0
YJ7:0
YK7:0
YL7:0
YM7:0
YN7:0
YO7:0
YP7:0
YQ7:0
YR7:0
YS7:0
YT7:0
YU7:0
YV7:0
YW7:0
YX7:0
YY7:0
YZ7:0
ZA7:0
ZB7:0
ZC7:0
ZD7:0
ZE7:0
ZF7:0
ZG7:0
ZH7:0
ZI7:0
ZJ7:0
ZK7:0
ZL7:0
ZM7:0
ZN7:0
ZO7:0
ZP7:0
ZQ7:0
ZR7:0
ZS7:0
ZT7:0
ZU7:0
ZV7:0
ZW7:0
ZX7:0
ZY7:0
ZZ7:0
AAA7:0
AAB7:0
AAC7:0
AAD7:0
AAE7:0
AAF7:0
AAG7:0
AAH7:0
AAI7:0
AAJ7:0
AAK7:0
AAL7:0
AAM7:0
AAN7:0
AAO7:0
AAP7:0
AAQ7:0
AAR7:0
AAS7:0
AAT7:0
AAU7:0.2
AAV7:0.2
AAW7:0.2
AAX7:0.138982096494118
AAY7:0.138982096494118
AAZ7:0.138982096494118
ABA7:0.138982096494118
ABB7:0.138982096494118
ABC7:0.138982096494118
ABD7:0.138982096494118
ABE7:0.138982096494118
ABF7:0.138982096494118
ABG7:0.138982096494118
ABH7:0.138982096494118
ABI7:0.138982096494118
ABJ7:0.178995118193322
ABK7:0.178995118193322
ABL7:0.178995118193322
ABM7:0.178995118193322
ABN7:0.178995118193322
ABO7:0.178995118193322
ABP7:0.178995118193322
ABQ7:0.178995118193322
ABR7:0.178995118193322
ABS7:0.178995118193322
ABT7:0.178995118193322
ABU7:0.178995118193322
ABV7:0.187164123800441
ABW7:0.187164123800441
ABX7:0.187164123800441
ABY7:0.187164123800441
ABZ7:0.187164123800441
ACA7:0.187164123800441
ACB7:0.187164123800441
ACC7:0.187164123800441
ACD7:0.187164123800441
ACE7:0.187164123800441
ACF7:0.187164123800441
ACG7:0.187164123800441
ACH7:0.203599457088339
ACI7:0.203599457088339
ACJ7:0.203599457088339
ACK7:0.203599457088339
ACL7:0.203599457088339
ACM7:0.203599457088339
ACN7:0.203599457088339
ACO7:0.203599457088339
ACP7:0.203599457088339
ACQ7:0.203599457088339
ACR7:0.203599457088339
ACS7:0.203599457088339
ACT7:0.222197392387008
ACU7:0.222197392387008
ACV7:0.222197392387008
ACW7:0.222197392387008
ACX7:0.222197392387008
ACY7:0.222197392387008
ACZ7:0.222197392387008
ADA7:0.222197392387008
ADB7:0.222197392387008
ADC7:0.222197392387008
ADD7:0.222197392387008
ADE7:0.222197392387008
ADF7:0.205081652351508
ADG7:0.205842980277754
ADH7:0.206604308204
ADI7:0.207365636130245
ADJ7:0.208126964056491
ADK7:0.208888291982736
ADL7:0.209649619908982
ADM7:0.210410947835228
ADN7:0.211172275761473
ADO7:0.211933603687719
ADP7:0.212694931613965
ADQ7:0.21345625954021
ADR7:0.214217587466456
ADS7:0.214978915392701
ADT7:0.215740243318947
ADU7:0.216501571245193
ADV7:0.217262899171438
ADW7:0.218024227097684
ADX7:0.218785555023929
ADY7:0.219546882950175
ADZ7:0.220308210876421
AEA7:0.221069538802666
AEB7:0.221830866728912
AEC7:0.222592194655158
AED7:0.223353522581403
AEE7:0.224114850507649
AEF7:0.224876178433894
AEG7:0.22563750636014
AEH7:0.226398834286386
AEI7:0.227160162212631
AEJ7:0.227921490138877
AEK7:0.228682818065123
AEL7:0.229444145991368
AEM7:0.230205473917614
AEN7:0.230966801843859
AEO7:0.231728129770105
AEP7:0.232489457696351
AEQ7:0.233250785622596
AER7:0.234012113548842
AES7:0.234773441475088
AET7:0.235534769401333
AEU7:0.236296097327579
AEV7:0.237057425253824
AEW7:0.23781875318007
AEX7:0.238580081106316
AEY7:0.239341409032561
AEZ7:0.240102736958807
AFA7:0.240864064885053
AFB7:0.241625392811298
AFC7:0.242386720737544
AFD7:0.243148048663789
AFE7:0.243909376590035
AFF7:0.244670704516281
AFG7:0.245432032442526
AFH7:0.246193360368772
AFI7:0.246954688295018
AFJ7:0.247716016221263
AFK7:0.248477344147509
AFL7:0.249238672073754
AFM7:0.25
AFN7:0.25
AFO7:0.25
AFP7:0.25
AFQ7:0.25
AFR7:0.25
AFS7:0.25
AFT7:0.25
AFU7:0.25
AFV7:0.25
AFW7:0.25
AFX7:0.25
AFY7:0.25
AFZ7:0.25
AGA7:0.25
AGB7:0.25
AGC7:0.25
AGD7:0.25
AGE7:0.25
AGF7:0.25
AGG7:0.25
AGH7:0.25
AGI7:0.25
AGJ7:0.25
AGK7:0.25
AGL7:0.25
AGM7:0.25
AGN7:0.25
AGO7:0.25
AGP7:0.25
AGQ7:0.25
AGR7:0.25
AGS7:0.25
AGT7:0.25
AGU7:0.25
AGV7:0.25
AGW7:0.25
AGX7:0.25
AGY7:0.25
AGZ7:0.25
AHA7:0.25
AHB7:0.25
AHC7:0.25
AHD7:0.25
AHE7:0.25
AHF7:0.25
AHG7:0.25
AHH7:0.25
AHI7:0.25
AHJ7:0.25
AHK7:0.25
AHL7:0.25
AHM7:0.25
AHN7:0.25
AHO7:0.25
AHP7:0.25
AHQ7:0.25
AHR7:0.25
AHS7:0.25
AHT7:0.25
AHU7:0.25
AHV7:0.25
AHW7:0.25
AHX7:0.25
AHY7:0.25
AHZ7:0.25
AIA7:0.25
AIB7:0.25
AIC7:0.25
AID7:0.25
AIE7:0.25
AIF7:0.25
AIG7:0.25
AIH7:0.25
AII7:0.25
AIJ7:0.25
AIK7:0.25
AIL7:0.25
AIM7:0.25
AIN7:0.25
AIO7:0.25
AIP7:0.25
AIQ7:0.25
AIR7:0.25
AIS7:0.25
AIT7:0.25
AIU7:0.25
AIV7:0.25
AIW7:0.25
AIX7:0.25
AIY7:0.25
AIZ7:0.25
AJA7:0.25
AJB7:0.25
AJC7:0.25
AJD7:0.25
AJE7:0.25
AJF7:0.25
AJG7:0.25
AJH7:0.25
AJI7:0.25
AJJ7:0.25
AJK7:0.25
AJL7:0.25
AJM7:0.25
AJN7:0.25
AJO7:0.25
AJP7:0.25
AJQ7:0.25
AJR7:0.25
AJS7:0.25
AJT7:0.25
AJU7:0.25
AJV7:0.25
AJW7:0.25
AJX7:0.25
AJY7:0.25
AJZ7:0.25
AKA7:0.25
AKB7:0.25
AKC7:0.25
AKD7:0.25
AKE7:0.25
AKF7:0.25
AKG7:0.25
AKH7:0.25
AKI7:0.25
AKJ7:0.25
AKK7:0.25
AKL7:0.25
AKM7:0.25
AKN7:0.25
AKO7:0.25
AKP7:0.25
AKQ7:0.25
AKR7:0.25
AKS7:0.25
AKT7:0.25
AKU7:0.25
AKV7:0.25
AKW7:0.25
AKX7:0.25
AKY7:0.25
AKZ7:0.25
ALA7:0.25
ALB7:0.25
ALC7:0.25
ALD7:0.25
ALE7:0.25
ALF7:0.25
ALG7:0.25
ALH7:0.25
ALI7:0.25
ALJ7:0.25
ALK7:0.25
ALL7:0.25
ALM7:0.25
ALN7:0.25
ALO7:0.25
ALP7:0.25
ALQ7:0.25
ALR7:0.25
ALS7:0.25
ALT7:0.25
ALU7:0.25
ALV7:0.25
ALW7:0.25
ALX7:0.25
ALY7:0.25
ALZ7:0.25
AMA7:0.25
AMB7:0.25
AMC7:0.25
AMD7:0.25
AME7:0.25
AMF7:0.25
AMG7:0.25
AMH7:0.25
AMI7:0.25
AMJ7:0.25
AMK7:0.25
AML7:0.25
AMM7:0.25
AMN7:0.25
AMO7:0.25
AMP7:0.25
AMQ7:0.25
AMR7:0.25
AMS7:0.25
AMT7:0.25
AMU7:0.25
AMV7:0.25
AMW7:0.25
AMX7:0.25
AMY7:0.25
AMZ7:0.25
ANA7:0.25
ANB7:0.25
ANC7:0.25
AND7:0.25
ANE7:0.25
ANF7:0.25
ANG7:0.25
ANH7:0.25
ANI7:0.25
ANJ7:0.25
ANK7:0.25
ANL7:0.25
ANM7:0.25
ANN7:0.25
ANO7:0.25
ANP7:0.25
ANQ7:0.25
ANR7:0.25
ANS7:0.25
ANT7:0.25
ANU7:0.25
ANV7:0.25
ANW7:0.25
ANX7:0.25
ANY7:0.25
ANZ7:0.25
AOA7:0.25
AOB7:0.25
AOC7:0.25
AOD7:0.25
AOE7:0.25
AOF7:0.25
AOG7:0.25
AOH7:0.25
AOI7:0.25
AOJ7:0.25
AOK7:0.25
AOL7:0.25
AOM7:0.25
AON7:0.25
AOO7:0.25
AOP7:0.25
AOQ7:0.25
AOR7:0.25
AOS7:0.25
AOT7:0.25
AOU7:0.25
AOV7:0.25
AOW7:0.25
AOX7:0.25
AOY7:0.25
AOZ7:0.25
APA7:0.25
APB7:0.25
APC7:0.25
APD7:0.25
APE7:0.25
APF7:0.25
APG7:0.25
APH7:0.25
API7:0.25
APJ7:0.25
APK7:0.25
APL7:0.25
APM7:0.25
APN7:0.25
APO7:0.25
APP7:0.25
APQ7:0.25
APR7:0.25
APS7:0.25
APT7:0.25
APU7:0.25
APV7:0.25
APW7:0.25
APX7:0.25
APY7:0.25
APZ7:0.25
AQA7:0.25
AQB7:0.25
AQC7:0.25
AQD7:0.25
AQE7:0.25
AQF7:0.25
AQG7:0.25
AQH7:0.25
AQI7:0.25
AQJ7:0.25
AQK7:0.25
AQL7:0.25
AQM7:0.25
AQN7:0.25
AQO7:0.25
AQP7:0.25
AQQ7:0.25
AQR7:0.25
AQS7:0.25
AQT7:0.25
AQU7:0.25
AQV7:0.25
AQW7:0.25
AQX7:0.25
AQY7:0.25
AQZ7:0.25
ARA7:0.25
ARB7:0.25
ARC7:0.25
ARD7:0.25
ARE7:0.25
ARF7:0.25
ARG7:0.25
ARH7:0.25
ARI7:0.25
ARJ7:0.25
ARK7:0.25
ARL7:0.25
ARM7:0.25
ARN7:0.25
ARO7:0.25
ARP7:0.25
ARQ7:0.25
ARR7:0.25
ARS7:0.25
ART7:0.25
ARU7:0.25
ARV7:0.25
ARW7:0.25
ARX7:0.25
ARY7:0.25
ARZ7:0.25
ASA7:0.25
ASB7:0.25
ASC7:0.25
ASD7:0.25
ASE7:0.25
ASF7:0.25
ASG7:0.25
ASH7:0.25
ASI7:0.25
ASJ7:0.25
ASK7:0.25
ASL7:0.25
ASM7:0.25
ASN7:0.25
ASO7:0.25
ASP7:0.25
ASQ7:0.25
ASR7:0.25
ASS7:0.25
AST7:0.25
ASU7:0.25
ASV7:0.25
ASW7:0.25
ASX7:0.25
ASY7:0.25
ASZ7:0.25
ATA7:0.25
ATB7:0.25
ATC7:0.25
ATD7:0.25
ATE7:0.25
ATF7:0.25
ATG7:0.25
ATH7:0.25
ATI7:0.25
ATJ7:0.25
ATK7:0.25
ATL7:0.25
ATM7:0.25
ATN7:0.25
ATO7:0.25
ATP7:0.25
ATQ7:0.25
ATR7:0.25
ATS7:0.25
ATT7:0.25
ATU7:0.25
ATV7:0.25
ATW7:0.25
ATX7:0.25
ATY7:0.25
ATZ7:0.25
AUA7:0.25
AUB7:0.25
AUC7:0.25
AUD7:0.25
AUE7:0.25
AUF7:0.25
AUG7:0.25
AUH7:0.25
AUI7:0.25
AUJ7:0.25
AUK7:0.25
AUL7:0.25
AUM7:0.25
AUN7:0.25
AUO7:0.25
AUP7:0.25
AUQ7:0.25
AUR7:0.25
AUS7:0.25
AUT7:0.25
AUU7:0.25
AUV7:0.25
AUW7:0.25
AUX7:0.25
AUY7:0.25
AUZ7:0.25
AVA7:0.25
AVB7:0.25
AVC7:0.25
AVD7:0.25
AVE7:0.25
AVF7:0.25
AVG7:0.25
AVH7:0.25
AVI7:0.25
AVJ7:0.25
AVK7:0.25
AVL7:0.25
AVM7:0.25
AVN7:0.25
AVO7:0.25
AVP7:0.25
AVQ7:0.25
AVR7:0.25
AVS7:0.25
AVT7:0.25
AVU7:0.25
AVV7:0.25
AVW7:0.25
AVX7:0.25
AVY7:0.25
AVZ7:0.25
AWA7:0.25
AWB7:0.25
AWC7:0.25
AWD7:0.25
AWE7:0.25
AWF7:0.25
AWG7:0.25
AWH7:0.25
AWI7:0.25
AWJ7:0.25
AWK7:0.25
AWL7:0.25
AWM7:0.25
AWN7:0.25
AWO7:0.25
AWP7:0.25
AWQ7:0.25
AWR7:0.25
AWS7:0.25
AWT7:0.25
AWU7:0.25
AWV7:0.25
AWW7:0.25
AWX7:0.25
AWY7:0.25
AWZ7:0.25
AXA7:0.25
AXB7:0.25
AXC7:0.25
AXD7:0.25
AXE7:0.25
AXF7:0.25
AXG7:0.25
AXH7:0.25
AXI7:0.25
AXJ7:0.25
AXK7:0.25
AXL7:0.25
AXM7:0.25
AXN7:0.25
AXO7:0.25
AXP7:0.25
AXQ7:0.25
AXR7:0.25
AXS7:0.25
AXT7:0.25
AXU7:0.25
AXV7:0.25
AXW7:0.25
AXX7:0.25
AXY7:0.25
AXZ7:0.25
AYA7:0.25
AYB7:0.25
AYC7:0.25
AYD7:0.25
AYE7:0.25
AYF7:0.25
AYG7:0.25
AYH7:0.25
AYI7:0.25
AYJ7:0.25
AYK7:0.25
AYL7:0.25
AYM7:0.25
AYN7:0.25
AYO7:0.25
AYP7:0.25
AYQ7:0.25
AYR7:0.25
AYS7:0.25
AYT7:0.25
AYU7:0.25
AYV7:0.25
AYW7:0.25
AYX7:0.25
AYY7:0.25
AYZ7:0.25
AZA7:0.25
AZB7:0.25
AZC7:0.25
AZD7:0.25
AZE7:0.25
AZF7:0.25
AZG7:0.25
AZH7:0.25
AZI7:0.25
AZJ7:0.25
AZK7:0.25
AZL7:0.25
AZM7:0.25
AZN7:0.25
AZO7:0.25
AZP7:0.25
AZQ7:0.25
AZR7:0.25
AZS7:0.25
AZT7:0.25
AZU7:0.25
AZV7:0.25
AZW7:0.25
AZX7:0.25
AZY7:0.25
AZZ7:0.25
BAA7:0.25
BAB7:0.25
BAC7:0.25
BAD7:0.25
BAE7:0.25
BAF7:0.25
BAG7:0.25
BAH7:0.25
BAI7:0.25
BAJ7:0.25
BAK7:0.25
BAL7:0.25
BAM7:0.25
BAN7:0.25
BAO7:0.25
BAP7:0.25
BAQ7:0.25
BAR7:0.25
BAS7:0.25
BAT7:0.25
BAU7:0.25
BAV7:0.25
BAW7:0.25
BAX7:0.25
BAY7:0.25
BAZ7:0.25
BBA7:0.25
BBB7:0.25
BBC7:0.25
BBD7:0.25
BBE7:0.25
BBF7:0.25
BBG7:0.25
BBH7:0.25
BBI7:0.25
BBJ7:0.25
BBK7:0.25
BBL7:0.25
BBM7:0.25
BBN7:0.25
BBO7:0.25
BBP7:0.25
BBQ7:0.25
BBR7:0.25
BBS7:0.25
BBT7:0.25
BBU7:0.25
BBV7:0.25
BBW7:0.25
BBX7:0.25
BBY7:0.25
BBZ7:0.25
BCA7:0.25
BCB7:0.25
BCC7:0.25
BCD7:0.25
BCE7:0.25
BCF7:0.25
BCG7:0.25
BCH7:0.25
BCI7:0.25
BCJ7:0.25
BCK7:0.25
BCL7:0.25
BCM7:0.25
BCN7:0.2
BCO7:0.2
BCP7:0.2
BCQ7:0.14647343569696
BCR7:0.14647343569696
BCS7:0.14647343569696
BCT7:0.14647343569696
BCU7:0.14647343569696
BCV7:0.14647343569696
BCW7:0.14647343569696
BCX7:0.14647343569696
BCY7:0.14647343569696
BCZ7:0.14647343569696
BDA7:0.14647343569696
BDB7:0.14647343569696
BDC7:0.193978897124871
BDD7:0.193978897124871
BDE7:0.193978897124871
BDF7:0.193978897124871
BDG7:0.193978897124871
BDH7:0.193978897124871
BDI7:0.193978897124871
BDJ7:0.193978897124871
BDK7:0.193978897124871
BDL7:0.193978897124871
BDM7:0.193978897124871
BDN7:0.193978897124871
BDO7:0.188608719535339
BDP7:0.188608719535339
BDQ7:0.188608719535339
BDR7:0.188608719535339
BDS7:0.188608719535339
BDT7:0.188608719535339
BDU7:0.188608719535339
BDV7:0.188608719535339
BDW7:0.188608719535339
BDX7:0.188608719535339
BDY7:0.188608719535339
BDZ7:0.188608719535339
BEA7:0.196763732792945
BEB7:0.196763732792945
BEC7:0.196763732792945
BED7:0.196763732792945
BEE7:0.196763732792945
BEF7:0.196763732792945
BEG7:0.196763732792945
BEH7:0.196763732792945
BEI7:0.196763732792945
BEJ7:0.196763732792945
BEK7:0.196763732792945
BEL7:0.196763732792945
BEM7:0.203638056487858
BEN7:0.203638056487858
BEO7:0.203638056487858
BEP7:0.203638056487858
BEQ7:0.203638056487858
BER7:0.203638056487858
BES7:0.203638056487858
BET7:0.203638056487858
BEU7:0.203638056487858
BEV7:0.203638056487858
BEW7:0.203638056487858
BEX7:0.203638056487858
BEY7:0.19723122233418
BEZ7:0.198125608396312
BFA7:0.199019994458445
BFB7:0.199914380520578
BFC7:0.20080876658271
BFD7:0.201703152644843
BFE7:0.202597538706975
BFF7:0.203491924769108
BFG7:0.20438631083124
BFH7:0.205280696893373
BFI7:0.206175082955505
BFJ7:0.207069469017638
BFK7:0.20796385507977
BFL7:0.208858241141903
BFM7:0.209752627204036
BFN7:0.210647013266168
BFO7:0.211541399328301
BFP7:0.212435785390433
BFQ7:0.213330171452566
BFR7:0.214224557514698
BFS7:0.215118943576831
BFT7:0.216013329638963
BFU7:0.216907715701096
BFV7:0.217802101763228
BFW7:0.218696487825361
BFX7:0.219590873887494
BFY7:0.220485259949626
BFZ7:0.221379646011759
BGA7:0.222274032073891
BGB7:0.223168418136024
BGC7:0.224062804198156
BGD7:0.224957190260289
BGE7:0.225851576322421
BGF7:0.226745962384554
BGG7:0.227640348446686
BGH7:0.228534734508819
BGI7:0.229429120570951
BGJ7:0.230323506633084
BGK7:0.231217892695217
BGL7:0.232112278757349
BGM7:0.233006664819482
BGN7:0.233901050881614
BGO7:0.234795436943747
BGP7:0.235689823005879
BGQ7:0.236584209068012
BGR7:0.237478595130144
BGS7:0.238372981192277
BGT7:0.239267367254409
BGU7:0.240161753316542
BGV7:0.241056139378675
BGW7:0.241950525440807
BGX7:0.24284491150294
BGY7:0.243739297565072
BGZ7:0.244633683627205
BHA7:0.245528069689337
BHB7:0.24642245575147
BHC7:0.247316841813602
BHD7:0.248211227875735
BHE7:0.249105613937867
BHF7:0.25
BHG7:0.25
BHH7:0.25
BHI7:0.25
BHJ7:0.25
BHK7:0.25
BHL7:0.25
BHM7:0.25
BHN7:0.25
BHO7:0.25
BHP7:0.25
BHQ7:0.25
BHR7:0.25
BHS7:0.25
BHT7:0.25
BHU7:0.25
BHV7:0.25
BHW7:0.25
BHX7:0.25
BHY7:0.25
BHZ7:0.25
BIA7:0.25
BIB7:0.25
BIC7:0.25
BID7:0.25
BIE7:0.25
BIF7:0.25
BIG7:0.25
BIH7:0.25
BII7:0.25
BIJ7:0.25
BIK7:0.25
BIL7:0.25
BIM7:0.25
BIN7:0.25
BIO7:0.25
BIP7:0.25
BIQ7:0.25
BIR7:0.25
BIS7:0.25
BIT7:0.25
BIU7:0.25
BIV7:0.25
BIW7:0.25
BIX7:0.25
BIY7:0.25
BIZ7:0.25
BJA7:0.25
BJB7:0.25
BJC7:0.25
BJD7:0.25
BJE7:0.25
BJF7:0.25
BJG7:0.25
BJH7:0.25
BJI7:0.25
BJJ7:0.25
BJK7:0.25
BJL7:0.25
BJM7:0.25
BJN7:0.25
BJO7:0.25
BJP7:0.25
BJQ7:0.25
BJR7:0.25
BJS7:0.25
BJT7:0.25
BJU7:0.25
BJV7:0.25
BJW7:0.25
BJX7:0.25
BJY7:0.25
BJZ7:0.25
BKA7:0.25
BKB7:0.25
BKC7:0.25
BKD7:0.25
BKE7:0.25
BKF7:0.25
BKG7:0.25
BKH7:0.25
BKI7:0.25
BKJ7:0.25
BKK7:0.25
BKL7:0.25
BKM7:0.25
BKN7:0.25
BKO7:0.25
BKP7:0.25
BKQ7:0.25
BKR7:0.25
BKS7:0.25
BKT7:0.25
BKU7:0.25
BKV7:0.25
BKW7:0.25
BKX7:0.25
BKY7:0.25
BKZ7:0.25
BLA7:0.25
BLB7:0.25
BLC7:0.25
BLD7:0.25
BLE7:0.25
BLF7:0.25
BLG7:0.25
BLH7:0.25
BLI7:0.25
BLJ7:0.25
BLK7:0.25
BLL7:0.25
BLM7:0.25
BLN7:0.25
BLO7:0.25
BLP7:0.25
BLQ7:0.25
BLR7:0.25
BLS7:0.25
BLT7:0.25
BLU7:0.25
BLV7:0.25
BLW7:0.25
BLX7:0.25
BLY7:0.25
BLZ7:0.25
BMA7:0.25
BMB7:0.25
BMC7:0.25
BMD7:0.25
BME7:0.25
BMF7:0.25
BMG7:0.25
BMH7:0.25
BMI7:0.25
BMJ7:0.25
BMK7:0.25
BML7:0.25
BMM7:0.25
BMN7:0.25
BMO7:0.25
BMP7:0.25
BMQ7:0.25
BMR7:0.25
BMS7:0.25
BMT7:0.25
BMU7:0.25
BMV7:0.25
BMW7:0.25
BMX7:0.25
BMY7:0.25
BMZ7:0.25
BNA7:0.25
BNB7:0.25
BNC7:0.25
BND7:0.25
BNE7:0.25
BNF7:0.25
BNG7:0.25
BNH7:0.25
BNI7:0.25
BNJ7:0.25
BNK7:0.25
BNL7:0.25
BNM7:0.25
BNN7:0.25
BNO7:0.25
BNP7:0.25
BNQ7:0.25
BNR7:0.25
BNS7:0.25
BNT7:0.25
BNU7:0.25
BNV7:0.25
BNW7:0.25
BNX7:0.25
BNY7:0.25
BNZ7:0.25
BOA7:0.25
BOB7:0.25
BOC7:0.25
BOD7:0.25
BOE7:0.25
BOF7:0.25
BOG7:0.25
BOH7:0.25
BOI7:0.25
BOJ7:0.25
BOK7:0.25
BOL7:0.25
BOM7:0.25
BON7:0.25
BOO7:0.25
BOP7:0.25
BOQ7:0.25
BOR7:0.25
BOS7:0.25
BOT7:0.25
BOU7:0.25
BOV7:0.25
BOW7:0.25
BOX7:0.25
BOY7:0.25
BOZ7:0.25
BPA7:0.25
BPB7:0.25
BPC7:0.25
BPD7:0.25
BPE7:0.25
BPF7:0.25
BPG7:0.25
BPH7:0.25
BPI7:0.25
BPJ7:0.25
BPK7:0.25
BPL7:0.25
BPM7:0.25
BPN7:0.25
BPO7:0.25
BPP7:0.25
BPQ7:0.25
BPR7:0.25
BPS7:0.25
BPT7:0.25
BPU7:0.25
BPV7:0.25
BPW7:0.25
BPX7:0.25
BPY7:0.25
BPZ7:0.25
BQA7:0.25
BQB7:0.25
BQC7:0.25
BQD7:0.25
BQE7:0.25
BQF7:0.25
BQG7:0.25
BQH7:0.25
BQI7:0.25
BQJ7:0.25
BQK7:0.25
BQL7:0.25
BQM7:0.25
BQN7:0.25
BQO7:0.25
BQP7:0.25
BQQ7:0.25
BQR7:0.25
BQS7:0.25
BQT7:0.25
BQU7:0.25
BQV7:0.25
BQW7:0.25
BQX7:0.25
BQY7:0.25
BQZ7:0.25
BRA7:0.25
BRB7:0.25
BRC7:0.25
BRD7:0.25
BRE7:0.25
BRF7:0.25
BRG7:0.25
BRH7:0.25
BRI7:0.25
BRJ7:0.25
BRK7:0.25
BRL7:0.25
BRM7:0.25
BRN7:0.25
BRO7:0.25
BRP7:0.25
BRQ7:0.25
BRR7:0.25
BRS7:0.25
BRT7:0.25
BRU7:0.25
BRV7:0.25
BRW7:0.25
BRX7:0.25
BRY7:0.25
BRZ7:0.25
BSA7:0.25
BSB7:0.25
BSC7:0.25
BSD7:0.25
BSE7:0.25
BSF7:0.25
BSG7:0.25
BSH7:0.25
BSI7:0.25
BSJ7:0.25
BSK7:0.25
BSL7:0.25
BSM7:0.25
BSN7:0.25
BSO7:0.25
BSP7:0.25
BSQ7:0.25
BSR7:0.25
BSS7:0.25
BST7:0.25
BSU7:0.25
BSV7:0.25
BSW7:0.25
BSX7:0.25
BSY7:0.25
BSZ7:0.25
BTA7:0.25
BTB7:0.25
BTC7:0.25
BTD7:0.25
BTE7:0.25
BTF7:0.25
BTG7:0.25
BTH7:0.25
BTI7:0.25
BTJ7:0.25
BTK7:0.25
BTL7:0.25
BTM7:0.25
BTN7:0.25
BTO7:0.25
BTP7:0.25
BTQ7:0.25
BTR7:0.25
BTS7:0.25
BTT7:0.25
BTU7:0.25
BTV7:0.25
BTW7:0.25
BTX7:0.25
BTY7:0.25
BTZ7:0.25
BUA7:0.25
BUB7:0.25
BUC7:0.25
BUD7:0.25
BUE7:0.25
BUF7:0.25
BUG7:0.25
BUH7:0.25
BUI7:0.25
BUJ7:0.25
BUK7:0.25
BUL7:0.25
BUM7:0.25
BUN7:0.25
BUO7:0.25
BUP7:0.25
BUQ7:0.25
BUR7:0.25
BUS7:0.25
BUT7:0.25
BUU7:0.25
BUV7:0.25
BUW7:0.25
BUX7:0.25
BUY7:0.25
BUZ7:0.25
BVA7:0.25
BVB7:0.25
BVC7:0.25
BVD7:0.25
BVE7:0.25
BVF7:0.25
BVG7:0.25
BVH7:0.25
BVI7:0.25
BVJ7:0.25
BVK7:0.25
BVL7:0.25
BVM7:0.25
BVN7:0.25
BVO7:0.25
BVP7:0.25
BVQ7:0.25
BVR7:0.25
BVS7:0.25
BVT7:0.25
BVU7:0.25
BVV7:0.25
BVW7:0.25
BVX7:0.25
BVY7:0.25
BVZ7:0.25
BWA7:0.25
BWB7:0.25
BWC7:0.25
BWD7:0.25
BWE7:0.25
BWF7:0.25
BWG7:0.25
BWH7:0.25
BWI7:0.25
BWJ7:0.25
BWK7:0.25
BWL7:0.25
BWM7:0.25
BWN7:0.25
BWO7:0.25
BWP7:0.25
BWQ7:0.25
BWR7:0.25
BWS7:0.25
BWT7:0.25
BWU7:0.25
BWV7:0.25
BWW7:0.25
BWX7:0.25
BWY7:0.25
BWZ7:0.25
BXA7:0.25
BXB7:0.25
BXC7:0.25
BXD7:0.25
BXE7:0.25
BXF7:0.25
BXG7:0.25
BXH7:0.25
BXI7:0.25
BXJ7:0.25
BXK7:0.25
BXL7:0.25
BXM7:0.25
BXN7:0.25
BXO7:0.25
BXP7:0.25
BXQ7:0.25
BXR7:0.25
BXS7:0.25
BXT7:0.25
BXU7:0.25
BXV7:0.25
BXW7:0.25
BXX7:0.25
BXY7:0.25
BXZ7:0.25
BYA7:0.25
BYB7:0.25
BYC7:0.25
BYD7:0.25
BYE7:0.25
BYF7:0.25
BYG7:0.25
BYH7:0.25
BYI7:0.25
BYJ7:0.25
BYK7:0.25
BYL7:0.25
BYM7:0.25
BYN7:0.25
BYO7:0.25
BYP7:0.25
BYQ7:0.25
BYR7:0.25
BYS7:0.25
BYT7:0.25
BYU7:0.25
BYV7:0.25
BYW7:0.25
BYX7:0.25
BYY7:0.25
BYZ7:0.25
BZA7:0.25
BZB7:0.25
BZC7:0.25
BZD7:0.25
BZE7:0.25
BZF7:0.25
BZG7:0.25
BZH7:0.25
BZI7:0.25
BZJ7:0.25
BZK7:0.25
BZL7:0.25
BZM7:0.25
BZN7:0.25
BZO7:0.25
BZP7:0.25
BZQ7:0.25
BZR7:0.25
BZS7:0.25
BZT7:0.25
BZU7:0.25
BZV7:0.25
BZW7:0.25
BZX7:0.25
BZY7:0.25
BZZ7:0.25
CAA7:0.25
CAB7:0.25
CAC7:0.25
CAD7:0.25
CAE7:0.25
CAF7:0.25
CAG7:0.25
CAH7:0.25
CAI7:0.25
CAJ7:0.25
CAK7:0.25
CAL7:0.25
CAM7:0.25
CAN7:0.25
CAO7:0.25
CAP7:0.25
CAQ7:0.25
CAR7:0.25
CAS7:0.25
CAT7:0.25
CAU7:0.25
CAV7:0.25
CAW7:0.25
CAX7:0.25
CAY7:0.25
CAZ7:0.25
CBA7:0.25
CBB7:0.25
CBC7:0.25
CBD7:0.25
CBE7:0.25
CBF7:0.25
CBG7:0.25
CBH7:0.25
CBI7:0.25
CBJ7:0.25
CBK7:0.25
CBL7:0.25
CBM7:0.25
CBN7:0.25
CBO7:0.25
CBP7:0.25
CBQ7:0.25
CBR7:0.25
CBS7:0.25
CBT7:0.25
CBU7:0.25
CBV7:0.25
CBW7:0.25
CBX7:0.25
CBY7:0.25
CBZ7:0.25
CCA7:0.25
CCB7:0.25
CCC7:0.25
CCD7:0.25
CCE7:0.25
CCF7:0.25
CCG7:0.25
CCH7:0.25
CCI7:0.25
CCJ7:0.25
CCK7:0.25
CCL7:0.25
CCM7:0.25
CCN7:0.25
CCO7:0.25
CCP7:0.25
CCQ7:0.25
CCR7:0.25
CCS7:0.25
CCT7:0.25
CCU7:0.25
CCV7:0.25
CCW7:0.25
CCX7:0.25
CCY7:0.25
CCZ7:0.25
CDA7:0.25
CDB7:0.25
CDC7:0.25
CDD7:0.25
CDE7:0.25
CDF7:0.25
CDG7:0.25
CDH7:0.25
CDI7:0.25
CDJ7:0.25
CDK7:0.25
CDL7:0.25
CDM7:0.25
CDN7:0.25
CDO7:0.25
CDP7:0.25
CDQ7:0.25
CDR7:0.25
CDS7:0.25
CDT7:0.25
CDU7:0.25
CDV7:0.25
CDW7:0.25
CDX7:0.25
CDY7:0.25
CDZ7:0.25
CEA7:0.25
CEB7:0.25
CEC7:0.25
CED7:0.25
CEE7:0.25
CEF7:0.25
CEG7:0.2
CEH7:0.2
CEI7:0.2
CEJ7:0.177252528671141
CEK7:0.177252528671141
CEL7:0.177252528671141
CEM7:0.177252528671141
CEN7:0.177252528671141
CEO7:0.177252528671141
CEP7:0.177252528671141
CEQ7:0.177252528671141
CER7:0.177252528671141
CES7:0.177252528671141
CET7:0.177252528671141
CEU7:0.177252528671141
CEV7:0.205480337300077
CEW7:0.205480337300077
CEX7:0.205480337300077
CEY7:0.205480337300077
CEZ7:0.205480337300077
CFA7:0.205480337300077
CFB7:0.205480337300077
CFC7:0.205480337300077
CFD7:0.205480337300077
CFE7:0.205480337300077
CFF7:0.205480337300077
CFG7:0.205480337300077
CFH7:0.2173969631266
CFI7:0.2173969631266
CFJ7:0.2173969631266
CFK7:0.2173969631266
CFL7:0.2173969631266
CFM7:0.2173969631266
CFN7:0.2173969631266
CFO7:0.2173969631266
CFP7:0.2173969631266
CFQ7:0.2173969631266
CFR7:0.2173969631266
CFS7:0.2173969631266
CFT7:0.221442250929095
CFU7:0.221442250929095
CFV7:0.221442250929095
CFW7:0.221442250929095
CFX7:0.221442250929095
CFY7:0.221442250929095
CFZ7:0.221442250929095
CGA7:0.221442250929095
CGB7:0.221442250929095
CGC7:0.221442250929095
CGD7:0.221442250929095
CGE7:0.221442250929095
CGF7:0.237999792817492
CGG7:0.237999792817492
CGH7:0.237999792817492
CGI7:0.237999792817492
CGJ7:0.237999792817492
CGK7:0.237999792817492
CGL7:0.237999792817492
CGM7:0.237999792817492
CGN7:0.237999792817492
CGO7:0.237999792817492
CGP7:0.237999792817492
CGQ7:0.237999792817492
CGR7:0.226852785586211
CGS7:0.22809256888136
CGT7:0.229332352176509
CGU7:0.230572135471658
CGV7:0.231811918766807
CGW7:0.233051702061956
CGX7:0.234291485357105
CGY7:0.235531268652254
CGZ7:0.236771051947403
CHA7:0.238010835242552
CHB7:0.239250618537701
CHC7:0.24049040183285
CHD7:0.241730185127999
CHE7:0.242969968423148
CHF7:0.244209751718297
CHG7:0.245449535013446
CHH7:0.246689318308595
CHI7:0.247929101603744
CHJ7:0.249168884898892
CHK7:0.250408668194041
CHL7:0.25164845148919
CHM7:0.252888234784339
CHN7:0.254128018079488
CHO7:0.255367801374637
CHP7:0.256607584669786
CHQ7:0.257847367964935
CHR7:0.259087151260084
CHS7:0.260326934555233
CHT7:0.261566717850382
CHU7:0.262806501145531
CHV7:0.26404628444068
CHW7:0.265286067735829
CHX7:0.266525851030978
CHY7:0.267765634326127
CHZ7:0.269005417621276
CIA7:0.270245200916425
CIB7:0.271484984211574
CIC7:0.272724767506723
CID7:0.273964550801872
CIE7:0.275204334097021
CIF7:0.27644411739217
CIG7:0.277683900687319
CIH7:0.278923683982468
CII7:0.280163467277617
CIJ7:0.281403250572766
CIK7:0.282643033867915
CIL7:0.283882817163063
CIM7:0.285122600458212
CIN7:0.286362383753361
CIO7:0.28760216704851
CIP7:0.288841950343659
CIQ7:0.290081733638808
CIR7:0.291321516933957
CIS7:0.292561300229106
CIT7:0.293801083524255
CIU7:0.295040866819404
CIV7:0.296280650114553
CIW7:0.297520433409702
CIX7:0.298760216704851
CIY7:0.3
CIZ7:0.3
CJA7:0.3
CJB7:0.3
CJC7:0.3
CJD7:0.3
CJE7:0.3
CJF7:0.3
CJG7:0.3
CJH7:0.3
CJI7:0.3
CJJ7:0.3
CJK7:0.3
CJL7:0.3
CJM7:0.3
CJN7:0.3
CJO7:0.3
CJP7:0.3
CJQ7:0.3
CJR7:0.3
CJS7:0.3
CJT7:0.3
CJU7:0.3
CJV7:0.3
CJW7:0.3
CJX7:0.3
CJY7:0.3
CJZ7:0.3
CKA7:0.3
CKB7:0.3
CKC7:0.3
CKD7:0.3
CKE7:0.3
CKF7:0.3
CKG7:0.3
CKH7:0.3
CKI7:0.3
CKJ7:0.3
CKK7:0.3
CKL7:0.3
CKM7:0.3
CKN7:0.3
CKO7:0.3
CKP7:0.3
CKQ7:0.3
CKR7:0.3
CKS7:0.3
CKT7:0.3
CKU7:0.3
CKV7:0.3
CKW7:0.3
CKX7:0.3
CKY7:0.3
CKZ7:0.3
CLA7:0.3
CLB7:0.3
CLC7:0.3
CLD7:0.3
CLE7:0.3
CLF7:0.3
CLG7:0.3
CLH7:0.3
CLI7:0.3
CLJ7:0.3
CLK7:0.3
CLL7:0.3
CLM7:0.3
CLN7:0.3
CLO7:0.3
CLP7:0.3
CLQ7:0.3
CLR7:0.3
CLS7:0.3
CLT7:0.3
CLU7:0.3
CLV7:0.3
CLW7:0.3
CLX7:0.3
CLY7:0.3
CLZ7:0.3
CMA7:0.3
CMB7:0.3
CMC7:0.3
CMD7:0.3
CME7:0.3
CMF7:0.3
CMG7:0.3
CMH7:0.3
CMI7:0.3
CMJ7:0.3
CMK7:0.3
CML7:0.3
CMM7:0.3
CMN7:0.3
CMO7:0.3
CMP7:0.3
CMQ7:0.3
CMR7:0.3
CMS7:0.3
CMT7:0.3
CMU7:0.3
CMV7:0.3
CMW7:0.3
CMX7:0.3
CMY7:0.3
CMZ7:0.3
CNA7:0.3
CNB7:0.3
CNC7:0.3
CND7:0.3
CNE7:0.3
CNF7:0.3
CNG7:0.3
CNH7:0.3
CNI7:0.3
CNJ7:0.3
CNK7:0.3
CNL7:0.3
CNM7:0.3
CNN7:0.3
CNO7:0.3
CNP7:0.3
CNQ7:0.3
CNR7:0.3
CNS7:0.3
CNT7:0.3
CNU7:0.3
CNV7:0.3
CNW7:0.3
CNX7:0.3
CNY7:0.3
CNZ7:0.3
COA7:0.3
COB7:0.3
COC7:0.3
COD7:0.3
COE7:0.3
COF7:0.3
COG7:0.3
COH7:0.3
COI7:0.3
COJ7:0.3
COK7:0.3
COL7:0.3
COM7:0.3
CON7:0.3
COO7:0.3
COP7:0.3
COQ7:0.3
COR7:0.3
COS7:0.3
COT7:0.3
COU7:0.3
COV7:0.3
COW7:0.3
COX7:0.3
COY7:0.3
COZ7:0.3
CPA7:0.3
CPB7:0.3
CPC7:0.3
CPD7:0.3
CPE7:0.3
CPF7:0.3
CPG7:0.3
CPH7:0.3
CPI7:0.3
CPJ7:0.3
CPK7:0.3
CPL7:0.3
CPM7:0.3
CPN7:0.3
CPO7:0.3
CPP7:0.3
CPQ7:0.3
CPR7:0.3
CPS7:0.3
CPT7:0.3
CPU7:0.3
CPV7:0.3
CPW7:0.3
CPX7:0.3
CPY7:0.3
CPZ7:0.3
CQA7:0.3
CQB7:0.3
CQC7:0.3
CQD7:0.3
CQE7:0.3
CQF7:0.3
CQG7:0.3
CQH7:0.3
CQI7:0.3
CQJ7:0.3
CQK7:0.3
CQL7:0.3
CQM7:0.3
CQN7:0.3
CQO7:0.3
CQP7:0.3
CQQ7:0.3
CQR7:0.3
CQS7:0.3
CQT7:0.3
CQU7:0.3
CQV7:0.3
CQW7:0.3
CQX7:0.3
CQY7:0.3
CQZ7:0.3
CRA7:0.3
CRB7:0.3
CRC7:0.3
CRD7:0.3
CRE7:0.3
CRF7:0.3
CRG7:0.3
CRH7:0.3
CRI7:0.3
CRJ7:0.3
CRK7:0.3
CRL7:0.3
CRM7:0.3
CRN7:0.3
CRO7:0.3
CRP7:0.3
CRQ7:0.3
CRR7:0.3
CRS7:0.3
CRT7:0.3
CRU7:0.3
CRV7:0.3
CRW7:0.3
CRX7:0.3
CRY7:0.3
CRZ7:0.3
CSA7:0.3
CSB7:0.3
CSC7:0.3
CSD7:0.3
CSE7:0.3
CSF7:0.3
CSG7:0.3
CSH7:0.3
CSI7:0.3
CSJ7:0.3
CSK7:0.3
CSL7:0.3
CSM7:0.3
CSN7:0.3
CSO7:0.3
CSP7:0.3
CSQ7:0.3
CSR7:0.3
CSS7:0.3
CST7:0.3
CSU7:0.3
CSV7:0.3
CSW7:0.3
CSX7:0.3
CSY7:0.3
CSZ7:0.3
CTA7:0.3
CTB7:0.3
CTC7:0.3
CTD7:0.3
CTE7:0.3
CTF7:0.3
CTG7:0.3
CTH7:0.3
CTI7:0.3
CTJ7:0.3
CTK7:0.3
CTL7:0.3
CTM7:0.3
CTN7:0.3
CTO7:0.3
CTP7:0.3
CTQ7:0.3
CTR7:0.3
CTS7:0.3
CTT7:0.3
CTU7:0.3
CTV7:0.3
CTW7:0.3
CTX7:0.3
CTY7:0.3
CTZ7:0.3
CUA7:0.3
CUB7:0.3
CUC7:0.3
CUD7:0.3
CUE7:0.3
CUF7:0.3
CUG7:0.3
CUH7:0.3
CUI7:0.3
CUJ7:0.3
CUK7:0.3
CUL7:0.3
CUM7:0.3
CUN7:0.3
CUO7:0.3
CUP7:0.3
CUQ7:0.3
CUR7:0.3
CUS7:0.3
CUT7:0.3
CUU7:0.3
CUV7:0.3
CUW7:0.3
CUX7:0.3
CUY7:0.3
CUZ7:0.3
CVA7:0.3
CVB7:0.3
CVC7:0.3
CVD7:0.3
CVE7:0.3
CVF7:0.3
CVG7:0.3
CVH7:0.3
CVI7:0.3
CVJ7:0.3
CVK7:0.3
CVL7:0.3
CVM7:0.3
CVN7:0.3
CVO7:0.3
CVP7:0.3
CVQ7:0.3
CVR7:0.3
CVS7:0.3
CVT7:0.3
CVU7:0.3
CVV7:0.3
CVW7:0.3
CVX7:0.3
CVY7:0.3
CVZ7:0.3
CWA7:0.3
CWB7:0.3
CWC7:0.3
CWD7:0.3
CWE7:0.3
CWF7:0.3
CWG7:0.3
CWH7:0.3
CWI7:0.3
CWJ7:0.3
CWK7:0.3
CWL7:0.3
CWM7:0.3
CWN7:0.3
CWO7:0.3
CWP7:0.3
CWQ7:0.3
CWR7:0.3
CWS7:0.3
CWT7:0.3
CWU7:0.3
CWV7:0.3
CWW7:0.3
CWX7:0.3
CWY7:0.3
CWZ7:0.3
CXA7:0.3
CXB7:0.3
CXC7:0.3
CXD7:0.3
CXE7:0.3
CXF7:0.3
CXG7:0.3
CXH7:0.3
CXI7:0.3
CXJ7:0.3
CXK7:0.3
CXL7:0.3
CXM7:0.3
CXN7:0.3
CXO7:0.3
CXP7:0.3
CXQ7:0.3
CXR7:0.3
CXS7:0.3
CXT7:0.3
CXU7:0.3
CXV7:0.3
CXW7:0.3
CXX7:0.3
CXY7:0.3
CXZ7:0.3
CYA7:0.3
CYB7:0.3
CYC7:0.3
CYD7:0.3
CYE7:0.3
CYF7:0.3
CYG7:0.3
CYH7:0.3
CYI7:0.3
CYJ7:0.3
CYK7:0.3
CYL7:0.3
CYM7:0.3
CYN7:0.3
CYO7:0.3
CYP7:0.3
CYQ7:0.3
CYR7:0.3
CYS7:0.3
CYT7:0.3
CYU7:0.3
CYV7:0.3
CYW7:0.3
CYX7:0.3
CYY7:0.3
CYZ7:0.3
CZA7:0.3
CZB7:0.3
CZC7:0.3
CZD7:0.3
CZE7:0.3
CZF7:0.3
CZG7:0.3
CZH7:0.3
CZI7:0.3
CZJ7:0.3
CZK7:0.3
CZL7:0.3
CZM7:0.3
CZN7:0.3
CZO7:0.3
CZP7:0.3
CZQ7:0.3
CZR7:0.3
CZS7:0.3
CZT7:0.3
CZU7:0.3
CZV7:0.3
CZW7:0.3
CZX7:0.3
CZY7:0.3
CZZ7:0.3
DAA7:0.3
DAB7:0.3
DAC7:0.3
DAD7:0.3
DAE7:0.3
DAF7:0.3
DAG7:0.3
DAH7:0.3
DAI7:0.3
DAJ7:0.3
DAK7:0.3
DAL7:0.3
DAM7:0.3
DAN7:0.3
DAO7:0.3
DAP7:0.3
DAQ7:0.3
DAR7:0.3
DAS7:0.3
DAT7:0.3
DAU7:0.3
DAV7:0.3
DAW7:0.3
DAX7:0.3
DAY7:0.3
DAZ7:0.3
DBA7:0.3
DBB7:0.3
DBC7:0.3
DBD7:0.3
DBE7:0.3
DBF7:0.3
DBG7:0.3
DBH7:0.3
DBI7:0.3
DBJ7:0.3
DBK7:0.3
DBL7:0.3
DBM7:0.3
DBN7:0.3
DBO7:0.3
DBP7:0.3
DBQ7:0.3
DBR7:0.3
DBS7:0.3
DBT7:0.3
DBU7:0.3
DBV7:0.3
DBW7:0.3
DBX7:0.3
DBY7:0.3
DBZ7:0.3
DCA7:0.3
DCB7:0.3
DCC7:0.3
DCD7:0.3
DCE7:0.3
DCF7:0.3
DCG7:0.3
DCH7:0.3
DCI7:0.3
DCJ7:0.3
DCK7:0.3
DCL7:0.3
DCM7:0.3
DCN7:0.3
DCO7:0.3
DCP7:0.3
DCQ7:0.3
DCR7:0.3
DCS7:0.3
DCT7:0.3
DCU7:0.3
DCV7:0.3
DCW7:0.3
DCX7:0.3
DCY7:0.3
DCZ7:0.3
DDA7:0.3
DDB7:0.3
DDC7:0.3
DDD7:0.3
DDE7:0.3
DDF7:0.3
DDG7:0.3
DDH7:0.3
DDI7:0.3
DDJ7:0.3
DDK7:0.3
DDL7:0.3
DDM7:0.3
DDN7:0.3
DDO7:0.3
DDP7:0.3
DDQ7:0.3
DDR7:0.3
DDS7:0.3
DDT7:0.3
DDU7:0.3
DDV7:0.3
DDW7:0.3
DDX7:0.3
DDY7:0.3
DDZ7:0.3
DEA7:0.3
DEB7:0.3
DEC7:0.3
DED7:0.3
DEE7:0.3
DEF7:0.3
DEG7:0.3
DEH7:0.3
DEI7:0.3
DEJ7:0.3
DEK7:0.3
DEL7:0.3
DEM7:0.3
DEN7:0.3
DEO7:0.3
DEP7:0.3
DEQ7:0.3
DER7:0.3
DES7:0.3
DET7:0.3
DEU7:0.3
DEV7:0.3
DEW7:0.3
DEX7:0.3
DEY7:0.3
DEZ7:0.3
DFA7:0.3
DFB7:0.3
DFC7:0.3
DFD7:0.3
DFE7:0.3
DFF7:0.3
DFG7:0.3
DFH7:0.3
DFI7:0.3
DFJ7:0.3
DFK7:0.3
DFL7:0.3
DFM7:0.3
DFN7:0.3
DFO7:0.3
DFP7:0.3
DFQ7:0.3
DFR7:0.3
DFS7:0.3
DFT7:0.3
DFU7:0.3
DFV7:0.3
DFW7:0.3
DFX7:0.3
DFY7:0.3
DFZ7:0
DGA7:0
DGB7:0
DGC7:0
DGD7:0
DGE7:0
DGF7:0
DGG7:0
DGH7:0
DGI7:0
DGJ7:0
DGK7:0
DGL7:0
DGM7:0
DGN7:0
DGO7:0
DGP7:0
DGQ7:0
DGR7:0
DGS7:0
DGT7:0
DGU7:0
DGV7:0
DGW7:0
DGX7:0
DGY7:0
DGZ7:0
DHA7:0
DHB7:0
DHC7:0
DHD7:0
DHE7:0
DHF7:0
DHG7:0
DHH7:0
DHI7:0
DHJ7:0
DHK7:0
DHL7:0
DHM7:0
DHN7:0
DHO7:0
DHP7:0
DHQ7:0
DHR7:0
DHS7:0
DHT7:0
DHU7:0
DHV7:0
DHW7:0
DHX7:0
DHY7:0
DHZ7:0
DIA7:0
DIB7:0
DIC7:0
DID7:0
DIE7:0
DIF7:0
DIG7:0
DIH7:0
DII7:0
DIJ7:0
DIK7:0
DIL7:0
DIM7:0
DIN7:0
DIO7:0
DIP7:0
DIQ7:0
DIR7:0
DIS7:0
DIT7:0
DIU7:0
DIV7:0
DIW7:0
DIX7:0
DIY7:0
DIZ7:0
DJA7:0
DJB7:0
DJC7:0
DJD7:0
DJE7:0
DJF7:0
DJG7:0
DJH7:0
DJI7:0
DJJ7:0
DJK7:0
DJL7:0
DJM7:0
DJN7:0
DJO7:0
DJP7:0
DJQ7:0
DJR7:0
DJS7:0
DJT7:0
DJU7:0
DJV7:0
DJW7:0
DJX7:0
DJY7:0
DJZ7:0
DKA7:0
DKB7:0
DKC7:0
DKD7:0
DKE7:0
DKF7:0
DKG7:0
DKH7:0
DKI7:0
DKJ7:0
DKK7:0
DKL7:0
DKM7:0
DKN7:0
DKO7:0
DKP7:0
DKQ7:0
DKR7:0
DKS7:0
DKT7:0
DKU7:0
DKV7:0
DKW7:0
DKX7:0
DKY7:0
DKZ7:0
DLA7:0
DLB7:0
DLC7:0
DLD7:0
DLE7:0
DLF7:0
DLG7:0
DLH7:0
DLI7:0
DLJ7:0
DLK7:0
DLL7:0
DLM7:0
DLN7:0
DLO7:0
DLP7:0
DLQ7:0
DLR7:0
DLS7:0
DLT7:0
DLU7:0
DLV7:0
DLW7:0
DLX7:0
DLY7:0
DLZ7:0
DMA7:0
DMB7:0
DMC7:0
DMD7:0
DME7:0
DMF7:0
DMG7:0
DMH7:0
DMI7:0
DMJ7:0
DMK7:0
DML7:0
DMM7:0
DMN7:0
DMO7:0
DMP7:0
DMQ7:0
DMR7:0
DMS7:0
DMT7:0
DMU7:0
DMV7:0
DMW7:0
DMX7:0
DMY7:0
DMZ7:0
DNA7:0
DNB7:0
DNC7:0
DND7:0
DNE7:0
DNF7:0
DNG7:0
DNH7:0
DNI7:0
DNJ7:0
DNK7:0
DNL7:0
DNM7:0
DNN7:0
DNO7:0
DNP7:0
DNQ7:0
DNR7:0
DNS7:0
DNT7:0
DNU7:0
DNV7:0
DNW7:0
DNX7:0
DNY7:0
DNZ7:0
DOA7:0
DOB7:0
DOC7:0
DOD7:0
DOE7:0
DOF7:0
DOG7:0
DOH7:0
DOI7:0
DOJ7:0
DOK7:0
DOL7:0
DOM7:0
DON7:0
DOO7:0
DOP7:0
DOQ7:0
DOR7:0
DOS7:0
DOT7:0
DOU7:0
DOV7:0
DOW7:0
DOX7:0
DOY7:0
DOZ7:0
DPA7:0
DPB7:0
DPC7:0
DPD7:0
DPE7:0
DPF7:0
DPG7:0
DPH7:0
DPI7:0
DPJ7:0
DPK7:0
DPL7:0
DPM7:0
DPN7:0
DPO7:0
DPP7:0
DPQ7:0
DPR7:0
DPS7:0
DPT7:0
DPU7:0
DPV7:0
DPW7:0
DPX7:0
DPY7:0
DPZ7:0
DQA7:0
DQB7:0
DQC7:0
DQD7:0
DQE7:0
DQF7:0
DQG7:0
DQH7:0
DQI7:0
DQJ7:0
DQK7:0
DQL7:0
DQM7:0
DQN7:0
DQO7:0
DQP7:0
DQQ7:0
DQR7:0
DQS7:0
DQT7:0
DQU7:0
DQV7:0
DQW7:0
DQX7:0
DQY7:0
DQZ7:0
DRA7:0
DRB7:0
DRC7:0
DRD7:0
DRE7:0
DRF7:0
DRG7:0
DRH7:0
DRI7:0
DRJ7:0
DRK7:0
DRL7:0
DRM7:0
DRN7:0
DRO7:0
DRP7:0
DRQ7:0
DRR7:0
DRS7:0
DRT7:0
DRU7:0
DRV7:0
DRW7:0
DRX7:0
DRY7:0
DRZ7:0
DSA7:0
DSB7:0
DSC7:0
DSD7:0
DSE7:0
DSF7:0
DSG7:0
DSH7:0
DSI7:0
DSJ7:0
DSK7:0
DSL7:0
DSM7:0
DSN7:0
DSO7:0
DSP7:0
DSQ7:0
DSR7:0
DSS7:0
DST7:0
DSU7:0
DSV7:0
DSW7:0
DSX7:0
DSY7:0
DSZ7:0
DTA7:0
DTB7:0
DTC7:0
DTD7:0
DTE7:0
DTF7:0
DTG7:0
DTH7:0
DTI7:0
DTJ7:0
DTK7:0
DTL7:0
DTM7:0
DTN7:0
DTO7:0
DTP7:0
DTQ7:0
DTR7:0
DTS7:0
DTT7:0
DTU7:0
DTV7:0
DTW7:0
DTX7:0
DTY7:0
DTZ7:0
DUA7:0
DUB7:0
DUC7:0
DUD7:0
DUE7:0
DUF7:0
DUG7:0
DUH7:0
DUI7:0
DUJ7:0
DUK7:0
DUL7:0
DUM7:0
DUN7:0
DUO7:0
DUP7:0
DUQ7:0
DUR7:0
DUS7:0
DUT7:0
DUU7:0
DUV7:0
DUW7:0
DUX7:0
DUY7:0
DUZ7:0
DVA7:0
DVB7:0
DVC7:0
DVD7:0
DVE7:0
DVF7:0
DVG7:0
DVH7:0
DVI7:0
DVJ7:0
DVK7:0
DVL7:0
DVM7:0
DVN7:0
DVO7:0
DVP7:0
DVQ7:0
DVR7:0
DVS7:0
DVT7:0
DVU7:0
DVV7:0
DVW7:0
DVX7:0
DVY7:0
DVZ7:0
DWA7:0
DWB7:0
DWC7:0
DWD7:0
DWE7:0
DWF7:0
DWG7:0
DWH7:0
DWI7:0
DWJ7:0
DWK7:0
DWL7:0
DWM7:0
DWN7:0
DWO7:0
DWP7:0
DWQ7:0
DWR7:0
DWS7:0
DWT7:0
DWU7:0
DWV7:0
DWW7:0
DWX7:0
DWY7:0
DWZ7:0
DXA7:0
DXB7:0
DXC7:0
DXD7:0
DXE7:0
DXF7:0
DXG7:0
DXH7:0
DXI7:0
DXJ7:0
DXK7:0
DXL7:0
DXM7:0
DXN7:0
DXO7:0
DXP7:0
DXQ7:0
DXR7:0
DXS7:0
DXT7:0
DXU7:0
DXV7:0
DXW7:0
DXX7:0
DXY7:0
DXZ7:0
DYA7:0
DYB7:0
DYC7:0
DYD7:0
DYE7:0
DYF7:0
DYG7:0
DYH7:0
DYI7:0
DYJ7:0
DYK7:0
DYL7:0
DYM7:0
DYN7:0
DYO7:0
DYP7:0
DYQ7:0
DYR7:0
DYS7:0
DYT7:0
DYU7:0
DYV7:0
DYW7:0
DYX7:0
DYY7:0
DYZ7:0
DZA7:0
DZB7:0
DZC7:0
DZD7:0
DZE7:0
DZF7:0
DZG7:0
DZH7:0
DZI7:0
DZJ7:0
DZK7:0
DZL7:0
DZM7:0
DZN7:0
DZO7:0
DZP7:0
DZQ7:0
DZR7:0
DZS7:0
DZT7:0
DZU7:0
DZV7:0
DZW7:0
DZX7:0
DZY7:0
DZZ7:0
EAA7:0
EAB7:0
EAC7:0
EAD7:0
EAE7:0
EAF7:0
EAG7:0
EAH7:0
EAI7:0
EAJ7:0
EAK7:0
EAL7:0
EAM7:0
EAN7:0
EAO7:0
EAP7:0
EAQ7:0
EAR7:0
EAS7:0
EAT7:0
EAU7:0
EAV7:0
EAW7:0
EAX7:0
EAY7:0
EAZ7:0
EBA7:0
EBB7:0
EBC7:0
EBD7:0
EBE7:0
EBF7:0
EBG7:0
EBH7:0
EBI7:0
EBJ7:0
EBK7:0
EBL7:0
EBM7:0
EBN7:0
EBO7:0
EBP7:0
EBQ7:0
EBR7:0
EBS7:0
EBT7:0
EBU7:0
EBV7:0
EBW7:0
EBX7:0
EBY7:0
EBZ7:0
ECA7:0
ECB7:0
ECC7:0
ECD7:0
ECE7:0
ECF7:0
ECG7:0
ECH7:0
ECI7:0
ECJ7:0
ECK7:0
ECL7:0
ECM7:0
ECN7:0
ECO7:0
ECP7:0
ECQ7:0
ECR7:0
ECS7:0
ECT7:0
ECU7:0
ECV7:0
ECW7:0
ECX7:0
ECY7:0
ECZ7:0
EDA7:0
EDB7:0
EDC7:0
EDD7:0
EDE7:0
EDF7:0
EDG7:0
EDH7:0
EDI7:0
EDJ7:0
EDK7:0
EDL7:0
EDM7:0
EDN7:0
EDO7:0
EDP7:0
EDQ7:0
EDR7:0
EDS7:0
EDT7:0
EDU7:0
EDV7:0
EDW7:0
EDX7:0
EDY7:0
EDZ7:0
EEA7:0
EEB7:0
EEC7:0
EED7:0
EEE7:0
EEF7:0
EEG7:0
EEH7:0
EEI7:0
EEJ7:0
EEK7:0
EEL7:0
EEM7:0
EEN7:0
EEO7:0
EEP7:0
EEQ7:0
EER7:0
EES7:0
EET7:0
EEU7:0
EEV7:0
EEW7:0
EEX7:0
EEY7:0
EEZ7:0
EFA7:0
EFB7:0
EFC7:0
EFD7:0
EFE7:0
EFF7:0
EFG7:0
EFH7:0
EFI7:0
EFJ7:0
EFK7:0
EFL7:0
EFM7:0
EFN7:0
EFO7:0
EFP7:0
EFQ7:0
EFR7:0
EFS7:0
EFT7:0
EFU7:0
EFV7:0
EFW7:0
EFX7:0
EFY7:0
EFZ7:0
EGA7:0
EGB7:0
EGC7:0
EGD7:0
EGE7:0
EGF7:0
EGG7:0
EGH7:0
EGI7:0
EGJ7:0
EGK7:0
EGL7:0
EGM7:0
EGN7:0
EGO7:0
EGP7:0
EGQ7:0
EGR7:0
EGS7:0
EGT7:0
EGU7:0
EGV7:0
EGW7:0
EGX7:0
EGY7:0
EGZ7:0
EHA7:0
EHB7:0
EHC7:0
EHD7:0
EHE7:0
EHF7:0
EHG7:0
EHH7:0
EHI7:0
EHJ7:0
EHK7:0
EHL7:0
EHM7:0
EHN7:0
EHO7:0
EHP7:0
EHQ7:0
EHR7:0
EHS7:0.035
EHT7:0.035
EHU7:0.035
EHV7:0.0352134987522032
EHW7:0.0352134987522032
EHX7:0.0352134987522032
EHY7:0.0352134987522032
EHZ7:0.0352134987522032
EIA7:0.0352134987522032
EIB7:0.0352134987522032
EIC7:0.0352134987522032
EID7:0.0352134987522032
EIE7:0.0352134987522032
EIF7:0.0352134987522032
EIG7:0.0352134987522032
EIH7:0.0426120095289667
EII7:0.0426120095289667
EIJ7:0.0426120095289667
EIK7:0.0426120095289667
EIL7:0.0426120095289667
EIM7:0.0426120095289667
EIN7:0.0426120095289667
EIO7:0.0426120095289667
EIP7:0.0426120095289667
EIQ7:0.0426120095289667
EIR7:0.0426120095289667
EIS7:0.0426120095289667
EIT7:0.0456832037783521
EIU7:0.0456832037783521
EIV7:0.0456832037783521
EIW7:0.0456832037783521
EIX7:0.0456832037783521
EIY7:0.0456832037783521
EIZ7:0.0456832037783521
EJA7:0.0456832037783521
EJB7:0.0456832037783521
EJC7:0.0456832037783521
EJD7:0.0456832037783521
EJE7:0.0456832037783521
EJF7:0.0458021169861271
EJG7:0.0458021169861271
EJH7:0.0458021169861271
EJI7:0.0458021169861271
EJJ7:0.0458021169861271
EJK7:0.0458021169861271
EJL7:0.0458021169861271
EJM7:0.0458021169861271
EJN7:0.0458021169861271
EJO7:0.0458021169861271
EJP7:0.0458021169861271
EJQ7:0.0458021169861271
EJR7:0.0479862333218641
EJS7:0.0479862333218641
EJT7:0.0479862333218641
EJU7:0.0479862333218641
EJV7:0.0479862333218641
EJW7:0.0479862333218641
EJX7:0.0479862333218641
EJY7:0.0479862333218641
EJZ7:0.0479862333218641
EKA7:0.0479862333218641
EKB7:0.0479862333218641
EKC7:0.0479862333218641
EKD7:0.05
EKE7:0.05
EKF7:0.05
EKG7:0.05
EKH7:0.05
EKI7:0.05
EKJ7:0.05
EKK7:0.05
EKL7:0.05
EKM7:0.05
EKN7:0.05
EKO7:0.05
EKP7:0.05
EKQ7:0.05
EKR7:0.05
EKS7:0.05
EKT7:0.05
EKU7:0.05
EKV7:0.05
EKW7:0.05
EKX7:0.05
EKY7:0.05
EKZ7:0.05
ELA7:0.05
ELB7:0.05
ELC7:0.05
ELD7:0.05
ELE7:0.05
ELF7:0.05
ELG7:0.05
ELH7:0.05
ELI7:0.05
ELJ7:0.05
ELK7:0.05
ELL7:0.05
ELM7:0.05
ELN7:0.05
ELO7:0.05
ELP7:0.05
ELQ7:0.05
ELR7:0.05
ELS7:0.05
ELT7:0.05
ELU7:0.05
ELV7:0.05
ELW7:0.05
ELX7:0.05
ELY7:0.05
ELZ7:0.05
EMA7:0.05
EMB7:0.05
EMC7:0.05
EMD7:0.05
EME7:0.05
EMF7:0.05
EMG7:0.05
EMH7:0.05
EMI7:0.05
EMJ7:0.05
EMK7:0.05
EML7:0.05
EMM7:0.05
EMN7:0.05
EMO7:0.05
EMP7:0.05
EMQ7:0.05
EMR7:0.05
EMS7:0.05
EMT7:0.05
EMU7:0.05
EMV7:0.05
EMW7:0.05
EMX7:0.05
EMY7:0.05
EMZ7:0.05
ENA7:0.05
ENB7:0.05
ENC7:0.05
END7:0.05
ENE7:0.05
ENF7:0.05
ENG7:0.05
ENH7:0.05
ENI7:0.05
ENJ7:0.05
ENK7:0.05
ENL7:0.05
ENM7:0.05
ENN7:0.05
ENO7:0.05
ENP7:0.05
ENQ7:0.05
ENR7:0.05
ENS7:0.05
ENT7:0.05
ENU7:0.05
ENV7:0.05
ENW7:0.05
ENX7:0.05
ENY7:0.05
ENZ7:0.05
EOA7:0.05
EOB7:0.05
EOC7:0.05
EOD7:0.05
EOE7:0.05
EOF7:0.05
EOG7:0.05
EOH7:0.05
EOI7:0.05
EOJ7:0.05
EOK7:0.05
EOL7:0.05
EOM7:0.05
EON7:0.05
EOO7:0.05
EOP7:0.05
EOQ7:0.05
EOR7:0.05
EOS7:0.05
EOT7:0.05
EOU7:0.05
EOV7:0.05
EOW7:0.05
EOX7:0.05
EOY7:0.05
EOZ7:0.05
EPA7:0.05
EPB7:0.05
EPC7:0.05
EPD7:0.05
EPE7:0.05
EPF7:0.05
EPG7:0.05
EPH7:0.05
EPI7:0.05
EPJ7:0.05
EPK7:0.05
EPL7:0.05
EPM7:0.05
EPN7:0.05
EPO7:0.05
EPP7:0.05
EPQ7:0.05
EPR7:0.05
EPS7:0.05
EPT7:0.05
EPU7:0.05
EPV7:0.05
EPW7:0.05
EPX7:0.05
EPY7:0.05
EPZ7:0.05
EQA7:0.05
EQB7:0.05
EQC7:0.05
EQD7:0.05
EQE7:0.05
EQF7:0.05
EQG7:0.05
EQH7:0.05
EQI7:0.05
EQJ7:0.05
EQK7:0.05
EQL7:0.05
EQM7:0.05
EQN7:0.05
EQO7:0.05
EQP7:0.05
EQQ7:0.05
EQR7:0.05
EQS7:0.05
EQT7:0.05
EQU7:0.05
EQV7:0.05
EQW7:0.05
EQX7:0.05
EQY7:0.05
EQZ7:0.05
ERA7:0.05
ERB7:0.05
ERC7:0.05
ERD7:0.05
ERE7:0.05
ERF7:0.05
ERG7:0.05
ERH7:0.05
ERI7:0.05
ERJ7:0.05
ERK7:0.05
ERL7:0.05
ERM7:0.05
ERN7:0.05
ERO7:0.05
ERP7:0.05
ERQ7:0.05
ERR7:0.05
ERS7:0.05
ERT7:0.05
ERU7:0.05
ERV7:0.05
ERW7:0.05
ERX7:0.05
ERY7:0.05
ERZ7:0.05
ESA7:0.05
ESB7:0.05
ESC7:0.05
ESD7:0.05
ESE7:0.05
ESF7:0.05
ESG7:0.05
ESH7:0.05
ESI7:0.05
ESJ7:0.05
ESK7:0.05
ESL7:0.05
ESM7:0.05
ESN7:0.05
ESO7:0.05
ESP7:0.05
ESQ7:0.05
ESR7:0.05
ESS7:0.05
EST7:0.05
ESU7:0.05
ESV7:0.05
ESW7:0.05
ESX7:0.05
ESY7:0.05
ESZ7:0.05
ETA7:0.05
ETB7:0.05
ETC7:0.05
ETD7:0.05
ETE7:0.05
ETF7:0.05
ETG7:0.05
ETH7:0.05
ETI7:0.05
ETJ7:0.05
ETK7:0.05
ETL7:0.05
ETM7:0.05
ETN7:0.05
ETO7:0.05
ETP7:0.05
ETQ7:0.05
ETR7:0.05
ETS7:0.05
ETT7:0.05
ETU7:0.05
ETV7:0.05
ETW7:0.05
ETX7:0.05
ETY7:0.05
ETZ7:0.05
EUA7:0.05
EUB7:0.05
EUC7:0.05
EUD7:0.05
EUE7:0.05
EUF7:0.05
EUG7:0.05
EUH7:0.05
EUI7:0.05
EUJ7:0.05
EUK7:0.05
EUL7:0.05
EUM7:0.05
EUN7:0.05
EUO7:0.05
EUP7:0.05
EUQ7:0.05
EUR7:0.05
EUS7:0.05
EUT7:0.05
EUU7:0.05
EUV7:0.05
EUW7:0.05
EUX7:0.05
EUY7:0.05
EUZ7:0.05
EVA7:0.05
EVB7:0.05
EVC7:0.05
EVD7:0.05
EVE7:0.05
EVF7:0.05
EVG7:0.05
EVH7:0.05
EVI7:0.05
EVJ7:0.05
EVK7:0.05
EVL7:0.05
EVM7:0.05
EVN7:0.05
EVO7:0.05
EVP7:0.05
EVQ7:0.05
EVR7:0.05
EVS7:0.05
EVT7:0.05
EVU7:0.05
EVV7:0.05
EVW7:0.05
EVX7:0.05
EVY7:0.05
EVZ7:0.05
EWA7:0.05
EWB7:0.05
EWC7:0.05
EWD7:0.05
EWE7:0.05
EWF7:0.05
EWG7:0.05
EWH7:0.05
EWI7:0.05
EWJ7:0.05
EWK7:0.05
EWL7:0.05
EWM7:0.05
EWN7:0.05
EWO7:0.05
EWP7:0.05
EWQ7:0.05
EWR7:0.05
EWS7:0.05
EWT7:0.05
EWU7:0.05
EWV7:0.05
EWW7:0.05
EWX7:0.05
EWY7:0.05
EWZ7:0.05
EXA7:0.05
EXB7:0.05
EXC7:0.05
EXD7:0.05
EXE7:0.05
EXF7:0.05
EXG7:0.05
EXH7:0.05
EXI7:0.05
EXJ7:0.05
EXK7:0.05
EXL7:0.05
EXM7:0.05
EXN7:0.05
EXO7:0.05
EXP7:0.05
EXQ7:0.05
EXR7:0.05
EXS7:0.05
EXT7:0.05
EXU7:0.05
EXV7:0.05
EXW7:0.05
EXX7:0.05
EXY7:0.05
EXZ7:0.05
EYA7:0.05
EYB7:0.05
EYC7:0.05
EYD7:0.05
EYE7:0.05
EYF7:0.05
EYG7:0.05
EYH7:0.05
EYI7:0.05
EYJ7:0.05
EYK7:0.05
EYL7:0.05
EYM7:0.05
EYN7:0.05
EYO7:0.05
EYP7:0.05
EYQ7:0.05
EYR7:0.05
EYS7:0.05
EYT7:0.05
EYU7:0.05
EYV7:0.05
EYW7:0.05
EYX7:0.05
EYY7:0.05
EYZ7:0.05
EZA7:0.05
EZB7:0.05
EZC7:0.05
EZD7:0.05
EZE7:0.05
EZF7:0.05
EZG7:0.05
EZH7:0.05
EZI7:0.05
EZJ7:0.05
EZK7:0.05
EZL7:0.05
EZM7:0.05
EZN7:0.05
EZO7:0.05
EZP7:0.05
EZQ7:0.05
EZR7:0.05
EZS7:0.05
EZT7:0.05
EZU7:0.05
EZV7:0.05
EZW7:0.05
EZX7:0.05
EZY7:0.05
EZZ7:0.05
FAA7:0.05
FAB7:0.05
FAC7:0.05
FAD7:0.05
FAE7:0.05
FAF7:0.05
FAG7:0.05
FAH7:0.05
FAI7:0.05
FAJ7:0.05
FAK7:0.05
FAL7:0.05
FAM7:0.05
FAN7:0.05
FAO7:0.05
FAP7:0.05
FAQ7:0.05
FAR7:0.05
FAS7:0.05
FAT7:0.05
FAU7:0.05
FAV7:0.05
FAW7:0.05
FAX7:0.05
FAY7:0.05
FAZ7:0.05
FBA7:0.05
FBB7:0.05
FBC7:0.05
FBD7:0.05
FBE7:0.05
FBF7:0.05
FBG7:0.05
FBH7:0.05
FBI7:0.05
FBJ7:0.05
FBK7:0.05
FBL7:0.05
FBM7:0.05
FBN7:0.05
FBO7:0.05
FBP7:0.05
FBQ7:0.05
FBR7:0.05
FBS7:0.05
FBT7:0.05
FBU7:0.05
FBV7:0.05
FBW7:0.05
FBX7:0.05
FBY7:0.05
FBZ7:0.05
FCA7:0.05
FCB7:0.05
FCC7:0.05
FCD7:0.05
FCE7:0.05
FCF7:0.05
FCG7:0.05
FCH7:0.05
FCI7:0.05
FCJ7:0.05
FCK7:0.05
FCL7:0.05
FCM7:0.05
FCN7:0.05
FCO7:0.05
FCP7:0.05
FCQ7:0.05
FCR7:0.05
FCS7:0.05
FCT7:0.05
FCU7:0.05
FCV7:0.05
FCW7:0.05
FCX7:0.05
FCY7:0.05
FCZ7:0.05
FDA7:0.05
FDB7:0.05
FDC7:0.05
FDD7:0.05
FDE7:0.05
FDF7:0.05
FDG7:0.05
FDH7:0.05
FDI7:0.05
FDJ7:0.05
FDK7:0.05
FDL7:0.05
FDM7:0.05
FDN7:0.05
FDO7:0.05
FDP7:0.05
FDQ7:0.05
FDR7:0.05
FDS7:0.05
FDT7:0.05
FDU7:0.05
FDV7:0.05
FDW7:0.05
FDX7:0.05
FDY7:0.05
FDZ7:0.05
FEA7:0.05
FEB7:0.05
FEC7:0.05
FED7:0.05
FEE7:0.05
FEF7:0.05
FEG7:0.05
FEH7:0.05
FEI7:0.05
FEJ7:0.05
FEK7:0.05
FEL7:0.05
FEM7:0.05
FEN7:0.05
FEO7:0.05
FEP7:0.05
FEQ7:0.05
FER7:0.05
FES7:0.05
FET7:0.05
FEU7:0.05
FEV7:0.05
FEW7:0.05
FEX7:0.05
FEY7:0.05
FEZ7:0.05
FFA7:0.05
FFB7:0.05
FFC7:0.05
FFD7:0.05
FFE7:0.05
FFF7:0.05
FFG7:0.05
FFH7:0.05
FFI7:0.05
FFJ7:0.05
FFK7:0.05
FFL7:0.05
FFM7:0.05
FFN7:0.05
FFO7:0.05
FFP7:0.05
FFQ7:0.05
FFR7:0.05
FFS7:0.05
FFT7:0.05
FFU7:0.05
FFV7:0.05
FFW7:0.05
FFX7:0.05
FFY7:0.05
FFZ7:0.05
FGA7:0.05
FGB7:0.05
FGC7:0.05
FGD7:0.05
FGE7:0.05
FGF7:0.05
FGG7:0.05
FGH7:0.05
FGI7:0.05
FGJ7:0.05
FGK7:0.05
FGL7:0.05
FGM7:0.05
FGN7:0.05
FGO7:0.05
FGP7:0.05
FGQ7:0.05
FGR7:0.05
FGS7:0.05
FGT7:0.05
FGU7:0.05
FGV7:0.05
FGW7:0.05
FGX7:0.05
FGY7:0.05
FGZ7:0.05
FHA7:0.05
FHB7:0.05
FHC7:0.05
FHD7:0.05
FHE7:0.05
FHF7:0.05
FHG7:0.05
FHH7:0.05
FHI7:0.05
FHJ7:0.05
FHK7:0.05
FHL7:0.05
FHM7:0.05
FHN7:0.05
FHO7:0.05
FHP7:0.05
FHQ7:0.05
FHR7:0.05
FHS7:0.05
FHT7:0.05
FHU7:0.05
FHV7:0.05
FHW7:0.05
FHX7:0.05
FHY7:0.05
FHZ7:0.05
FIA7:0.05
FIB7:0.05
FIC7:0.05
FID7:0.05
FIE7:0.05
FIF7:0.05
FIG7:0.05
FIH7:0.05
FII7:0.05
FIJ7:0.05
FIK7:0.05
FIL7:0.05
FIM7:0.05
FIN7:0.05
FIO7:0.05
FIP7:0.05
FIQ7:0.05
FIR7:0.05
FIS7:0.05
FIT7:0.05
FIU7:0.05
FIV7:0.05
FIW7:0.05
FIX7:0.05
FIY7:0.05
FIZ7:0.05
FJA7:0.05
FJB7:0.05
FJC7:0.05
FJD7:0.05
FJE7:0.05
FJF7:0.05
FJG7:0.05
FJH7:0.05
FJI7:0.05
FJJ7:0.05
FJK7:0.05
FJL7:0.035
FJM7:0.035
FJN7:0.035
FJO7:0.115213498752203
FJP7:0.115213498752203
FJQ7:0.115213498752203
FJR7:0.115213498752203
FJS7:0.115213498752203
FJT7:0.115213498752203
FJU7:0.115213498752203
FJV7:0.115213498752203
FJW7:0.115213498752203
FJX7:0.115213498752203
FJY7:0.115213498752203
FJZ7:0.115213498752203
FKA7:0.122612009528967
FKB7:0.122612009528967
FKC7:0.122612009528967
FKD7:0.122612009528967
FKE7:0.122612009528967
FKF7:0.122612009528967
FKG7:0.122612009528967
FKH7:0.122612009528967
FKI7:0.122612009528967
FKJ7:0.122612009528967
FKK7:0.122612009528967
FKL7:0.122612009528967
FKM7:0.125683203778352
FKN7:0.125683203778352
FKO7:0.125683203778352
FKP7:0.125683203778352
FKQ7:0.125683203778352
FKR7:0.125683203778352
FKS7:0.125683203778352
FKT7:0.125683203778352
FKU7:0.125683203778352
FKV7:0.125683203778352
FKW7:0.125683203778352
FKX7:0.125683203778352
FKY7:0.125802116986127
FKZ7:0.125802116986127
FLA7:0.125802116986127
FLB7:0.125802116986127
FLC7:0.125802116986127
FLD7:0.125802116986127
FLE7:0.125802116986127
FLF7:0.125802116986127
FLG7:0.125802116986127
FLH7:0.125802116986127
FLI7:0.125802116986127
FLJ7:0.125802116986127
FLK7:0.127986233321864
FLL7:0.127986233321864
FLM7:0.127986233321864
FLN7:0.127986233321864
FLO7:0.127986233321864
FLP7:0.127986233321864
FLQ7:0.127986233321864
FLR7:0.127986233321864
FLS7:0.127986233321864
FLT7:0.127986233321864
FLU7:0.127986233321864
FLV7:0.127986233321864
FLW7:0.13
FLX7:0.13
FLY7:0.13
FLZ7:0.13
FMA7:0.13
FMB7:0.13
FMC7:0.13
FMD7:0.13
FME7:0.13
FMF7:0.13
FMG7:0.13
FMH7:0.13
FMI7:0.13
FMJ7:0.13
FMK7:0.13
FML7:0.13
FMM7:0.13
FMN7:0.13
FMO7:0.13
FMP7:0.13
FMQ7:0.13
FMR7:0.13
FMS7:0.13
FMT7:0.13
FMU7:0.13
FMV7:0.13
FMW7:0.13
FMX7:0.13
FMY7:0.13
FMZ7:0.13
FNA7:0.13
FNB7:0.13
FNC7:0.13
FND7:0.13
FNE7:0.13
FNF7:0.13
FNG7:0.13
FNH7:0.13
FNI7:0.13
FNJ7:0.13
FNK7:0.13
FNL7:0.13
FNM7:0.13
FNN7:0.13
FNO7:0.13
FNP7:0.13
FNQ7:0.13
FNR7:0.13
FNS7:0.13
FNT7:0.13
FNU7:0.13
FNV7:0.13
FNW7:0.13
FNX7:0.13
FNY7:0.13
FNZ7:0.13
FOA7:0.13
FOB7:0.13
FOC7:0.13
FOD7:0.13
FOE7:0.13
FOF7:0.13
FOG7:0.13
FOH7:0.13
FOI7:0.13
FOJ7:0.13
FOK7:0.13
FOL7:0.13
FOM7:0.13
FON7:0.13
FOO7:0.13
FOP7:0.13
FOQ7:0.13
FOR7:0.13
FOS7:0.13
FOT7:0.13
FOU7:0.13
FOV7:0.13
FOW7:0.13
FOX7:0.13
FOY7:0.13
FOZ7:0.13
FPA7:0.13
FPB7:0.13
FPC7:0.13
FPD7:0.13
FPE7:0.13
FPF7:0.13
FPG7:0.13
FPH7:0.13
FPI7:0.13
FPJ7:0.13
FPK7:0.13
FPL7:0.13
FPM7:0.13
FPN7:0.13
FPO7:0.13
FPP7:0.13
FPQ7:0.13
FPR7:0.13
FPS7:0.13
FPT7:0.13
FPU7:0.13
FPV7:0.13
FPW7:0.13
FPX7:0.13
FPY7:0.13
FPZ7:0.13
FQA7:0.13
FQB7:0.13
FQC7:0.13
FQD7:0.13
FQE7:0.13
FQF7:0.13
FQG7:0.13
FQH7:0.13
FQI7:0.13
FQJ7:0.13
FQK7:0.13
FQL7:0.13
FQM7:0.13
FQN7:0.13
FQO7:0.13
FQP7:0.13
FQQ7:0.13
FQR7:0.13
FQS7:0.13
FQT7:0.13
FQU7:0.13
FQV7:0.13
FQW7:0.13
FQX7:0.13
FQY7:0.13
FQZ7:0.13
FRA7:0.13
FRB7:0.13
FRC7:0.13
FRD7:0.13
FRE7:0.13
FRF7:0.13
FRG7:0.13
FRH7:0.13
FRI7:0.13
FRJ7:0.13
FRK7:0.13
FRL7:0.13
FRM7:0.13
FRN7:0.13
FRO7:0.13
FRP7:0.13
FRQ7:0.13
FRR7:0.13
FRS7:0.13
FRT7:0.13
FRU7:0.13
FRV7:0.13
FRW7:0.13
FRX7:0.13
FRY7:0.13
FRZ7:0.13
FSA7:0.13
FSB7:0.13
FSC7:0.13
FSD7:0.13
FSE7:0.13
FSF7:0.13
FSG7:0.13
FSH7:0.13
FSI7:0.13
FSJ7:0.13
FSK7:0.13
FSL7:0.13
FSM7:0.13
FSN7:0.13
FSO7:0.13
FSP7:0.13
FSQ7:0.13
FSR7:0.13
FSS7:0.13
FST7:0.13
FSU7:0.13
FSV7:0.13
FSW7:0.13
FSX7:0.13
FSY7:0.13
FSZ7:0.13
FTA7:0.13
FTB7:0.13
FTC7:0.13
FTD7:0.13
FTE7:0.13
FTF7:0.13
FTG7:0.13
FTH7:0.13
FTI7:0.13
FTJ7:0.13
FTK7:0.13
FTL7:0.13
FTM7:0.13
FTN7:0.13
FTO7:0.13
FTP7:0.13
FTQ7:0.13
FTR7:0.13
FTS7:0.13
FTT7:0.13
FTU7:0.13
FTV7:0.13
FTW7:0.13
FTX7:0.13
FTY7:0.13
FTZ7:0.13
FUA7:0.13
FUB7:0.13
FUC7:0.13
FUD7:0.13
FUE7:0.13
FUF7:0.13
FUG7:0.13
FUH7:0.13
FUI7:0.13
FUJ7:0.13
FUK7:0.13
FUL7:0.13
FUM7:0.13
FUN7:0.13
FUO7:0.13
FUP7:0.13
FUQ7:0.13
FUR7:0.13
FUS7:0.13
FUT7:0.13
FUU7:0.13
FUV7:0.13
FUW7:0.13
FUX7:0.13
FUY7:0.13
FUZ7:0.13
FVA7:0.13
FVB7:0.13
FVC7:0.13
FVD7:0.13
FVE7:0.13
FVF7:0.13
FVG7:0.13
FVH7:0.13
FVI7:0.13
FVJ7:0.13
FVK7:0.13
FVL7:0.13
FVM7:0.13
FVN7:0.13
FVO7:0.13
FVP7:0.13
FVQ7:0.13
FVR7:0.13
FVS7:0.13
FVT7:0.13
FVU7:0.13
FVV7:0.13
FVW7:0.13
FVX7:0.13
FVY7:0.13
FVZ7:0.13
FWA7:0.13
FWB7:0.13
FWC7:0.13
FWD7:0.13
FWE7:0.13
FWF7:0.13
FWG7:0.13
FWH7:0.13
FWI7:0.13
FWJ7:0.13
FWK7:0.13
FWL7:0.13
FWM7:0.13
FWN7:0.13
FWO7:0.13
FWP7:0.13
FWQ7:0.13
FWR7:0.13
FWS7:0.13
FWT7:0.13
FWU7:0.13
FWV7:0.13
FWW7:0.13
FWX7:0.13
FWY7:0.13
FWZ7:0.13
FXA7:0.13
FXB7:0.13
FXC7:0.13
FXD7:0.13
FXE7:0.13
FXF7:0.13
FXG7:0.13
FXH7:0.13
FXI7:0.13
FXJ7:0.13
FXK7:0.13
FXL7:0.13
FXM7:0.13
FXN7:0.13
FXO7:0.13
FXP7:0.13
FXQ7:0.13
FXR7:0.13
FXS7:0.13
FXT7:0.13
FXU7:0.13
FXV7:0.13
FXW7:0.13
FXX7:0.13
FXY7:0.13
FXZ7:0.13
FYA7:0.13
FYB7:0.13
FYC7:0.13
FYD7:0.13
FYE7:0.13
FYF7:0.13
FYG7:0.13
FYH7:0.13
FYI7:0.13
FYJ7:0.13
FYK7:0.13
FYL7:0.13
FYM7:0.13
FYN7:0.13
FYO7:0.13
FYP7:0.13
FYQ7:0.13
FYR7:0.13
FYS7:0.13
FYT7:0.13
FYU7:0.13
FYV7:0.13
FYW7:0.13
FYX7:0.13
FYY7:0.13
FYZ7:0.13
FZA7:0.13
FZB7:0.13
FZC7:0.13
FZD7:0.13
FZE7:0.13
FZF7:0.13
FZG7:0.13
FZH7:0.13
FZI7:0.13
FZJ7:0.13
FZK7:0.13
FZL7:0.13
FZM7:0.13
FZN7:0.13
FZO7:0.13
FZP7:0.13
FZQ7:0.13
FZR7:0.13
FZS7:0.13
FZT7:0.13
FZU7:0.13
FZV7:0.13
FZW7:0.13
FZX7:0.13
FZY7:0.13
FZZ7:0.13
GAA7:0.13
GAB7:0.13
GAC7:0.13
GAD7:0.13
GAE7:0.13
GAF7:0.13
GAG7:0.13
GAH7:0.13
GAI7:0.13
GAJ7:0.13
GAK7:0.13
GAL7:0.13
GAM7:0.13
GAN7:0.13
GAO7:0.13
GAP7:0.13
GAQ7:0.13
GAR7:0.13
GAS7:0.13
GAT7:0.13
GAU7:0.13
GAV7:0.13
GAW7:0.13
GAX7:0.13
GAY7:0.13
GAZ7:0.13
GBA7:0.13
GBB7:0.13
GBC7:0.13
GBD7:0.13
GBE7:0.13
GBF7:0.13
GBG7:0.13
GBH7:0.13
GBI7:0.13
GBJ7:0.13
GBK7:0.13
GBL7:0.13
GBM7:0.13
GBN7:0.13
GBO7:0.13
GBP7:0.13
GBQ7:0.13
GBR7:0.13
GBS7:0.13
GBT7:0.13
GBU7:0.13
GBV7:0.13
GBW7:0.13
GBX7:0.13
GBY7:0.13
GBZ7:0.13
GCA7:0.13
GCB7:0.13
GCC7:0.13
GCD7:0.13
GCE7:0.13
GCF7:0.13
GCG7:0.13
GCH7:0.13
GCI7:0.13
GCJ7:0.13
GCK7:0.13
GCL7:0.13
GCM7:0.13
GCN7:0.13
GCO7:0.13
GCP7:0.13
GCQ7:0.13
GCR7:0.13
GCS7:0.13
GCT7:0.13
GCU7:0.13
GCV7:0.13
GCW7:0.13
GCX7:0.13
GCY7:0.13
GCZ7:0.13
GDA7:0.13
GDB7:0.13
GDC7:0.13
GDD7:0.13
GDE7:0.13
GDF7:0.13
GDG7:0.13
GDH7:0.13
GDI7:0.13
GDJ7:0.13
GDK7:0.13
GDL7:0.13
GDM7:0.13
GDN7:0.13
GDO7:0.13
GDP7:0.13
GDQ7:0.13
GDR7:0.13
GDS7:0.13
GDT7:0.13
GDU7:0.13
GDV7:0.13
GDW7:0.13
GDX7:0.13
GDY7:0.13
GDZ7:0.13
GEA7:0.13
GEB7:0.13
GEC7:0.13
GED7:0.13
GEE7:0.13
GEF7:0.13
GEG7:0.13
GEH7:0.13
GEI7:0.13
GEJ7:0.13
GEK7:0.13
GEL7:0.13
GEM7:0.13
GEN7:0.13
GEO7:0.13
GEP7:0.13
GEQ7:0.13
GER7:0.13
GES7:0.13
GET7:0.13
GEU7:0.13
GEV7:0.13
GEW7:0.13
GEX7:0.13
GEY7:0.13
GEZ7:0.13
GFA7:0.13
GFB7:0.13
GFC7:0.13
GFD7:0.13
GFE7:0.13
GFF7:0.13
GFG7:0.13
GFH7:0.13
GFI7:0.13
GFJ7:0.13
GFK7:0.13
GFL7:0.13
GFM7:0.13
GFN7:0.13
GFO7:0.13
GFP7:0.13
GFQ7:0.13
GFR7:0.13
GFS7:0.13
GFT7:0.13
GFU7:0.13
GFV7:0.13
GFW7:0.13
GFX7:0.13
GFY7:0.13
GFZ7:0.13
GGA7:0.13
GGB7:0.13
GGC7:0.13
GGD7:0.13
GGE7:0.13
GGF7:0.13
GGG7:0.13
GGH7:0.13
GGI7:0.13
GGJ7:0.13
GGK7:0.13
GGL7:0.13
GGM7:0.13
GGN7:0.13
GGO7:0.13
GGP7:0.13
GGQ7:0.13
GGR7:0.13
GGS7:0.13
GGT7:0.13
GGU7:0.13
GGV7:0.13
GGW7:0.13
GGX7:0.13
GGY7:0.13
GGZ7:0.13
GHA7:0.13
GHB7:0.13
GHC7:0.13
GHD7:0.13
GHE7:0.13
GHF7:0.13
GHG7:0.13
GHH7:0.13
GHI7:0.13
GHJ7:0.13
GHK7:0.13
GHL7:0.13
GHM7:0.13
GHN7:0.13
GHO7:0.13
GHP7:0.13
GHQ7:0.13
GHR7:0.13
GHS7:0.13
GHT7:0.13
GHU7:0.13
GHV7:0.13
GHW7:0.13
GHX7:0.13
GHY7:0.13
GHZ7:0.13
GIA7:0.13
GIB7:0.13
GIC7:0.13
GID7:0.13
GIE7:0.13
GIF7:0.13
GIG7:0.13
GIH7:0.13
GII7:0.13
GIJ7:0.13
GIK7:0.13
GIL7:0.13
GIM7:0.13
GIN7:0.13
GIO7:0.13
GIP7:0.13
GIQ7:0.13
GIR7:0.13
GIS7:0.13
GIT7:0.13
GIU7:0.13
GIV7:0.13
GIW7:0.13
GIX7:0.13
GIY7:0.13
GIZ7:0.13
GJA7:0.13
GJB7:0.13
GJC7:0.13
GJD7:0.13
GJE7:0.13
GJF7:0.13
GJG7:0.13
GJH7:0.13
GJI7:0.13
GJJ7:0.13
GJK7:0.13
GJL7:0.13
GJM7:0.13
GJN7:0.13
GJO7:0.13
GJP7:0.13
GJQ7:0.13
GJR7:0.13
GJS7:0.13
GJT7:0.13
GJU7:0.13
GJV7:0.13
GJW7:0.13
GJX7:0.13
GJY7:0.13
GJZ7:0.13
GKA7:0.13
GKB7:0.13
GKC7:0.13
GKD7:0.13
GKE7:0.13
GKF7:0.13
GKG7:0.13
GKH7:0.13
GKI7:0.13
GKJ7:0.13
GKK7:0.13
GKL7:0.13
GKM7:0.13
GKN7:0.13
GKO7:0.13
GKP7:0.13
GKQ7:0.13
GKR7:0.13
GKS7:0.13
GKT7:0.13
GKU7:0.13
GKV7:0.13
GKW7:0.13
GKX7:0.13
GKY7:0.13
GKZ7:0.13
GLA7:0.13
GLB7:0.13
GLC7:0.13
GLD7:0.13
GLE7:0.2
GLF7:0.2
GLG7:0.2
GLH7:0.140471639381652
GLI7:0.140471639381652
GLJ7:0.140471639381652
GLK7:0.140471639381652
GLL7:0.140471639381652
GLM7:0.140471639381652
GLN7:0.140471639381652
GLO7:0.140471639381652
GLP7:0.140471639381652
GLQ7:0.140471639381652
GLR7:0.140471639381652
GLS7:0.140471639381652
GLT7:0.174508021684931
GLU7:0.174508021684931
GLV7:0.174508021684931
GLW7:0.174508021684931
GLX7:0.174508021684931
GLY7:0.174508021684931
GLZ7:0.174508021684931
GMA7:0.174508021684931
GMB7:0.174508021684931
GMC7:0.174508021684931
GMD7:0.174508021684931
GME7:0.174508021684931
GMF7:0.185446989207498
GMG7:0.185446989207498
GMH7:0.185446989207498
GMI7:0.185446989207498
GMJ7:0.185446989207498
GMK7:0.185446989207498
GML7:0.185446989207498
GMM7:0.185446989207498
GMN7:0.185446989207498
GMO7:0.185446989207498
GMP7:0.185446989207498
GMQ7:0.185446989207498
GMR7:0.183401441961483
GMS7:0.183401441961483
GMT7:0.183401441961483
GMU7:0.183401441961483
GMV7:0.183401441961483
GMW7:0.183401441961483
GMX7:0.183401441961483
GMY7:0.183401441961483
GMZ7:0.183401441961483
GNA7:0.183401441961483
GNB7:0.183401441961483
GNC7:0.183401441961483
GND7:0.209299182241163
GNE7:0.209299182241163
GNF7:0.209299182241163
GNG7:0.209299182241163
GNH7:0.209299182241163
GNI7:0.209299182241163
GNJ7:0.209299182241163
GNK7:0.209299182241163
GNL7:0.209299182241163
GNM7:0.209299182241163
GNN7:0.209299182241163
GNO7:0.209299182241163
GNP7:0.193670606617769
GNQ7:0.194625342098824
GNR7:0.195580077579879
GNS7:0.196534813060934
GNT7:0.197489548541988
GNU7:0.198444284023043
GNV7:0.199399019504098
GNW7:0.200353754985153
GNX7:0.201308490466207
GNY7:0.202263225947262
GNZ7:0.203217961428317
GOA7:0.204172696909372
GOB7:0.205127432390426
GOC7:0.206082167871481
GOD7:0.207036903352536
GOE7:0.207991638833591
GOF7:0.208946374314646
GOG7:0.2099011097957
GOH7:0.210855845276755
GOI7:0.21181058075781
GOJ7:0.212765316238865
GOK7:0.213720051719919
GOL7:0.214674787200974
GOM7:0.215629522682029
GON7:0.216584258163084
GOO7:0.217538993644138
GOP7:0.218493729125193
GOQ7:0.219448464606248
GOR7:0.220403200087303
GOS7:0.221357935568357
GOT7:0.222312671049412
GOU7:0.223267406530467
GOV7:0.224222142011522
GOW7:0.225176877492576
GOX7:0.226131612973631
GOY7:0.227086348454686
GOZ7:0.228041083935741
GPA7:0.228995819416795
GPB7:0.22995055489785
GPC7:0.230905290378905
GPD7:0.23186002585996
GPE7:0.232814761341014
GPF7:0.233769496822069
GPG7:0.234724232303124
GPH7:0.235678967784179
GPI7:0.236633703265233
GPJ7:0.237588438746288
GPK7:0.238543174227343
GPL7:0.239497909708398
GPM7:0.240452645189452
GPN7:0.241407380670507
GPO7:0.242362116151562
GPP7:0.243316851632617
GPQ7:0.244271587113671
GPR7:0.245226322594726
GPS7:0.246181058075781
GPT7:0.247135793556836
GPU7:0.24809052903789
GPV7:0.249045264518945
GPW7:0.25
GPX7:0.25
GPY7:0.25
GPZ7:0.25
GQA7:0.25
GQB7:0.25
GQC7:0.25
GQD7:0.25
GQE7:0.25
GQF7:0.25
GQG7:0.25
GQH7:0.25
GQI7:0.25
GQJ7:0.25
GQK7:0.25
GQL7:0.25
GQM7:0.25
GQN7:0.25
GQO7:0.25
GQP7:0.25
GQQ7:0.25
GQR7:0.25
GQS7:0.25
GQT7:0.25
GQU7:0.25
GQV7:0.25
GQW7:0.25
GQX7:0.25
GQY7:0.25
GQZ7:0.25
GRA7:0.25
GRB7:0.25
GRC7:0.25
GRD7:0.25
GRE7:0.25
GRF7:0.25
GRG7:0.25
GRH7:0.25
GRI7:0.25
GRJ7:0.25
GRK7:0.25
GRL7:0.25
GRM7:0.25
GRN7:0.25
GRO7:0.25
GRP7:0.25
GRQ7:0.25
GRR7:0.25
GRS7:0.25
GRT7:0.25
GRU7:0.25
GRV7:0.25
GRW7:0.25
GRX7:0.25
GRY7:0.25
GRZ7:0.25
GSA7:0.25
GSB7:0.25
GSC7:0.25
GSD7:0.25
GSE7:0.25
GSF7:0.25
GSG7:0.25
GSH7:0.25
GSI7:0.25
GSJ7:0.25
GSK7:0.25
GSL7:0.25
GSM7:0.25
GSN7:0.25
GSO7:0.25
GSP7:0.25
GSQ7:0.25
GSR7:0.25
GSS7:0.25
GST7:0.25
GSU7:0.25
GSV7:0.25
GSW7:0.25
GSX7:0.25
GSY7:0.25
GSZ7:0.25
GTA7:0.25
GTB7:0.25
GTC7:0.25
GTD7:0.25
GTE7:0.25
GTF7:0.25
GTG7:0.25
GTH7:0.25
GTI7:0.25
GTJ7:0.25
GTK7:0.25
GTL7:0.25
GTM7:0.25
GTN7:0.25
GTO7:0.25
GTP7:0.25
GTQ7:0.25
GTR7:0.25
GTS7:0.25
GTT7:0.25
GTU7:0.25
GTV7:0.25
GTW7:0.25
GTX7:0.25
GTY7:0.25
GTZ7:0.25
GUA7:0.25
GUB7:0.25
GUC7:0.25
GUD7:0.25
GUE7:0.25
GUF7:0.25
GUG7:0.25
GUH7:0.25
GUI7:0.25
GUJ7:0.25
GUK7:0.25
GUL7:0.25
GUM7:0.25
GUN7:0.25
GUO7:0.25
GUP7:0.25
GUQ7:0.25
GUR7:0.25
GUS7:0.25
GUT7:0.25
GUU7:0.25
GUV7:0.25
GUW7:0.25
GUX7:0.25
GUY7:0.25
GUZ7:0.25
GVA7:0.25
GVB7:0.25
GVC7:0.25
GVD7:0.25
GVE7:0.25
GVF7:0.25
GVG7:0.25
GVH7:0.25
GVI7:0.25
GVJ7:0.25
GVK7:0.25
GVL7:0.25
GVM7:0.25
GVN7:0.25
GVO7:0.25
GVP7:0.25
GVQ7:0.25
GVR7:0.25
GVS7:0.25
GVT7:0.25
GVU7:0.25
GVV7:0.25
GVW7:0.25
GVX7:0.25
GVY7:0.25
GVZ7:0.25
GWA7:0.25
GWB7:0.25
GWC7:0.25
GWD7:0.25
GWE7:0.25
GWF7:0.25
GWG7:0.25
GWH7:0.25
GWI7:0.25
GWJ7:0.25
GWK7:0.25
GWL7:0.25
GWM7:0.25
GWN7:0.25
GWO7:0.25
GWP7:0.25
GWQ7:0.25
GWR7:0.25
GWS7:0.25
GWT7:0.25
GWU7:0.25
GWV7:0.25
GWW7:0.25
GWX7:0.25
GWY7:0.25
GWZ7:0.25
GXA7:0.25
GXB7:0.25
GXC7:0.25
GXD7:0.25
GXE7:0.25
GXF7:0.25
GXG7:0.25
GXH7:0.25
GXI7:0.25
GXJ7:0.25
GXK7:0.25
GXL7:0.25
GXM7:0.25
GXN7:0.25
GXO7:0.25
GXP7:0.25
GXQ7:0.25
GXR7:0.25
GXS7:0.25
GXT7:0.25
GXU7:0.25
GXV7:0.25
GXW7:0.25
GXX7:0.25
GXY7:0.25
GXZ7:0.25
GYA7:0.25
GYB7:0.25
GYC7:0.25
GYD7:0.25
GYE7:0.25
GYF7:0.25
GYG7:0.25
GYH7:0.25
GYI7:0.25
GYJ7:0.25
GYK7:0.25
GYL7:0.25
GYM7:0.25
GYN7:0.25
GYO7:0.25
GYP7:0.25
GYQ7:0.25
GYR7:0.25
GYS7:0.25
GYT7:0.25
GYU7:0.25
GYV7:0.25
GYW7:0.25
GYX7:0.25
GYY7:0.25
GYZ7:0.25
GZA7:0.25
GZB7:0.25
GZC7:0.25
GZD7:0.25
GZE7:0.25
GZF7:0.25
GZG7:0.25
GZH7:0.25
GZI7:0.25
GZJ7:0.25
GZK7:0.25
GZL7:0.25
GZM7:0.25
GZN7:0.25
GZO7:0.25
GZP7:0.25
GZQ7:0.25
GZR7:0.25
GZS7:0.25
GZT7:0.25
GZU7:0.25
GZV7:0.25
GZW7:0.25
GZX7:0.25
GZY7:0.25
GZZ7:0.25
HAA7:0.25
HAB7:0.25
HAC7:0.25
HAD7:0.25
HAE7:0.25
HAF7:0.25
HAG7:0.25
HAH7:0.25
HAI7:0.25
HAJ7:0.25
HAK7:0.25
HAL7:0.25
HAM7:0.25
HAN7:0.25
HAO7:0.25
HAP7:0.25
HAQ7:0.25
HAR7:0.25
HAS7:0.25
HAT7:0.25
HAU7:0.25
HAV7:0.25
HAW7:0.25
HAX7:0.25
HAY7:0.25
HAZ7:0.25
HBA7:0.25
HBB7:0.25
HBC7:0.25
HBD7:0.25
HBE7:0.25
HBF7:0.25
HBG7:0.25
HBH7:0.25
HBI7:0.25
HBJ7:0.25
HBK7:0.25
HBL7:0.25
HBM7:0.25
HBN7:0.25
HBO7:0.25
HBP7:0.25
HBQ7:0.25
HBR7:0.25
HBS7:0.25
HBT7:0.25
HBU7:0.25
HBV7:0.25
HBW7:0.25
HBX7:0.25
HBY7:0.25
HBZ7:0.25
HCA7:0.25
HCB7:0.25
HCC7:0.25
HCD7:0.25
HCE7:0.25
HCF7:0.25
HCG7:0.25
HCH7:0.25
HCI7:0.25
HCJ7:0.25
HCK7:0.25
HCL7:0.25
HCM7:0.25
HCN7:0.25
HCO7:0.25
HCP7:0.25
HCQ7:0.25
HCR7:0.25
HCS7:0.25
HCT7:0.25
HCU7:0.25
HCV7:0.25
HCW7:0.25
HCX7:0.25
HCY7:0.25
HCZ7:0.25
HDA7:0.25
HDB7:0.25
HDC7:0.25
HDD7:0.25
HDE7:0.25
HDF7:0.25
HDG7:0.25
HDH7:0.25
HDI7:0.25
HDJ7:0.25
HDK7:0.25
HDL7:0.25
HDM7:0.25
HDN7:0.25
HDO7:0.25
HDP7:0.25
HDQ7:0.25
HDR7:0.25
HDS7:0.25
HDT7:0.25
HDU7:0.25
HDV7:0.25
HDW7:0.25
HDX7:0.25
HDY7:0.25
HDZ7:0.25
HEA7:0.25
HEB7:0.25
HEC7:0.25
HED7:0.25
HEE7:0.25
HEF7:0.25
HEG7:0.25
HEH7:0.25
HEI7:0.25
HEJ7:0.25
HEK7:0.25
HEL7:0.25
HEM7:0.25
HEN7:0.25
HEO7:0.25
HEP7:0.25
HEQ7:0.25
HER7:0.25
HES7:0.25
HET7:0.25
HEU7:0.25
HEV7:0.25
HEW7:0.25
HEX7:0.25
HEY7:0.25
HEZ7:0.25
HFA7:0.25
HFB7:0.25
HFC7:0.25
HFD7:0.25
HFE7:0.25
HFF7:0.25
HFG7:0.25
HFH7:0.25
HFI7:0.25
HFJ7:0.25
HFK7:0.25
HFL7:0.25
HFM7:0.25
HFN7:0.25
HFO7:0.25
HFP7:0.25
HFQ7:0.25
HFR7:0.25
HFS7:0.25
HFT7:0.25
HFU7:0.25
HFV7:0.25
HFW7:0.25
HFX7:0.25
HFY7:0.25
HFZ7:0.25
HGA7:0.25
HGB7:0.25
HGC7:0.25
HGD7:0.25
HGE7:0.25
HGF7:0.25
HGG7:0.25
HGH7:0.25
HGI7:0.25
HGJ7:0.25
HGK7:0.25
HGL7:0.25
HGM7:0.25
HGN7:0.25
HGO7:0.25
HGP7:0.25
HGQ7:0.25
HGR7:0.25
HGS7:0.25
HGT7:0.25
HGU7:0.25
HGV7:0.25
HGW7:0.25
HGX7:0.25
HGY7:0.25
HGZ7:0.25
HHA7:0.25
HHB7:0.25
HHC7:0.25
HHD7:0.25
HHE7:0.25
HHF7:0.25
HHG7:0.25
HHH7:0.25
HHI7:0.25
HHJ7:0.25
HHK7:0.25
HHL7:0.25
HHM7:0.25
HHN7:0.25
HHO7:0.25
HHP7:0.25
HHQ7:0.25
HHR7:0.25
HHS7:0.25
HHT7:0.25
HHU7:0.25
HHV7:0.25
HHW7:0.25
HHX7:0.25
HHY7:0.25
HHZ7:0.25
HIA7:0.25
HIB7:0.25
HIC7:0.25
HID7:0.25
HIE7:0.25
HIF7:0.25
HIG7:0.25
HIH7:0.25
HII7:0.25
HIJ7:0.25
HIK7:0.25
HIL7:0.25
HIM7:0.25
HIN7:0.25
HIO7:0.25
HIP7:0.25
HIQ7:0.25
HIR7:0.25
HIS7:0.25
HIT7:0.25
HIU7:0.25
HIV7:0.25
HIW7:0.25
HIX7:0.25
HIY7:0.25
HIZ7:0.25
HJA7:0.25
HJB7:0.25
HJC7:0.25
HJD7:0.25
HJE7:0.25
HJF7:0.25
HJG7:0.25
HJH7:0.25
HJI7:0.25
HJJ7:0.25
HJK7:0.25
HJL7:0.25
HJM7:0.25
HJN7:0.25
HJO7:0.25
HJP7:0.25
HJQ7:0.25
HJR7:0.25
HJS7:0.25
HJT7:0.25
HJU7:0.25
HJV7:0.25
HJW7:0.25
HJX7:0.25
HJY7:0.25
HJZ7:0.25
HKA7:0.25
HKB7:0.25
HKC7:0.25
HKD7:0.25
HKE7:0.25
HKF7:0.25
HKG7:0.25
HKH7:0.25
HKI7:0.25
HKJ7:0.25
HKK7:0.25
HKL7:0.25
HKM7:0.25
HKN7:0.25
HKO7:0.25
HKP7:0.25
HKQ7:0.25
HKR7:0.25
HKS7:0.25
HKT7:0.25
HKU7:0.25
HKV7:0.25
HKW7:0.25
HKX7:0.25
HKY7:0.25
HKZ7:0.25
HLA7:0.25
HLB7:0.25
HLC7:0.25
HLD7:0.25
HLE7:0.25
HLF7:0.25
HLG7:0.25
HLH7:0.25
HLI7:0.25
HLJ7:0.25
HLK7:0.25
HLL7:0.25
HLM7:0.25
HLN7:0.25
HLO7:0.25
HLP7:0.25
HLQ7:0.25
HLR7:0.25
HLS7:0.25
HLT7:0.25
HLU7:0.25
HLV7:0.25
HLW7:0.25
HLX7:0.25
HLY7:0.25
HLZ7:0.25
HMA7:0.25
HMB7:0.25
HMC7:0.25
HMD7:0.25
HME7:0.25
HMF7:0.25
HMG7:0.25
HMH7:0.25
HMI7:0.25
HMJ7:0.25
HMK7:0.25
HML7:0.25
HMM7:0.25
HMN7:0.25
HMO7:0.25
HMP7:0.25
HMQ7:0.25
HMR7:0.25
HMS7:0.25
HMT7:0.25
HMU7:0.25
HMV7:0.25
HMW7:0.25
HMX7:0
HMY7:0
HMZ7:0
HNA7:0
HNB7:0
HNC7:0
HND7:0
HNE7:0
HNF7:0
HNG7:0
HNH7:0
HNI7:0
HNJ7:0
HNK7:0
HNL7:0
HNM7:0
HNN7:0
HNO7:0
HNP7:0
HNQ7:0
HNR7:0
HNS7:0
HNT7:0
HNU7:0
HNV7:0
HNW7:0
HNX7:0
HNY7:0
HNZ7:0
HOA7:0
HOB7:0
HOC7:0
HOD7:0
HOE7:0
HOF7:0
HOG7:0
HOH7:0
HOI7:0
HOJ7:0
HOK7:0
HOL7:0
HOM7:0
HON7:0
HOO7:0
HOP7:0
HOQ7:0
HOR7:0
HOS7:0
HOT7:0
HOU7:0
HOV7:0
HOW7:0
HOX7:0
HOY7:0
HOZ7:0
HPA7:0
HPB7:0
HPC7:0
HPD7:0
HPE7:0
HPF7:0
HPG7:0
HPH7:0
HPI7:0
HPJ7:0
HPK7:0
HPL7:0
HPM7:0
HPN7:0
HPO7:0
HPP7:0
HPQ7:0
HPR7:0
HPS7:0
HPT7:0
HPU7:0
HPV7:0
HPW7:0
HPX7:0
HPY7:0
HPZ7:0
HQA7:0
HQB7:0
HQC7:0
HQD7:0
HQE7:0
HQF7:0
HQG7:0
HQH7:0
HQI7:0
HQJ7:0
HQK7:0
HQL7:0
HQM7:0
HQN7:0
HQO7:0
HQP7:0
HQQ7:0
HQR7:0
HQS7:0
HQT7:0
HQU7:0
HQV7:0
HQW7:0
HQX7:0
HQY7:0
HQZ7:0
HRA7:0
HRB7:0
HRC7:0
HRD7:0
HRE7:0
HRF7:0
HRG7:0
HRH7:0
HRI7:0
HRJ7:0
HRK7:0
HRL7:0
HRM7:0
HRN7:0
HRO7:0
HRP7:0
HRQ7:0
HRR7:0
HRS7:0
HRT7:0
HRU7:0
HRV7:0
HRW7:0
HRX7:0
HRY7:0
HRZ7:0
HSA7:0
HSB7:0
HSC7:0
HSD7:0
HSE7:0
HSF7:0
HSG7:0
HSH7:0
HSI7:0
HSJ7:0
HSK7:0
HSL7:0
HSM7:0
HSN7:0
HSO7:0
HSP7:0
HSQ7:0
HSR7:0
HSS7:0
HST7:0
HSU7:0
HSV7:0
HSW7:0
HSX7:0
HSY7:0
HSZ7:0
HTA7:0
HTB7:0
HTC7:0
HTD7:0
HTE7:0
HTF7:0
HTG7:0
HTH7:0
HTI7:0
HTJ7:0
HTK7:0
HTL7:0
HTM7:0
HTN7:0
HTO7:0
HTP7:0
HTQ7:0
HTR7:0
HTS7:0
HTT7:0
HTU7:0
HTV7:0
HTW7:0
HTX7:0
HTY7:0
HTZ7:0
HUA7:0
HUB7:0
HUC7:0
HUD7:0
HUE7:0
HUF7:0
HUG7:0
HUH7:0
HUI7:0
HUJ7:0
HUK7:0
HUL7:0
HUM7:0
HUN7:0
HUO7:0
HUP7:0
HUQ7:0
HUR7:0
HUS7:0
HUT7:0
HUU7:0
HUV7:0
HUW7:0
HUX7:0
HUY7:0
HUZ7:0
HVA7:0
HVB7:0
HVC7:0
HVD7:0
HVE7:0
HVF7:0
HVG7:0
HVH7:0
HVI7:0
HVJ7:0
HVK7:0
HVL7:0
HVM7:0
HVN7:0
HVO7:0
HVP7:0
HVQ7:0
HVR7:0
HVS7:0
HVT7:0
HVU7:0
HVV7:0
HVW7:0
HVX7:0
HVY7:0
HVZ7:0
HWA7:0
HWB7:0
HWC7:0
HWD7:0
HWE7:0
HWF7:0
HWG7:0
HWH7:0
HWI7:0
HWJ7:0
HWK7:0
HWL7:0
HWM7:0
HWN7:0
HWO7:0
HWP7:0
HWQ7:0
HWR7:0
HWS7:0
HWT7:0
HWU7:0
HWV7:0
HWW7:0
HWX7:0
HWY7:0
HWZ7:0
HXA7:0
HXB7:0
HXC7:0
HXD7:0
HXE7:0
HXF7:0
HXG7:0
HXH7:0
HXI7:0
HXJ7:0
HXK7:0
HXL7:0
HXM7:0
HXN7:0
HXO7:0
HXP7:0
HXQ7:0
HXR7:0
HXS7:0
HXT7:0
HXU7:0
HXV7:0
HXW7:0
HXX7:0
HXY7:0
HXZ7:0
HYA7:0
HYB7:0
HYC7:0
HYD7:0
HYE7:0
HYF7:0
HYG7:0
HYH7:0
HYI7:0
HYJ7:0
HYK7:0
HYL7:0
HYM7:0
HYN7:0
HYO7:0
HYP7:0
HYQ7:0
HYR7:0
HYS7:0
HYT7:0
HYU7:0
HYV7:0
HYW7:0
HYX7:0
HYY7:0
HYZ7:0
HZA7:0
HZB7:0
HZC7:0
HZD7:0
HZE7:0
HZF7:0
HZG7:0
HZH7:0
HZI7:0
HZJ7:0
HZK7:0
HZL7:0
HZM7:0
HZN7:0
HZO7:0
HZP7:0
HZQ7:0
HZR7:0
HZS7:0
HZT7:0
HZU7:0
HZV7:0
HZW7:0
HZX7:0
HZY7:0
HZZ7:0
IAA7:0
IAB7:0
IAC7:0
IAD7:0
IAE7:0
IAF7:0
IAG7:0
IAH7:0
IAI7:0
IAJ7:0
IAK7:0
IAL7:0
IAM7:0
IAN7:0
IAO7:0
IAP7:0
IAQ7:0
IAR7:0
IAS7:0
IAT7:0
IAU7:0
IAV7:0
IAW7:0
IAX7:0
IAY7:0
IAZ7:0
IBA7:0
IBB7:0
IBC7:0
IBD7:0
IBE7:0
IBF7:0
IBG7:0
IBH7:0
IBI7:0
IBJ7:0
IBK7:0
IBL7:0
IBM7:0
IBN7:0
IBO7:0
IBP7:0
IBQ7:0
IBR7:0
IBS7:0
IBT7:0
IBU7:0
IBV7:0
IBW7:0
IBX7:0
IBY7:0
IBZ7:0
ICA7:0
ICB7:0
ICC7:0
ICD7:0
ICE7:0
ICF7:0
ICG7:0
ICH7:0
ICI7:0
ICJ7:0
ICK7:0
ICL7:0
ICM7:0
ICN7:0
ICO7:0
ICP7:0
ICQ7:0
ICR7:0
ICS7:0
ICT7:0
ICU7:0
ICV7:0
ICW7:0
ICX7:0
ICY7:0
ICZ7:0
IDA7:0
IDB7:0
IDC7:0
IDD7:0
IDE7:0
IDF7:0
IDG7:0
IDH7:0
IDI7:0
IDJ7:0
IDK7:0
IDL7:0
IDM7:0
IDN7:0
IDO7:0
IDP7:0
IDQ7:0
IDR7:0
IDS7:0
IDT7:0
IDU7:0
IDV7:0
IDW7:0
IDX7:0
IDY7:0
IDZ7:0
IEA7:0
IEB7:0
IEC7:0
IED7:0
IEE7:0
IEF7:0
IEG7:0
IEH7:0
IEI7:0
IEJ7:0
IEK7:0
IEL7:0
IEM7:0
IEN7:0
IEO7:0
IEP7:0
IEQ7:0
IER7:0
IES7:0
IET7:0
IEU7:0
IEV7:0
IEW7:0
IEX7:0
IEY7:0
IEZ7:0
IFA7:0
IFB7:0
IFC7:0
IFD7:0
IFE7:0
IFF7:0
IFG7:0
IFH7:0
IFI7:0
IFJ7:0
IFK7:0
IFL7:0
IFM7:0
IFN7:0
IFO7:0
IFP7:0
IFQ7:0
IFR7:0
IFS7:0
IFT7:0
IFU7:0
IFV7:0
IFW7:0
IFX7:0
IFY7:0
IFZ7:0
IGA7:0
IGB7:0
IGC7:0
IGD7:0
IGE7:0
IGF7:0
IGG7:0
IGH7:0
IGI7:0
IGJ7:0
IGK7:0
IGL7:0
IGM7:0
IGN7:0
IGO7:0
IGP7:0
IGQ7:0
IGR7:0
IGS7:0
IGT7:0
IGU7:0
IGV7:0
IGW7:0
IGX7:0
IGY7:0
IGZ7:0
IHA7:0
IHB7:0
IHC7:0
IHD7:0
IHE7:0
IHF7:0
IHG7:0
IHH7:0
IHI7:0
IHJ7:0
IHK7:0
IHL7:0
IHM7:0
IHN7:0
IHO7:0
IHP7:0
IHQ7:0
IHR7:0
IHS7:0
IHT7:0
IHU7:0
IHV7:0
IHW7:0
IHX7:0
IHY7:0
IHZ7:0
IIA7:0
IIB7:0
IIC7:0
IID7:0
IIE7:0
IIF7:0
IIG7:0
IIH7:0
III7:0
IIJ7:0
IIK7:0
IIL7:0
IIM7:0
IIN7:0
IIO7:0
IIP7:0
IIQ7:0
IIR7:0
IIS7:0
IIT7:0
IIU7:0
IIV7:0
IIW7:0
IIX7:0
IIY7:0
IIZ7:0
IJA7:0
IJB7:0
IJC7:0
IJD7:0
IJE7:0
IJF7:0
IJG7:0
IJH7:0
IJI7:0
IJJ7:0
IJK7:0
IJL7:0
IJM7:0
IJN7:0
IJO7:0
IJP7:0
IJQ7:0
IJR7:0
IJS7:0
IJT7:0
IJU7:0
IJV7:0
IJW7:0
IJX7:0
IJY7:0
IJZ7:0
IKA7:0
IKB7:0
IKC7:0
IKD7:0
IKE7:0
IKF7:0
IKG7:0
IKH7:0
IKI7:0
IKJ7:0
IKK7:0
IKL7:0
IKM7:0
IKN7:0
IKO7:0
IKP7:0
IKQ7:0
IKR7:0
IKS7:0
IKT7:0
IKU7:0
IKV7:0
IKW7:0
IKX7:0
IKY7:0
IKZ7:0
ILA7:0
ILB7:0
ILC7:0
ILD7:0
ILE7:0
ILF7:0
ILG7:0
ILH7:0
ILI7:0
ILJ7:0
ILK7:0
ILL7:0
ILM7:0
ILN7:0
ILO7:0
ILP7:0
ILQ7:0
ILR7:0
ILS7:0
ILT7:0
ILU7:0
ILV7:0
ILW7:0
ILX7:0
ILY7:0
ILZ7:0
IMA7:0
IMB7:0
IMC7:0
IMD7:0
IME7:0
IMF7:0
IMG7:0
IMH7:0
IMI7:0
IMJ7:0
IMK7:0
IML7:0
IMM7:0
IMN7:0
IMO7:0
IMP7:0
IMQ7:0
IMR7:0
IMS7:0
IMT7:0
IMU7:0
IMV7:0
IMW7:0
IMX7:0
IMY7:0
IMZ7:0
INA7:0
INB7:0
INC7:0
IND7:0
INE7:0
INF7:0
ING7:0
INH7:0
INI7:0
INJ7:0
INK7:0
INL7:0
INM7:0
INN7:0
INO7:0
INP7:0
INQ7:0
INR7:0
INS7:0
INT7:0
INU7:0
INV7:0
INW7:0
INX7:0
INY7:0
INZ7:0
IOA7:0
IOB7:0
IOC7:0
IOD7:0
IOE7:0
IOF7:0
IOG7:0
IOH7:0
IOI7:0
IOJ7:0
IOK7:0
IOL7:0
IOM7:0
ION7:0
IOO7:0
IOP7:0
IOQ7:0
IOR7:0
IOS7:0
IOT7:0
IOU7:0
IOV7:0
IOW7:0
IOX7:0
IOY7:0
IOZ7:0
IPA7:0
IPB7:0
IPC7:0
IPD7:0
IPE7:0
IPF7:0
IPG7:0
IPH7:0
IPI7:0
IPJ7:0
IPK7:0
IPL7:0
IPM7:0
IPN7:0
IPO7:0
IPP7:0
IPQ7:0
IPR7:0
IPS7:0
IPT7:0
IPU7:0
IPV7:0
IPW7:0
IPX7:0
IPY7:0
IPZ7:0
IQA7:0
IQB7:0
IQC7:0
IQD7:0
IQE7:0
IQF7:0
IQG7:0
IQH7:0
IQI7:0
IQJ7:0
IQK7:0
IQL7:0
IQM7:0
IQN7:0
IQO7:0
IQP7:0
IQQ7:0
IQR7:0
IQS7:0
IQT7:0
IQU7:0
IQV7:0
IQW7:0
IQX7:0
IQY7:0
IQZ7:0
IRA7:0
IRB7:0
IRC7:0
IRD7:0
IRE7:0
IRF7:0
IRG7:0
IRH7:0
IRI7:0
IRJ7:0
IRK7:0
IRL7:0
IRM7:0
IRN7:0
IRO7:0
IRP7:0
IRQ7:0
IRR7:0
IRS7:0
IRT7:0
IRU7:0
IRV7:0
IRW7:0
IRX7:0
IRY7:0
IRZ7:0
ISA7:0
ISB7:0
ISC7:0
ISD7:0
ISE7:0
ISF7:0
ISG7:0
ISH7:0
ISI7:0
ISJ7:0
ISK7:0
ISL7:0
ISM7:0
ISN7:0
ISO7:0
ISP7:0
ISQ7:0
ISR7:0
ISS7:0
IST7:0
ISU7:0
ISV7:0
ISW7:0
ISX7:0
ISY7:0
ISZ7:0
ITA7:0
ITB7:0
ITC7:0
ITD7:0
ITE7:0
ITF7:0
ITG7:0
ITH7:0
ITI7:0
ITJ7:0
ITK7:0
ITL7:0
ITM7:0
ITN7:0
ITO7:0
ITP7:0
ITQ7:0
ITR7:0
ITS7:0
ITT7:0
ITU7:0
ITV7:0
ITW7:0
ITX7:0
ITY7:0
ITZ7:0
IUA7:0
IUB7:0
IUC7:0
IUD7:0
IUE7:0
IUF7:0
IUG7:0
IUH7:0
IUI7:0
IUJ7:0
IUK7:0
IUL7:0
IUM7:0
IUN7:0
IUO7:0
IUP7:0
IUQ7:0
IUR7:0
IUS7:0
IUT7:0
IUU7:0
IUV7:0
IUW7:0
IUX7:0
IUY7:0
IUZ7:0
IVA7:0
IVB7:0
IVC7:0
IVD7:0
IVE7:0
IVF7:0
IVG7:0
IVH7:0
IVI7:0
IVJ7:0
IVK7:0
IVL7:0
IVM7:0
IVN7:0
IVO7:0
IVP7:0
IVQ7:0
IVR7:0
IVS7:0
IVT7:0
IVU7:0
IVV7:0
IVW7:0
IVX7:0
IVY7:0
IVZ7:0
IWA7:0
IWB7:0
IWC7:0
IWD7:0
IWE7:0
IWF7:0
IWG7:0
IWH7:0
IWI7:0
IWJ7:0
IWK7:0
IWL7:0
IWM7:0
IWN7:0
IWO7:0
IWP7:0
IWQ7:0
IWR7:0
IWS7:0
IWT7:0
IWU7:0
IWV7:0
IWW7:0
IWX7:0
IWY7:0
IWZ7:0
IXA7:0
IXB7:0
IXC7:0
IXD7:0
IXE7:0
IXF7:0
IXG7:0
IXH7:0
IXI7:0
IXJ7:0
IXK7:0
IXL7:0
IXM7:0
IXN7:0
IXO7:0
IXP7:0
IXQ7:0
IXR7:0
IXS7:0
IXT7:0
IXU7:0
IXV7:0
IXW7:0
IXX7:0
IXY7:0
IXZ7:0
IYA7:0
IYB7:0
IYC7:0
IYD7:0
IYE7:0
IYF7:0
IYG7:0
IYH7:0
IYI7:0
IYJ7:0
IYK7:0
IYL7:0
IYM7:0
IYN7:0
IYO7:0
IYP7:0
IYQ7:0
IYR7:0
IYS7:0
IYT7:0
IYU7:0
IYV7:0
IYW7:0
IYX7:0
IYY7:0
IYZ7:0
IZA7:0
IZB7:0
IZC7:0
IZD7:0
IZE7:0
IZF7:0
IZG7:0
IZH7:0
IZI7:0
IZJ7:0
IZK7:0
IZL7:0
IZM7:0
IZN7:0
IZO7:0
IZP7:0
IZQ7:0
IZR7:0
IZS7:0
IZT7:0
IZU7:0
IZV7:0
IZW7:0
IZX7:0
IZY7:0
IZZ7:0
JAA7:0
JAB7:0
JAC7:0
JAD7:0
JAE7:0
JAF7:0
JAG7:0
JAH7:0
JAI7:0
JAJ7:0
JAK7:0
JAL7:0
JAM7:0
JAN7:0
JAO7:0
JAP7:0
JAQ7:0
JAR7:0
JAS7:0
JAT7:0
JAU7:0
JAV7:0
JAW7:0
JAX7:0
JAY7:0
JAZ7:0
JBA7:0
JBB7:0
JBC7:0
JBD7:0
JBE7:0
JBF7:0
JBG7:0
JBH7:0
JBI7:0
JBJ7:0
JBK7:0
JBL7:0
JBM7:0
JBN7:0
JBO7:0
JBP7:0
JBQ7:0
JBR7:0
JBS7:0
JBT7:0
JBU7:0
JBV7:0
JBW7:0
JBX7:0
JBY7:0
JBZ7:0
JCA7:0
JCB7:0
JCC7:0
JCD7:0
JCE7:0
JCF7:0
JCG7:0
JCH7:0
JCI7:0
JCJ7:0
JCK7:0
JCL7:0
JCM7:0
JCN7:0
JCO7:0
JCP7:0
JCQ7:0
JCR7:0
JCS7:0
JCT7:0
JCU7:0
JCV7:0
JCW7:0
JCX7:0
JCY7:0
JCZ7:0
JDA7:0
JDB7:0
JDC7:0
JDD7:0
JDE7:0
JDF7:0
JDG7:0
JDH7:0
JDI7:0
JDJ7:0
JDK7:0
JDL7:0
JDM7:0
JDN7:0
JDO7:0
JDP7:0
JDQ7:0
JDR7:0
JDS7:0
JDT7:0
JDU7:0
JDV7:0
JDW7:0
JDX7:0
JDY7:0
JDZ7:0
JEA7:0
JEB7:0
JEC7:0
JED7:0
JEE7:0
JEF7:0
JEG7:0
JEH7:0
JEI7:0
JEJ7:0
JEK7:0
JEL7:0
JEM7:0
JEN7:0
JEO7:0
JEP7:0
JEQ7:0
JER7:0
JES7:0
JET7:0
JEU7:0
JEV7:0
JEW7:0
JEX7:0
JEY7:0
JEZ7:0
JFA7:0
JFB7:0
JFC7:0
JFD7:0
JFE7:0
JFF7:0
JFG7:0
JFH7:0
JFI7:0
JFJ7:0
JFK7:0
JFL7:0
JFM7:0
JFN7:0
JFO7:0
JFP7:0
JFQ7:0
JFR7:0
JFS7:0
JFT7:0
JFU7:0
JFV7:0
JFW7:0
JFX7:0
JFY7:0
JFZ7:0
JGA7:0
JGB7:0
JGC7:0
JGD7:0
JGE7:0
JGF7:0
JGG7:0
JGH7:0
JGI7:0
JGJ7:0
JGK7:0
JGL7:0
JGM7:0
JGN7:0
JGO7:0
JGP7:0
JGQ7:0
JGR7:0
JGS7:0
JGT7:0
JGU7:0
JGV7:0
JGW7:0
JGX7:0
JGY7:0
JGZ7:0
JHA7:0
JHB7:0
JHC7:0
JHD7:0
JHE7:0
JHF7:0
JHG7:0
JHH7:0
JHI7:0
JHJ7:0
JHK7:0
JHL7:0
JHM7:0
JHN7:0
JHO7:0
JHP7:0
JHQ7:0
JHR7:0
JHS7:0
JHT7:0
JHU7:0
JHV7:0
JHW7:0
JHX7:0
JHY7:0
JHZ7:0
JIA7:0
JIB7:0
JIC7:0
JID7:0
JIE7:0
JIF7:0
JIG7:0
JIH7:0
JII7:0
JIJ7:0
JIK7:0
JIL7:0
JIM7:0
JIN7:0
JIO7:0
JIP7:0
JIQ7:0
JIR7:0
JIS7:0
JIT7:0
JIU7:0
JIV7:0
JIW7:0
JIX7:0
JIY7:0
JIZ7:0
JJA7:0
JJB7:0
JJC7:0
JJD7:0
JJE7:0
JJF7:0
JJG7:0
JJH7:0
JJI7:0
JJJ7:0
JJK7:0
JJL7:0
JJM7:0
JJN7:0
JJO7:0
JJP7:0
JJQ7:0
JJR7:0
JJS7:0
JJT7:0
JJU7:0
JJV7:0
JJW7:0
JJX7:0
JJY7:0
JJZ7:0
JKA7:0
JKB7:0
JKC7:0
JKD7:0
JKE7:0
JKF7:0
JKG7:0
JKH7:0
JKI7:0
JKJ7:0
JKK7:0
JKL7:0
JKM7:0
JKN7:0
JKO7:0
JKP7:0
JKQ7:0
JKR7:0
JKS7:0
JKT7:0
JKU7:0
JKV7:0
JKW7:0
JKX7:0
JKY7:0
JKZ7:0
JLA7:0
JLB7:0
JLC7:0
JLD7:0
JLE7:0
JLF7:0
JLG7:0
JLH7:0
JLI7:0
JLJ7:0
JLK7:0
JLL7:0
JLM7:0
JLN7:0
JLO7:0
JLP7:0
JLQ7:0
JLR7:0
JLS7:0
JLT7:0
JLU7:0
JLV7:0
JLW7:0
JLX7:0
JLY7:0
JLZ7:0
JMA7:0
JMB7:0
JMC7:0
JMD7:0
JME7:0
JMF7:0
JMG7:0
JMH7:0
JMI7:0
JMJ7:0
JMK7:0
JML7:0
JMM7:0
JMN7:0
JMO7:0
JMP7:0
JMQ7:0
JMR7:0
JMS7:0
JMT7:0
JMU7:0
JMV7:0
JMW7:0
JMX7:0
JMY7:0
JMZ7:0
JNA7:0
JNB7:0
JNC7:0
JND7:0
JNE7:0
JNF7:0
JNG7:0
JNH7:0
JNI7:0
JNJ7:0
JNK7:0
JNL7:0
JNM7:0
JNN7:0
JNO7:0
JNP7:0
JNQ7:0
JNR7:0
JNS7:0
JNT7:0
JNU7:0
JNV7:0
JNW7:0
JNX7:0
JNY7:0
JNZ7:0
JOA7:0
JOB7:0
JOC7:0
JOD7:0
JOE7:0
JOF7:0
JOG7:0
JOH7:0
JOI7:0
JOJ7:0
JOK7:0
JOL7:0
JOM7:0
JON7:0
JOO7:0
JOP7:0
JOQ7:0
JOR7:0
JOS7:0
JOT7:0
JOU7:0
JOV7:0
JOW7:0
JOX7:0
JOY7:0
JOZ7:0
JPA7:0
JPB7:0
JPC7:0
JPD7:0
JPE7:0
JPF7:0
JPG7:0
JPH7:0
JPI7:0
JPJ7:0
JPK7:0
JPL7:0
JPM7:0
JPN7:0
JPO7:0
JPP7:0
JPQ7:0
JPR7:0
JPS7:0
JPT7:0
JPU7:0
JPV7:0
JPW7:0
JPX7:0
JPY7:0
JPZ7:0
JQA7:0
JQB7:0
JQC7:0
JQD7:0
JQE7:0
JQF7:0
JQG7:0
JQH7:0
JQI7:0
FinishTime:02/27/2018 14:10:12.206
