Input param:DashboardID:Type_III_UW_MortDn5
Input param:DashboardProcessName:Text Report Consolidation
Input param:DashboardConnection:null
Input param:JobHistoryConnection:E:\mgalfa\AutomationCode\Sensitivities\Type_III_UW_MortDn5\Log\TextReportConsolidation.txt
Input param:JobInstanceID:1
Input param:LogFileDirectory:E:\mgalfa\AutomationCode\Sensitivities\Type_III_UW_MortDn5\Log
Input param:OutputFile:E:\MGALFA\Model\Executionfolder\Sensitivities\Type_III_UW_MortDn5\Type_III_UW_MortDn5reports.xlsx
FinishTime:07/26/2018 14:27:59.766
