Start MG-ALFA script processing: E:\MGALFA\AutomationCode\Sensitivities\FP_EQSens_EQDn10_1QTROUT\Executables\AlfaAutomation\modelscript.asc

Start date and time .... 01-24-2018 at 10:50:18
Workspace Id ........... C:\Program Files (x86)\Milliman\MG-ALFA 10.5.2011\UI\MGALFA105
System version ......... MG-ALFA Version 10.5.2011[10.5.016]


01-24-2018 at 10:50:18 --------------------------------------------------------------------------------

OpenModel "E:\MGALFA\Model\Executionfolder\Sensitivities\FP_EQSens_EQDn10_1QTROUT\FP_EQSens_EQDn10_1QTROUT.ain2"
ValDate 12/2017
Run 29

::AinRun::Message::Begin::

Return Message: 

 Run.029  Yes    Na  Ok (Messages)--01-24-2018 at 14:09:01  TCM VA POST 10/01/11 TLIC 

::AinRun::Message::End::
Close


01-24-2018 at 14:09:01 --------------------------------------------------------------------------------

End date and time ...... 01-24-2018 at 14:09:02
End of script .......... 
