Input param:JobHistoryConnection:E:\MGALFA\AutomationCode\Sensitivities\FP_Type_I_UW_Sensitivities_MortUp10_1YROUT\Log\RandSeedScenLockMonths.txt
Input param:JobInstanceID:1
Input param:SourceWorkbookLocation:E:\mgalfa\Staging\FairValue\Sensitivity\FPPKSetup\FP PK Setup.xlsx
Input param:SourceSheetName:Setup
Input param:SourceRangeStartRow:9
Input param:SourceRangeStartColumn:W
Input param:SourceEndRangeRow:9
Input param:SourceEndRangeColumn:W
Input param:DestinationWorkbookLocation:E:\MGALFA\Model\Executionfolder\Sensitivities\FP_Type_I_UW_Sensitivities_MortUp10_1YROUT\FVQtrly.xlsx
Input param:DestinationSheetName:RandSeedScenLockMonths
Input param:DestinationRangeStartRow:4
Input param:DestinationRangeStartColumn:B
Input param:DestinationEndRangeRow:4
Input param:DestinationEndRangeColumn:B
Source Cells:
W9:12
FinishTime:02/20/2018 13:19:11.013
