Start MG-ALFA script processing: E:\MGALFA\AutomationCode\Base\Executables\AlfaAutomation\testscript.asc

Start date and time .... 08-15-2017 at 14:11:27
Workspace Id ........... C:\Program Files (x86)\Milliman\MG-ALFA 10.5.2011\UI\MGALFA105
System version ......... MG-ALFA Version 10.5.2011[10.5.016]


08-15-2017 at 14:11:27 --------------------------------------------------------------------------------

OpenModel "E:\MGALFA\Model\Executionfolder\Base\Q117_Ifrs_Base.ain2"
ValDate 08/2017
Run 2-3

::AinRun::Message::Begin::

Return Message: 

 Run.002  Yes    Na  Ok--08-15-2017 at 14:12:28  TCM IRT VA Partners         
 Run.003  Yes    Na  Ok--08-15-2017 at 14:13:01  TCM DIRECT VA VANGUARD VOBA 

::AinRun::Message::End::
Close


08-15-2017 at 14:13:01 --------------------------------------------------------------------------------

End date and time ...... 08-15-2017 at 14:13:01
End of script .......... 
