Input param:JobHistoryConnection:E:\MGALFA\AutomationCode\Sensitivities\Type_III_UW_MortUp10\Log\ClearLogJobHistory.txt
Input param:JobInstanceID:4
Input param:UseDBJobHistory:false
Input param:DirectoryToClear:E:\mgalfa\AutomationCode\Sensitivities\Type_III_UW_MortUp10\Log
Input param:DeleteSubdirectories:true
FinishTime:02/14/2018 12:25:37.841
