Input param:JobHistoryConnection:E:\mgalfa\AutomationCode\Sensitivities\Type_III_UW_MortUp10\Log\DeletePostRunFileJobHistory.txt
Input param:JobInstanceID:4
Input param:UseDBJobHistory:false
Input param:FileToDelete:E:\MGALFA\AlfaPostProcessingTriggerFiles\Type_III_UW_MortUp10.txt
FinishTime:02/16/2018 07:58:29.197
