Start MG-ALFA script processing: E:\MGALFA\AutomationCode\Base\Executables\AlfaScenarioFileImport\scenarioscript.asc

Start date and time .... 11-15-2017 at 13:23:48
Workspace Id ........... C:\Program Files (x86)\Milliman\MG-ALFA 10.5.2011\UI\MGALFA105
System version ......... MG-ALFA Version 10.5.2011[10.5.016]


11-15-2017 at 13:23:48 --------------------------------------------------------------------------------

OpenModel "E:\MGALFA\Model\Executionfolder\Scenario\SCN_RN_1000.ain2"
ValDate 06/2017
Run 1

::AinRun::Message::Begin::

Return Message: 

 Run.001  Yes    Na  Ok--11-15-2017 at 13:26:32  Not defined 

::AinRun::Message::End::
Close


11-15-2017 at 13:26:32 --------------------------------------------------------------------------------

End date and time ...... 11-15-2017 at 13:26:32
End of script .......... 
