Start MG-ALFA script processing: E:\MGALFA\AutomationCode\Sensitivities\FV_Greeks_Int_Up_10\Executables\AlfaScenarioFileImport\scenarioscript.asc

Start date and time .... 11-17-2017 at 12:44:00
Workspace Id ........... C:\Program Files (x86)\Milliman\MG-ALFA 10.5.2011\UI\MGALFA105
System version ......... MG-ALFA Version 10.5.2011[10.5.016]


11-17-2017 at 12:44:00 --------------------------------------------------------------------------------

OpenModel "E:\MGALFA\Model\Executionfolder\Scenario\SCN_RN_1000.ain2"
ValDate 10/2017
Run 1

::AinRun::Message::Begin::

Return Message: 

 Run.001  Yes    Na  Ok--11-17-2017 at 12:46:42  Not defined 

::AinRun::Message::End::
Close


11-17-2017 at 12:46:42 --------------------------------------------------------------------------------

End date and time ...... 11-17-2017 at 12:46:42
End of script .......... 
