Input param:JobHistoryConnection:E:\mgalfa\AutomationCode\DAC\BOPParallel\Log\DeleteErrorFileJobHistory.txt
Input param:JobInstanceID:4
Input param:UseDBJobHistory:false
Input param:FileToDelete:E:\mgalfa\Model\ExecutionFolder\DAC\BOPParallel\BopError.txt
FinishTime:05/14/2018 12:04:20.438
