Input param:JobHistoryConnection:E:\MGALFA\AutomationCode\Sensitivities\MTP_1YE\Log\RandSeedScenLockMonths.txt
Input param:JobInstanceID:1
Input param:SourceWorkbookLocation:E:\mgalfa\Staging\FairValue\Sensitivity\FPPKSetup\FP PK Setup.xlsx
Input param:SourceSheetName:Setup
Input param:SourceRangeStartRow:8
Input param:SourceRangeStartColumn:W
Input param:SourceEndRangeRow:8
Input param:SourceEndRangeColumn:W
Input param:DestinationWorkbookLocation:E:\MGALFA\Model\Executionfolder\Sensitivities\MTP_1YE\FVQtrly.xlsx
Input param:DestinationSheetName:RandSeedScenLockMonths
Input param:DestinationRangeStartRow:4
Input param:DestinationRangeStartColumn:B
Input param:DestinationEndRangeRow:4
Input param:DestinationEndRangeColumn:B
Source Cells:
W8:3
FinishTime:01/08/2018 07:43:36.452
