Input param:JobHistoryConnection:E:\MGALFA\AutomationCode\Sensitivities\Type_III_UW_LapseUp20\Log\ClearLogJobHistory.txt
Input param:JobInstanceID:4
Input param:UseDBJobHistory:false
Input param:DirectoryToClear:E:\mgalfa\AutomationCode\Sensitivities\Type_III_UW_LapseUp20\Log
Input param:DeleteSubdirectories:true
FinishTime:03/06/2018 08:45:38.695
