Input param:JobHistoryConnection:E:\MGALFA\AutomationCode\Sensitivities\Type_III_UW_LapseUp20\Log\Type_III_UW_Perm_Table_wscale3.txt
Input param:JobInstanceID:1
Input param:SourceWorkbookLocation:E:\mgalfa\Staging\FairValue\Sensitivity\ModelInputs\IFRS_Model_Inputs.xlsx
Input param:SourceSheetName:Type III Inputs
Input param:SourceRow:6
Input param:SourceColumn:E
Input param:DestinationWorkbookLocation:E:\MGALFA\Model\Executionfolder\Sensitivities\Type_III_UW_LapseUp20\FVQtrly.xlsx
Input param:DestinationSheetName:wscale
Input param:DestinationRangeStartRow:6
Input param:DestinationRangeStartColumn:C
Input param:DestinationEndRangeRow:6
Input param:DestinationEndRangeColumn:EV
E6:0.9
FinishTime:03/06/2018 08:45:44.362
