Input param:JobHistoryConnection:E:\MGALFA\AutomationCode\Sensitivities\Type_III_UW_LapseUp20\Log\Type_III_UW_LapseUp20_wscale8.txt
Input param:JobInstanceID:1
Input param:SourceWorkbookLocation:E:\mgalfa\Staging\FairValue\Sensitivity\ModelInputs\IFRS_Model_Inputs.xlsx
Input param:SourceSheetName:Type III Inputs
Input param:SourceRow:11
Input param:SourceColumn:E
Input param:DestinationWorkbookLocation:E:\MGALFA\Model\Executionfolder\Sensitivities\Type_III_UW_LapseUp20\FVQtrly.xlsx
Input param:DestinationSheetName:wscale
Input param:DestinationRangeStartRow:11
Input param:DestinationRangeStartColumn:C
Input param:DestinationEndRangeRow:11
Input param:DestinationEndRangeColumn:EV
E11:1.2
FinishTime:03/06/2018 08:45:50.991
