Input param:JobHistoryConnection:E:\mgalfa\AutomationCode\Sensitivities\MTP_NewBusiness_1QTROUT\Log\ClearLogJobHistory.txt
Input param:JobInstanceID:4
Input param:UseDBJobHistory:false
Input param:DirectoryToClear:E:\MGALFA\AutomationCode\Sensitivities\MTP_NewBusiness_1QTROUT\Log
Input param:DeleteSubdirectories:true
FinishTime:01/08/2018 09:05:53.023
