Input param:JobHistoryConnection:E:\MGALFA\AutomationCode\Sensitivities\MTP_NewBusiness_1QTROUT\Log\F133PVMthOut.txt
Input param:JobInstanceID:1
Input param:SourceWorkbookLocation:E:\mgalfa\Staging\FairValue\Sensitivity\FPPKSetup\FP PK Setup.xlsx
Input param:SourceSheetName:Setup
Input param:SourceRangeStartRow:7
Input param:SourceRangeStartColumn:W
Input param:SourceEndRangeRow:7
Input param:SourceEndRangeColumn:W
Input param:DestinationWorkbookLocation:E:\MGALFA\Model\Executionfolder\Sensitivities\MTP_NewBusiness_1QTROUT\FVQtrly.xlsx
Input param:DestinationSheetName:F133PVMthOut
Input param:DestinationRangeStartRow:4
Input param:DestinationRangeStartColumn:B
Input param:DestinationEndRangeRow:4
Input param:DestinationEndRangeColumn:B
Source Cells:
W7:3
FinishTime:01/08/2018 09:06:03.727
