Start MG-ALFA script processing: E:\MGALFA\AutomationCode\Sensitivities\Type_III_UW_MortDn5\Executables\AlfaAutomation\modelscript.asc

Start date and time .... 07-25-2018 at 16:00:19
Workspace Id ........... C:\Program Files (x86)\Milliman\MG-ALFA 10.5.2011\UI\MGALFA105
System version ......... MG-ALFA Version 10.5.2011[10.5.016]


07-25-2018 at 16:00:19 --------------------------------------------------------------------------------

OpenModel "E:\MGALFA\Model\Executionfolder\Sensitivities\Type_III_UW_MortDn5\Type_III_UW_MortDn5.ain2"
ValDate 06/2018
Run 2,102

::AinRun::Message::Begin::

Return Message: 

 Run.002  Yes    Na  Ok (Messages)--07-25-2018 at 22:29:34  TCM IRT VA Partners                   
 Run.102  Yes    Na  Ok (Messages)--07-25-2018 at 22:19:08  TCM IRT VA Partners - Single Scenario 

::AinRun::Message::End::
Close


07-25-2018 at 22:29:34 --------------------------------------------------------------------------------

End date and time ...... 07-25-2018 at 22:29:47
End of script .......... 
