Input param:JobHistoryConnection:E:\MGALFA\AutomationCode\EquityAttribution\Log\ML_Legacy_InforceFileCheckandCopyJobHistory.txt
Input param:JobInstanceID:-1
Input param:UseDBJobHistory:false
Input param:DestinationDirectory:E:\mgalfa\Staging\FairValue\Inforce
Input param:DefaultSourceDirectoryPattern:\\us.aegon.com\ait\Actuary\TCMActuary\Valtest\InForce_File\Q{QuarterHolder}{YearHolderTwoDigit}\AILFiles\Inforce
Input param:OverrideSourceDirectoryPattern:\\us.aegon.com\ait\Actuary\TCMActuary\Valtest\InForce_File\Q{QuarterHolder}{YearHolderTwoDigit}\AILFiles\BOP
Input param:Q1MonthMap:1,2,3
Input param:Q2MonthMap:4,5,6
Input param:Q3MonthMap:7,8,9
Input param:Q4MonthMap:10,11,12
Input param:OverrideProcessTimeToMonthOffset:-1
Input param:DefaultProcessTimeToMonthOffset:-4
Input param:OverwriteDestinationFile:true
Input param:ExpectedNumberOfFiles:1
Input param:Wildcard:*ML_Legacy*.Ail2
Input param:WildcardExclusions:
Input param:ReplaceFromString:Q\d{3}_
Input param:ReplaceToString:
ResovledNameOfDirectoryUsed:\\us.aegon.com\ait\Actuary\TCMActuary\Valtest\InForce_File\Q118\AILFiles\BOP
FinishTime:04/23/2018 14:27:56.348
