Input param:JobHistoryConnection:E:\MGALFA\AutomationCode\Sensitivities\FP_EQSens_EQDn20_1YROUT\Log\VarDVol Perm Table.txt
Input param:JobInstanceID:1
Input param:SourceWorkbookLocation:E:\mgalfa\Staging\FairValue\Sensitivity\FPPKSetup\FP PK Setup.xlsx
Input param:SourceSheetName:Setup
Input param:SourceRangeStartRow:5
Input param:SourceRangeStartColumn:I
Input param:SourceEndRangeRow:1816
Input param:SourceEndRangeColumn:I
Input param:DestinationWorkbookLocation:E:\MGALFA\Model\Executionfolder\Sensitivities\FP_EQSens_EQDn20_1YROUT\QtrlySens.xlsx
Input param:DestinationSheetName:VarDVol
Input param:DestinationRangeStartRow:5
Input param:DestinationRangeStartColumn:B
Input param:DestinationEndRangeRow:5
Input param:DestinationEndRangeColumn:BQS
Source Cells:,,,,,,,,,,,,,,,,,,,,,,,,,,,,,,,,,,,,,,,,,,,,,,,,,,,,,,,,,,,,,,,,,,,,,,,,,,,,,,,,,,,,,,,,,,,,,,,,,,,,,,,,,,,,,,,,,,,,,,,,,,,,,,,,,,,,,,,,,,,,,,,,,,,,,,,,,,,,,,,,,,,,,,,,,,,,,,,,,,,,,,,,,,,,,,,,,,,,,,,,,,,,,,,,,,,,,,,,,,,,,,,,,,,,,,,,,,,,,,,,,,,,,,,,,,,,,,,,,,,,,,,,,,,,,,,,,,,,,,,,,,,,,,,,,,,,,,,,,,,,,,,,,,,,,,,,,,,,,,,,,,,,,,,,,,,,,,,,,,,,,,,,,,,,,,,,,,,,,,,,,,,,,,,,,,,,,,,,,,,,,,,,,,,,,,,,,,,,,,,,,,,,,,,,,,,,,,,,,,,,,,,,,,,,,,,,,,,,,,,,,,,,,,,,,,,,,,,,,,,,,,,,,,,,,,,,,,,,,,,,,,,,,,,,,,,,,,,,,,,,,,,,,,,,,,,,,,,,,,,,,,,,,,,,,,,,,,,,,,,,,,,,,,,,,,,,,,,,,,,,,,,,,,,,,,,,,,,,,,,,,,,,,,,,,,,,,,,,,,,,,,,,,,,,,,,,,,,,,,,,,,,,,,,,,,,,,,,,,,,,,,,,,,,,,,,,,,,,,,,,,,,,,,,,,,,,,,,,,,,,,,,,,,,,,,,,,,,,,,,,,,,,,,,,,,,,,,,,,,,,,,,,,,,,,,,,,,,,,,,,,,,,,,,,,,,,,,,,,,,,,,,,,,,,,,,,,,,,,,,,,,,,,,,,,,,,,,,,,,,,,,,,,,,,,,,,,,,,,,,,,,,,,,,,,,,,,,,,,,,,,,,,,,,,,,,,,,,,,,,,,,,,,,,,,,,,,,,,,,,,,,,,,,,,,,,,,,,,,,,,,,,,,,,,,,,,,,,,,,,,,,,,,,,,,,,,,,,,,,,,,,,,,,,,,,,,,,,,,,,,,,,,,,,,,,,,,,,,,,,,,,,,,,,,,,,,,,,,,,,,,,,,,,,,,,,,,,,,,,,,,,,,,,,,,,,,,,,,,,,,,,,,,,,,,,,,,,,,,,,,,,,,,,,,,,,,,,,,,,,,,,,,,,,,,,,,,,,,,,,,,,,,,,,,,,,,,,,,,,,,,,,,,,,,,,,,,,,,,,,,,,,,,,,,,,,,,,,,,,,,,,,,,,,,,,,,,,,,,,,,,,,,,,,,,,,,,,,,,,,,,,,,,,,,,,,,,,,,,,,,,,,,,,,,,,,,,,,,,,,,,,,,,,,,,,,,,,,,,,,,,,,,,,,,,,,,,,,,,,,,,,,,,,,,,,,,,,,,,,,,,,,,,,,,,,,,,,,,,,,,,,,,,,,,,,,,,,,,,,,,,,,,,,,,,,,,,,,,,,,,,,,,,,,,,,,,,,,,,,,,,,,,,,,,,,,,,,,,,,,,,,,,,,,,,,,,,,,,,,,,,,,,,,,,,,,,,,,,,,,,,,,,,,,,,,,,,,,,,,,,,,,,,,,,,,,,,,,,,,,,,,,,,,,,,,,,,,,,,,,,,,,,,,,,,,,,,,,,,,,,,,,,,,,,,,,,,,,,,,,,,,,,,,,,,,,,,,,,,,,,,,,,,,,,,,,,,,,,,,,,,,,,,,,,,,,,,,,,,,,,,,,,,,,,,,,,,,,,,,,,,,,,,,,,,,,,,,,,,,,,,,,,,,,,,,,,,,,,,,,,,,,,,,,,,,,,,,,,,,,,,,,,,,,,,,,,,,,,,,,,,,,,,,,,,,,,,,,,,,,,,,,,,,,,,,,,,,,,,,,,,,,,,,,,,,,,,,,,,,,,,,,,,,,,,,,,,,,,,,,,,,,,,,,,,,,,,,,,,,,,,,,,,,,,,,,
I5:0.147555
I6:0.147555
I7:0.147555
I8:0.147555
I9:0.147555
I10:0.147555
I11:0.147555
I12:0.147555
I13:0.147555
I14:0.147555
I15:0.147555
I16:0.147555
I17:0.24
I18:0.24
I19:0.24
I20:0.24
I21:0.24
I22:0.24
I23:0.24
I24:0.24
I25:0.24
I26:0.24
I27:0.24
I28:0.24
I29:0.147079142202928
I30:0.147079142202928
I31:0.147079142202928
I32:0.147079142202928
I33:0.147079142202928
I34:0.147079142202928
I35:0.147079142202928
I36:0.147079142202928
I37:0.147079142202928
I38:0.147079142202928
I39:0.147079142202928
I40:0.147079142202928
I41:0.184572709136958
I42:0.184572709136958
I43:0.184572709136958
I44:0.184572709136958
I45:0.184572709136958
I46:0.184572709136958
I47:0.184572709136958
I48:0.184572709136958
I49:0.184572709136958
I50:0.184572709136958
I51:0.184572709136958
I52:0.184572709136958
I53:0.197396039902746
I54:0.197396039902746
I55:0.197396039902746
I56:0.197396039902746
I57:0.197396039902746
I58:0.197396039902746
I59:0.197396039902746
I60:0.197396039902746
I61:0.197396039902746
I62:0.197396039902746
I63:0.197396039902746
I64:0.197396039902746
I65:0.214647087460612
I66:0.214647087460612
I67:0.214647087460612
I68:0.214647087460612
I69:0.214647087460612
I70:0.214647087460612
I71:0.214647087460612
I72:0.214647087460612
I73:0.214647087460612
I74:0.214647087460612
I75:0.214647087460612
I76:0.214647087460612
I77:0.234112795649719
I78:0.234112795649719
I79:0.234112795649719
I80:0.234112795649719
I81:0.234112795649719
I82:0.234112795649719
I83:0.234112795649719
I84:0.234112795649719
I85:0.234112795649719
I86:0.234112795649719
I87:0.234112795649719
I88:0.234112795649719
I89:0.215962219209842
I90:0.216539130748658
I91:0.217116042287474
I92:0.21769295382629
I93:0.218269865365107
I94:0.218846776903923
I95:0.219423688442739
I96:0.220000599981555
I97:0.220577511520372
I98:0.221154423059188
I99:0.221731334598004
I100:0.22230824613682
I101:0.222885157675637
I102:0.223462069214453
I103:0.224038980753269
I104:0.224615892292085
I105:0.225192803830902
I106:0.225769715369718
I107:0.226346626908534
I108:0.22692353844735
I109:0.227500449986167
I110:0.228077361524983
I111:0.228654273063799
I112:0.229231184602615
I113:0.229808096141432
I114:0.230385007680248
I115:0.230961919219064
I116:0.23153883075788
I117:0.232115742296697
I118:0.232692653835513
I119:0.233269565374329
I120:0.233846476913145
I121:0.234423388451962
I122:0.235000299990778
I123:0.235577211529594
I124:0.23615412306841
I125:0.236731034607226
I126:0.237307946146043
I127:0.237884857684859
I128:0.238461769223675
I129:0.239038680762491
I130:0.239615592301308
I131:0.240192503840124
I132:0.24076941537894
I133:0.241346326917756
I134:0.241923238456573
I135:0.242500149995389
I136:0.243077061534205
I137:0.243653973073021
I138:0.244230884611838
I139:0.244807796150654
I140:0.24538470768947
I141:0.245961619228286
I142:0.246538530767103
I143:0.247115442305919
I144:0.247692353844735
I145:0.248269265383551
I146:0.248846176922367
I147:0.249423088461184
I148:0.25
I149:0.25
I150:0.25
I151:0.25
I152:0.25
I153:0.25
I154:0.25
I155:0.25
I156:0.25
I157:0.25
I158:0.25
I159:0.25
I160:0.25
I161:0.25
I162:0.25
I163:0.25
I164:0.25
I165:0.25
I166:0.25
I167:0.25
I168:0.25
I169:0.25
I170:0.25
I171:0.25
I172:0.25
I173:0.25
I174:0.25
I175:0.25
I176:0.25
I177:0.25
I178:0.25
I179:0.25
I180:0.25
I181:0.25
I182:0.25
I183:0.25
I184:0.25
I185:0.25
I186:0.25
I187:0.25
I188:0.25
I189:0.25
I190:0.25
I191:0.25
I192:0.25
I193:0.25
I194:0.25
I195:0.25
I196:0.25
I197:0.25
I198:0.25
I199:0.25
I200:0.25
I201:0.25
I202:0.25
I203:0.25
I204:0.25
I205:0.25
I206:0.25
I207:0.25
I208:0.25
I209:0.25
I210:0.25
I211:0.25
I212:0.25
I213:0.25
I214:0.25
I215:0.25
I216:0.25
I217:0.25
I218:0.25
I219:0.25
I220:0.25
I221:0.25
I222:0.25
I223:0.25
I224:0.25
I225:0.25
I226:0.25
I227:0.25
I228:0.25
I229:0.25
I230:0.25
I231:0.25
I232:0.25
I233:0.25
I234:0.25
I235:0.25
I236:0.25
I237:0.25
I238:0.25
I239:0.25
I240:0.25
I241:0.25
I242:0.25
I243:0.25
I244:0.25
I245:0.25
I246:0.25
I247:0.25
I248:0.25
I249:0.25
I250:0.25
I251:0.25
I252:0.25
I253:0.25
I254:0.25
I255:0.25
I256:0.25
I257:0.25
I258:0.25
I259:0.25
I260:0.25
I261:0.25
I262:0.25
I263:0.25
I264:0.25
I265:0.25
I266:0.25
I267:0.25
I268:0.25
I269:0.25
I270:0.25
I271:0.25
I272:0.25
I273:0.25
I274:0.25
I275:0.25
I276:0.25
I277:0.25
I278:0.25
I279:0.25
I280:0.25
I281:0.25
I282:0.25
I283:0.25
I284:0.25
I285:0.25
I286:0.25
I287:0.25
I288:0.25
I289:0.25
I290:0.25
I291:0.25
I292:0.25
I293:0.25
I294:0.25
I295:0.25
I296:0.25
I297:0.25
I298:0.25
I299:0.25
I300:0.25
I301:0.25
I302:0.25
I303:0.25
I304:0.25
I305:0.25
I306:0.25
I307:0.25
I308:0.25
I309:0.25
I310:0.25
I311:0.25
I312:0.25
I313:0.25
I314:0.25
I315:0.25
I316:0.25
I317:0.25
I318:0.25
I319:0.25
I320:0.25
I321:0.25
I322:0.25
I323:0.25
I324:0.25
I325:0.25
I326:0.25
I327:0.25
I328:0.25
I329:0.25
I330:0.25
I331:0.25
I332:0.25
I333:0.25
I334:0.25
I335:0.25
I336:0.25
I337:0.25
I338:0.25
I339:0.25
I340:0.25
I341:0.25
I342:0.25
I343:0.25
I344:0.25
I345:0.25
I346:0.25
I347:0.25
I348:0.25
I349:0.25
I350:0.25
I351:0.25
I352:0.25
I353:0.25
I354:0.25
I355:0.25
I356:0.25
I357:0.25
I358:0.25
I359:0.25
I360:0.25
I361:0.25
I362:0.25
I363:0.25
I364:0.25
I365:0.25
I366:0.25
I367:0.25
I368:0.25
I369:0.25
I370:0.25
I371:0.25
I372:0.25
I373:0.25
I374:0.25
I375:0.25
I376:0.25
I377:0.25
I378:0.25
I379:0.25
I380:0.25
I381:0.25
I382:0.25
I383:0.25
I384:0.25
I385:0.25
I386:0.25
I387:0.25
I388:0.25
I389:0.25
I390:0.25
I391:0.25
I392:0.25
I393:0.25
I394:0.25
I395:0.25
I396:0.25
I397:0.25
I398:0.25
I399:0.25
I400:0.25
I401:0.25
I402:0.25
I403:0.25
I404:0.25
I405:0.25
I406:0.25
I407:0.25
I408:0.25
I409:0.25
I410:0.25
I411:0.25
I412:0.25
I413:0.25
I414:0.25
I415:0.25
I416:0.25
I417:0.25
I418:0.25
I419:0.25
I420:0.25
I421:0.25
I422:0.25
I423:0.25
I424:0.25
I425:0.25
I426:0.25
I427:0.25
I428:0.25
I429:0.25
I430:0.25
I431:0.25
I432:0.25
I433:0.25
I434:0.25
I435:0.25
I436:0.25
I437:0.25
I438:0.25
I439:0.25
I440:0.25
I441:0.25
I442:0.25
I443:0.25
I444:0.25
I445:0.25
I446:0.25
I447:0.25
I448:0.25
I449:0.25
I450:0.25
I451:0.25
I452:0.25
I453:0.25
I454:0.25
I455:0.25
I456:0.25
I457:0.25
I458:0.25
I459:0.25
I460:0.25
I461:0.25
I462:0.25
I463:0.25
I464:0.25
I465:0.25
I466:0.25
I467:0.25
I468:0.25
I469:0.25
I470:0.25
I471:0.25
I472:0.25
I473:0.25
I474:0.25
I475:0.25
I476:0.25
I477:0.25
I478:0.25
I479:0.25
I480:0.25
I481:0.25
I482:0.25
I483:0.25
I484:0.25
I485:0.25
I486:0.25
I487:0.25
I488:0.25
I489:0.25
I490:0.25
I491:0.25
I492:0.25
I493:0.25
I494:0.25
I495:0.25
I496:0.25
I497:0.25
I498:0.25
I499:0.25
I500:0.25
I501:0.25
I502:0.25
I503:0.25
I504:0.25
I505:0.25
I506:0.25
I507:0.25
I508:0.25
I509:0.25
I510:0.25
I511:0.25
I512:0.25
I513:0.25
I514:0.25
I515:0.25
I516:0.25
I517:0.25
I518:0.25
I519:0.25
I520:0.25
I521:0.25
I522:0.25
I523:0.25
I524:0.25
I525:0.25
I526:0.25
I527:0.25
I528:0.25
I529:0.25
I530:0.25
I531:0.25
I532:0.25
I533:0.25
I534:0.25
I535:0.25
I536:0.25
I537:0.25
I538:0.25
I539:0.25
I540:0.25
I541:0.25
I542:0.25
I543:0.25
I544:0.25
I545:0.25
I546:0.25
I547:0.25
I548:0.25
I549:0.25
I550:0.25
I551:0.25
I552:0.25
I553:0.25
I554:0.25
I555:0.25
I556:0.25
I557:0.25
I558:0.25
I559:0.25
I560:0.25
I561:0.25
I562:0.25
I563:0.25
I564:0.25
I565:0.25
I566:0.25
I567:0.25
I568:0.25
I569:0.25
I570:0.25
I571:0.25
I572:0.25
I573:0.25
I574:0.25
I575:0.25
I576:0.25
I577:0.25
I578:0.25
I579:0.25
I580:0.25
I581:0.25
I582:0.25
I583:0.25
I584:0.25
I585:0.25
I586:0.25
I587:0.25
I588:0.25
I589:0.25
I590:0.25
I591:0.25
I592:0.25
I593:0.25
I594:0.25
I595:0.25
I596:0.25
I597:0.25
I598:0.25
I599:0.25
I600:0.25
I601:0.25
I602:0.25
I603:0.25
I604:0.25
I605:0.25
I606:0.25
I607:0.25
I608:0.25
I609:0.25
I610:0.25
I611:0.25
I612:0.25
I613:0.25
I614:0.25
I615:0.25
I616:0.25
I617:0.25
I618:0.25
I619:0.25
I620:0.25
I621:0.25
I622:0.25
I623:0.25
I624:0.25
I625:0.25
I626:0.25
I627:0.25
I628:0.25
I629:0.25
I630:0.25
I631:0.25
I632:0.25
I633:0.25
I634:0.25
I635:0.25
I636:0.25
I637:0.25
I638:0.25
I639:0.25
I640:0.25
I641:0.25
I642:0.25
I643:0.25
I644:0.25
I645:0.25
I646:0.25
I647:0.25
I648:0.25
I649:0.25
I650:0.25
I651:0.25
I652:0.25
I653:0.25
I654:0.25
I655:0.25
I656:0.25
I657:0.25
I658:0.25
I659:0.25
I660:0.25
I661:0.25
I662:0.25
I663:0.25
I664:0.25
I665:0.25
I666:0.25
I667:0.25
I668:0.25
I669:0.25
I670:0.25
I671:0.25
I672:0.25
I673:0.25
I674:0.25
I675:0.25
I676:0.25
I677:0.25
I678:0.25
I679:0.25
I680:0.25
I681:0.25
I682:0.25
I683:0.25
I684:0.25
I685:0.25
I686:0.25
I687:0.25
I688:0.25
I689:0.25
I690:0.25
I691:0.25
I692:0.25
I693:0.25
I694:0.25
I695:0.25
I696:0.25
I697:0.25
I698:0.25
I699:0.25
I700:0.25
I701:0.25
I702:0.25
I703:0.25
I704:0.25
I705:0.25
I706:0.25
I707:0.25
I708:0.25
I709:0.25
I710:0.25
I711:0.25
I712:0.25
I713:0.25
I714:0.25
I715:0.25
I716:0.25
I717:0.25
I718:0.25
I719:0.25
I720:0.25
I721:0.25
I722:0.25
I723:0.25
I724:0.25
I725:0.25
I726:0.25
I727:0.25
I728:0.25
I729:0.25
I730:0.25
I731:0.25
I732:0.25
I733:0.25
I734:0.25
I735:0.25
I736:0.25
I737:0.25
I738:0.25
I739:0.25
I740:0.25
I741:0.25
I742:0.25
I743:0.25
I744:0.25
I745:0.25
I746:0.25
I747:0.25
I748:0.25
I749:0.25
I750:0.25
I751:0.25
I752:0.25
I753:0.25
I754:0.25
I755:0.25
I756:0.25
I757:0.25
I758:0.25
I759:0.25
I760:0.25
I761:0.25
I762:0.25
I763:0.25
I764:0.25
I765:0.25
I766:0.25
I767:0.25
I768:0.25
I769:0.25
I770:0.25
I771:0.25
I772:0.25
I773:0.25
I774:0.25
I775:0.25
I776:0.25
I777:0.25
I778:0.25
I779:0.25
I780:0.25
I781:0.25
I782:0.25
I783:0.25
I784:0.25
I785:0.25
I786:0.25
I787:0.25
I788:0.25
I789:0.25
I790:0.25
I791:0.25
I792:0.25
I793:0.25
I794:0.25
I795:0.25
I796:0.25
I797:0.25
I798:0.25
I799:0.25
I800:0.25
I801:0.25
I802:0.25
I803:0.25
I804:0.25
I805:0.25
I806:0.25
I807:0.25
I808:0.25
I809:0.25
I810:0.25
I811:0.25
I812:0.25
I813:0.25
I814:0.25
I815:0.25
I816:0.25
I817:0.25
I818:0.25
I819:0.25
I820:0.25
I821:0.25
I822:0.25
I823:0.25
I824:0.25
I825:0.25
I826:0.25
I827:0.25
I828:0.25
I829:0.25
I830:0.25
I831:0.25
I832:0.25
I833:0.25
I834:0.25
I835:0.25
I836:0.25
I837:0.25
I838:0.25
I839:0.25
I840:0.25
I841:0.25
I842:0.25
I843:0.25
I844:0.25
I845:0.25
I846:0.25
I847:0.25
I848:0.25
I849:0.25
I850:0.25
I851:0.25
I852:0.25
I853:0.25
I854:0.25
I855:0.25
I856:0.25
I857:0.25
I858:0.25
I859:0.25
I860:0.25
I861:0.25
I862:0.25
I863:0.25
I864:0.25
I865:0.25
I866:0.25
I867:0.25
I868:0.25
I869:0.25
I870:0.25
I871:0.25
I872:0.25
I873:0.25
I874:0.25
I875:0.25
I876:0.25
I877:0.25
I878:0.25
I879:0.25
I880:0.25
I881:0.25
I882:0.25
I883:0.25
I884:0.25
I885:0.25
I886:0.25
I887:0.25
I888:0.25
I889:0.25
I890:0.25
I891:0.25
I892:0.25
I893:0.25
I894:0.25
I895:0.25
I896:0.25
I897:0.25
I898:0.25
I899:0.25
I900:0.25
I901:0.25
I902:0.25
I903:0.25
I904:0.25
I905:0.25
I906:0.25
I907:0.25
I908:0.25
I909:0.25
I910:0.25
I911:0.25
I912:0.25
I913:0.25
I914:0.25
I915:0.25
I916:0.25
I917:0.25
I918:0.25
I919:0.25
I920:0.25
I921:0.25
I922:0.25
I923:0.25
I924:0.25
I925:0.25
I926:0.25
I927:0.25
I928:0.25
I929:0.25
I930:0.25
I931:0.25
I932:0.25
I933:0.25
I934:0.25
I935:0.25
I936:0.25
I937:0.25
I938:0.25
I939:0.25
I940:0.25
I941:0.25
I942:0.25
I943:0.25
I944:0.25
I945:0.25
I946:0.25
I947:0.25
I948:0.25
I949:0.25
I950:0.25
I951:0.25
I952:0.25
I953:0.25
I954:0.25
I955:0.25
I956:0.25
I957:0.25
I958:0.25
I959:0.25
I960:0.25
I961:0.25
I962:0.25
I963:0.25
I964:0.25
I965:0.25
I966:0.25
I967:0.25
I968:0.25
I969:0.25
I970:0.25
I971:0.25
I972:0.25
I973:0.25
I974:0.25
I975:0.25
I976:0.25
I977:0.25
I978:0.25
I979:0.25
I980:0.25
I981:0.25
I982:0.25
I983:0.25
I984:0.25
I985:0.25
I986:0.25
I987:0.25
I988:0.25
I989:0.25
I990:0.25
I991:0.25
I992:0.25
I993:0.25
I994:0.25
I995:0.25
I996:0.25
I997:0.25
I998:0.25
I999:0.25
I1000:0.25
I1001:0.25
I1002:0.25
I1003:0.25
I1004:0.25
I1005:0.25
I1006:0.25
I1007:0.25
I1008:0.25
I1009:0.25
I1010:0.25
I1011:0.25
I1012:0.25
I1013:0.25
I1014:0.25
I1015:0.25
I1016:0.25
I1017:0.25
I1018:0.25
I1019:0.25
I1020:0.25
I1021:0.25
I1022:0.25
I1023:0.25
I1024:0.25
I1025:0.25
I1026:0.25
I1027:0.25
I1028:0.25
I1029:0.25
I1030:0.25
I1031:0.25
I1032:0.25
I1033:0.25
I1034:0.25
I1035:0.25
I1036:0.25
I1037:0.25
I1038:0.25
I1039:0.25
I1040:0.25
I1041:0.25
I1042:0.25
I1043:0.25
I1044:0.25
I1045:0.25
I1046:0.25
I1047:0.25
I1048:0.25
I1049:0.25
I1050:0.25
I1051:0.25
I1052:0.25
I1053:0.25
I1054:0.25
I1055:0.25
I1056:0.25
I1057:0.25
I1058:0.25
I1059:0.25
I1060:0.25
I1061:0.25
I1062:0.25
I1063:0.25
I1064:0.25
I1065:0.25
I1066:0.25
I1067:0.25
I1068:0.25
I1069:0.25
I1070:0.25
I1071:0.25
I1072:0.25
I1073:0.25
I1074:0.25
I1075:0.25
I1076:0.25
I1077:0.25
I1078:0.25
I1079:0.25
I1080:0.25
I1081:0.25
I1082:0.25
I1083:0.25
I1084:0.25
I1085:0.25
I1086:0.25
I1087:0.25
I1088:0.25
I1089:0.25
I1090:0.25
I1091:0.25
I1092:0.25
I1093:0.25
I1094:0.25
I1095:0.25
I1096:0.25
I1097:0.25
I1098:0.25
I1099:0.25
I1100:0.25
I1101:0.25
I1102:0.25
I1103:0.25
I1104:0.25
I1105:0.25
I1106:0.25
I1107:0.25
I1108:0.25
I1109:0.25
I1110:0.25
I1111:0.25
I1112:0.25
I1113:0.25
I1114:0.25
I1115:0.25
I1116:0.25
I1117:0.25
I1118:0.25
I1119:0.25
I1120:0.25
I1121:0.25
I1122:0.25
I1123:0.25
I1124:0.25
I1125:0.25
I1126:0.25
I1127:0.25
I1128:0.25
I1129:0.25
I1130:0.25
I1131:0.25
I1132:0.25
I1133:0.25
I1134:0.25
I1135:0.25
I1136:0.25
I1137:0.25
I1138:0.25
I1139:0.25
I1140:0.25
I1141:0.25
I1142:0.25
I1143:0.25
I1144:0.25
I1145:0.25
I1146:0.25
I1147:0.25
I1148:0.25
I1149:0.25
I1150:0.25
I1151:0.25
I1152:0.25
I1153:0.25
I1154:0.25
I1155:0.25
I1156:0.25
I1157:0.25
I1158:0.25
I1159:0.25
I1160:0.25
I1161:0.25
I1162:0.25
I1163:0.25
I1164:0.25
I1165:0.25
I1166:0.25
I1167:0.25
I1168:0.25
I1169:0.25
I1170:0.25
I1171:0.25
I1172:0.25
I1173:0.25
I1174:0.25
I1175:0.25
I1176:0.25
I1177:0.25
I1178:0.25
I1179:0.25
I1180:0.25
I1181:0.25
I1182:0.25
I1183:0.25
I1184:0.25
I1185:0.25
I1186:0.25
I1187:0.25
I1188:0.25
I1189:0.25
I1190:0.25
I1191:0.25
I1192:0.25
I1193:0.25
I1194:0.25
I1195:0.25
I1196:0.25
I1197:0.25
I1198:0.25
I1199:0.25
I1200:0.25
I1201:0.25
I1202:0.25
I1203:0.25
I1204:0.25
I1205:0.25
I1206:0.25
I1207:0.25
I1208:0.25
I1209:0.25
I1210:0.25
I1211:0.25
I1212:0.25
I1213:0.25
I1214:0.25
I1215:0.25
I1216:0.25
I1217:0.25
I1218:0.25
I1219:0.25
I1220:0.25
I1221:0.25
I1222:0.25
I1223:0.25
I1224:0.25
I1225:0.25
I1226:0.25
I1227:0.25
I1228:0.25
I1229:0.25
I1230:0.25
I1231:0.25
I1232:0.25
I1233:0.25
I1234:0.25
I1235:0.25
I1236:0.25
I1237:0.25
I1238:0.25
I1239:0.25
I1240:0.25
I1241:0.25
I1242:0.25
I1243:0.25
I1244:0.25
I1245:0.25
I1246:0.25
I1247:0.25
I1248:0.25
I1249:0.25
I1250:0.25
I1251:0.25
I1252:0.25
I1253:0.25
I1254:0.25
I1255:0.25
I1256:0.25
I1257:0.25
I1258:0.25
I1259:0.25
I1260:0.25
I1261:0.25
I1262:0.25
I1263:0.25
I1264:0.25
I1265:0.25
I1266:0.25
I1267:0.25
I1268:0.25
I1269:0.25
I1270:0.25
I1271:0.25
I1272:0.25
I1273:0.25
I1274:0.25
I1275:0.25
I1276:0.25
I1277:0.25
I1278:0.25
I1279:0.25
I1280:0.25
I1281:0.25
I1282:0.25
I1283:0.25
I1284:0.25
I1285:0.25
I1286:0.25
I1287:0.25
I1288:0.25
I1289:0.25
I1290:0.25
I1291:0.25
I1292:0.25
I1293:0.25
I1294:0.25
I1295:0.25
I1296:0.25
I1297:0.25
I1298:0.25
I1299:0.25
I1300:0.25
I1301:0.25
I1302:0.25
I1303:0.25
I1304:0.25
I1305:0.25
I1306:0.25
I1307:0.25
I1308:0.25
I1309:0.25
I1310:0.25
I1311:0.25
I1312:0.25
I1313:0.25
I1314:0.25
I1315:0.25
I1316:0.25
I1317:0.25
I1318:0.25
I1319:0.25
I1320:0.25
I1321:0.25
I1322:0.25
I1323:0.25
I1324:0.25
I1325:0.25
I1326:0.25
I1327:0.25
I1328:0.25
I1329:0.25
I1330:0.25
I1331:0.25
I1332:0.25
I1333:0.25
I1334:0.25
I1335:0.25
I1336:0.25
I1337:0.25
I1338:0.25
I1339:0.25
I1340:0.25
I1341:0.25
I1342:0.25
I1343:0.25
I1344:0.25
I1345:0.25
I1346:0.25
I1347:0.25
I1348:0.25
I1349:0.25
I1350:0.25
I1351:0.25
I1352:0.25
I1353:0.25
I1354:0.25
I1355:0.25
I1356:0.25
I1357:0.25
I1358:0.25
I1359:0.25
I1360:0.25
I1361:0.25
I1362:0.25
I1363:0.25
I1364:0.25
I1365:0.25
I1366:0.25
I1367:0.25
I1368:0.25
I1369:0.25
I1370:0.25
I1371:0.25
I1372:0.25
I1373:0.25
I1374:0.25
I1375:0.25
I1376:0.25
I1377:0.25
I1378:0.25
I1379:0.25
I1380:0.25
I1381:0.25
I1382:0.25
I1383:0.25
I1384:0.25
I1385:0.25
I1386:0.25
I1387:0.25
I1388:0.25
I1389:0.25
I1390:0.25
I1391:0.25
I1392:0.25
I1393:0.25
I1394:0.25
I1395:0.25
I1396:0.25
I1397:0.25
I1398:0.25
I1399:0.25
I1400:0.25
I1401:0.25
I1402:0.25
I1403:0.25
I1404:0.25
I1405:0.25
I1406:0.25
I1407:0.25
I1408:0.25
I1409:0.25
I1410:0.25
I1411:0.25
I1412:0.25
I1413:0.25
I1414:0.25
I1415:0.25
I1416:0.25
I1417:0.25
I1418:0.25
I1419:0.25
I1420:0.25
I1421:0.25
I1422:0.25
I1423:0.25
I1424:0.25
I1425:0.25
I1426:0.25
I1427:0.25
I1428:0.25
I1429:0.25
I1430:0.25
I1431:0.25
I1432:0.25
I1433:0.25
I1434:0.25
I1435:0.25
I1436:0.25
I1437:0.25
I1438:0.25
I1439:0.25
I1440:0.25
I1441:0.25
I1442:0.25
I1443:0.25
I1444:0.25
I1445:0.25
I1446:0.25
I1447:0.25
I1448:0.25
I1449:0.25
I1450:0.25
I1451:0.25
I1452:0.25
I1453:0.25
I1454:0.25
I1455:0.25
I1456:0.25
I1457:0.25
I1458:0.25
I1459:0.25
I1460:0.25
I1461:0.25
I1462:0.25
I1463:0.25
I1464:0.25
I1465:0.25
I1466:0.25
I1467:0.25
I1468:0.25
I1469:0.25
I1470:0.25
I1471:0.25
I1472:0.25
I1473:0.25
I1474:0.25
I1475:0.25
I1476:0.25
I1477:0.25
I1478:0.25
I1479:0.25
I1480:0.25
I1481:0.25
I1482:0.25
I1483:0.25
I1484:0.25
I1485:0.25
I1486:0.25
I1487:0.25
I1488:0.25
I1489:0.25
I1490:0.25
I1491:0.25
I1492:0.25
I1493:0.25
I1494:0.25
I1495:0.25
I1496:0.25
I1497:0.25
I1498:0.25
I1499:0.25
I1500:0.25
I1501:0.25
I1502:0.25
I1503:0.25
I1504:0.25
I1505:0.25
I1506:0.25
I1507:0.25
I1508:0.25
I1509:0.25
I1510:0.25
I1511:0.25
I1512:0.25
I1513:0.25
I1514:0.25
I1515:0.25
I1516:0.25
I1517:0.25
I1518:0.25
I1519:0.25
I1520:0.25
I1521:0.25
I1522:0.25
I1523:0.25
I1524:0.25
I1525:0.25
I1526:0.25
I1527:0.25
I1528:0.25
I1529:0.25
I1530:0.25
I1531:0.25
I1532:0.25
I1533:0.25
I1534:0.25
I1535:0.25
I1536:0.25
I1537:0.25
I1538:0.25
I1539:0.25
I1540:0.25
I1541:0.25
I1542:0.25
I1543:0.25
I1544:0.25
I1545:0.25
I1546:0.25
I1547:0.25
I1548:0.25
I1549:0.25
I1550:0.25
I1551:0.25
I1552:0.25
I1553:0.25
I1554:0.25
I1555:0.25
I1556:0.25
I1557:0.25
I1558:0.25
I1559:0.25
I1560:0.25
I1561:0.25
I1562:0.25
I1563:0.25
I1564:0.25
I1565:0.25
I1566:0.25
I1567:0.25
I1568:0.25
I1569:0.25
I1570:0.25
I1571:0.25
I1572:0.25
I1573:0.25
I1574:0.25
I1575:0.25
I1576:0.25
I1577:0.25
I1578:0.25
I1579:0.25
I1580:0.25
I1581:0.25
I1582:0.25
I1583:0.25
I1584:0.25
I1585:0.25
I1586:0.25
I1587:0.25
I1588:0.25
I1589:0.25
I1590:0.25
I1591:0.25
I1592:0.25
I1593:0.25
I1594:0.25
I1595:0.25
I1596:0.25
I1597:0.25
I1598:0.25
I1599:0.25
I1600:0.25
I1601:0.25
I1602:0.25
I1603:0.25
I1604:0.25
I1605:0.25
I1606:0.25
I1607:0.25
I1608:0.25
I1609:0.25
I1610:0.25
I1611:0.25
I1612:0.25
I1613:0.25
I1614:0.25
I1615:0.25
I1616:0.25
I1617:0.25
I1618:0.25
I1619:0.25
I1620:0.25
I1621:0.25
I1622:0.25
I1623:0.25
I1624:0.25
I1625:0.25
I1626:0.25
I1627:0.25
I1628:0.25
I1629:0.25
I1630:0.25
I1631:0.25
I1632:0.25
I1633:0.25
I1634:0.25
I1635:0.25
I1636:0.25
I1637:0.25
I1638:0.25
I1639:0.25
I1640:0.25
I1641:0.25
I1642:0.25
I1643:0.25
I1644:0.25
I1645:0.25
I1646:0.25
I1647:0.25
I1648:0.25
I1649:0.25
I1650:0.25
I1651:0.25
I1652:0.25
I1653:0.25
I1654:0.25
I1655:0.25
I1656:0.25
I1657:0.25
I1658:0.25
I1659:0.25
I1660:0.25
I1661:0.25
I1662:0.25
I1663:0.25
I1664:0.25
I1665:0.25
I1666:0.25
I1667:0.25
I1668:0.25
I1669:0.25
I1670:0.25
I1671:0.25
I1672:0.25
I1673:0.25
I1674:0.25
I1675:0.25
I1676:0.25
I1677:0.25
I1678:0.25
I1679:0.25
I1680:0.25
I1681:0.25
I1682:0.25
I1683:0.25
I1684:0.25
I1685:0.25
I1686:0.25
I1687:0.25
I1688:0.25
I1689:0.25
I1690:0.25
I1691:0.25
I1692:0.25
I1693:0.25
I1694:0.25
I1695:0.25
I1696:0.25
I1697:0.25
I1698:0.25
I1699:0.25
I1700:0.25
I1701:0.25
I1702:0.25
I1703:0.25
I1704:0.25
I1705:0.25
I1706:0.25
I1707:0.25
I1708:0.25
I1709:0.25
I1710:0.25
I1711:0.25
I1712:0.25
I1713:0.25
I1714:0.25
I1715:0.25
I1716:0.25
I1717:0.25
I1718:0.25
I1719:0.25
I1720:0.25
I1721:0.25
I1722:0.25
I1723:0.25
I1724:0.25
I1725:0.25
I1726:0.25
I1727:0.25
I1728:0.25
I1729:0.25
I1730:0.25
I1731:0.25
I1732:0.25
I1733:0.25
I1734:0.25
I1735:0.25
I1736:0.25
I1737:0.25
I1738:0.25
I1739:0.25
I1740:0.25
I1741:0.25
I1742:0.25
I1743:0.25
I1744:0.25
I1745:0.25
I1746:0.25
I1747:0.25
I1748:0.25
I1749:0.25
I1750:0.25
I1751:0.25
I1752:0.25
I1753:0.25
I1754:0.25
I1755:0.25
I1756:0.25
I1757:0.25
I1758:0.25
I1759:0.25
I1760:0.25
I1761:0.25
I1762:0.25
I1763:0.25
I1764:0.25
I1765:0.25
I1766:0.25
I1767:0.25
I1768:0.25
I1769:0.25
I1770:0.25
I1771:0.25
I1772:0.25
I1773:0.25
I1774:0.25
I1775:0.25
I1776:0.25
I1777:0.25
I1778:0.25
I1779:0.25
I1780:0.25
I1781:0.25
I1782:0.25
I1783:0.25
I1784:0.25
I1785:0.25
I1786:0.25
I1787:0.25
I1788:0.25
I1789:0.25
I1790:0.25
I1791:0.25
I1792:0.25
I1793:0.25
I1794:0.25
I1795:0.25
I1796:0.25
I1797:0.25
I1798:0.25
I1799:0.25
I1800:0.25
I1801:0.25
I1802:0.25
I1803:0.25
I1804:0.25
I1805:0.25
I1806:0.25
I1807:0.25
I1808:0.25
I1809:0.25
I1810:0.25
I1811:0.25
I1812:0.25
I1813:0.25
I1814:0.25
I1815:0.25
I1816:0.25
FinishTime:01/30/2018 10:33:37.409
