Input param:JobHistoryConnection:E:\mgalfa\AutomationCode\Sensitivities\FP_EQSens_EQDn20_1QTROUT\Log\TextReportConsolidation.txt
Input param:JobInstanceID:1
Input param:LogFileDirectory:E:\mgalfa\AutomationCode\Sensitivities\FP_EQSens_EQDn20_1QTROUT\Log
Input param:OutputFile:E:\MGALFA\Model\Executionfolder\Sensitivities\FP_EQSens_EQDn20_1QTROUT\FP_EQSens_EQDn20_1QTROUTreports.xlsx
FinishTime:01/24/2018 16:44:31.028
