Input param:JobHistoryConnection:E:\mgalfa\AutomationCode\Sensitivities\FP_NewBusiness_4YE\Log\ClearExecutionJobHistory.txt
Input param:JobInstanceID:4
Input param:UseDBJobHistory:false
Input param:DirectoryToClear:E:\MGALFA\Model\Executionfolder\Sensitivities\FP_NewBusiness_4YE
Input param:DeleteSubdirectories:true
FinishTime:01/05/2018 20:17:38.158
