Start MG-ALFA script processing: E:\MGALFA\AutomationCode\Sensitivities\FP_IntDn50_1QTROUT\Executables\AlfaAutomation\modelscript.asc

Start date and time .... 02-09-2018 at 10:40:19
Workspace Id ........... C:\Program Files (x86)\Milliman\MG-ALFA 10.5.2011\UI\MGALFA105
System version ......... MG-ALFA Version 10.5.2011[10.5.016]


02-09-2018 at 10:40:19 --------------------------------------------------------------------------------

OpenModel "E:\MGALFA\Model\Executionfolder\Sensitivities\FP_IntDn50_1QTROUT\FP_IntDn50_1QTROUT.ain2"
ValDate 12/2017
Run 29

::AinRun::Message::Begin::

Return Message: 

 Run.029  Yes    Na  Ok (Messages)--02-09-2018 at 15:09:24  TCM VA POST 10/01/11 TLIC 

::AinRun::Message::End::
Close


02-09-2018 at 15:09:25 --------------------------------------------------------------------------------

End date and time ...... 02-09-2018 at 15:09:26
End of script .......... 
