Input param:JobHistoryConnection:E:\mgalfa\AutomationCode\PassageOfTimeAttribution\Log\InforcetoExecutionFileCopyJobHistory.txt
Input param:JobInstanceID:4
Input param:UseDBJobHistory:false
Input param:DestinationDirectory:E:\MGALFA\Model\Executionfolder\PassageOfTimeAttribution
Input param:SourceDirectoryPattern:E:\MGALFA\Staging\FairValue\Inforce
Input param:Q1MonthMap:1,2,3
Input param:Q2MonthMap:4,5,6
Input param:Q3MonthMap:7,8,9
Input param:Q4MonthMap:10,11,12
Input param:ProcessTimeToMonthOffset:-3
Input param:OverwriteDestinationFile:true
Input param:ExpectedNumberOfFiles:-1
Input param:Wildcard:*.Ail2
Input param:WildcardExclusions:
Input param:ReplaceFromString:
Input param:ReplaceToString:
File Name Before 1:E:\MGALFA\Staging\FairValue\Inforce\P65_DavidSun.Ail2
File Name After 1:E:\MGALFA\Model\Executionfolder\PassageOfTimeAttribution\P65_DavidSun.Ail2
File Name Before 2:E:\MGALFA\Staging\FairValue\Inforce\P65_DIASPL.Ail2
File Name After 2:E:\MGALFA\Model\Executionfolder\PassageOfTimeAttribution\P65_DIASPL.Ail2
File Name Before 3:E:\MGALFA\Staging\FairValue\Inforce\P65_ML_IVC.Ail2
File Name After 3:E:\MGALFA\Model\Executionfolder\PassageOfTimeAttribution\P65_ML_IVC.Ail2
File Name Before 4:E:\MGALFA\Staging\FairValue\Inforce\P65_P5_VANG.Ail2
File Name After 4:E:\MGALFA\Model\Executionfolder\PassageOfTimeAttribution\P65_P5_VANG.Ail2
File Name Before 5:E:\MGALFA\Staging\FairValue\Inforce\P6_ML_Legacy.Ail2
File Name After 5:E:\MGALFA\Model\Executionfolder\PassageOfTimeAttribution\P6_ML_Legacy.Ail2
File Name Before 6:E:\MGALFA\Staging\FairValue\Inforce\ULIC.Ail2
File Name After 6:E:\MGALFA\Model\Executionfolder\PassageOfTimeAttribution\ULIC.Ail2
ResolvedDirectoryName:E:\MGALFA\Staging\FairValue\Inforce
FinishTime:03/12/2018 10:12:55.801
