Input param:JobHistoryConnection:E:\MGALFA\AutomationCode\PassageOfTimeAttribution\Log\PassageOfTimeAttribution_SVNCOMMIT_JobHistory.txt
Input param:JobInstanceID:4
Input param:UseDBJobHistory:false
Input param:SvnLocation:"C:\Program Files\TortoiseSVN\bin\svn.exe"
Input param:LocationToCommit:"E:\MGALFA\PostRunFilesToCommit\PassageOfTimeAttribution"
Input param:AddNewFilesCommand:add --force * *.* --auto-props --no-ignore --parents --depth infinity -q
Input param:WorkingDirectory:E:\MGALFA\PostRunFilesToCommit\PassageOfTimeAttribution
Input param:SVNNonErrorsToExtract:E200025
Input param:CommitMessage:System commit {CurrentYearHolderFourDigit}{CurrentMonthHolderLeadingZero}{CurrentDayHolder}{CurrentYearHolderFourDigit}
Input param:ControlFileToPreventCommit:E:\MGALFA\Model\Executionfolder\PassageOfTimeAttribution\PassageOfTimeAttributionError.txt
Input param:Q1MonthMap:1,2,3
Input param:Q2MonthMap:4,5,6
Input param:Q3MonthMap:7,8,9
Input param:Q4MonthMap:10,11,12
Input param:ProcessTimeToMonthOffset:0
Input param:TwoDigitYear:true
Input param:MonthLeadingZero:true
SvnReturnMessage:
Initial cleanup
Standard Output
  
Error Output
 Standard Output
  
Error Output
 svn: Skipping argument: E200025: '.svn' ends in a reserved name
svn: Skipping argument: E200025: '.svn' ends in a reserved name

Cleanup before commit
Standard Output
  
Error Output
 
About to commitStandard Output
 Adding  (bin)  FVQtrly.xlsx
Transmitting file data .
Committed revision 4053.
 
Error Output
 
After commit
FinishTime:03/14/2018 09:28:03.349
