Input param:JobHistoryConnection:E:\MGALFA\AutomationCode\PassageOfTimeAttribution\Log\Var5ActualReturn Perm Table.txt
Input param:JobInstanceID:2
Input param:SourceWorkbookLocation:E:\MGALFA\Staging\FairValue\RiskNeutral\RiskNeutralAssumptions.xlsx
Input param:SourceSheetName:Rates
Input param:SourceRangeStartRow:10
Input param:SourceRangeStartColumn:D
Input param:SourceEndRangeRow:12
Input param:SourceEndRangeColumn:D
Input param:DestinationWorkbookLocation:E:\MGALFA\Model\Executionfolder\PassageOfTimeAttribution\FVQtrly.xlsx
Input param:DestinationSheetName:Var5ActualReturn
Input param:DestinationRangeStartRow:5
Input param:DestinationRangeStartColumn:N
Input param:DestinationEndRangeRow:5
Input param:DestinationEndRangeColumn:P
Source Cells:,,
D10:0.00104057022464947
D11:0.00110225081174519
D12:0.00123251672155334
FinishTime:03/12/2018 10:12:41.561
