Input param:JobHistoryConnection:E:\mgalfa\AutomationCode\Sensitivities\FP_EQSens_EQDn25_1QTROUT\Log\ArchiveFP_EQSens_EQDn25_1QTROUTInputsHistory.txt
Input param:JobInstanceID:4
Input param:UseDBJobHistory:false
Input param:DirectoryToCreatePattern:\\us.aegon.com\ait\Actuary\TCMActuary\ACTFINAPP\DEV\Model\Archive\Q{QuarterHolder}{YearHolderTwoDigit}\{CurrentYearHolderFourDigit}{CurrentMonthHolderLeadingZero}{CurrentDayHolderLeadingZero}\Sensitivities\FPQ{QuarterHolder}{YearHolderTwoDigit}_EQDn25_IFRS_1QTROUT_{CurrentDayHourHolderLeadingZero}{CurrentDayMinuteHolderLeadingZero}{CurrentDaySecondHolderLeadingZero}
Input param:SourceDirectoryPattern:E:\MGALFA\Model\Executionfolder\Sensitivities\FP_EQSens_EQDn25_1QTROUT
Input param:Q1MonthMap:1,2,3
Input param:Q2MonthMap:4,5,6
Input param:Q3MonthMap:7,8,9
Input param:Q4MonthMap:10,11,12
Input param:ProcessTimeToMonthOffset:-1
Input param:TwoDigitYear:true
Input param:MonthLeadingZero:true
Input param:OverwriteDestinationFile:true
Input param:ExpectedNumberOfFiles:-1
Input param:Wildcard:*.*
Input param:WildcardExclusions:
Input param:ReplaceFromString:
Input param:ReplaceToString:
Input param:DestinationDirectory:\\us.aegon.com\ait\Actuary\TCMActuary\ACTFINAPP\DEV\Model\Archive\Q118\20180420\Sensitivities\FPQ118_EQDn25_IFRS_1QTROUT_030914
FinishTime:04/20/2018 15:09:19.467
