Start MG-ALFA script processing: E:\MGALFA\AutomationCode\Sensitivities\FP_EQSens_EQDn10_1YROUT\Executables\AlfaAutomation\modelscript.asc

Start date and time .... 02-01-2018 at 12:05:18
Workspace Id ........... C:\Program Files (x86)\Milliman\MG-ALFA 10.5.2011\UI\MGALFA105
System version ......... MG-ALFA Version 10.5.2011[10.5.016]


02-01-2018 at 12:05:18 --------------------------------------------------------------------------------

OpenModel "E:\MGALFA\Model\Executionfolder\Sensitivities\FP_EQSens_EQDn10_1YROUT\FP_EQSens_EQDn10_1YROUT.ain2"
ValDate 12/2017
Run 29

::AinRun::Message::Begin::

Return Message: 

 Run.029  Yes    Na  Ok (Messages)--02-01-2018 at 15:21:59  TCM VA POST 10/01/11 TLIC 

::AinRun::Message::End::
Close


02-01-2018 at 15:22:00 --------------------------------------------------------------------------------

End date and time ...... 02-01-2018 at 15:22:00
End of script .......... 
