Input param:JobHistoryConnection:E:\MGALFA\AutomationCode\Sensitivities\FP_EQSens_EQDn25_1YROUT\Log\F133OCSRpt.txt
Input param:JobInstanceID:1
Input param:SourceWorkbookLocation:E:\mgalfa\Staging\FairValue\Sensitivity\FPPKSetup\FP PK Setup.xlsx
Input param:SourceSheetName:Setup
Input param:SourceRow:9
Input param:SourceColumn:S
Input param:DestinationWorkbookLocation:E:\MGALFA\Model\Executionfolder\Sensitivities\FP_EQSens_EQDn25_1YROUT\FVQtrly.xlsx
Input param:DestinationSheetName:F133OCSRpt
Input param:DestinationRangeStartRow:5
Input param:DestinationRangeStartColumn:B
Input param:DestinationEndRangeRow:5
Input param:DestinationEndRangeColumn:BQS
S9:0.00325
FinishTime:04/19/2018 14:39:11.591
