Input param:JobHistoryConnection:E:\MGALFA\AutomationCode\Sensitivities\MTP_NewBusiness_3YE\Log\F133OCS.txt
Input param:JobInstanceID:1
Input param:SourceWorkbookLocation:E:\mgalfa\Staging\FairValue\Sensitivity\FPPKSetup\FP PK Setup.xlsx
Input param:SourceSheetName:Setup
Input param:SourceRow:11
Input param:SourceColumn:S
Input param:DestinationWorkbookLocation:E:\MGALFA\Model\Executionfolder\Sensitivities\MTP_NewBusiness_3YE\FVQtrly.xlsx
Input param:DestinationSheetName:F133OCS
Input param:DestinationRangeStartRow:5
Input param:DestinationRangeStartColumn:B
Input param:DestinationEndRangeRow:5
Input param:DestinationEndRangeColumn:BQS
S11:0.00378125
FinishTime:01/11/2018 11:56:28.855
