----------------------------------------
Exceptions Error: 100 : Timestamp: 8/16/2017 1:36:54 PM
Message: HandlingInstanceID: e52e39cb-3b6c-4aa6-9717-8136009fb461
An exception of type 'System.ComponentModel.Win32Exception' occurred and was caught.
------------------------------------------------------------------------------------
08/16/2017 08:36:54
Type : System.ComponentModel.Win32Exception, System, Version=4.0.0.0, Culture=neutral, PublicKeyToken=b77a5c561934e089
Message : The system cannot find the file specified
Source : TAProcessLauncher
Help link : 
NativeErrorCode : 2
ErrorCode : -2147467259
Data : System.Collections.ListDictionaryInternal
TargetSite : Void RunProcess()
HResult : -2147467259
Stack Trace :    at EnablingSystems.Processes.ProcessLauncher.RunProcess()
   at TAProcessLauncher.Program.Main(String[] args)

Additional Info:

MachineName : CRASIFRSALFAD01
TimeStamp : 8/16/2017 1:36:54 PM
FullName : Microsoft.Practices.EnterpriseLibrary.ExceptionHandling, Version=6.0.0.0, Culture=neutral, PublicKeyToken=31bf3856ad364e35
AppDomainName : TAProcessLauncherHost.exe
ThreadIdentity : 
WindowsIdentity : US\dadmjireisner

Category: Exceptions
Priority: 0
EventId: 100
Severity: Error
Title:Enterprise Library Exception Handling
Machine: CRASIFRSALFAD01
App Domain: TAProcessLauncherHost.exe
ProcessId: 6696
Process Name: E:\MGALFA\AutomationCode\Base\Executables\AlfaAutomation\TAProcessLauncherHost.exe
Thread Name: 
Win32 ThreadId:2068
Extended Properties: Method Name: RunProcess - 

    Callstack=   at System.Environment.GetStackTrace(Exception e, Boolean needFileInfo)
   at System.Environment.get_StackTrace()
   at System.Diagnostics.TraceEventCache.get_Callstack()
   at System.Diagnostics.TraceListener.WriteFooter(TraceEventCache eventCache)
   at System.Diagnostics.TraceListener.TraceData(TraceEventCache eventCache, String source, TraceEventType eventType, Int32 id, Object data)
   at Microsoft.Practices.EnterpriseLibrary.Logging.TraceListeners.FormattedTextWriterTraceListener.TraceData(TraceEventCache eventCache, String source, TraceEventType eventType, Int32 id, Object data)
   at Microsoft.Practices.EnterpriseLibrary.Logging.TraceListeners.FlatFileTraceListener.TraceData(TraceEventCache eventCache, String source, TraceEventType eventType, Int32 id, Object data)
   at Microsoft.Practices.EnterpriseLibrary.Logging.LogSource.TraceData(TraceEventType eventType, Int32 id, LogEntry logEntry, TraceListenerFilter traceListenerFilter, TraceEventCache traceEventCache, ReportTracingError reportError)
   at Microsoft.Practices.EnterpriseLibrary.Logging.LogWriter.ProcessLog(LogEntry log, TraceEventCache traceEventCache)
   at Microsoft.Practices.EnterpriseLibrary.Logging.LogWriter.<>c__DisplayClass13.<Write>b__12()
   at Microsoft.Practices.EnterpriseLibrary.Logging.LogWriter.ExecuteReadOperation(Action readOperation)
   at Microsoft.Practices.EnterpriseLibrary.Logging.LogWriter.Write(LogEntry log)
   at Microsoft.Practices.EnterpriseLibrary.ExceptionHandling.Logging.LoggingExceptionHandler.WriteToLog(String logMessage, IDictionary exceptionData)
   at Microsoft.Practices.EnterpriseLibrary.ExceptionHandling.Logging.LoggingExceptionHandler.HandleException(Exception exception, Guid handlingInstanceId)
   at Microsoft.Practices.EnterpriseLibrary.ExceptionHandling.ExceptionPolicyEntry.ExecuteHandlerChain(Exception ex, Guid handlingInstanceID)
   at Microsoft.Practices.EnterpriseLibrary.ExceptionHandling.ExceptionPolicyEntry.Handle(Exception exceptionToHandle)
   at Microsoft.Practices.EnterpriseLibrary.ExceptionHandling.ExceptionPolicyDefinition.HandleException(Exception exceptionToHandle)
   at Microsoft.Practices.EnterpriseLibrary.ExceptionHandling.ExceptionManager.HandleException(Exception exceptionToHandle, String policyName)
   at TAProcessLauncher.Program.Main(String[] args)
----------------------------------------
----------------------------------------
Exceptions Error: 100 : Timestamp: 8/16/2017 1:48:12 PM
Message: HandlingInstanceID: 1154eef4-a634-47cb-8dea-f79540740bd7
An exception of type 'System.Exception' occurred and was caught.
----------------------------------------------------------------
08/16/2017 08:48:12
Type : System.Exception, mscorlib, Version=4.0.0.0, Culture=neutral, PublicKeyToken=b77a5c561934e089
Message : The following scenario(s) have incomplete output after attempting to re-run:
2
3
4
5
6

Source : TAProcessLauncher
Help link : 
Data : System.Collections.ListDictionaryInternal
TargetSite : Void RunProcess()
HResult : -2146233088
Stack Trace :    at EnablingSystems.Processes.ProcessLauncher.RunProcess()
   at TAProcessLauncher.Program.Main(String[] args)

Additional Info:

MachineName : CRASIFRSALFAD01
TimeStamp : 8/16/2017 1:48:12 PM
FullName : Microsoft.Practices.EnterpriseLibrary.ExceptionHandling, Version=6.0.0.0, Culture=neutral, PublicKeyToken=31bf3856ad364e35
AppDomainName : TAProcessLauncherHost.exe
ThreadIdentity : 
WindowsIdentity : US\dadmjireisner

Category: Exceptions
Priority: 0
EventId: 100
Severity: Error
Title:Enterprise Library Exception Handling
Machine: CRASIFRSALFAD01
App Domain: TAProcessLauncherHost.exe
ProcessId: 7184
Process Name: E:\MGALFA\AutomationCode\Base\Executables\AlfaAutomation\TAProcessLauncherHost.exe
Thread Name: 
Win32 ThreadId:3892
Extended Properties: 
    Callstack=   at System.Environment.GetStackTrace(Exception e, Boolean needFileInfo)
   at System.Environment.get_StackTrace()
   at System.Diagnostics.TraceEventCache.get_Callstack()
   at System.Diagnostics.TraceListener.WriteFooter(TraceEventCache eventCache)
   at System.Diagnostics.TraceListener.TraceData(TraceEventCache eventCache, String source, TraceEventType eventType, Int32 id, Object data)
   at Microsoft.Practices.EnterpriseLibrary.Logging.TraceListeners.FormattedTextWriterTraceListener.TraceData(TraceEventCache eventCache, String source, TraceEventType eventType, Int32 id, Object data)
   at Microsoft.Practices.EnterpriseLibrary.Logging.TraceListeners.FlatFileTraceListener.TraceData(TraceEventCache eventCache, String source, TraceEventType eventType, Int32 id, Object data)
   at Microsoft.Practices.EnterpriseLibrary.Logging.LogSource.TraceData(TraceEventType eventType, Int32 id, LogEntry logEntry, TraceListenerFilter traceListenerFilter, TraceEventCache traceEventCache, ReportTracingError reportError)
   at Microsoft.Practices.EnterpriseLibrary.Logging.LogWriter.ProcessLog(LogEntry log, TraceEventCache traceEventCache)
   at Microsoft.Practices.EnterpriseLibrary.Logging.LogWriter.<>c__DisplayClass13.<Write>b__12()
   at Microsoft.Practices.EnterpriseLibrary.Logging.LogWriter.ExecuteReadOperation(Action readOperation)
   at Microsoft.Practices.EnterpriseLibrary.Logging.LogWriter.Write(LogEntry log)
   at Microsoft.Practices.EnterpriseLibrary.ExceptionHandling.Logging.LoggingExceptionHandler.WriteToLog(String logMessage, IDictionary exceptionData)
   at Microsoft.Practices.EnterpriseLibrary.ExceptionHandling.Logging.LoggingExceptionHandler.HandleException(Exception exception, Guid handlingInstanceId)
   at Microsoft.Practices.EnterpriseLibrary.ExceptionHandling.ExceptionPolicyEntry.ExecuteHandlerChain(Exception ex, Guid handlingInstanceID)
   at Microsoft.Practices.EnterpriseLibrary.ExceptionHandling.ExceptionPolicyEntry.Handle(Exception exceptionToHandle)
   at Microsoft.Practices.EnterpriseLibrary.ExceptionHandling.ExceptionPolicyDefinition.HandleException(Exception exceptionToHandle)
   at Microsoft.Practices.EnterpriseLibrary.ExceptionHandling.ExceptionManager.HandleException(Exception exceptionToHandle, String policyName)
   at TAProcessLauncher.Program.Main(String[] args)
----------------------------------------
----------------------------------------
Exceptions Error: 100 : Timestamp: 8/16/2017 1:56:36 PM
Message: HandlingInstanceID: ed1bd905-db2c-4e8f-a6f2-8e399c528891
An exception of type 'System.Exception' occurred and was caught.
----------------------------------------------------------------
08/16/2017 08:56:36
Type : System.Exception, mscorlib, Version=4.0.0.0, Culture=neutral, PublicKeyToken=b77a5c561934e089
Message : The following scenario(s) have incomplete output after attempting to re-run:
2
3
4
5
6

Source : TAProcessLauncher
Help link : 
Data : System.Collections.ListDictionaryInternal
TargetSite : Void RunProcess()
HResult : -2146233088
Stack Trace :    at EnablingSystems.Processes.ProcessLauncher.RunProcess()
   at TAProcessLauncher.Program.Main(String[] args)

Additional Info:

MachineName : CRASIFRSALFAD01
TimeStamp : 8/16/2017 1:56:36 PM
FullName : Microsoft.Practices.EnterpriseLibrary.ExceptionHandling, Version=6.0.0.0, Culture=neutral, PublicKeyToken=31bf3856ad364e35
AppDomainName : TAProcessLauncherHost.exe
ThreadIdentity : 
WindowsIdentity : US\dadmjireisner

Category: Exceptions
Priority: 0
EventId: 100
Severity: Error
Title:Enterprise Library Exception Handling
Machine: CRASIFRSALFAD01
App Domain: TAProcessLauncherHost.exe
ProcessId: 7920
Process Name: E:\MGALFA\AutomationCode\Base\Executables\AlfaAutomation\TAProcessLauncherHost.exe
Thread Name: 
Win32 ThreadId:5760
Extended Properties: 
    Callstack=   at System.Environment.GetStackTrace(Exception e, Boolean needFileInfo)
   at System.Environment.get_StackTrace()
   at System.Diagnostics.TraceEventCache.get_Callstack()
   at System.Diagnostics.TraceListener.WriteFooter(TraceEventCache eventCache)
   at System.Diagnostics.TraceListener.TraceData(TraceEventCache eventCache, String source, TraceEventType eventType, Int32 id, Object data)
   at Microsoft.Practices.EnterpriseLibrary.Logging.TraceListeners.FormattedTextWriterTraceListener.TraceData(TraceEventCache eventCache, String source, TraceEventType eventType, Int32 id, Object data)
   at Microsoft.Practices.EnterpriseLibrary.Logging.TraceListeners.FlatFileTraceListener.TraceData(TraceEventCache eventCache, String source, TraceEventType eventType, Int32 id, Object data)
   at Microsoft.Practices.EnterpriseLibrary.Logging.LogSource.TraceData(TraceEventType eventType, Int32 id, LogEntry logEntry, TraceListenerFilter traceListenerFilter, TraceEventCache traceEventCache, ReportTracingError reportError)
   at Microsoft.Practices.EnterpriseLibrary.Logging.LogWriter.ProcessLog(LogEntry log, TraceEventCache traceEventCache)
   at Microsoft.Practices.EnterpriseLibrary.Logging.LogWriter.<>c__DisplayClass13.<Write>b__12()
   at Microsoft.Practices.EnterpriseLibrary.Logging.LogWriter.ExecuteReadOperation(Action readOperation)
   at Microsoft.Practices.EnterpriseLibrary.Logging.LogWriter.Write(LogEntry log)
   at Microsoft.Practices.EnterpriseLibrary.ExceptionHandling.Logging.LoggingExceptionHandler.WriteToLog(String logMessage, IDictionary exceptionData)
   at Microsoft.Practices.EnterpriseLibrary.ExceptionHandling.Logging.LoggingExceptionHandler.HandleException(Exception exception, Guid handlingInstanceId)
   at Microsoft.Practices.EnterpriseLibrary.ExceptionHandling.ExceptionPolicyEntry.ExecuteHandlerChain(Exception ex, Guid handlingInstanceID)
   at Microsoft.Practices.EnterpriseLibrary.ExceptionHandling.ExceptionPolicyEntry.Handle(Exception exceptionToHandle)
   at Microsoft.Practices.EnterpriseLibrary.ExceptionHandling.ExceptionPolicyDefinition.HandleException(Exception exceptionToHandle)
   at Microsoft.Practices.EnterpriseLibrary.ExceptionHandling.ExceptionManager.HandleException(Exception exceptionToHandle, String policyName)
   at TAProcessLauncher.Program.Main(String[] args)
----------------------------------------
----------------------------------------
Exceptions Error: 100 : Timestamp: 8/16/2017 4:13:47 PM
Message: HandlingInstanceID: 8139bc5d-e407-482c-bd1d-89b62d0cecae
An exception of type 'System.Exception' occurred and was caught.
----------------------------------------------------------------
08/16/2017 11:13:47
Type : System.Exception, mscorlib, Version=4.0.0.0, Culture=neutral, PublicKeyToken=b77a5c561934e089
Message : The following scenario(s) have incomplete output after attempting to re-run:
2
3
4
5
6

Source : TAProcessLauncher
Help link : 
Data : System.Collections.ListDictionaryInternal
TargetSite : Void RunProcess()
HResult : -2146233088
Stack Trace :    at EnablingSystems.Processes.ProcessLauncher.RunProcess()
   at TAProcessLauncher.Program.Main(String[] args)

Additional Info:

MachineName : CRASIFRSALFAD01
TimeStamp : 8/16/2017 4:13:47 PM
FullName : Microsoft.Practices.EnterpriseLibrary.ExceptionHandling, Version=6.0.0.0, Culture=neutral, PublicKeyToken=31bf3856ad364e35
AppDomainName : TAProcessLauncherHost.exe
ThreadIdentity : 
WindowsIdentity : US\dadmjireisner

Category: Exceptions
Priority: 0
EventId: 100
Severity: Error
Title:Enterprise Library Exception Handling
Machine: CRASIFRSALFAD01
App Domain: TAProcessLauncherHost.exe
ProcessId: 5572
Process Name: E:\MGALFA\AutomationCode\Base\Executables\AlfaAutomation\TAProcessLauncherHost.exe
Thread Name: 
Win32 ThreadId:8000
Extended Properties: 
    Callstack=   at System.Environment.GetStackTrace(Exception e, Boolean needFileInfo)
   at System.Environment.get_StackTrace()
   at System.Diagnostics.TraceEventCache.get_Callstack()
   at System.Diagnostics.TraceListener.WriteFooter(TraceEventCache eventCache)
   at System.Diagnostics.TraceListener.TraceData(TraceEventCache eventCache, String source, TraceEventType eventType, Int32 id, Object data)
   at Microsoft.Practices.EnterpriseLibrary.Logging.TraceListeners.FormattedTextWriterTraceListener.TraceData(TraceEventCache eventCache, String source, TraceEventType eventType, Int32 id, Object data)
   at Microsoft.Practices.EnterpriseLibrary.Logging.TraceListeners.FlatFileTraceListener.TraceData(TraceEventCache eventCache, String source, TraceEventType eventType, Int32 id, Object data)
   at Microsoft.Practices.EnterpriseLibrary.Logging.LogSource.TraceData(TraceEventType eventType, Int32 id, LogEntry logEntry, TraceListenerFilter traceListenerFilter, TraceEventCache traceEventCache, ReportTracingError reportError)
   at Microsoft.Practices.EnterpriseLibrary.Logging.LogWriter.ProcessLog(LogEntry log, TraceEventCache traceEventCache)
   at Microsoft.Practices.EnterpriseLibrary.Logging.LogWriter.<>c__DisplayClass13.<Write>b__12()
   at Microsoft.Practices.EnterpriseLibrary.Logging.LogWriter.ExecuteReadOperation(Action readOperation)
   at Microsoft.Practices.EnterpriseLibrary.Logging.LogWriter.Write(LogEntry log)
   at Microsoft.Practices.EnterpriseLibrary.ExceptionHandling.Logging.LoggingExceptionHandler.WriteToLog(String logMessage, IDictionary exceptionData)
   at Microsoft.Practices.EnterpriseLibrary.ExceptionHandling.Logging.LoggingExceptionHandler.HandleException(Exception exception, Guid handlingInstanceId)
   at Microsoft.Practices.EnterpriseLibrary.ExceptionHandling.ExceptionPolicyEntry.ExecuteHandlerChain(Exception ex, Guid handlingInstanceID)
   at Microsoft.Practices.EnterpriseLibrary.ExceptionHandling.ExceptionPolicyEntry.Handle(Exception exceptionToHandle)
   at Microsoft.Practices.EnterpriseLibrary.ExceptionHandling.ExceptionPolicyDefinition.HandleException(Exception exceptionToHandle)
   at Microsoft.Practices.EnterpriseLibrary.ExceptionHandling.ExceptionManager.HandleException(Exception exceptionToHandle, String policyName)
   at TAProcessLauncher.Program.Main(String[] args)
----------------------------------------
----------------------------------------
Exceptions Error: 100 : Timestamp: 8/16/2017 4:27:51 PM
Message: HandlingInstanceID: 09a538fa-96ef-4436-9acd-50eb701b388b
An exception of type 'System.IO.FileNotFoundException' occurred and was caught.
-------------------------------------------------------------------------------
08/16/2017 11:27:51
Type : System.IO.FileNotFoundException, mscorlib, Version=4.0.0.0, Culture=neutral, PublicKeyToken=b77a5c561934e089
Message : Script Run File:  not found
Source : TAProcessLauncher
Help link : 
FileName : 
FusionLog : 
Data : System.Collections.ListDictionaryInternal
TargetSite : Void RunProcess()
HResult : -2147024894
Stack Trace :    at EnablingSystems.Processes.ProcessLauncher.RunProcess()
   at TAProcessLauncher.Program.Main(String[] args)

Additional Info:

MachineName : CRASIFRSALFAD01
TimeStamp : 8/16/2017 4:27:51 PM
FullName : Microsoft.Practices.EnterpriseLibrary.ExceptionHandling, Version=6.0.0.0, Culture=neutral, PublicKeyToken=31bf3856ad364e35
AppDomainName : TAProcessLauncherHost.exe
ThreadIdentity : 
WindowsIdentity : US\dadmjireisner

Category: Exceptions
Priority: 0
EventId: 100
Severity: Error
Title:Enterprise Library Exception Handling
Machine: CRASIFRSALFAD01
App Domain: TAProcessLauncherHost.exe
ProcessId: 3768
Process Name: E:\MGALFA\AutomationCode\BOPParallel\Executables\AlfaAutomation\TAProcessLauncherHost.exe
Thread Name: 
Win32 ThreadId:2720
Extended Properties: ScriptRunFile - E:\MGALFA\Model\Executionfolder\BOP\Step2_Bop_Ss_Final.ain2

    Callstack=   at System.Environment.GetStackTrace(Exception e, Boolean needFileInfo)
   at System.Environment.get_StackTrace()
   at System.Diagnostics.TraceEventCache.get_Callstack()
   at System.Diagnostics.TraceListener.WriteFooter(TraceEventCache eventCache)
   at System.Diagnostics.TraceListener.TraceData(TraceEventCache eventCache, String source, TraceEventType eventType, Int32 id, Object data)
   at Microsoft.Practices.EnterpriseLibrary.Logging.TraceListeners.FormattedTextWriterTraceListener.TraceData(TraceEventCache eventCache, String source, TraceEventType eventType, Int32 id, Object data)
   at Microsoft.Practices.EnterpriseLibrary.Logging.TraceListeners.FlatFileTraceListener.TraceData(TraceEventCache eventCache, String source, TraceEventType eventType, Int32 id, Object data)
   at Microsoft.Practices.EnterpriseLibrary.Logging.LogSource.TraceData(TraceEventType eventType, Int32 id, LogEntry logEntry, TraceListenerFilter traceListenerFilter, TraceEventCache traceEventCache, ReportTracingError reportError)
   at Microsoft.Practices.EnterpriseLibrary.Logging.LogWriter.ProcessLog(LogEntry log, TraceEventCache traceEventCache)
   at Microsoft.Practices.EnterpriseLibrary.Logging.LogWriter.<>c__DisplayClass13.<Write>b__12()
   at Microsoft.Practices.EnterpriseLibrary.Logging.LogWriter.ExecuteReadOperation(Action readOperation)
   at Microsoft.Practices.EnterpriseLibrary.Logging.LogWriter.Write(LogEntry log)
   at Microsoft.Practices.EnterpriseLibrary.ExceptionHandling.Logging.LoggingExceptionHandler.WriteToLog(String logMessage, IDictionary exceptionData)
   at Microsoft.Practices.EnterpriseLibrary.ExceptionHandling.Logging.LoggingExceptionHandler.HandleException(Exception exception, Guid handlingInstanceId)
   at Microsoft.Practices.EnterpriseLibrary.ExceptionHandling.ExceptionPolicyEntry.ExecuteHandlerChain(Exception ex, Guid handlingInstanceID)
   at Microsoft.Practices.EnterpriseLibrary.ExceptionHandling.ExceptionPolicyEntry.Handle(Exception exceptionToHandle)
   at Microsoft.Practices.EnterpriseLibrary.ExceptionHandling.ExceptionPolicyDefinition.HandleException(Exception exceptionToHandle)
   at Microsoft.Practices.EnterpriseLibrary.ExceptionHandling.ExceptionManager.HandleException(Exception exceptionToHandle, String policyName)
   at TAProcessLauncher.Program.Main(String[] args)
----------------------------------------
----------------------------------------
Exceptions Error: 100 : Timestamp: 8/16/2017 5:32:17 PM
Message: HandlingInstanceID: fbfa08c1-58fc-439e-86b3-a87ab960e75f
An exception of type 'System.IO.DirectoryNotFoundException' occurred and was caught.
------------------------------------------------------------------------------------
08/16/2017 12:32:17
Type : System.IO.DirectoryNotFoundException, mscorlib, Version=4.0.0.0, Culture=neutral, PublicKeyToken=b77a5c561934e089
Message : Output directory: E:\MGALFA\Model\Executionfolder\BOPParallel
Source : TAProcessLauncher
Help link : 
Data : System.Collections.ListDictionaryInternal
TargetSite : Void RunProcess()
HResult : -2147024893
Stack Trace :    at EnablingSystems.Processes.ProcessLauncher.RunProcess()
   at TAProcessLauncher.Program.Main(String[] args)

Additional Info:

MachineName : CRASIFRSALFAD01
TimeStamp : 8/16/2017 5:32:17 PM
FullName : Microsoft.Practices.EnterpriseLibrary.ExceptionHandling, Version=6.0.0.0, Culture=neutral, PublicKeyToken=31bf3856ad364e35
AppDomainName : TAProcessLauncherHost.exe
ThreadIdentity : 
WindowsIdentity : US\dadmrrastogi

Category: Exceptions
Priority: 0
EventId: 100
Severity: Error
Title:Enterprise Library Exception Handling
Machine: CRASIFRSALFAD01
App Domain: TAProcessLauncherHost.exe
ProcessId: 7628
Process Name: E:\MGALFA\AutomationCode\BOPParallel\Executables\AlfaAutomation\TAProcessLauncherHost.exe
Thread Name: 
Win32 ThreadId:4828
Extended Properties: ErrorOutputSizeLocation - E:\MGALFA\Model\Executionfolder\BOPParallel

    Callstack=   at System.Environment.GetStackTrace(Exception e, Boolean needFileInfo)
   at System.Environment.get_StackTrace()
   at System.Diagnostics.TraceEventCache.get_Callstack()
   at System.Diagnostics.TraceListener.WriteFooter(TraceEventCache eventCache)
   at System.Diagnostics.TraceListener.TraceData(TraceEventCache eventCache, String source, TraceEventType eventType, Int32 id, Object data)
   at Microsoft.Practices.EnterpriseLibrary.Logging.TraceListeners.FormattedTextWriterTraceListener.TraceData(TraceEventCache eventCache, String source, TraceEventType eventType, Int32 id, Object data)
   at Microsoft.Practices.EnterpriseLibrary.Logging.TraceListeners.FlatFileTraceListener.TraceData(TraceEventCache eventCache, String source, TraceEventType eventType, Int32 id, Object data)
   at Microsoft.Practices.EnterpriseLibrary.Logging.LogSource.TraceData(TraceEventType eventType, Int32 id, LogEntry logEntry, TraceListenerFilter traceListenerFilter, TraceEventCache traceEventCache, ReportTracingError reportError)
   at Microsoft.Practices.EnterpriseLibrary.Logging.LogWriter.ProcessLog(LogEntry log, TraceEventCache traceEventCache)
   at Microsoft.Practices.EnterpriseLibrary.Logging.LogWriter.<>c__DisplayClass13.<Write>b__12()
   at Microsoft.Practices.EnterpriseLibrary.Logging.LogWriter.ExecuteReadOperation(Action readOperation)
   at Microsoft.Practices.EnterpriseLibrary.Logging.LogWriter.Write(LogEntry log)
   at Microsoft.Practices.EnterpriseLibrary.ExceptionHandling.Logging.LoggingExceptionHandler.WriteToLog(String logMessage, IDictionary exceptionData)
   at Microsoft.Practices.EnterpriseLibrary.ExceptionHandling.Logging.LoggingExceptionHandler.HandleException(Exception exception, Guid handlingInstanceId)
   at Microsoft.Practices.EnterpriseLibrary.ExceptionHandling.ExceptionPolicyEntry.ExecuteHandlerChain(Exception ex, Guid handlingInstanceID)
   at Microsoft.Practices.EnterpriseLibrary.ExceptionHandling.ExceptionPolicyEntry.Handle(Exception exceptionToHandle)
   at Microsoft.Practices.EnterpriseLibrary.ExceptionHandling.ExceptionPolicyDefinition.HandleException(Exception exceptionToHandle)
   at Microsoft.Practices.EnterpriseLibrary.ExceptionHandling.ExceptionManager.HandleException(Exception exceptionToHandle, String policyName)
   at TAProcessLauncher.Program.Main(String[] args)
----------------------------------------
----------------------------------------
Exceptions Error: 100 : Timestamp: 8/16/2017 5:32:49 PM
Message: HandlingInstanceID: c6591cae-ef7e-4b01-a960-d20c0ab25939
An exception of type 'System.IO.DirectoryNotFoundException' occurred and was caught.
------------------------------------------------------------------------------------
08/16/2017 12:32:49
Type : System.IO.DirectoryNotFoundException, mscorlib, Version=4.0.0.0, Culture=neutral, PublicKeyToken=b77a5c561934e089
Message : Output directory: E:\MGALFA\Model\Executionfolder\BOPParallel
Source : TAProcessLauncher
Help link : 
Data : System.Collections.ListDictionaryInternal
TargetSite : Void RunProcess()
HResult : -2147024893
Stack Trace :    at EnablingSystems.Processes.ProcessLauncher.RunProcess()
   at TAProcessLauncher.Program.Main(String[] args)

Additional Info:

MachineName : CRASIFRSALFAD01
TimeStamp : 8/16/2017 5:32:49 PM
FullName : Microsoft.Practices.EnterpriseLibrary.ExceptionHandling, Version=6.0.0.0, Culture=neutral, PublicKeyToken=31bf3856ad364e35
AppDomainName : TAProcessLauncherHost.exe
ThreadIdentity : 
WindowsIdentity : US\dadmrrastogi

Category: Exceptions
Priority: 0
EventId: 100
Severity: Error
Title:Enterprise Library Exception Handling
Machine: CRASIFRSALFAD01
App Domain: TAProcessLauncherHost.exe
ProcessId: 3612
Process Name: E:\MGALFA\AutomationCode\BOPParallel\Executables\AlfaAutomation\TAProcessLauncherHost.exe
Thread Name: 
Win32 ThreadId:3172
Extended Properties: ErrorOutputSizeLocation - E:\MGALFA\Model\Executionfolder\BOPParallel

    Callstack=   at System.Environment.GetStackTrace(Exception e, Boolean needFileInfo)
   at System.Environment.get_StackTrace()
   at System.Diagnostics.TraceEventCache.get_Callstack()
   at System.Diagnostics.TraceListener.WriteFooter(TraceEventCache eventCache)
   at System.Diagnostics.TraceListener.TraceData(TraceEventCache eventCache, String source, TraceEventType eventType, Int32 id, Object data)
   at Microsoft.Practices.EnterpriseLibrary.Logging.TraceListeners.FormattedTextWriterTraceListener.TraceData(TraceEventCache eventCache, String source, TraceEventType eventType, Int32 id, Object data)
   at Microsoft.Practices.EnterpriseLibrary.Logging.TraceListeners.FlatFileTraceListener.TraceData(TraceEventCache eventCache, String source, TraceEventType eventType, Int32 id, Object data)
   at Microsoft.Practices.EnterpriseLibrary.Logging.LogSource.TraceData(TraceEventType eventType, Int32 id, LogEntry logEntry, TraceListenerFilter traceListenerFilter, TraceEventCache traceEventCache, ReportTracingError reportError)
   at Microsoft.Practices.EnterpriseLibrary.Logging.LogWriter.ProcessLog(LogEntry log, TraceEventCache traceEventCache)
   at Microsoft.Practices.EnterpriseLibrary.Logging.LogWriter.<>c__DisplayClass13.<Write>b__12()
   at Microsoft.Practices.EnterpriseLibrary.Logging.LogWriter.ExecuteReadOperation(Action readOperation)
   at Microsoft.Practices.EnterpriseLibrary.Logging.LogWriter.Write(LogEntry log)
   at Microsoft.Practices.EnterpriseLibrary.ExceptionHandling.Logging.LoggingExceptionHandler.WriteToLog(String logMessage, IDictionary exceptionData)
   at Microsoft.Practices.EnterpriseLibrary.ExceptionHandling.Logging.LoggingExceptionHandler.HandleException(Exception exception, Guid handlingInstanceId)
   at Microsoft.Practices.EnterpriseLibrary.ExceptionHandling.ExceptionPolicyEntry.ExecuteHandlerChain(Exception ex, Guid handlingInstanceID)
   at Microsoft.Practices.EnterpriseLibrary.ExceptionHandling.ExceptionPolicyEntry.Handle(Exception exceptionToHandle)
   at Microsoft.Practices.EnterpriseLibrary.ExceptionHandling.ExceptionPolicyDefinition.HandleException(Exception exceptionToHandle)
   at Microsoft.Practices.EnterpriseLibrary.ExceptionHandling.ExceptionManager.HandleException(Exception exceptionToHandle, String policyName)
   at TAProcessLauncher.Program.Main(String[] args)
----------------------------------------
----------------------------------------
Exceptions Error: 100 : Timestamp: 8/16/2017 5:38:41 PM
Message: HandlingInstanceID: f0abd444-ad74-4b74-96aa-0f910aef8387
An exception of type 'System.IO.DirectoryNotFoundException' occurred and was caught.
------------------------------------------------------------------------------------
08/16/2017 12:38:41
Type : System.IO.DirectoryNotFoundException, mscorlib, Version=4.0.0.0, Culture=neutral, PublicKeyToken=b77a5c561934e089
Message : Output directory: E:\MGALFA\Model\Executionfolder\BOPParallel
Source : TAProcessLauncher
Help link : 
Data : System.Collections.ListDictionaryInternal
TargetSite : Void RunProcess()
HResult : -2147024893
Stack Trace :    at EnablingSystems.Processes.ProcessLauncher.RunProcess()
   at TAProcessLauncher.Program.Main(String[] args)

Additional Info:

MachineName : CRASIFRSALFAD01
TimeStamp : 8/16/2017 5:38:41 PM
FullName : Microsoft.Practices.EnterpriseLibrary.ExceptionHandling, Version=6.0.0.0, Culture=neutral, PublicKeyToken=31bf3856ad364e35
AppDomainName : TAProcessLauncherHost.exe
ThreadIdentity : 
WindowsIdentity : US\dadmjireisner

Category: Exceptions
Priority: 0
EventId: 100
Severity: Error
Title:Enterprise Library Exception Handling
Machine: CRASIFRSALFAD01
App Domain: TAProcessLauncherHost.exe
ProcessId: 3996
Process Name: E:\MGALFA\AutomationCode\BOPParallel\Executables\AlfaAutomation\TAProcessLauncherHost.exe
Thread Name: 
Win32 ThreadId:7704
Extended Properties: ErrorOutputSizeLocation - E:\MGALFA\Model\Executionfolder\BOPParallel

    Callstack=   at System.Environment.GetStackTrace(Exception e, Boolean needFileInfo)
   at System.Environment.get_StackTrace()
   at System.Diagnostics.TraceEventCache.get_Callstack()
   at System.Diagnostics.TraceListener.WriteFooter(TraceEventCache eventCache)
   at System.Diagnostics.TraceListener.TraceData(TraceEventCache eventCache, String source, TraceEventType eventType, Int32 id, Object data)
   at Microsoft.Practices.EnterpriseLibrary.Logging.TraceListeners.FormattedTextWriterTraceListener.TraceData(TraceEventCache eventCache, String source, TraceEventType eventType, Int32 id, Object data)
   at Microsoft.Practices.EnterpriseLibrary.Logging.TraceListeners.FlatFileTraceListener.TraceData(TraceEventCache eventCache, String source, TraceEventType eventType, Int32 id, Object data)
   at Microsoft.Practices.EnterpriseLibrary.Logging.LogSource.TraceData(TraceEventType eventType, Int32 id, LogEntry logEntry, TraceListenerFilter traceListenerFilter, TraceEventCache traceEventCache, ReportTracingError reportError)
   at Microsoft.Practices.EnterpriseLibrary.Logging.LogWriter.ProcessLog(LogEntry log, TraceEventCache traceEventCache)
   at Microsoft.Practices.EnterpriseLibrary.Logging.LogWriter.<>c__DisplayClass13.<Write>b__12()
   at Microsoft.Practices.EnterpriseLibrary.Logging.LogWriter.ExecuteReadOperation(Action readOperation)
   at Microsoft.Practices.EnterpriseLibrary.Logging.LogWriter.Write(LogEntry log)
   at Microsoft.Practices.EnterpriseLibrary.ExceptionHandling.Logging.LoggingExceptionHandler.WriteToLog(String logMessage, IDictionary exceptionData)
   at Microsoft.Practices.EnterpriseLibrary.ExceptionHandling.Logging.LoggingExceptionHandler.HandleException(Exception exception, Guid handlingInstanceId)
   at Microsoft.Practices.EnterpriseLibrary.ExceptionHandling.ExceptionPolicyEntry.ExecuteHandlerChain(Exception ex, Guid handlingInstanceID)
   at Microsoft.Practices.EnterpriseLibrary.ExceptionHandling.ExceptionPolicyEntry.Handle(Exception exceptionToHandle)
   at Microsoft.Practices.EnterpriseLibrary.ExceptionHandling.ExceptionPolicyDefinition.HandleException(Exception exceptionToHandle)
   at Microsoft.Practices.EnterpriseLibrary.ExceptionHandling.ExceptionManager.HandleException(Exception exceptionToHandle, String policyName)
   at TAProcessLauncher.Program.Main(String[] args)
----------------------------------------
----------------------------------------
Exceptions Error: 100 : Timestamp: 8/16/2017 5:40:00 PM
Message: HandlingInstanceID: 4db15dbf-5b1d-45ba-a739-7da705c08ffe
An exception of type 'System.IO.DirectoryNotFoundException' occurred and was caught.
------------------------------------------------------------------------------------
08/16/2017 12:40:00
Type : System.IO.DirectoryNotFoundException, mscorlib, Version=4.0.0.0, Culture=neutral, PublicKeyToken=b77a5c561934e089
Message : Could not find a part of the path 'E:\MGALFA\Model\Executionfolder\BOPParallel'.
Source : TAProcessLauncher
Help link : 
Data : System.Collections.ListDictionaryInternal
TargetSite : Void RunProcess()
HResult : -2147024893
Stack Trace :    at EnablingSystems.Processes.ProcessLauncher.RunProcess()
   at TAProcessLauncher.Program.Main(String[] args)

Additional Info:

MachineName : CRASIFRSALFAD01
TimeStamp : 8/16/2017 5:40:00 PM
FullName : Microsoft.Practices.EnterpriseLibrary.ExceptionHandling, Version=6.0.0.0, Culture=neutral, PublicKeyToken=31bf3856ad364e35
AppDomainName : TAProcessLauncherHost.exe
ThreadIdentity : 
WindowsIdentity : US\dadmjireisner

Category: Exceptions
Priority: 0
EventId: 100
Severity: Error
Title:Enterprise Library Exception Handling
Machine: CRASIFRSALFAD01
App Domain: TAProcessLauncherHost.exe
ProcessId: 7828
Process Name: E:\MGALFA\AutomationCode\BOPParallel\Executables\AlfaAutomation\TAProcessLauncherHost.exe
Thread Name: 
Win32 ThreadId:3896
Extended Properties: 
    Callstack=   at System.Environment.GetStackTrace(Exception e, Boolean needFileInfo)
   at System.Environment.get_StackTrace()
   at System.Diagnostics.TraceEventCache.get_Callstack()
   at System.Diagnostics.TraceListener.WriteFooter(TraceEventCache eventCache)
   at System.Diagnostics.TraceListener.TraceData(TraceEventCache eventCache, String source, TraceEventType eventType, Int32 id, Object data)
   at Microsoft.Practices.EnterpriseLibrary.Logging.TraceListeners.FormattedTextWriterTraceListener.TraceData(TraceEventCache eventCache, String source, TraceEventType eventType, Int32 id, Object data)
   at Microsoft.Practices.EnterpriseLibrary.Logging.TraceListeners.FlatFileTraceListener.TraceData(TraceEventCache eventCache, String source, TraceEventType eventType, Int32 id, Object data)
   at Microsoft.Practices.EnterpriseLibrary.Logging.LogSource.TraceData(TraceEventType eventType, Int32 id, LogEntry logEntry, TraceListenerFilter traceListenerFilter, TraceEventCache traceEventCache, ReportTracingError reportError)
   at Microsoft.Practices.EnterpriseLibrary.Logging.LogWriter.ProcessLog(LogEntry log, TraceEventCache traceEventCache)
   at Microsoft.Practices.EnterpriseLibrary.Logging.LogWriter.<>c__DisplayClass13.<Write>b__12()
   at Microsoft.Practices.EnterpriseLibrary.Logging.LogWriter.ExecuteReadOperation(Action readOperation)
   at Microsoft.Practices.EnterpriseLibrary.Logging.LogWriter.Write(LogEntry log)
   at Microsoft.Practices.EnterpriseLibrary.ExceptionHandling.Logging.LoggingExceptionHandler.WriteToLog(String logMessage, IDictionary exceptionData)
   at Microsoft.Practices.EnterpriseLibrary.ExceptionHandling.Logging.LoggingExceptionHandler.HandleException(Exception exception, Guid handlingInstanceId)
   at Microsoft.Practices.EnterpriseLibrary.ExceptionHandling.ExceptionPolicyEntry.ExecuteHandlerChain(Exception ex, Guid handlingInstanceID)
   at Microsoft.Practices.EnterpriseLibrary.ExceptionHandling.ExceptionPolicyEntry.Handle(Exception exceptionToHandle)
   at Microsoft.Practices.EnterpriseLibrary.ExceptionHandling.ExceptionPolicyDefinition.HandleException(Exception exceptionToHandle)
   at Microsoft.Practices.EnterpriseLibrary.ExceptionHandling.ExceptionManager.HandleException(Exception exceptionToHandle, String policyName)
   at TAProcessLauncher.Program.Main(String[] args)
----------------------------------------
----------------------------------------
Exceptions Error: 100 : Timestamp: 8/16/2017 5:46:51 PM
Message: HandlingInstanceID: 9c28ed97-a579-4188-9889-2d58a1bd88bf
An exception of type 'System.IO.DirectoryNotFoundException' occurred and was caught.
------------------------------------------------------------------------------------
08/16/2017 12:46:51
Type : System.IO.DirectoryNotFoundException, mscorlib, Version=4.0.0.0, Culture=neutral, PublicKeyToken=b77a5c561934e089
Message : Could not find a part of the path 'E:\MGALFA\Model\Executionfolder\BOPParallel'.
Source : TAProcessLauncher
Help link : 
Data : System.Collections.ListDictionaryInternal
TargetSite : Void RunProcess()
HResult : -2147024893
Stack Trace :    at EnablingSystems.Processes.ProcessLauncher.RunProcess()
   at TAProcessLauncher.Program.Main(String[] args)

Additional Info:

MachineName : CRASIFRSALFAD01
TimeStamp : 8/16/2017 5:46:51 PM
FullName : Microsoft.Practices.EnterpriseLibrary.ExceptionHandling, Version=6.0.0.0, Culture=neutral, PublicKeyToken=31bf3856ad364e35
AppDomainName : TAProcessLauncherHost.exe
ThreadIdentity : 
WindowsIdentity : US\dadmrrastogi

Category: Exceptions
Priority: 0
EventId: 100
Severity: Error
Title:Enterprise Library Exception Handling
Machine: CRASIFRSALFAD01
App Domain: TAProcessLauncherHost.exe
ProcessId: 6944
Process Name: E:\MGALFA\AutomationCode\BOPParallel\Executables\AlfaAutomation\TAProcessLauncherHost.exe
Thread Name: 
Win32 ThreadId:7448
Extended Properties: 
    Callstack=   at System.Environment.GetStackTrace(Exception e, Boolean needFileInfo)
   at System.Environment.get_StackTrace()
   at System.Diagnostics.TraceEventCache.get_Callstack()
   at System.Diagnostics.TraceListener.WriteFooter(TraceEventCache eventCache)
   at System.Diagnostics.TraceListener.TraceData(TraceEventCache eventCache, String source, TraceEventType eventType, Int32 id, Object data)
   at Microsoft.Practices.EnterpriseLibrary.Logging.TraceListeners.FormattedTextWriterTraceListener.TraceData(TraceEventCache eventCache, String source, TraceEventType eventType, Int32 id, Object data)
   at Microsoft.Practices.EnterpriseLibrary.Logging.TraceListeners.FlatFileTraceListener.TraceData(TraceEventCache eventCache, String source, TraceEventType eventType, Int32 id, Object data)
   at Microsoft.Practices.EnterpriseLibrary.Logging.LogSource.TraceData(TraceEventType eventType, Int32 id, LogEntry logEntry, TraceListenerFilter traceListenerFilter, TraceEventCache traceEventCache, ReportTracingError reportError)
   at Microsoft.Practices.EnterpriseLibrary.Logging.LogWriter.ProcessLog(LogEntry log, TraceEventCache traceEventCache)
   at Microsoft.Practices.EnterpriseLibrary.Logging.LogWriter.<>c__DisplayClass13.<Write>b__12()
   at Microsoft.Practices.EnterpriseLibrary.Logging.LogWriter.ExecuteReadOperation(Action readOperation)
   at Microsoft.Practices.EnterpriseLibrary.Logging.LogWriter.Write(LogEntry log)
   at Microsoft.Practices.EnterpriseLibrary.ExceptionHandling.Logging.LoggingExceptionHandler.WriteToLog(String logMessage, IDictionary exceptionData)
   at Microsoft.Practices.EnterpriseLibrary.ExceptionHandling.Logging.LoggingExceptionHandler.HandleException(Exception exception, Guid handlingInstanceId)
   at Microsoft.Practices.EnterpriseLibrary.ExceptionHandling.ExceptionPolicyEntry.ExecuteHandlerChain(Exception ex, Guid handlingInstanceID)
   at Microsoft.Practices.EnterpriseLibrary.ExceptionHandling.ExceptionPolicyEntry.Handle(Exception exceptionToHandle)
   at Microsoft.Practices.EnterpriseLibrary.ExceptionHandling.ExceptionPolicyDefinition.HandleException(Exception exceptionToHandle)
   at Microsoft.Practices.EnterpriseLibrary.ExceptionHandling.ExceptionManager.HandleException(Exception exceptionToHandle, String policyName)
   at TAProcessLauncher.Program.Main(String[] args)
----------------------------------------
