Input param:JobHistoryConnection:E:\MGALFA\AutomationCode\CrossAttribution\Log\CrossAttribution_SVNCheckout_JobHistory.txt
Input param:JobInstanceID:2
Input param:SvnLocation:"C:\Program Files\TortoiseSVN\bin\svn.exe"
Input param:CheckoutURL:"http://crasswvc01.us.aegon.com/svn/ActuarialFinance/com.transamerica.actfin.modeling/Fair_Value_Modeling/Branches/Execution_Development/Projects/CrossAttribution"
Input param:TimeoutInMiliseconds:60000
Input param:UseDBJobHistory:false
Input param:CheckoutCommand:co
Input param:WorkingDirectory:E:\MGALFA\PostRunFilesToCommit\CrossAttribution
SvnReturnMessage:Standard Output
 A    TCMALFA1_RN_Base_1000.agu
A    Vcf_Inputs.xlsx
A    Treasury10yrhist.xlsx
A    QtrlySens.xlsx
A    FVQtrly.xlsx
A    CrossReports.xlsx
A    SCN_RN_1000.Asd
A    SCN_RN_1000.ain2
Checked out revision 4542.
 
Error Output
 
FinishTime:04/27/2018 11:21:34.183
