Input param:JobHistoryConnection:E:\MGALFA\AutomationCode\CrossAttribution\Log\F133OCSPQ.txt
Input param:JobInstanceID:1
Input param:SourceWorkbookLocation:E:\MGALFA\Staging\FairValue\ModelInputs\IFRS_Model_Inputs.xlsx
Input param:SourceSheetName:OCS Inputs
Input param:SourceRow:5
Input param:SourceColumn:B
Input param:DestinationWorkbookLocation:E:\MGALFA\Model\Executionfolder\CrossAttribution\FVQtrly.xlsx
Input param:DestinationSheetName:F133OCSPQ
Input param:DestinationRangeStartRow:5
Input param:DestinationRangeStartColumn:B
Input param:DestinationEndRangeRow:5
Input param:DestinationEndRangeColumn:BQS
B5:0.003
FinishTime:04/26/2018 08:52:00.320
