Input param:JobHistoryConnection:E:\MGALFA\AutomationCode\CrossAttribution\Log\Scenario_ExternalFileCheckerJobHistory.txt
Input param:JobInstanceID:-1
Input param:UseDBJobHistory:false
Input param:SourceDirectoryPattern:\\us.aegon.com\ait\Actuary\TCMActuary\Valtest\sharedactuarial\EquityRisk\{YearHolderFourDigit}\Q{QuarterHolder}{YearHolderTwoDigit}\RN\Stochastic\TCM
Input param:Q1MonthMap:1,2,3
Input param:Q2MonthMap:4,5,6
Input param:Q3MonthMap:7,8,9
Input param:Q4MonthMap:10,11,12
Input param:ProcessTimeToMonthOffset:-1
Input param:OverwriteDestinationFile:true
Input param:ExpectedNumberOfFiles:1
Input param:Wildcard:TCMALFA1_RN_*Base_1000.agu
NumberOfFilesFound:1
ResolvedDirectoryName:\\us.aegon.com\ait\Actuary\TCMActuary\Valtest\sharedactuarial\EquityRisk\2018\Q118\RN\Stochastic\TCM
FinishTime:04/26/2018 08:50:19.973
