Input param:JobHistoryConnection:E:\MGALFA\AutomationCode\CrossAttribution\Log\Var5Shock Perm Table.txt
Input param:JobInstanceID:2
Input param:SourceWorkbookLocation:E:\MGALFA\Staging\FairValue\MarketInputsandAssumptions\Market Data- final - blend.xlsx
Input param:SourceSheetName:Valuation
Input param:SourceRangeStartRow:14
Input param:SourceRangeStartColumn:G
Input param:SourceEndRangeRow:14
Input param:SourceEndRangeColumn:G
Input param:DestinationWorkbookLocation:E:\MGALFA\Model\Executionfolder\CrossAttribution\FVQtrly.xlsx
Input param:DestinationSheetName:Var5Shock%
Input param:DestinationRangeStartRow:5
Input param:DestinationRangeStartColumn:B
Input param:DestinationEndRangeRow:5
Input param:DestinationEndRangeColumn:B
Source Cells:
G14:0.00384205829136897
FinishTime:04/26/2018 08:51:46.522
