Input param:JobHistoryConnection:E:\MGALFA\AutomationCode\CrossAttribution\Log\Vcf_Inputs_Part5b Perm Table.txt
Input param:JobInstanceID:1
Input param:SourceWorkbookLocation:E:\MGALFA\Staging\FairValue\VCFInput\TCM Equity Scenario Assumptions.xlsx
Input param:SourceSheetName:Risk Neutral Volatilities
Input param:SourceRangeStartRow:726
Input param:SourceRangeStartColumn:G
Input param:SourceEndRangeRow:726
Input param:SourceEndRangeColumn:G
Input param:DestinationWorkbookLocation:E:\MGALFA\Model\Executionfolder\CrossAttribution\Vcf_Inputs.xlsx
Input param:DestinationSheetName:VarVCFFundVol_IFRS_FV
Input param:DestinationRangeStartRow:6
Input param:DestinationRangeStartColumn:FJK
Input param:DestinationEndRangeRow:6
Input param:DestinationEndRangeColumn:FJK
Source Cells:
G726:0.05
FinishTime:04/26/2018 08:51:05.271
