Input param:JobHistoryConnection:E:\MGALFA\AutomationCode\CrossAttribution\Log\VCF_StagingFileCheckerJobHistory.txt
Input param:JobInstanceID:-1
Input param:UseDBJobHistory:false
Input param:SourceDirectoryPattern:E:\MGALFA\Staging\FairValue\VCFInput
Input param:Q1MonthMap:1,2,3
Input param:Q2MonthMap:4,5,6
Input param:Q3MonthMap:7,8,9
Input param:Q4MonthMap:10,11,12
Input param:ProcessTimeToMonthOffset:0
Input param:OverwriteDestinationFile:true
Input param:ExpectedNumberOfFiles:1
Input param:Wildcard:TCM Equity Scenario Assumptions.xlsx
NumberOfFilesFound:1
ResolvedDirectoryName:E:\MGALFA\Staging\FairValue\VCFInput
FinishTime:04/26/2018 08:50:21.395
