Start MG-ALFA script processing: E:\MGALFA\AutomationCode\Sensitivities\FP_Type_I_UW_Sensitivities_MortUp10_1QTROUT\Executables\AlfaAutomation\modelscript.asc

Start date and time .... 02-20-2018 at 12:19:26
Workspace Id ........... C:\Program Files (x86)\Milliman\MG-ALFA 10.5.2011\UI\MGALFA105
System version ......... MG-ALFA Version 10.5.2011[10.5.016]


02-20-2018 at 12:19:26 --------------------------------------------------------------------------------

OpenModel "E:\MGALFA\Model\Executionfolder\Sensitivities\FP_Type_I_UW_Sensitivities_MortUp10_1QTROUT\FP_Type_I_UW_Sensitivities_MortUp10_1QTROUT.ain2"
ValDate 12/2017
Run 33

::AinRun::Message::Begin::

Return Message: 

 Run.033  Yes    Na  Ok (Messages)--02-20-2018 at 13:58:32  TCM VA URL 2013 TLIC 

::AinRun::Message::End::
Close


02-20-2018 at 13:58:32 --------------------------------------------------------------------------------

End date and time ...... 02-20-2018 at 13:58:33
End of script .......... 
