Start MG-ALFA script processing: E:\MGALFA\AutomationCode\Sensitivities\MTP_1QTROUT\Executables\AlfaAutomation\modelscript.asc

Start date and time .... 01-08-2018 at 07:57:00
Workspace Id ........... C:\Program Files (x86)\Milliman\MG-ALFA 10.5.2011\UI\MGALFA105
System version ......... MG-ALFA Version 10.5.2011[10.5.016]


01-08-2018 at 07:57:00 --------------------------------------------------------------------------------

OpenModel "E:\MGALFA\Model\Executionfolder\Sensitivities\MTP_1QTROUT\MTP_1QTROUT.ain2"
ValDate 09/2017
Run 133

::AinRun::Message::Begin::

Return Message: 

 Run.133  Yes    Na  Ok--01-08-2018 at 08:04:36  TCM VA URL 2013 TLIC - Single Scenario 

::AinRun::Message::End::
Close


01-08-2018 at 08:04:37 --------------------------------------------------------------------------------

End date and time ...... 01-08-2018 at 08:04:37
End of script .......... 
