Start MG-ALFA script processing: E:\MGALFA\AutomationCode\Sensitivities\MTP_NewBusiness_4YE\Executables\AlfaAutomation\modelscript.asc

Start date and time .... 01-11-2018 at 11:45:18
Workspace Id ........... C:\Program Files (x86)\Milliman\MG-ALFA 10.5.2011\UI\MGALFA105
System version ......... MG-ALFA Version 10.5.2011[10.5.016]


01-11-2018 at 11:45:18 --------------------------------------------------------------------------------

OpenModel "E:\MGALFA\Model\Executionfolder\Sensitivities\MTP_NewBusiness_4YE\MTP_NewBusiness_4YE.ain2"
ValDate 09/2017
Run 133

::AinRun::Message::Begin::

Return Message: 

 Run.133  Yes    Na  Ok--01-11-2018 at 11:49:27  TCM VA URL 2013 TLIC - Single Scenario 

::AinRun::Message::End::
Close


01-11-2018 at 11:49:27 --------------------------------------------------------------------------------

End date and time ...... 01-11-2018 at 11:49:28
End of script .......... 
