Start MG-ALFA script processing: E:\MGALFA\AutomationCode\Sensitivities\FP_Type_I_UW_Sensitivities_LapseUp20_1QTROUT\Executables\AlfaAutomation\modelscript.asc

Start date and time .... 02-14-2018 at 13:05:20
Workspace Id ........... C:\Program Files (x86)\Milliman\MG-ALFA 10.5.2011\UI\MGALFA105
System version ......... MG-ALFA Version 10.5.2011[10.5.016]


02-14-2018 at 13:05:20 --------------------------------------------------------------------------------

OpenModel "E:\MGALFA\Model\Executionfolder\Sensitivities\FP_Type_I_UW_Sensitivities_LapseUp20_1QTROUT\FP_Type_I_UW_Sensitivities_LapseUp20_1QTROUT.ain2"
ValDate 12/2017
Run 33

::AinRun::Message::Begin::

Return Message: 

 Run.033  Yes    Na  Ok (Messages)--02-15-2018 at 11:38:47  TCM VA URL 2013 TLIC 

::AinRun::Message::End::
Close


02-15-2018 at 11:38:47 --------------------------------------------------------------------------------

End date and time ...... 02-15-2018 at 11:38:49
End of script .......... 
