Input param:JobHistoryConnection:E:\mgalfa\AutomationCode\Sensitivities\FP_NewBusiness_2YE\Log\DeletePostRunFileJobHistory.txt
Input param:JobInstanceID:4
Input param:UseDBJobHistory:false
Input param:FileToDelete:E:\MGALFA\AlfaPostProcessingTriggerFiles\FP_NewBusiness_2YE.txt
FinishTime:01/05/2018 19:54:51.904
