Input param:JobHistoryConnection:E:\mgalfa\AutomationCode\Sensitivities\FP_NewBusiness_2YE\Log\RunType1 Perm Table.txt
Input param:JobInstanceID:1
Input param:SourceWorkbookLocation:E:\mgalfa\Staging\FairValue\Sensitivity\ModelInputs\IFRS_Model_Inputs.xlsx
Input param:SourceSheetName:RunType Inputs
Input param:SourceRangeStartRow:6
Input param:SourceRangeStartColumn:B
Input param:SourceEndRangeRow:6
Input param:SourceEndRangeColumn:B
Input param:DestinationWorkbookLocation:E:\MGALFA\Model\Executionfolder\Sensitivities\FP_NewBusiness_2YE\FVQtrly.xlsx
Input param:DestinationSheetName:RunType1
Input param:DestinationRangeStartRow:4
Input param:DestinationRangeStartColumn:B
Input param:DestinationEndRangeRow:4
Input param:DestinationEndRangeColumn:B
Source Cells:
B6:FP
FinishTime:01/05/2018 19:41:17.053
