Input param:JobHistoryConnection:E:\mgalfa\AutomationCode\Sensitivities\MTP_NewBusiness_1YE\Log\RunType2 Perm Table.txt
Input param:JobInstanceID:2
Input param:SourceWorkbookLocation:E:\mgalfa\Staging\FairValue\Sensitivity\ModelInputs\IFRS_Model_Inputs.xlsx
Input param:SourceSheetName:RunType Inputs
Input param:SourceRangeStartRow:10
Input param:SourceRangeStartColumn:B
Input param:SourceEndRangeRow:10
Input param:SourceEndRangeColumn:B
Input param:DestinationWorkbookLocation:E:\MGALFA\Model\Executionfolder\Sensitivities\MTP_NewBusiness_1YE\FVQtrly.xlsx
Input param:DestinationSheetName:RunType2
Input param:DestinationRangeStartRow:4
Input param:DestinationRangeStartColumn:B
Input param:DestinationEndRangeRow:4
Input param:DestinationEndRangeColumn:B
Source Cells:
B10:Base
FinishTime:01/08/2018 09:20:12.740
