Input param:JobHistoryConnection:E:\mgalfa\AutomationCode\Sensitivities\FV_Greeks_Equity_Down_5\Log\ClearLogJobHistory.txt
Input param:JobInstanceID:4
Input param:UseDBJobHistory:false
Input param:DirectoryToClear:E:\mgalfa\AutomationCode\Sensitivities\FV_Greeks_Equity_Down_5\Log
Input param:DeleteSubdirectories:true
FinishTime:12/27/2017 12:10:44.416
