Input param:JobHistoryConnection:E:\mgalfa\AutomationCode\Sensitivities\FV_Greeks_Equity_Down_5\Log\CopyModelHistory.txt
Input param:JobInstanceID:4
Input param:UseDBJobHistory:false
Input param:DirectoryToCreatePattern:\\us.aegon.com\ait\Actuary\TCMActuary\Valtest\{YearHolderFourDigit}M{MonthHolderLeadingZero}\Riders\zAlfa\Projects\Development\{CurrentYearHolderFourDigit}{CurrentMonthHolderLeadingZero}{CurrentDayHolderLeadingZero}\FV_Greeks_Equity_Down_5
Input param:SourceDirectoryPattern:E:\MGALFA\Model\Executionfolder\Sensitivities\FV_Greeks_Equity_Down_5
Input param:Q1MonthMap:1,2,3
Input param:Q2MonthMap:4,5,6
Input param:Q3MonthMap:7,8,9
Input param:Q4MonthMap:10,11,12
Input param:ProcessTimeToMonthOffset:-1
Input param:TwoDigitYear:true
Input param:MonthLeadingZero:true
Input param:OverwriteDestinationFile:true
Input param:ExpectedNumberOfFiles:-1
Input param:Wildcard:*.*
Input param:WildcardExclusions:
Input param:ReplaceFromString:
Input param:ReplaceToString:
Input param:DestinationDirectory:\\us.aegon.com\ait\Actuary\TCMActuary\Valtest\2017M11\Riders\zAlfa\Projects\Development\20171227\FV_Greeks_Equity_Down_5
FinishTime:12/27/2017 13:41:03.968
