Input param:JobHistoryConnection:E:\mgalfa\AutomationCode\Sensitivities\FV_Greeks_Equity_Up_5\Log\ClearExecutionJobHistory.txt
Input param:JobInstanceID:4
Input param:UseDBJobHistory:false
Input param:DirectoryToClear:E:\MGALFA\Model\Executionfolder\Sensitivities\FV_Greeks_Equity_Up_5
Input param:DeleteSubdirectories:true
FinishTime:01/24/2018 09:01:13.667
