Input param:JobHistoryConnection:E:\mgalfa\AutomationCode\Sensitivities\Type_2_Sens_LTVolDn5\Log\VCF_InputsType_2_Sens_LTVolDn5_Step_7_VarVCFFundVol_IFRS_FV_Table.txt
Input param:JobInstanceID:1
Input param:SourceWorkbookLocation:E:\MGALFA\Staging\FairValue\Sensitivity\ModelInputs\Long-term Volatility shocks.xlsx
Input param:SourceSheetName:LT Vol Down5%
Input param:SourceRangeStartRow:5
Input param:SourceRangeStartColumn:G
Input param:SourceEndRangeRow:724
Input param:SourceEndRangeColumn:G
Input param:DestinationWorkbookLocation:E:\MGALFA\Model\Executionfolder\Sensitivities\Type_2_Sens_LTVolDn5\VCF_Inputs.xlsx
Input param:DestinationSheetName:VarVCFFundVol_IFRS_FV
Input param:DestinationRangeStartRow:6
Input param:DestinationRangeStartColumn:DFZ
Input param:DestinationEndRangeRow:6
Input param:DestinationEndRangeColumn:EHQ
Source Cells:,,,,,,,,,,,,,,,,,,,,,,,,,,,,,,,,,,,,,,,,,,,,,,,,,,,,,,,,,,,,,,,,,,,,,,,,,,,,,,,,,,,,,,,,,,,,,,,,,,,,,,,,,,,,,,,,,,,,,,,,,,,,,,,,,,,,,,,,,,,,,,,,,,,,,,,,,,,,,,,,,,,,,,,,,,,,,,,,,,,,,,,,,,,,,,,,,,,,,,,,,,,,,,,,,,,,,,,,,,,,,,,,,,,,,,,,,,,,,,,,,,,,,,,,,,,,,,,,,,,,,,,,,,,,,,,,,,,,,,,,,,,,,,,,,,,,,,,,,,,,,,,,,,,,,,,,,,,,,,,,,,,,,,,,,,,,,,,,,,,,,,,,,,,,,,,,,,,,,,,,,,,,,,,,,,,,,,,,,,,,,,,,,,,,,,,,,,,,,,,,,,,,,,,,,,,,,,,,,,,,,,,,,,,,,,,,,,,,,,,,,,,,,,,,,,,,,,,,,,,,,,,,,,,,,,,,,,,,,,,,,,,,,,,,,,,,,,,,,,,,,,,,,,,,,,,,,,,,,,,,,,,,,,,,,,,,,,,,,,,,,,,,,,,,,,,,,,,,,,,,,,,,,,,,,,,,,,,,,,,,,,,,,,,,,,,,,,,,,,,,,,,,,,,,,,,,,,,,,,,,,,,,,,,,,,,,,,,,,,,,,,,,,,,,,,,,,,,,,,,,,,,,,,,,,,,,,,,,,,,,,,,,,,,,,,,,,,,,,,,,,,,,,,,,,,,,,,,,,,,
G5:0
G6:0
G7:0
G8:0
G9:0
G10:0
G11:0
G12:0
G13:0
G14:0
G15:0
G16:0
G17:0
G18:0
G19:0
G20:0
G21:0
G22:0
G23:0
G24:0
G25:0
G26:0
G27:0
G28:0
G29:0
G30:0
G31:0
G32:0
G33:0
G34:0
G35:0
G36:0
G37:0
G38:0
G39:0
G40:0
G41:0
G42:0
G43:0
G44:0
G45:0
G46:0
G47:0
G48:0
G49:0
G50:0
G51:0
G52:0
G53:0
G54:0
G55:0
G56:0
G57:0
G58:0
G59:0
G60:0
G61:0
G62:0
G63:0
G64:0
G65:0
G66:0
G67:0
G68:0
G69:0
G70:0
G71:0
G72:0
G73:0
G74:0
G75:0
G76:0
G77:0
G78:0
G79:0
G80:0
G81:0
G82:0
G83:0
G84:0
G85:0
G86:0
G87:0
G88:0
G89:0
G90:0
G91:0
G92:0
G93:0
G94:0
G95:0
G96:0
G97:0
G98:0
G99:0
G100:0
G101:0
G102:0
G103:0
G104:0
G105:0
G106:0
G107:0
G108:0
G109:0
G110:0
G111:0
G112:0
G113:0
G114:0
G115:0
G116:0
G117:0
G118:0
G119:0
G120:0
G121:0
G122:0
G123:0
G124:0
G125:0
G126:0
G127:0
G128:0
G129:0
G130:0
G131:0
G132:0
G133:0
G134:0
G135:0
G136:0
G137:0
G138:0
G139:0
G140:0
G141:0
G142:0
G143:0
G144:0
G145:0
G146:0
G147:0
G148:0
G149:0
G150:0
G151:0
G152:0
G153:0
G154:0
G155:0
G156:0
G157:0
G158:0
G159:0
G160:0
G161:0
G162:0
G163:0
G164:0
G165:0
G166:0
G167:0
G168:0
G169:0
G170:0
G171:0
G172:0
G173:0
G174:0
G175:0
G176:0
G177:0
G178:0
G179:0
G180:0
G181:0
G182:0
G183:0
G184:0
G185:0
G186:0
G187:0
G188:0
G189:0
G190:0
G191:0
G192:0
G193:0
G194:0
G195:0
G196:0
G197:0
G198:0
G199:0
G200:0
G201:0
G202:0
G203:0
G204:0
G205:0
G206:0
G207:0
G208:0
G209:0
G210:0
G211:0
G212:0
G213:0
G214:0
G215:0
G216:0
G217:0
G218:0
G219:0
G220:0
G221:0
G222:0
G223:0
G224:0
G225:0
G226:0
G227:0
G228:0
G229:0
G230:0
G231:0
G232:0
G233:0
G234:0
G235:0
G236:0
G237:0
G238:0
G239:0
G240:0
G241:0
G242:0
G243:0
G244:0
G245:0
G246:0
G247:0
G248:0
G249:0
G250:0
G251:0
G252:0
G253:0
G254:0
G255:0
G256:0
G257:0
G258:0
G259:0
G260:0
G261:0
G262:0
G263:0
G264:0
G265:0
G266:0
G267:0
G268:0
G269:0
G270:0
G271:0
G272:0
G273:0
G274:0
G275:0
G276:0
G277:0
G278:0
G279:0
G280:0
G281:0
G282:0
G283:0
G284:0
G285:0
G286:0
G287:0
G288:0
G289:0
G290:0
G291:0
G292:0
G293:0
G294:0
G295:0
G296:0
G297:0
G298:0
G299:0
G300:0
G301:0
G302:0
G303:0
G304:0
G305:0
G306:0
G307:0
G308:0
G309:0
G310:0
G311:0
G312:0
G313:0
G314:0
G315:0
G316:0
G317:0
G318:0
G319:0
G320:0
G321:0
G322:0
G323:0
G324:0
G325:0
G326:0
G327:0
G328:0
G329:0
G330:0
G331:0
G332:0
G333:0
G334:0
G335:0
G336:0
G337:0
G338:0
G339:0
G340:0
G341:0
G342:0
G343:0
G344:0
G345:0
G346:0
G347:0
G348:0
G349:0
G350:0
G351:0
G352:0
G353:0
G354:0
G355:0
G356:0
G357:0
G358:0
G359:0
G360:0
G361:0
G362:0
G363:0
G364:0
G365:0
G366:0
G367:0
G368:0
G369:0
G370:0
G371:0
G372:0
G373:0
G374:0
G375:0
G376:0
G377:0
G378:0
G379:0
G380:0
G381:0
G382:0
G383:0
G384:0
G385:0
G386:0
G387:0
G388:0
G389:0
G390:0
G391:0
G392:0
G393:0
G394:0
G395:0
G396:0
G397:0
G398:0
G399:0
G400:0
G401:0
G402:0
G403:0
G404:0
G405:0
G406:0
G407:0
G408:0
G409:0
G410:0
G411:0
G412:0
G413:0
G414:0
G415:0
G416:0
G417:0
G418:0
G419:0
G420:0
G421:0
G422:0
G423:0
G424:0
G425:0
G426:0
G427:0
G428:0
G429:0
G430:0
G431:0
G432:0
G433:0
G434:0
G435:0
G436:0
G437:0
G438:0
G439:0
G440:0
G441:0
G442:0
G443:0
G444:0
G445:0
G446:0
G447:0
G448:0
G449:0
G450:0
G451:0
G452:0
G453:0
G454:0
G455:0
G456:0
G457:0
G458:0
G459:0
G460:0
G461:0
G462:0
G463:0
G464:0
G465:0
G466:0
G467:0
G468:0
G469:0
G470:0
G471:0
G472:0
G473:0
G474:0
G475:0
G476:0
G477:0
G478:0
G479:0
G480:0
G481:0
G482:0
G483:0
G484:0
G485:0
G486:0
G487:0
G488:0
G489:0
G490:0
G491:0
G492:0
G493:0
G494:0
G495:0
G496:0
G497:0
G498:0
G499:0
G500:0
G501:0
G502:0
G503:0
G504:0
G505:0
G506:0
G507:0
G508:0
G509:0
G510:0
G511:0
G512:0
G513:0
G514:0
G515:0
G516:0
G517:0
G518:0
G519:0
G520:0
G521:0
G522:0
G523:0
G524:0
G525:0
G526:0
G527:0
G528:0
G529:0
G530:0
G531:0
G532:0
G533:0
G534:0
G535:0
G536:0
G537:0
G538:0
G539:0
G540:0
G541:0
G542:0
G543:0
G544:0
G545:0
G546:0
G547:0
G548:0
G549:0
G550:0
G551:0
G552:0
G553:0
G554:0
G555:0
G556:0
G557:0
G558:0
G559:0
G560:0
G561:0
G562:0
G563:0
G564:0
G565:0
G566:0
G567:0
G568:0
G569:0
G570:0
G571:0
G572:0
G573:0
G574:0
G575:0
G576:0
G577:0
G578:0
G579:0
G580:0
G581:0
G582:0
G583:0
G584:0
G585:0
G586:0
G587:0
G588:0
G589:0
G590:0
G591:0
G592:0
G593:0
G594:0
G595:0
G596:0
G597:0
G598:0
G599:0
G600:0
G601:0
G602:0
G603:0
G604:0
G605:0
G606:0
G607:0
G608:0
G609:0
G610:0
G611:0
G612:0
G613:0
G614:0
G615:0
G616:0
G617:0
G618:0
G619:0
G620:0
G621:0
G622:0
G623:0
G624:0
G625:0
G626:0
G627:0
G628:0
G629:0
G630:0
G631:0
G632:0
G633:0
G634:0
G635:0
G636:0
G637:0
G638:0
G639:0
G640:0
G641:0
G642:0
G643:0
G644:0
G645:0
G646:0
G647:0
G648:0
G649:0
G650:0
G651:0
G652:0
G653:0
G654:0
G655:0
G656:0
G657:0
G658:0
G659:0
G660:0
G661:0
G662:0
G663:0
G664:0
G665:0
G666:0
G667:0
G668:0
G669:0
G670:0
G671:0
G672:0
G673:0
G674:0
G675:0
G676:0
G677:0
G678:0
G679:0
G680:0
G681:0
G682:0
G683:0
G684:0
G685:0
G686:0
G687:0
G688:0
G689:0
G690:0
G691:0
G692:0
G693:0
G694:0
G695:0
G696:0
G697:0
G698:0
G699:0
G700:0
G701:0
G702:0
G703:0
G704:0
G705:0
G706:0
G707:0
G708:0
G709:0
G710:0
G711:0
G712:0
G713:0
G714:0
G715:0
G716:0
G717:0
G718:0
G719:0
G720:0
G721:0
G722:0
G723:0
G724:0
FinishTime:02/14/2018 07:25:44.832
