Input param:JobHistoryConnection:E:\mgalfa\AutomationCode\Sensitivities\Type_2_Sens_LTVolDn5\Log\VCF_InputsType_2_Sens_LTVolDn5_Step_14_VarVCFFundVol_IFRS_FV_Table.txt
Input param:JobInstanceID:1
Input param:SourceWorkbookLocation:E:\MGALFA\Staging\FairValue\Sensitivity\ModelInputs\Long-term Volatility shocks.xlsx
Input param:SourceSheetName:LT Vol Down5%
Input param:SourceRangeStartRow:724
Input param:SourceRangeStartColumn:D
Input param:SourceEndRangeRow:724
Input param:SourceEndRangeColumn:D
Input param:DestinationWorkbookLocation:E:\MGALFA\Model\Executionfolder\Sensitivities\Type_2_Sens_LTVolDn5\VCF_Inputs.xlsx
Input param:DestinationSheetName:VarVCFFundVol_IFRS_FV
Input param:DestinationRangeStartRow:6
Input param:DestinationRangeStartColumn:HMW
Input param:DestinationEndRangeRow:6
Input param:DestinationEndRangeColumn:HMW
Source Cells:
D724:0.2
FinishTime:02/14/2018 07:26:03.457
