Input param:JobHistoryConnection:E:\mgalfa\AutomationCode\Sensitivities\FP_Type_I_UW_Sensitivities_MortUp10_1QTROUT\Log\DeletePostRunFileJobHistory.txt
Input param:JobInstanceID:4
Input param:UseDBJobHistory:false
Input param:FileToDelete:E:\MGALFA\AlfaPostProcessingTriggerFiles\FP_Type_I_UW_Sensitivities_MortUp10_1QTROUT.txt
FinishTime:02/20/2018 14:06:13.623
