Input param:JobHistoryConnection:E:\MGALFA\AutomationCode\Sensitivities\MTP_6YE\Log\F133OCSRpt.txt
Input param:JobInstanceID:1
Input param:SourceWorkbookLocation:E:\mgalfa\Staging\FairValue\Sensitivity\FPPKSetup\FP PK Setup.xlsx
Input param:SourceSheetName:Setup
Input param:SourceRow:14
Input param:SourceColumn:S
Input param:DestinationWorkbookLocation:E:\MGALFA\Model\Executionfolder\Sensitivities\MTP_6YE\FVQtrly.xlsx
Input param:DestinationSheetName:F133OCSRpt
Input param:DestinationRangeStartRow:5
Input param:DestinationRangeStartColumn:B
Input param:DestinationEndRangeRow:5
Input param:DestinationEndRangeColumn:BQS
S14:0.004
FinishTime:01/08/2018 08:50:00.058
