Input param:JobHistoryConnection:E:\MGALFA\AutomationCode\Sensitivities\MTP_6YE\Log\VarDVol Perm Table.txt
Input param:JobInstanceID:1
Input param:SourceWorkbookLocation:E:\mgalfa\Staging\FairValue\Sensitivity\FPPKSetup\FP PK Setup.xlsx
Input param:SourceSheetName:Setup
Input param:SourceRangeStartRow:5
Input param:SourceRangeStartColumn:N
Input param:SourceEndRangeRow:1816
Input param:SourceEndRangeColumn:N
Input param:DestinationWorkbookLocation:E:\MGALFA\Model\Executionfolder\Sensitivities\MTP_6YE\QtrlySens.xlsx
Input param:DestinationSheetName:VarDVol
Input param:DestinationRangeStartRow:5
Input param:DestinationRangeStartColumn:B
Input param:DestinationEndRangeRow:5
Input param:DestinationEndRangeColumn:BQS
Source Cells:,,,,,,,,,,,,,,,,,,,,,,,,,,,,,,,,,,,,,,,,,,,,,,,,,,,,,,,,,,,,,,,,,,,,,,,,,,,,,,,,,,,,,,,,,,,,,,,,,,,,,,,,,,,,,,,,,,,,,,,,,,,,,,,,,,,,,,,,,,,,,,,,,,,,,,,,,,,,,,,,,,,,,,,,,,,,,,,,,,,,,,,,,,,,,,,,,,,,,,,,,,,,,,,,,,,,,,,,,,,,,,,,,,,,,,,,,,,,,,,,,,,,,,,,,,,,,,,,,,,,,,,,,,,,,,,,,,,,,,,,,,,,,,,,,,,,,,,,,,,,,,,,,,,,,,,,,,,,,,,,,,,,,,,,,,,,,,,,,,,,,,,,,,,,,,,,,,,,,,,,,,,,,,,,,,,,,,,,,,,,,,,,,,,,,,,,,,,,,,,,,,,,,,,,,,,,,,,,,,,,,,,,,,,,,,,,,,,,,,,,,,,,,,,,,,,,,,,,,,,,,,,,,,,,,,,,,,,,,,,,,,,,,,,,,,,,,,,,,,,,,,,,,,,,,,,,,,,,,,,,,,,,,,,,,,,,,,,,,,,,,,,,,,,,,,,,,,,,,,,,,,,,,,,,,,,,,,,,,,,,,,,,,,,,,,,,,,,,,,,,,,,,,,,,,,,,,,,,,,,,,,,,,,,,,,,,,,,,,,,,,,,,,,,,,,,,,,,,,,,,,,,,,,,,,,,,,,,,,,,,,,,,,,,,,,,,,,,,,,,,,,,,,,,,,,,,,,,,,,,,,,,,,,,,,,,,,,,,,,,,,,,,,,,,,,,,,,,,,,,,,,,,,,,,,,,,,,,,,,,,,,,,,,,,,,,,,,,,,,,,,,,,,,,,,,,,,,,,,,,,,,,,,,,,,,,,,,,,,,,,,,,,,,,,,,,,,,,,,,,,,,,,,,,,,,,,,,,,,,,,,,,,,,,,,,,,,,,,,,,,,,,,,,,,,,,,,,,,,,,,,,,,,,,,,,,,,,,,,,,,,,,,,,,,,,,,,,,,,,,,,,,,,,,,,,,,,,,,,,,,,,,,,,,,,,,,,,,,,,,,,,,,,,,,,,,,,,,,,,,,,,,,,,,,,,,,,,,,,,,,,,,,,,,,,,,,,,,,,,,,,,,,,,,,,,,,,,,,,,,,,,,,,,,,,,,,,,,,,,,,,,,,,,,,,,,,,,,,,,,,,,,,,,,,,,,,,,,,,,,,,,,,,,,,,,,,,,,,,,,,,,,,,,,,,,,,,,,,,,,,,,,,,,,,,,,,,,,,,,,,,,,,,,,,,,,,,,,,,,,,,,,,,,,,,,,,,,,,,,,,,,,,,,,,,,,,,,,,,,,,,,,,,,,,,,,,,,,,,,,,,,,,,,,,,,,,,,,,,,,,,,,,,,,,,,,,,,,,,,,,,,,,,,,,,,,,,,,,,,,,,,,,,,,,,,,,,,,,,,,,,,,,,,,,,,,,,,,,,,,,,,,,,,,,,,,,,,,,,,,,,,,,,,,,,,,,,,,,,,,,,,,,,,,,,,,,,,,,,,,,,,,,,,,,,,,,,,,,,,,,,,,,,,,,,,,,,,,,,,,,,,,,,,,,,,,,,,,,,,,,,,,,,,,,,,,,,,,,,,,,,,,,,,,,,,,,,,,,,,,,,,,,,,,,,,,,,,,,,,,,,,,,,,,,,,,,,,,,,,,,,,,,,,,,,,,,,,,,,,,,,,,,,,,,,,,,,,,,,,,,,,,,,,,,,,,,,,,,,,,,,,,,,,,,,,,,,,,,,,,,,,,,,,,,,,,,,,,,,,,,,,,,,,,,,,,,,,,,,,,,,,,,,,,,,,,,,,,,,,,,,,,,,,,,,,,,,,,,,,,,,,,,,,,,,,,,,,,,,,,,,,,,,,,,,,,,,,,,,,,,,,,,,,,,,,,,,,,,,,,,,,,,,,,,,,,
N5:0.151965
N6:0.151965
N7:0.151965
N8:0.151965
N9:0.151965
N10:0.151965
N11:0.151965
N12:0.151965
N13:0.151965
N14:0.151965
N15:0.151965
N16:0.151965
N17:0.24
N18:0.24
N19:0.24
N20:0.24
N21:0.24
N22:0.24
N23:0.24
N24:0.24
N25:0.24
N26:0.24
N27:0.24
N28:0.24
N29:0.24
N30:0.24
N31:0.24
N32:0.24
N33:0.24
N34:0.24
N35:0.24
N36:0.24
N37:0.24
N38:0.24
N39:0.24
N40:0.24
N41:0.24
N42:0.24
N43:0.24
N44:0.24
N45:0.24
N46:0.24
N47:0.24
N48:0.24
N49:0.24
N50:0.24
N51:0.24
N52:0.24
N53:0.24
N54:0.24
N55:0.24
N56:0.24
N57:0.24
N58:0.24
N59:0.24
N60:0.24
N61:0.24
N62:0.24
N63:0.24
N64:0.24
N65:0.24
N66:0.24
N67:0.24
N68:0.24
N69:0.24
N70:0.24
N71:0.24
N72:0.24
N73:0.24
N74:0.24
N75:0.24
N76:0.24
N77:0.24
N78:0.24
N79:0.24
N80:0.157875203148007
N81:0.157875203148007
N82:0.157875203148007
N83:0.157875203148007
N84:0.157875203148007
N85:0.157875203148007
N86:0.157875203148007
N87:0.157875203148007
N88:0.157875203148007
N89:0.157875203148007
N90:0.157875203148007
N91:0.157875203148007
N92:0.192009497061806
N93:0.192009497061806
N94:0.192009497061806
N95:0.192009497061806
N96:0.192009497061806
N97:0.192009497061806
N98:0.192009497061806
N99:0.192009497061806
N100:0.192009497061806
N101:0.192009497061806
N102:0.192009497061806
N103:0.192009497061806
N104:0.21103859470582
N105:0.21103859470582
N106:0.21103859470582
N107:0.21103859470582
N108:0.21103859470582
N109:0.21103859470582
N110:0.21103859470582
N111:0.21103859470582
N112:0.21103859470582
N113:0.21103859470582
N114:0.21103859470582
N115:0.21103859470582
N116:0.229377261290308
N117:0.229377261290308
N118:0.229377261290308
N119:0.229377261290308
N120:0.229377261290308
N121:0.229377261290308
N122:0.229377261290308
N123:0.229377261290308
N124:0.229377261290308
N125:0.229377261290308
N126:0.229377261290308
N127:0.229377261290308
N128:0.25
N129:0.25
N130:0.25
N131:0.25
N132:0.25
N133:0.25
N134:0.25
N135:0.25
N136:0.25
N137:0.25
N138:0.25
N139:0.25
N140:0.23046964168762
N141:0.230800664709863
N142:0.231131687732107
N143:0.231462710754351
N144:0.231793733776595
N145:0.232124756798838
N146:0.232455779821082
N147:0.232786802843326
N148:0.23311782586557
N149:0.233448848887813
N150:0.233779871910057
N151:0.234110894932301
N152:0.234441917954544
N153:0.234772940976788
N154:0.235103963999032
N155:0.235434987021276
N156:0.235766010043519
N157:0.236097033065763
N158:0.236428056088007
N159:0.236759079110251
N160:0.237090102132494
N161:0.237421125154738
N162:0.237752148176982
N163:0.238083171199226
N164:0.238414194221469
N165:0.238745217243713
N166:0.239076240265957
N167:0.2394072632882
N168:0.239738286310444
N169:0.240069309332688
N170:0.240400332354932
N171:0.240731355377175
N172:0.241062378399419
N173:0.241393401421663
N174:0.241724424443907
N175:0.24205544746615
N176:0.242386470488394
N177:0.242717493510638
N178:0.243048516532882
N179:0.243379539555125
N180:0.243710562577369
N181:0.244041585599613
N182:0.244372608621857
N183:0.2447036316441
N184:0.245034654666344
N185:0.245365677688588
N186:0.245696700710831
N187:0.246027723733075
N188:0.246358746755319
N189:0.246689769777563
N190:0.247020792799806
N191:0.24735181582205
N192:0.247682838844294
N193:0.248013861866538
N194:0.248344884888781
N195:0.248675907911025
N196:0.249006930933269
N197:0.249337953955513
N198:0.249668976977756
N199:0.25
N200:0.25
N201:0.25
N202:0.25
N203:0.25
N204:0.25
N205:0.25
N206:0.25
N207:0.25
N208:0.25
N209:0.25
N210:0.25
N211:0.25
N212:0.25
N213:0.25
N214:0.25
N215:0.25
N216:0.25
N217:0.25
N218:0.25
N219:0.25
N220:0.25
N221:0.25
N222:0.25
N223:0.25
N224:0.25
N225:0.25
N226:0.25
N227:0.25
N228:0.25
N229:0.25
N230:0.25
N231:0.25
N232:0.25
N233:0.25
N234:0.25
N235:0.25
N236:0.25
N237:0.25
N238:0.25
N239:0.25
N240:0.25
N241:0.25
N242:0.25
N243:0.25
N244:0.25
N245:0.25
N246:0.25
N247:0.25
N248:0.25
N249:0.25
N250:0.25
N251:0.25
N252:0.25
N253:0.25
N254:0.25
N255:0.25
N256:0.25
N257:0.25
N258:0.25
N259:0.25
N260:0.25
N261:0.25
N262:0.25
N263:0.25
N264:0.25
N265:0.25
N266:0.25
N267:0.25
N268:0.25
N269:0.25
N270:0.25
N271:0.25
N272:0.25
N273:0.25
N274:0.25
N275:0.25
N276:0.25
N277:0.25
N278:0.25
N279:0.25
N280:0.25
N281:0.25
N282:0.25
N283:0.25
N284:0.25
N285:0.25
N286:0.25
N287:0.25
N288:0.25
N289:0.25
N290:0.25
N291:0.25
N292:0.25
N293:0.25
N294:0.25
N295:0.25
N296:0.25
N297:0.25
N298:0.25
N299:0.25
N300:0.25
N301:0.25
N302:0.25
N303:0.25
N304:0.25
N305:0.25
N306:0.25
N307:0.25
N308:0.25
N309:0.25
N310:0.25
N311:0.25
N312:0.25
N313:0.25
N314:0.25
N315:0.25
N316:0.25
N317:0.25
N318:0.25
N319:0.25
N320:0.25
N321:0.25
N322:0.25
N323:0.25
N324:0.25
N325:0.25
N326:0.25
N327:0.25
N328:0.25
N329:0.25
N330:0.25
N331:0.25
N332:0.25
N333:0.25
N334:0.25
N335:0.25
N336:0.25
N337:0.25
N338:0.25
N339:0.25
N340:0.25
N341:0.25
N342:0.25
N343:0.25
N344:0.25
N345:0.25
N346:0.25
N347:0.25
N348:0.25
N349:0.25
N350:0.25
N351:0.25
N352:0.25
N353:0.25
N354:0.25
N355:0.25
N356:0.25
N357:0.25
N358:0.25
N359:0.25
N360:0.25
N361:0.25
N362:0.25
N363:0.25
N364:0.25
N365:0.25
N366:0.25
N367:0.25
N368:0.25
N369:0.25
N370:0.25
N371:0.25
N372:0.25
N373:0.25
N374:0.25
N375:0.25
N376:0.25
N377:0.25
N378:0.25
N379:0.25
N380:0.25
N381:0.25
N382:0.25
N383:0.25
N384:0.25
N385:0.25
N386:0.25
N387:0.25
N388:0.25
N389:0.25
N390:0.25
N391:0.25
N392:0.25
N393:0.25
N394:0.25
N395:0.25
N396:0.25
N397:0.25
N398:0.25
N399:0.25
N400:0.25
N401:0.25
N402:0.25
N403:0.25
N404:0.25
N405:0.25
N406:0.25
N407:0.25
N408:0.25
N409:0.25
N410:0.25
N411:0.25
N412:0.25
N413:0.25
N414:0.25
N415:0.25
N416:0.25
N417:0.25
N418:0.25
N419:0.25
N420:0.25
N421:0.25
N422:0.25
N423:0.25
N424:0.25
N425:0.25
N426:0.25
N427:0.25
N428:0.25
N429:0.25
N430:0.25
N431:0.25
N432:0.25
N433:0.25
N434:0.25
N435:0.25
N436:0.25
N437:0.25
N438:0.25
N439:0.25
N440:0.25
N441:0.25
N442:0.25
N443:0.25
N444:0.25
N445:0.25
N446:0.25
N447:0.25
N448:0.25
N449:0.25
N450:0.25
N451:0.25
N452:0.25
N453:0.25
N454:0.25
N455:0.25
N456:0.25
N457:0.25
N458:0.25
N459:0.25
N460:0.25
N461:0.25
N462:0.25
N463:0.25
N464:0.25
N465:0.25
N466:0.25
N467:0.25
N468:0.25
N469:0.25
N470:0.25
N471:0.25
N472:0.25
N473:0.25
N474:0.25
N475:0.25
N476:0.25
N477:0.25
N478:0.25
N479:0.25
N480:0.25
N481:0.25
N482:0.25
N483:0.25
N484:0.25
N485:0.25
N486:0.25
N487:0.25
N488:0.25
N489:0.25
N490:0.25
N491:0.25
N492:0.25
N493:0.25
N494:0.25
N495:0.25
N496:0.25
N497:0.25
N498:0.25
N499:0.25
N500:0.25
N501:0.25
N502:0.25
N503:0.25
N504:0.25
N505:0.25
N506:0.25
N507:0.25
N508:0.25
N509:0.25
N510:0.25
N511:0.25
N512:0.25
N513:0.25
N514:0.25
N515:0.25
N516:0.25
N517:0.25
N518:0.25
N519:0.25
N520:0.25
N521:0.25
N522:0.25
N523:0.25
N524:0.25
N525:0.25
N526:0.25
N527:0.25
N528:0.25
N529:0.25
N530:0.25
N531:0.25
N532:0.25
N533:0.25
N534:0.25
N535:0.25
N536:0.25
N537:0.25
N538:0.25
N539:0.25
N540:0.25
N541:0.25
N542:0.25
N543:0.25
N544:0.25
N545:0.25
N546:0.25
N547:0.25
N548:0.25
N549:0.25
N550:0.25
N551:0.25
N552:0.25
N553:0.25
N554:0.25
N555:0.25
N556:0.25
N557:0.25
N558:0.25
N559:0.25
N560:0.25
N561:0.25
N562:0.25
N563:0.25
N564:0.25
N565:0.25
N566:0.25
N567:0.25
N568:0.25
N569:0.25
N570:0.25
N571:0.25
N572:0.25
N573:0.25
N574:0.25
N575:0.25
N576:0.25
N577:0.25
N578:0.25
N579:0.25
N580:0.25
N581:0.25
N582:0.25
N583:0.25
N584:0.25
N585:0.25
N586:0.25
N587:0.25
N588:0.25
N589:0.25
N590:0.25
N591:0.25
N592:0.25
N593:0.25
N594:0.25
N595:0.25
N596:0.25
N597:0.25
N598:0.25
N599:0.25
N600:0.25
N601:0.25
N602:0.25
N603:0.25
N604:0.25
N605:0.25
N606:0.25
N607:0.25
N608:0.25
N609:0.25
N610:0.25
N611:0.25
N612:0.25
N613:0.25
N614:0.25
N615:0.25
N616:0.25
N617:0.25
N618:0.25
N619:0.25
N620:0.25
N621:0.25
N622:0.25
N623:0.25
N624:0.25
N625:0.25
N626:0.25
N627:0.25
N628:0.25
N629:0.25
N630:0.25
N631:0.25
N632:0.25
N633:0.25
N634:0.25
N635:0.25
N636:0.25
N637:0.25
N638:0.25
N639:0.25
N640:0.25
N641:0.25
N642:0.25
N643:0.25
N644:0.25
N645:0.25
N646:0.25
N647:0.25
N648:0.25
N649:0.25
N650:0.25
N651:0.25
N652:0.25
N653:0.25
N654:0.25
N655:0.25
N656:0.25
N657:0.25
N658:0.25
N659:0.25
N660:0.25
N661:0.25
N662:0.25
N663:0.25
N664:0.25
N665:0.25
N666:0.25
N667:0.25
N668:0.25
N669:0.25
N670:0.25
N671:0.25
N672:0.25
N673:0.25
N674:0.25
N675:0.25
N676:0.25
N677:0.25
N678:0.25
N679:0.25
N680:0.25
N681:0.25
N682:0.25
N683:0.25
N684:0.25
N685:0.25
N686:0.25
N687:0.25
N688:0.25
N689:0.25
N690:0.25
N691:0.25
N692:0.25
N693:0.25
N694:0.25
N695:0.25
N696:0.25
N697:0.25
N698:0.25
N699:0.25
N700:0.25
N701:0.25
N702:0.25
N703:0.25
N704:0.25
N705:0.25
N706:0.25
N707:0.25
N708:0.25
N709:0.25
N710:0.25
N711:0.25
N712:0.25
N713:0.25
N714:0.25
N715:0.25
N716:0.25
N717:0.25
N718:0.25
N719:0.25
N720:0.25
N721:0.25
N722:0.25
N723:0.25
N724:0.25
N725:0.25
N726:0.25
N727:0.25
N728:0.25
N729:0.25
N730:0.25
N731:0.25
N732:0.25
N733:0.25
N734:0.25
N735:0.25
N736:0.25
N737:0.25
N738:0.25
N739:0.25
N740:0.25
N741:0.25
N742:0.25
N743:0.25
N744:0.25
N745:0.25
N746:0.25
N747:0.25
N748:0.25
N749:0.25
N750:0.25
N751:0.25
N752:0.25
N753:0.25
N754:0.25
N755:0.25
N756:0.25
N757:0.25
N758:0.25
N759:0.25
N760:0.25
N761:0.25
N762:0.25
N763:0.25
N764:0.25
N765:0.25
N766:0.25
N767:0.25
N768:0.25
N769:0.25
N770:0.25
N771:0.25
N772:0.25
N773:0.25
N774:0.25
N775:0.25
N776:0.25
N777:0.25
N778:0.25
N779:0.25
N780:0.25
N781:0.25
N782:0.25
N783:0.25
N784:0.25
N785:0.25
N786:0.25
N787:0.25
N788:0.25
N789:0.25
N790:0.25
N791:0.25
N792:0.25
N793:0.25
N794:0.25
N795:0.25
N796:0.25
N797:0.25
N798:0.25
N799:0.25
N800:0.25
N801:0.25
N802:0.25
N803:0.25
N804:0.25
N805:0.25
N806:0.25
N807:0.25
N808:0.25
N809:0.25
N810:0.25
N811:0.25
N812:0.25
N813:0.25
N814:0.25
N815:0.25
N816:0.25
N817:0.25
N818:0.25
N819:0.25
N820:0.25
N821:0.25
N822:0.25
N823:0.25
N824:0.25
N825:0.25
N826:0.25
N827:0.25
N828:0.25
N829:0.25
N830:0.25
N831:0.25
N832:0.25
N833:0.25
N834:0.25
N835:0.25
N836:0.25
N837:0.25
N838:0.25
N839:0.25
N840:0.25
N841:0.25
N842:0.25
N843:0.25
N844:0.25
N845:0.25
N846:0.25
N847:0.25
N848:0.25
N849:0.25
N850:0.25
N851:0.25
N852:0.25
N853:0.25
N854:0.25
N855:0.25
N856:0.25
N857:0.25
N858:0.25
N859:0.25
N860:0.25
N861:0.25
N862:0.25
N863:0.25
N864:0.25
N865:0.25
N866:0.25
N867:0.25
N868:0.25
N869:0.25
N870:0.25
N871:0.25
N872:0.25
N873:0.25
N874:0.25
N875:0.25
N876:0.25
N877:0.25
N878:0.25
N879:0.25
N880:0.25
N881:0.25
N882:0.25
N883:0.25
N884:0.25
N885:0.25
N886:0.25
N887:0.25
N888:0.25
N889:0.25
N890:0.25
N891:0.25
N892:0.25
N893:0.25
N894:0.25
N895:0.25
N896:0.25
N897:0.25
N898:0.25
N899:0.25
N900:0.25
N901:0.25
N902:0.25
N903:0.25
N904:0.25
N905:0.25
N906:0.25
N907:0.25
N908:0.25
N909:0.25
N910:0.25
N911:0.25
N912:0.25
N913:0.25
N914:0.25
N915:0.25
N916:0.25
N917:0.25
N918:0.25
N919:0.25
N920:0.25
N921:0.25
N922:0.25
N923:0.25
N924:0.25
N925:0.25
N926:0.25
N927:0.25
N928:0.25
N929:0.25
N930:0.25
N931:0.25
N932:0.25
N933:0.25
N934:0.25
N935:0.25
N936:0.25
N937:0.25
N938:0.25
N939:0.25
N940:0.25
N941:0.25
N942:0.25
N943:0.25
N944:0.25
N945:0.25
N946:0.25
N947:0.25
N948:0.25
N949:0.25
N950:0.25
N951:0.25
N952:0.25
N953:0.25
N954:0.25
N955:0.25
N956:0.25
N957:0.25
N958:0.25
N959:0.25
N960:0.25
N961:0.25
N962:0.25
N963:0.25
N964:0.25
N965:0.25
N966:0.25
N967:0.25
N968:0.25
N969:0.25
N970:0.25
N971:0.25
N972:0.25
N973:0.25
N974:0.25
N975:0.25
N976:0.25
N977:0.25
N978:0.25
N979:0.25
N980:0.25
N981:0.25
N982:0.25
N983:0.25
N984:0.25
N985:0.25
N986:0.25
N987:0.25
N988:0.25
N989:0.25
N990:0.25
N991:0.25
N992:0.25
N993:0.25
N994:0.25
N995:0.25
N996:0.25
N997:0.25
N998:0.25
N999:0.25
N1000:0.25
N1001:0.25
N1002:0.25
N1003:0.25
N1004:0.25
N1005:0.25
N1006:0.25
N1007:0.25
N1008:0.25
N1009:0.25
N1010:0.25
N1011:0.25
N1012:0.25
N1013:0.25
N1014:0.25
N1015:0.25
N1016:0.25
N1017:0.25
N1018:0.25
N1019:0.25
N1020:0.25
N1021:0.25
N1022:0.25
N1023:0.25
N1024:0.25
N1025:0.25
N1026:0.25
N1027:0.25
N1028:0.25
N1029:0.25
N1030:0.25
N1031:0.25
N1032:0.25
N1033:0.25
N1034:0.25
N1035:0.25
N1036:0.25
N1037:0.25
N1038:0.25
N1039:0.25
N1040:0.25
N1041:0.25
N1042:0.25
N1043:0.25
N1044:0.25
N1045:0.25
N1046:0.25
N1047:0.25
N1048:0.25
N1049:0.25
N1050:0.25
N1051:0.25
N1052:0.25
N1053:0.25
N1054:0.25
N1055:0.25
N1056:0.25
N1057:0.25
N1058:0.25
N1059:0.25
N1060:0.25
N1061:0.25
N1062:0.25
N1063:0.25
N1064:0.25
N1065:0.25
N1066:0.25
N1067:0.25
N1068:0.25
N1069:0.25
N1070:0.25
N1071:0.25
N1072:0.25
N1073:0.25
N1074:0.25
N1075:0.25
N1076:0.25
N1077:0.25
N1078:0.25
N1079:0.25
N1080:0.25
N1081:0.25
N1082:0.25
N1083:0.25
N1084:0.25
N1085:0.25
N1086:0.25
N1087:0.25
N1088:0.25
N1089:0.25
N1090:0.25
N1091:0.25
N1092:0.25
N1093:0.25
N1094:0.25
N1095:0.25
N1096:0.25
N1097:0.25
N1098:0.25
N1099:0.25
N1100:0.25
N1101:0.25
N1102:0.25
N1103:0.25
N1104:0.25
N1105:0.25
N1106:0.25
N1107:0.25
N1108:0.25
N1109:0.25
N1110:0.25
N1111:0.25
N1112:0.25
N1113:0.25
N1114:0.25
N1115:0.25
N1116:0.25
N1117:0.25
N1118:0.25
N1119:0.25
N1120:0.25
N1121:0.25
N1122:0.25
N1123:0.25
N1124:0.25
N1125:0.25
N1126:0.25
N1127:0.25
N1128:0.25
N1129:0.25
N1130:0.25
N1131:0.25
N1132:0.25
N1133:0.25
N1134:0.25
N1135:0.25
N1136:0.25
N1137:0.25
N1138:0.25
N1139:0.25
N1140:0.25
N1141:0.25
N1142:0.25
N1143:0.25
N1144:0.25
N1145:0.25
N1146:0.25
N1147:0.25
N1148:0.25
N1149:0.25
N1150:0.25
N1151:0.25
N1152:0.25
N1153:0.25
N1154:0.25
N1155:0.25
N1156:0.25
N1157:0.25
N1158:0.25
N1159:0.25
N1160:0.25
N1161:0.25
N1162:0.25
N1163:0.25
N1164:0.25
N1165:0.25
N1166:0.25
N1167:0.25
N1168:0.25
N1169:0.25
N1170:0.25
N1171:0.25
N1172:0.25
N1173:0.25
N1174:0.25
N1175:0.25
N1176:0.25
N1177:0.25
N1178:0.25
N1179:0.25
N1180:0.25
N1181:0.25
N1182:0.25
N1183:0.25
N1184:0.25
N1185:0.25
N1186:0.25
N1187:0.25
N1188:0.25
N1189:0.25
N1190:0.25
N1191:0.25
N1192:0.25
N1193:0.25
N1194:0.25
N1195:0.25
N1196:0.25
N1197:0.25
N1198:0.25
N1199:0.25
N1200:0.25
N1201:0.25
N1202:0.25
N1203:0.25
N1204:0.25
N1205:0.25
N1206:0.25
N1207:0.25
N1208:0.25
N1209:0.25
N1210:0.25
N1211:0.25
N1212:0.25
N1213:0.25
N1214:0.25
N1215:0.25
N1216:0.25
N1217:0.25
N1218:0.25
N1219:0.25
N1220:0.25
N1221:0.25
N1222:0.25
N1223:0.25
N1224:0.25
N1225:0.25
N1226:0.25
N1227:0.25
N1228:0.25
N1229:0.25
N1230:0.25
N1231:0.25
N1232:0.25
N1233:0.25
N1234:0.25
N1235:0.25
N1236:0.25
N1237:0.25
N1238:0.25
N1239:0.25
N1240:0.25
N1241:0.25
N1242:0.25
N1243:0.25
N1244:0.25
N1245:0.25
N1246:0.25
N1247:0.25
N1248:0.25
N1249:0.25
N1250:0.25
N1251:0.25
N1252:0.25
N1253:0.25
N1254:0.25
N1255:0.25
N1256:0.25
N1257:0.25
N1258:0.25
N1259:0.25
N1260:0.25
N1261:0.25
N1262:0.25
N1263:0.25
N1264:0.25
N1265:0.25
N1266:0.25
N1267:0.25
N1268:0.25
N1269:0.25
N1270:0.25
N1271:0.25
N1272:0.25
N1273:0.25
N1274:0.25
N1275:0.25
N1276:0.25
N1277:0.25
N1278:0.25
N1279:0.25
N1280:0.25
N1281:0.25
N1282:0.25
N1283:0.25
N1284:0.25
N1285:0.25
N1286:0.25
N1287:0.25
N1288:0.25
N1289:0.25
N1290:0.25
N1291:0.25
N1292:0.25
N1293:0.25
N1294:0.25
N1295:0.25
N1296:0.25
N1297:0.25
N1298:0.25
N1299:0.25
N1300:0.25
N1301:0.25
N1302:0.25
N1303:0.25
N1304:0.25
N1305:0.25
N1306:0.25
N1307:0.25
N1308:0.25
N1309:0.25
N1310:0.25
N1311:0.25
N1312:0.25
N1313:0.25
N1314:0.25
N1315:0.25
N1316:0.25
N1317:0.25
N1318:0.25
N1319:0.25
N1320:0.25
N1321:0.25
N1322:0.25
N1323:0.25
N1324:0.25
N1325:0.25
N1326:0.25
N1327:0.25
N1328:0.25
N1329:0.25
N1330:0.25
N1331:0.25
N1332:0.25
N1333:0.25
N1334:0.25
N1335:0.25
N1336:0.25
N1337:0.25
N1338:0.25
N1339:0.25
N1340:0.25
N1341:0.25
N1342:0.25
N1343:0.25
N1344:0.25
N1345:0.25
N1346:0.25
N1347:0.25
N1348:0.25
N1349:0.25
N1350:0.25
N1351:0.25
N1352:0.25
N1353:0.25
N1354:0.25
N1355:0.25
N1356:0.25
N1357:0.25
N1358:0.25
N1359:0.25
N1360:0.25
N1361:0.25
N1362:0.25
N1363:0.25
N1364:0.25
N1365:0.25
N1366:0.25
N1367:0.25
N1368:0.25
N1369:0.25
N1370:0.25
N1371:0.25
N1372:0.25
N1373:0.25
N1374:0.25
N1375:0.25
N1376:0.25
N1377:0.25
N1378:0.25
N1379:0.25
N1380:0.25
N1381:0.25
N1382:0.25
N1383:0.25
N1384:0.25
N1385:0.25
N1386:0.25
N1387:0.25
N1388:0.25
N1389:0.25
N1390:0.25
N1391:0.25
N1392:0.25
N1393:0.25
N1394:0.25
N1395:0.25
N1396:0.25
N1397:0.25
N1398:0.25
N1399:0.25
N1400:0.25
N1401:0.25
N1402:0.25
N1403:0.25
N1404:0.25
N1405:0.25
N1406:0.25
N1407:0.25
N1408:0.25
N1409:0.25
N1410:0.25
N1411:0.25
N1412:0.25
N1413:0.25
N1414:0.25
N1415:0.25
N1416:0.25
N1417:0.25
N1418:0.25
N1419:0.25
N1420:0.25
N1421:0.25
N1422:0.25
N1423:0.25
N1424:0.25
N1425:0.25
N1426:0.25
N1427:0.25
N1428:0.25
N1429:0.25
N1430:0.25
N1431:0.25
N1432:0.25
N1433:0.25
N1434:0.25
N1435:0.25
N1436:0.25
N1437:0.25
N1438:0.25
N1439:0.25
N1440:0.25
N1441:0.25
N1442:0.25
N1443:0.25
N1444:0.25
N1445:0.25
N1446:0.25
N1447:0.25
N1448:0.25
N1449:0.25
N1450:0.25
N1451:0.25
N1452:0.25
N1453:0.25
N1454:0.25
N1455:0.25
N1456:0.25
N1457:0.25
N1458:0.25
N1459:0.25
N1460:0.25
N1461:0.25
N1462:0.25
N1463:0.25
N1464:0.25
N1465:0.25
N1466:0.25
N1467:0.25
N1468:0.25
N1469:0.25
N1470:0.25
N1471:0.25
N1472:0.25
N1473:0.25
N1474:0.25
N1475:0.25
N1476:0.25
N1477:0.25
N1478:0.25
N1479:0.25
N1480:0.25
N1481:0.25
N1482:0.25
N1483:0.25
N1484:0.25
N1485:0.25
N1486:0.25
N1487:0.25
N1488:0.25
N1489:0.25
N1490:0.25
N1491:0.25
N1492:0.25
N1493:0.25
N1494:0.25
N1495:0.25
N1496:0.25
N1497:0.25
N1498:0.25
N1499:0.25
N1500:0.25
N1501:0.25
N1502:0.25
N1503:0.25
N1504:0.25
N1505:0.25
N1506:0.25
N1507:0.25
N1508:0.25
N1509:0.25
N1510:0.25
N1511:0.25
N1512:0.25
N1513:0.25
N1514:0.25
N1515:0.25
N1516:0.25
N1517:0.25
N1518:0.25
N1519:0.25
N1520:0.25
N1521:0.25
N1522:0.25
N1523:0.25
N1524:0.25
N1525:0.25
N1526:0.25
N1527:0.25
N1528:0.25
N1529:0.25
N1530:0.25
N1531:0.25
N1532:0.25
N1533:0.25
N1534:0.25
N1535:0.25
N1536:0.25
N1537:0.25
N1538:0.25
N1539:0.25
N1540:0.25
N1541:0.25
N1542:0.25
N1543:0.25
N1544:0.25
N1545:0.25
N1546:0.25
N1547:0.25
N1548:0.25
N1549:0.25
N1550:0.25
N1551:0.25
N1552:0.25
N1553:0.25
N1554:0.25
N1555:0.25
N1556:0.25
N1557:0.25
N1558:0.25
N1559:0.25
N1560:0.25
N1561:0.25
N1562:0.25
N1563:0.25
N1564:0.25
N1565:0.25
N1566:0.25
N1567:0.25
N1568:0.25
N1569:0.25
N1570:0.25
N1571:0.25
N1572:0.25
N1573:0.25
N1574:0.25
N1575:0.25
N1576:0.25
N1577:0.25
N1578:0.25
N1579:0.25
N1580:0.25
N1581:0.25
N1582:0.25
N1583:0.25
N1584:0.25
N1585:0.25
N1586:0.25
N1587:0.25
N1588:0.25
N1589:0.25
N1590:0.25
N1591:0.25
N1592:0.25
N1593:0.25
N1594:0.25
N1595:0.25
N1596:0.25
N1597:0.25
N1598:0.25
N1599:0.25
N1600:0.25
N1601:0.25
N1602:0.25
N1603:0.25
N1604:0.25
N1605:0.25
N1606:0.25
N1607:0.25
N1608:0.25
N1609:0.25
N1610:0.25
N1611:0.25
N1612:0.25
N1613:0.25
N1614:0.25
N1615:0.25
N1616:0.25
N1617:0.25
N1618:0.25
N1619:0.25
N1620:0.25
N1621:0.25
N1622:0.25
N1623:0.25
N1624:0.25
N1625:0.25
N1626:0.25
N1627:0.25
N1628:0.25
N1629:0.25
N1630:0.25
N1631:0.25
N1632:0.25
N1633:0.25
N1634:0.25
N1635:0.25
N1636:0.25
N1637:0.25
N1638:0.25
N1639:0.25
N1640:0.25
N1641:0.25
N1642:0.25
N1643:0.25
N1644:0.25
N1645:0.25
N1646:0.25
N1647:0.25
N1648:0.25
N1649:0.25
N1650:0.25
N1651:0.25
N1652:0.25
N1653:0.25
N1654:0.25
N1655:0.25
N1656:0.25
N1657:0.25
N1658:0.25
N1659:0.25
N1660:0.25
N1661:0.25
N1662:0.25
N1663:0.25
N1664:0.25
N1665:0.25
N1666:0.25
N1667:0.25
N1668:0.25
N1669:0.25
N1670:0.25
N1671:0.25
N1672:0.25
N1673:0.25
N1674:0.25
N1675:0.25
N1676:0.25
N1677:0.25
N1678:0.25
N1679:0.25
N1680:0.25
N1681:0.25
N1682:0.25
N1683:0.25
N1684:0.25
N1685:0.25
N1686:0.25
N1687:0.25
N1688:0.25
N1689:0.25
N1690:0.25
N1691:0.25
N1692:0.25
N1693:0.25
N1694:0.25
N1695:0.25
N1696:0.25
N1697:0.25
N1698:0.25
N1699:0.25
N1700:0.25
N1701:0.25
N1702:0.25
N1703:0.25
N1704:0.25
N1705:0.25
N1706:0.25
N1707:0.25
N1708:0.25
N1709:0.25
N1710:0.25
N1711:0.25
N1712:0.25
N1713:0.25
N1714:0.25
N1715:0.25
N1716:0.25
N1717:0.25
N1718:0.25
N1719:0.25
N1720:0.25
N1721:0.25
N1722:0.25
N1723:0.25
N1724:0.25
N1725:0.25
N1726:0.25
N1727:0.25
N1728:0.25
N1729:0.25
N1730:0.25
N1731:0.25
N1732:0.25
N1733:0.25
N1734:0.25
N1735:0.25
N1736:0.25
N1737:0.25
N1738:0.25
N1739:0.25
N1740:0.25
N1741:0.25
N1742:0.25
N1743:0.25
N1744:0.25
N1745:0.25
N1746:0.25
N1747:0.25
N1748:0.25
N1749:0.25
N1750:0.25
N1751:0.25
N1752:0.25
N1753:0.25
N1754:0.25
N1755:0.25
N1756:0.25
N1757:0.25
N1758:0.25
N1759:0.25
N1760:0.25
N1761:0.25
N1762:0.25
N1763:0.25
N1764:0.25
N1765:0.25
N1766:0.25
N1767:0.25
N1768:0.25
N1769:0.25
N1770:0.25
N1771:0.25
N1772:0.25
N1773:0.25
N1774:0.25
N1775:0.25
N1776:0.25
N1777:0.25
N1778:0.25
N1779:0.25
N1780:0.25
N1781:0.25
N1782:0.25
N1783:0.25
N1784:0.25
N1785:0.25
N1786:0.25
N1787:0.25
N1788:0.25
N1789:0.25
N1790:0.25
N1791:0.25
N1792:0.25
N1793:0.25
N1794:0.25
N1795:0.25
N1796:0.25
N1797:0.25
N1798:0.25
N1799:0.25
N1800:0.25
N1801:0.25
N1802:0.25
N1803:0.25
N1804:0.25
N1805:0.25
N1806:0.25
N1807:0.25
N1808:0.25
N1809:0.25
N1810:0.25
N1811:0.25
N1812:0.25
N1813:0.25
N1814:0.25
N1815:0.25
N1816:0.25
FinishTime:01/08/2018 08:49:49.167
