Input param:JobHistoryConnection:E:\mgalfa\AutomationCode\Sensitivities\FP_EQSens_EQDn10_1YROUT\Log\RunType2 Perm Table.txt
Input param:JobInstanceID:2
Input param:SourceWorkbookLocation:E:\mgalfa\Staging\FairValue\Sensitivity\ModelInputs\IFRS_Model_Inputs.xlsx
Input param:SourceSheetName:RunType Inputs
Input param:SourceRangeStartRow:16
Input param:SourceRangeStartColumn:B
Input param:SourceEndRangeRow:16
Input param:SourceEndRangeColumn:B
Input param:DestinationWorkbookLocation:E:\MGALFA\Model\Executionfolder\Sensitivities\FP_EQSens_EQDn10_1YROUT\FVQtrly.xlsx
Input param:DestinationSheetName:RunType2
Input param:DestinationRangeStartRow:4
Input param:DestinationRangeStartColumn:B
Input param:DestinationEndRangeRow:4
Input param:DestinationEndRangeColumn:B
Source Cells:
B16:EqDn10
FinishTime:02/01/2018 11:58:08.635
