Input param:JobHistoryConnection:E:\MGALFA\AutomationCode\Sensitivities\FP_EQSens_EQDn10_1YROUT\Log\Var3Shock.txt
Input param:JobInstanceID:1
Input param:SourceWorkbookLocation:E:\mgalfa\Staging\FairValue\Sensitivity\FPPKSetup\FP PK Setup.xlsx
Input param:SourceSheetName:Setup
Input param:SourceRangeStartRow:6
Input param:SourceRangeStartColumn:Z
Input param:SourceEndRangeRow:6
Input param:SourceEndRangeColumn:Z
Input param:DestinationWorkbookLocation:E:\MGALFA\Model\Executionfolder\Sensitivities\FP_EQSens_EQDn10_1YROUT\FVQtrly.xlsx
Input param:DestinationSheetName:Var3Shock%
Input param:DestinationRangeStartRow:5
Input param:DestinationRangeStartColumn:B
Input param:DestinationEndRangeRow:5
Input param:DestinationEndRangeColumn:B
Source Cells:
Z6:-0.1
FinishTime:02/01/2018 11:58:28.902
