Input param:JobHistoryConnection:E:\MGALFA\AutomationCode\Sensitivities\MTP_5YE\Log\F133MgnStart.txt
Input param:JobInstanceID:1
Input param:SourceWorkbookLocation:E:\mgalfa\Staging\FairValue\Sensitivity\FPPKSetup\FP PK Setup.xlsx
Input param:SourceSheetName:Setup
Input param:SourceRangeStartRow:13
Input param:SourceRangeStartColumn:W
Input param:SourceEndRangeRow:13
Input param:SourceEndRangeColumn:W
Input param:DestinationWorkbookLocation:E:\MGALFA\Model\Executionfolder\Sensitivities\MTP_5YE\FVQtrly.xlsx
Input param:DestinationSheetName:F133MgnStart
Input param:DestinationRangeStartRow:4
Input param:DestinationRangeStartColumn:B
Input param:DestinationEndRangeRow:4
Input param:DestinationEndRangeColumn:B
Source Cells:
W13:51
FinishTime:01/11/2018 14:43:57.240
