Input param:JobHistoryConnection:E:\MGALFA\AutomationCode\Sensitivities\MTP_5YE\Log\VarDVol Perm Table.txt
Input param:JobInstanceID:1
Input param:SourceWorkbookLocation:E:\mgalfa\Staging\FairValue\Sensitivity\FPPKSetup\FP PK Setup.xlsx
Input param:SourceSheetName:Setup
Input param:SourceRangeStartRow:5
Input param:SourceRangeStartColumn:M
Input param:SourceEndRangeRow:1816
Input param:SourceEndRangeColumn:M
Input param:DestinationWorkbookLocation:E:\MGALFA\Model\Executionfolder\Sensitivities\MTP_5YE\QtrlySens.xlsx
Input param:DestinationSheetName:VarDVol
Input param:DestinationRangeStartRow:5
Input param:DestinationRangeStartColumn:B
Input param:DestinationEndRangeRow:5
Input param:DestinationEndRangeColumn:BQS
Source Cells:,,,,,,,,,,,,,,,,,,,,,,,,,,,,,,,,,,,,,,,,,,,,,,,,,,,,,,,,,,,,,,,,,,,,,,,,,,,,,,,,,,,,,,,,,,,,,,,,,,,,,,,,,,,,,,,,,,,,,,,,,,,,,,,,,,,,,,,,,,,,,,,,,,,,,,,,,,,,,,,,,,,,,,,,,,,,,,,,,,,,,,,,,,,,,,,,,,,,,,,,,,,,,,,,,,,,,,,,,,,,,,,,,,,,,,,,,,,,,,,,,,,,,,,,,,,,,,,,,,,,,,,,,,,,,,,,,,,,,,,,,,,,,,,,,,,,,,,,,,,,,,,,,,,,,,,,,,,,,,,,,,,,,,,,,,,,,,,,,,,,,,,,,,,,,,,,,,,,,,,,,,,,,,,,,,,,,,,,,,,,,,,,,,,,,,,,,,,,,,,,,,,,,,,,,,,,,,,,,,,,,,,,,,,,,,,,,,,,,,,,,,,,,,,,,,,,,,,,,,,,,,,,,,,,,,,,,,,,,,,,,,,,,,,,,,,,,,,,,,,,,,,,,,,,,,,,,,,,,,,,,,,,,,,,,,,,,,,,,,,,,,,,,,,,,,,,,,,,,,,,,,,,,,,,,,,,,,,,,,,,,,,,,,,,,,,,,,,,,,,,,,,,,,,,,,,,,,,,,,,,,,,,,,,,,,,,,,,,,,,,,,,,,,,,,,,,,,,,,,,,,,,,,,,,,,,,,,,,,,,,,,,,,,,,,,,,,,,,,,,,,,,,,,,,,,,,,,,,,,,,,,,,,,,,,,,,,,,,,,,,,,,,,,,,,,,,,,,,,,,,,,,,,,,,,,,,,,,,,,,,,,,,,,,,,,,,,,,,,,,,,,,,,,,,,,,,,,,,,,,,,,,,,,,,,,,,,,,,,,,,,,,,,,,,,,,,,,,,,,,,,,,,,,,,,,,,,,,,,,,,,,,,,,,,,,,,,,,,,,,,,,,,,,,,,,,,,,,,,,,,,,,,,,,,,,,,,,,,,,,,,,,,,,,,,,,,,,,,,,,,,,,,,,,,,,,,,,,,,,,,,,,,,,,,,,,,,,,,,,,,,,,,,,,,,,,,,,,,,,,,,,,,,,,,,,,,,,,,,,,,,,,,,,,,,,,,,,,,,,,,,,,,,,,,,,,,,,,,,,,,,,,,,,,,,,,,,,,,,,,,,,,,,,,,,,,,,,,,,,,,,,,,,,,,,,,,,,,,,,,,,,,,,,,,,,,,,,,,,,,,,,,,,,,,,,,,,,,,,,,,,,,,,,,,,,,,,,,,,,,,,,,,,,,,,,,,,,,,,,,,,,,,,,,,,,,,,,,,,,,,,,,,,,,,,,,,,,,,,,,,,,,,,,,,,,,,,,,,,,,,,,,,,,,,,,,,,,,,,,,,,,,,,,,,,,,,,,,,,,,,,,,,,,,,,,,,,,,,,,,,,,,,,,,,,,,,,,,,,,,,,,,,,,,,,,,,,,,,,,,,,,,,,,,,,,,,,,,,,,,,,,,,,,,,,,,,,,,,,,,,,,,,,,,,,,,,,,,,,,,,,,,,,,,,,,,,,,,,,,,,,,,,,,,,,,,,,,,,,,,,,,,,,,,,,,,,,,,,,,,,,,,,,,,,,,,,,,,,,,,,,,,,,,,,,,,,,,,,,,,,,,,,,,,,,,,,,,,,,,,,,,,,,,,,,,,,,,,,,,,,,,,,,,,,,,,,,,,,,,,,,,,,,,,,,,,,,,,,,,,,,,,,,,,,,,,,,,,,,,,,,,,,,,,,,,,,,,,,,,,,,,,,,,,,,,,,,,,,,,,,,,,,,,,,,,,,,,,,,,,,,,,,,,,,,,,,,,,,,,,,,,,,,,,,,,,,,,,,,,,,,,,,,,,,,,,,,,,,,,,,,,,,,,,,,,,,,,,,,,,,,,,,,,,,,,,,,,,,,,,,,,,,,,,,,,,
M5:0.151965
M6:0.151965
M7:0.151965
M8:0.151965
M9:0.151965
M10:0.151965
M11:0.151965
M12:0.151965
M13:0.151965
M14:0.151965
M15:0.151965
M16:0.151965
M17:0.24
M18:0.24
M19:0.24
M20:0.24
M21:0.24
M22:0.24
M23:0.24
M24:0.24
M25:0.24
M26:0.24
M27:0.24
M28:0.24
M29:0.24
M30:0.24
M31:0.24
M32:0.24
M33:0.24
M34:0.24
M35:0.24
M36:0.24
M37:0.24
M38:0.24
M39:0.24
M40:0.24
M41:0.24
M42:0.24
M43:0.24
M44:0.24
M45:0.24
M46:0.24
M47:0.24
M48:0.24
M49:0.24
M50:0.24
M51:0.24
M52:0.24
M53:0.24
M54:0.24
M55:0.24
M56:0.24
M57:0.24
M58:0.24
M59:0.24
M60:0.24
M61:0.24
M62:0.24
M63:0.24
M64:0.24
M65:0.24
M66:0.24
M67:0.24
M68:0.157875203148007
M69:0.157875203148007
M70:0.157875203148007
M71:0.157875203148007
M72:0.157875203148007
M73:0.157875203148007
M74:0.157875203148007
M75:0.157875203148007
M76:0.157875203148007
M77:0.157875203148007
M78:0.157875203148007
M79:0.157875203148007
M80:0.192009497061806
M81:0.192009497061806
M82:0.192009497061806
M83:0.192009497061806
M84:0.192009497061806
M85:0.192009497061806
M86:0.192009497061806
M87:0.192009497061806
M88:0.192009497061806
M89:0.192009497061806
M90:0.192009497061806
M91:0.192009497061806
M92:0.21103859470582
M93:0.21103859470582
M94:0.21103859470582
M95:0.21103859470582
M96:0.21103859470582
M97:0.21103859470582
M98:0.21103859470582
M99:0.21103859470582
M100:0.21103859470582
M101:0.21103859470582
M102:0.21103859470582
M103:0.21103859470582
M104:0.229377261290308
M105:0.229377261290308
M106:0.229377261290308
M107:0.229377261290308
M108:0.229377261290308
M109:0.229377261290308
M110:0.229377261290308
M111:0.229377261290308
M112:0.229377261290308
M113:0.229377261290308
M114:0.229377261290308
M115:0.229377261290308
M116:0.25
M117:0.25
M118:0.25
M119:0.25
M120:0.25
M121:0.25
M122:0.25
M123:0.25
M124:0.25
M125:0.25
M126:0.25
M127:0.25
M128:0.23046964168762
M129:0.230800664709863
M130:0.231131687732107
M131:0.231462710754351
M132:0.231793733776595
M133:0.232124756798838
M134:0.232455779821082
M135:0.232786802843326
M136:0.23311782586557
M137:0.233448848887813
M138:0.233779871910057
M139:0.234110894932301
M140:0.234441917954544
M141:0.234772940976788
M142:0.235103963999032
M143:0.235434987021276
M144:0.235766010043519
M145:0.236097033065763
M146:0.236428056088007
M147:0.236759079110251
M148:0.237090102132494
M149:0.237421125154738
M150:0.237752148176982
M151:0.238083171199226
M152:0.238414194221469
M153:0.238745217243713
M154:0.239076240265957
M155:0.2394072632882
M156:0.239738286310444
M157:0.240069309332688
M158:0.240400332354932
M159:0.240731355377175
M160:0.241062378399419
M161:0.241393401421663
M162:0.241724424443907
M163:0.24205544746615
M164:0.242386470488394
M165:0.242717493510638
M166:0.243048516532882
M167:0.243379539555125
M168:0.243710562577369
M169:0.244041585599613
M170:0.244372608621857
M171:0.2447036316441
M172:0.245034654666344
M173:0.245365677688588
M174:0.245696700710831
M175:0.246027723733075
M176:0.246358746755319
M177:0.246689769777563
M178:0.247020792799806
M179:0.24735181582205
M180:0.247682838844294
M181:0.248013861866538
M182:0.248344884888781
M183:0.248675907911025
M184:0.249006930933269
M185:0.249337953955513
M186:0.249668976977756
M187:0.25
M188:0.25
M189:0.25
M190:0.25
M191:0.25
M192:0.25
M193:0.25
M194:0.25
M195:0.25
M196:0.25
M197:0.25
M198:0.25
M199:0.25
M200:0.25
M201:0.25
M202:0.25
M203:0.25
M204:0.25
M205:0.25
M206:0.25
M207:0.25
M208:0.25
M209:0.25
M210:0.25
M211:0.25
M212:0.25
M213:0.25
M214:0.25
M215:0.25
M216:0.25
M217:0.25
M218:0.25
M219:0.25
M220:0.25
M221:0.25
M222:0.25
M223:0.25
M224:0.25
M225:0.25
M226:0.25
M227:0.25
M228:0.25
M229:0.25
M230:0.25
M231:0.25
M232:0.25
M233:0.25
M234:0.25
M235:0.25
M236:0.25
M237:0.25
M238:0.25
M239:0.25
M240:0.25
M241:0.25
M242:0.25
M243:0.25
M244:0.25
M245:0.25
M246:0.25
M247:0.25
M248:0.25
M249:0.25
M250:0.25
M251:0.25
M252:0.25
M253:0.25
M254:0.25
M255:0.25
M256:0.25
M257:0.25
M258:0.25
M259:0.25
M260:0.25
M261:0.25
M262:0.25
M263:0.25
M264:0.25
M265:0.25
M266:0.25
M267:0.25
M268:0.25
M269:0.25
M270:0.25
M271:0.25
M272:0.25
M273:0.25
M274:0.25
M275:0.25
M276:0.25
M277:0.25
M278:0.25
M279:0.25
M280:0.25
M281:0.25
M282:0.25
M283:0.25
M284:0.25
M285:0.25
M286:0.25
M287:0.25
M288:0.25
M289:0.25
M290:0.25
M291:0.25
M292:0.25
M293:0.25
M294:0.25
M295:0.25
M296:0.25
M297:0.25
M298:0.25
M299:0.25
M300:0.25
M301:0.25
M302:0.25
M303:0.25
M304:0.25
M305:0.25
M306:0.25
M307:0.25
M308:0.25
M309:0.25
M310:0.25
M311:0.25
M312:0.25
M313:0.25
M314:0.25
M315:0.25
M316:0.25
M317:0.25
M318:0.25
M319:0.25
M320:0.25
M321:0.25
M322:0.25
M323:0.25
M324:0.25
M325:0.25
M326:0.25
M327:0.25
M328:0.25
M329:0.25
M330:0.25
M331:0.25
M332:0.25
M333:0.25
M334:0.25
M335:0.25
M336:0.25
M337:0.25
M338:0.25
M339:0.25
M340:0.25
M341:0.25
M342:0.25
M343:0.25
M344:0.25
M345:0.25
M346:0.25
M347:0.25
M348:0.25
M349:0.25
M350:0.25
M351:0.25
M352:0.25
M353:0.25
M354:0.25
M355:0.25
M356:0.25
M357:0.25
M358:0.25
M359:0.25
M360:0.25
M361:0.25
M362:0.25
M363:0.25
M364:0.25
M365:0.25
M366:0.25
M367:0.25
M368:0.25
M369:0.25
M370:0.25
M371:0.25
M372:0.25
M373:0.25
M374:0.25
M375:0.25
M376:0.25
M377:0.25
M378:0.25
M379:0.25
M380:0.25
M381:0.25
M382:0.25
M383:0.25
M384:0.25
M385:0.25
M386:0.25
M387:0.25
M388:0.25
M389:0.25
M390:0.25
M391:0.25
M392:0.25
M393:0.25
M394:0.25
M395:0.25
M396:0.25
M397:0.25
M398:0.25
M399:0.25
M400:0.25
M401:0.25
M402:0.25
M403:0.25
M404:0.25
M405:0.25
M406:0.25
M407:0.25
M408:0.25
M409:0.25
M410:0.25
M411:0.25
M412:0.25
M413:0.25
M414:0.25
M415:0.25
M416:0.25
M417:0.25
M418:0.25
M419:0.25
M420:0.25
M421:0.25
M422:0.25
M423:0.25
M424:0.25
M425:0.25
M426:0.25
M427:0.25
M428:0.25
M429:0.25
M430:0.25
M431:0.25
M432:0.25
M433:0.25
M434:0.25
M435:0.25
M436:0.25
M437:0.25
M438:0.25
M439:0.25
M440:0.25
M441:0.25
M442:0.25
M443:0.25
M444:0.25
M445:0.25
M446:0.25
M447:0.25
M448:0.25
M449:0.25
M450:0.25
M451:0.25
M452:0.25
M453:0.25
M454:0.25
M455:0.25
M456:0.25
M457:0.25
M458:0.25
M459:0.25
M460:0.25
M461:0.25
M462:0.25
M463:0.25
M464:0.25
M465:0.25
M466:0.25
M467:0.25
M468:0.25
M469:0.25
M470:0.25
M471:0.25
M472:0.25
M473:0.25
M474:0.25
M475:0.25
M476:0.25
M477:0.25
M478:0.25
M479:0.25
M480:0.25
M481:0.25
M482:0.25
M483:0.25
M484:0.25
M485:0.25
M486:0.25
M487:0.25
M488:0.25
M489:0.25
M490:0.25
M491:0.25
M492:0.25
M493:0.25
M494:0.25
M495:0.25
M496:0.25
M497:0.25
M498:0.25
M499:0.25
M500:0.25
M501:0.25
M502:0.25
M503:0.25
M504:0.25
M505:0.25
M506:0.25
M507:0.25
M508:0.25
M509:0.25
M510:0.25
M511:0.25
M512:0.25
M513:0.25
M514:0.25
M515:0.25
M516:0.25
M517:0.25
M518:0.25
M519:0.25
M520:0.25
M521:0.25
M522:0.25
M523:0.25
M524:0.25
M525:0.25
M526:0.25
M527:0.25
M528:0.25
M529:0.25
M530:0.25
M531:0.25
M532:0.25
M533:0.25
M534:0.25
M535:0.25
M536:0.25
M537:0.25
M538:0.25
M539:0.25
M540:0.25
M541:0.25
M542:0.25
M543:0.25
M544:0.25
M545:0.25
M546:0.25
M547:0.25
M548:0.25
M549:0.25
M550:0.25
M551:0.25
M552:0.25
M553:0.25
M554:0.25
M555:0.25
M556:0.25
M557:0.25
M558:0.25
M559:0.25
M560:0.25
M561:0.25
M562:0.25
M563:0.25
M564:0.25
M565:0.25
M566:0.25
M567:0.25
M568:0.25
M569:0.25
M570:0.25
M571:0.25
M572:0.25
M573:0.25
M574:0.25
M575:0.25
M576:0.25
M577:0.25
M578:0.25
M579:0.25
M580:0.25
M581:0.25
M582:0.25
M583:0.25
M584:0.25
M585:0.25
M586:0.25
M587:0.25
M588:0.25
M589:0.25
M590:0.25
M591:0.25
M592:0.25
M593:0.25
M594:0.25
M595:0.25
M596:0.25
M597:0.25
M598:0.25
M599:0.25
M600:0.25
M601:0.25
M602:0.25
M603:0.25
M604:0.25
M605:0.25
M606:0.25
M607:0.25
M608:0.25
M609:0.25
M610:0.25
M611:0.25
M612:0.25
M613:0.25
M614:0.25
M615:0.25
M616:0.25
M617:0.25
M618:0.25
M619:0.25
M620:0.25
M621:0.25
M622:0.25
M623:0.25
M624:0.25
M625:0.25
M626:0.25
M627:0.25
M628:0.25
M629:0.25
M630:0.25
M631:0.25
M632:0.25
M633:0.25
M634:0.25
M635:0.25
M636:0.25
M637:0.25
M638:0.25
M639:0.25
M640:0.25
M641:0.25
M642:0.25
M643:0.25
M644:0.25
M645:0.25
M646:0.25
M647:0.25
M648:0.25
M649:0.25
M650:0.25
M651:0.25
M652:0.25
M653:0.25
M654:0.25
M655:0.25
M656:0.25
M657:0.25
M658:0.25
M659:0.25
M660:0.25
M661:0.25
M662:0.25
M663:0.25
M664:0.25
M665:0.25
M666:0.25
M667:0.25
M668:0.25
M669:0.25
M670:0.25
M671:0.25
M672:0.25
M673:0.25
M674:0.25
M675:0.25
M676:0.25
M677:0.25
M678:0.25
M679:0.25
M680:0.25
M681:0.25
M682:0.25
M683:0.25
M684:0.25
M685:0.25
M686:0.25
M687:0.25
M688:0.25
M689:0.25
M690:0.25
M691:0.25
M692:0.25
M693:0.25
M694:0.25
M695:0.25
M696:0.25
M697:0.25
M698:0.25
M699:0.25
M700:0.25
M701:0.25
M702:0.25
M703:0.25
M704:0.25
M705:0.25
M706:0.25
M707:0.25
M708:0.25
M709:0.25
M710:0.25
M711:0.25
M712:0.25
M713:0.25
M714:0.25
M715:0.25
M716:0.25
M717:0.25
M718:0.25
M719:0.25
M720:0.25
M721:0.25
M722:0.25
M723:0.25
M724:0.25
M725:0.25
M726:0.25
M727:0.25
M728:0.25
M729:0.25
M730:0.25
M731:0.25
M732:0.25
M733:0.25
M734:0.25
M735:0.25
M736:0.25
M737:0.25
M738:0.25
M739:0.25
M740:0.25
M741:0.25
M742:0.25
M743:0.25
M744:0.25
M745:0.25
M746:0.25
M747:0.25
M748:0.25
M749:0.25
M750:0.25
M751:0.25
M752:0.25
M753:0.25
M754:0.25
M755:0.25
M756:0.25
M757:0.25
M758:0.25
M759:0.25
M760:0.25
M761:0.25
M762:0.25
M763:0.25
M764:0.25
M765:0.25
M766:0.25
M767:0.25
M768:0.25
M769:0.25
M770:0.25
M771:0.25
M772:0.25
M773:0.25
M774:0.25
M775:0.25
M776:0.25
M777:0.25
M778:0.25
M779:0.25
M780:0.25
M781:0.25
M782:0.25
M783:0.25
M784:0.25
M785:0.25
M786:0.25
M787:0.25
M788:0.25
M789:0.25
M790:0.25
M791:0.25
M792:0.25
M793:0.25
M794:0.25
M795:0.25
M796:0.25
M797:0.25
M798:0.25
M799:0.25
M800:0.25
M801:0.25
M802:0.25
M803:0.25
M804:0.25
M805:0.25
M806:0.25
M807:0.25
M808:0.25
M809:0.25
M810:0.25
M811:0.25
M812:0.25
M813:0.25
M814:0.25
M815:0.25
M816:0.25
M817:0.25
M818:0.25
M819:0.25
M820:0.25
M821:0.25
M822:0.25
M823:0.25
M824:0.25
M825:0.25
M826:0.25
M827:0.25
M828:0.25
M829:0.25
M830:0.25
M831:0.25
M832:0.25
M833:0.25
M834:0.25
M835:0.25
M836:0.25
M837:0.25
M838:0.25
M839:0.25
M840:0.25
M841:0.25
M842:0.25
M843:0.25
M844:0.25
M845:0.25
M846:0.25
M847:0.25
M848:0.25
M849:0.25
M850:0.25
M851:0.25
M852:0.25
M853:0.25
M854:0.25
M855:0.25
M856:0.25
M857:0.25
M858:0.25
M859:0.25
M860:0.25
M861:0.25
M862:0.25
M863:0.25
M864:0.25
M865:0.25
M866:0.25
M867:0.25
M868:0.25
M869:0.25
M870:0.25
M871:0.25
M872:0.25
M873:0.25
M874:0.25
M875:0.25
M876:0.25
M877:0.25
M878:0.25
M879:0.25
M880:0.25
M881:0.25
M882:0.25
M883:0.25
M884:0.25
M885:0.25
M886:0.25
M887:0.25
M888:0.25
M889:0.25
M890:0.25
M891:0.25
M892:0.25
M893:0.25
M894:0.25
M895:0.25
M896:0.25
M897:0.25
M898:0.25
M899:0.25
M900:0.25
M901:0.25
M902:0.25
M903:0.25
M904:0.25
M905:0.25
M906:0.25
M907:0.25
M908:0.25
M909:0.25
M910:0.25
M911:0.25
M912:0.25
M913:0.25
M914:0.25
M915:0.25
M916:0.25
M917:0.25
M918:0.25
M919:0.25
M920:0.25
M921:0.25
M922:0.25
M923:0.25
M924:0.25
M925:0.25
M926:0.25
M927:0.25
M928:0.25
M929:0.25
M930:0.25
M931:0.25
M932:0.25
M933:0.25
M934:0.25
M935:0.25
M936:0.25
M937:0.25
M938:0.25
M939:0.25
M940:0.25
M941:0.25
M942:0.25
M943:0.25
M944:0.25
M945:0.25
M946:0.25
M947:0.25
M948:0.25
M949:0.25
M950:0.25
M951:0.25
M952:0.25
M953:0.25
M954:0.25
M955:0.25
M956:0.25
M957:0.25
M958:0.25
M959:0.25
M960:0.25
M961:0.25
M962:0.25
M963:0.25
M964:0.25
M965:0.25
M966:0.25
M967:0.25
M968:0.25
M969:0.25
M970:0.25
M971:0.25
M972:0.25
M973:0.25
M974:0.25
M975:0.25
M976:0.25
M977:0.25
M978:0.25
M979:0.25
M980:0.25
M981:0.25
M982:0.25
M983:0.25
M984:0.25
M985:0.25
M986:0.25
M987:0.25
M988:0.25
M989:0.25
M990:0.25
M991:0.25
M992:0.25
M993:0.25
M994:0.25
M995:0.25
M996:0.25
M997:0.25
M998:0.25
M999:0.25
M1000:0.25
M1001:0.25
M1002:0.25
M1003:0.25
M1004:0.25
M1005:0.25
M1006:0.25
M1007:0.25
M1008:0.25
M1009:0.25
M1010:0.25
M1011:0.25
M1012:0.25
M1013:0.25
M1014:0.25
M1015:0.25
M1016:0.25
M1017:0.25
M1018:0.25
M1019:0.25
M1020:0.25
M1021:0.25
M1022:0.25
M1023:0.25
M1024:0.25
M1025:0.25
M1026:0.25
M1027:0.25
M1028:0.25
M1029:0.25
M1030:0.25
M1031:0.25
M1032:0.25
M1033:0.25
M1034:0.25
M1035:0.25
M1036:0.25
M1037:0.25
M1038:0.25
M1039:0.25
M1040:0.25
M1041:0.25
M1042:0.25
M1043:0.25
M1044:0.25
M1045:0.25
M1046:0.25
M1047:0.25
M1048:0.25
M1049:0.25
M1050:0.25
M1051:0.25
M1052:0.25
M1053:0.25
M1054:0.25
M1055:0.25
M1056:0.25
M1057:0.25
M1058:0.25
M1059:0.25
M1060:0.25
M1061:0.25
M1062:0.25
M1063:0.25
M1064:0.25
M1065:0.25
M1066:0.25
M1067:0.25
M1068:0.25
M1069:0.25
M1070:0.25
M1071:0.25
M1072:0.25
M1073:0.25
M1074:0.25
M1075:0.25
M1076:0.25
M1077:0.25
M1078:0.25
M1079:0.25
M1080:0.25
M1081:0.25
M1082:0.25
M1083:0.25
M1084:0.25
M1085:0.25
M1086:0.25
M1087:0.25
M1088:0.25
M1089:0.25
M1090:0.25
M1091:0.25
M1092:0.25
M1093:0.25
M1094:0.25
M1095:0.25
M1096:0.25
M1097:0.25
M1098:0.25
M1099:0.25
M1100:0.25
M1101:0.25
M1102:0.25
M1103:0.25
M1104:0.25
M1105:0.25
M1106:0.25
M1107:0.25
M1108:0.25
M1109:0.25
M1110:0.25
M1111:0.25
M1112:0.25
M1113:0.25
M1114:0.25
M1115:0.25
M1116:0.25
M1117:0.25
M1118:0.25
M1119:0.25
M1120:0.25
M1121:0.25
M1122:0.25
M1123:0.25
M1124:0.25
M1125:0.25
M1126:0.25
M1127:0.25
M1128:0.25
M1129:0.25
M1130:0.25
M1131:0.25
M1132:0.25
M1133:0.25
M1134:0.25
M1135:0.25
M1136:0.25
M1137:0.25
M1138:0.25
M1139:0.25
M1140:0.25
M1141:0.25
M1142:0.25
M1143:0.25
M1144:0.25
M1145:0.25
M1146:0.25
M1147:0.25
M1148:0.25
M1149:0.25
M1150:0.25
M1151:0.25
M1152:0.25
M1153:0.25
M1154:0.25
M1155:0.25
M1156:0.25
M1157:0.25
M1158:0.25
M1159:0.25
M1160:0.25
M1161:0.25
M1162:0.25
M1163:0.25
M1164:0.25
M1165:0.25
M1166:0.25
M1167:0.25
M1168:0.25
M1169:0.25
M1170:0.25
M1171:0.25
M1172:0.25
M1173:0.25
M1174:0.25
M1175:0.25
M1176:0.25
M1177:0.25
M1178:0.25
M1179:0.25
M1180:0.25
M1181:0.25
M1182:0.25
M1183:0.25
M1184:0.25
M1185:0.25
M1186:0.25
M1187:0.25
M1188:0.25
M1189:0.25
M1190:0.25
M1191:0.25
M1192:0.25
M1193:0.25
M1194:0.25
M1195:0.25
M1196:0.25
M1197:0.25
M1198:0.25
M1199:0.25
M1200:0.25
M1201:0.25
M1202:0.25
M1203:0.25
M1204:0.25
M1205:0.25
M1206:0.25
M1207:0.25
M1208:0.25
M1209:0.25
M1210:0.25
M1211:0.25
M1212:0.25
M1213:0.25
M1214:0.25
M1215:0.25
M1216:0.25
M1217:0.25
M1218:0.25
M1219:0.25
M1220:0.25
M1221:0.25
M1222:0.25
M1223:0.25
M1224:0.25
M1225:0.25
M1226:0.25
M1227:0.25
M1228:0.25
M1229:0.25
M1230:0.25
M1231:0.25
M1232:0.25
M1233:0.25
M1234:0.25
M1235:0.25
M1236:0.25
M1237:0.25
M1238:0.25
M1239:0.25
M1240:0.25
M1241:0.25
M1242:0.25
M1243:0.25
M1244:0.25
M1245:0.25
M1246:0.25
M1247:0.25
M1248:0.25
M1249:0.25
M1250:0.25
M1251:0.25
M1252:0.25
M1253:0.25
M1254:0.25
M1255:0.25
M1256:0.25
M1257:0.25
M1258:0.25
M1259:0.25
M1260:0.25
M1261:0.25
M1262:0.25
M1263:0.25
M1264:0.25
M1265:0.25
M1266:0.25
M1267:0.25
M1268:0.25
M1269:0.25
M1270:0.25
M1271:0.25
M1272:0.25
M1273:0.25
M1274:0.25
M1275:0.25
M1276:0.25
M1277:0.25
M1278:0.25
M1279:0.25
M1280:0.25
M1281:0.25
M1282:0.25
M1283:0.25
M1284:0.25
M1285:0.25
M1286:0.25
M1287:0.25
M1288:0.25
M1289:0.25
M1290:0.25
M1291:0.25
M1292:0.25
M1293:0.25
M1294:0.25
M1295:0.25
M1296:0.25
M1297:0.25
M1298:0.25
M1299:0.25
M1300:0.25
M1301:0.25
M1302:0.25
M1303:0.25
M1304:0.25
M1305:0.25
M1306:0.25
M1307:0.25
M1308:0.25
M1309:0.25
M1310:0.25
M1311:0.25
M1312:0.25
M1313:0.25
M1314:0.25
M1315:0.25
M1316:0.25
M1317:0.25
M1318:0.25
M1319:0.25
M1320:0.25
M1321:0.25
M1322:0.25
M1323:0.25
M1324:0.25
M1325:0.25
M1326:0.25
M1327:0.25
M1328:0.25
M1329:0.25
M1330:0.25
M1331:0.25
M1332:0.25
M1333:0.25
M1334:0.25
M1335:0.25
M1336:0.25
M1337:0.25
M1338:0.25
M1339:0.25
M1340:0.25
M1341:0.25
M1342:0.25
M1343:0.25
M1344:0.25
M1345:0.25
M1346:0.25
M1347:0.25
M1348:0.25
M1349:0.25
M1350:0.25
M1351:0.25
M1352:0.25
M1353:0.25
M1354:0.25
M1355:0.25
M1356:0.25
M1357:0.25
M1358:0.25
M1359:0.25
M1360:0.25
M1361:0.25
M1362:0.25
M1363:0.25
M1364:0.25
M1365:0.25
M1366:0.25
M1367:0.25
M1368:0.25
M1369:0.25
M1370:0.25
M1371:0.25
M1372:0.25
M1373:0.25
M1374:0.25
M1375:0.25
M1376:0.25
M1377:0.25
M1378:0.25
M1379:0.25
M1380:0.25
M1381:0.25
M1382:0.25
M1383:0.25
M1384:0.25
M1385:0.25
M1386:0.25
M1387:0.25
M1388:0.25
M1389:0.25
M1390:0.25
M1391:0.25
M1392:0.25
M1393:0.25
M1394:0.25
M1395:0.25
M1396:0.25
M1397:0.25
M1398:0.25
M1399:0.25
M1400:0.25
M1401:0.25
M1402:0.25
M1403:0.25
M1404:0.25
M1405:0.25
M1406:0.25
M1407:0.25
M1408:0.25
M1409:0.25
M1410:0.25
M1411:0.25
M1412:0.25
M1413:0.25
M1414:0.25
M1415:0.25
M1416:0.25
M1417:0.25
M1418:0.25
M1419:0.25
M1420:0.25
M1421:0.25
M1422:0.25
M1423:0.25
M1424:0.25
M1425:0.25
M1426:0.25
M1427:0.25
M1428:0.25
M1429:0.25
M1430:0.25
M1431:0.25
M1432:0.25
M1433:0.25
M1434:0.25
M1435:0.25
M1436:0.25
M1437:0.25
M1438:0.25
M1439:0.25
M1440:0.25
M1441:0.25
M1442:0.25
M1443:0.25
M1444:0.25
M1445:0.25
M1446:0.25
M1447:0.25
M1448:0.25
M1449:0.25
M1450:0.25
M1451:0.25
M1452:0.25
M1453:0.25
M1454:0.25
M1455:0.25
M1456:0.25
M1457:0.25
M1458:0.25
M1459:0.25
M1460:0.25
M1461:0.25
M1462:0.25
M1463:0.25
M1464:0.25
M1465:0.25
M1466:0.25
M1467:0.25
M1468:0.25
M1469:0.25
M1470:0.25
M1471:0.25
M1472:0.25
M1473:0.25
M1474:0.25
M1475:0.25
M1476:0.25
M1477:0.25
M1478:0.25
M1479:0.25
M1480:0.25
M1481:0.25
M1482:0.25
M1483:0.25
M1484:0.25
M1485:0.25
M1486:0.25
M1487:0.25
M1488:0.25
M1489:0.25
M1490:0.25
M1491:0.25
M1492:0.25
M1493:0.25
M1494:0.25
M1495:0.25
M1496:0.25
M1497:0.25
M1498:0.25
M1499:0.25
M1500:0.25
M1501:0.25
M1502:0.25
M1503:0.25
M1504:0.25
M1505:0.25
M1506:0.25
M1507:0.25
M1508:0.25
M1509:0.25
M1510:0.25
M1511:0.25
M1512:0.25
M1513:0.25
M1514:0.25
M1515:0.25
M1516:0.25
M1517:0.25
M1518:0.25
M1519:0.25
M1520:0.25
M1521:0.25
M1522:0.25
M1523:0.25
M1524:0.25
M1525:0.25
M1526:0.25
M1527:0.25
M1528:0.25
M1529:0.25
M1530:0.25
M1531:0.25
M1532:0.25
M1533:0.25
M1534:0.25
M1535:0.25
M1536:0.25
M1537:0.25
M1538:0.25
M1539:0.25
M1540:0.25
M1541:0.25
M1542:0.25
M1543:0.25
M1544:0.25
M1545:0.25
M1546:0.25
M1547:0.25
M1548:0.25
M1549:0.25
M1550:0.25
M1551:0.25
M1552:0.25
M1553:0.25
M1554:0.25
M1555:0.25
M1556:0.25
M1557:0.25
M1558:0.25
M1559:0.25
M1560:0.25
M1561:0.25
M1562:0.25
M1563:0.25
M1564:0.25
M1565:0.25
M1566:0.25
M1567:0.25
M1568:0.25
M1569:0.25
M1570:0.25
M1571:0.25
M1572:0.25
M1573:0.25
M1574:0.25
M1575:0.25
M1576:0.25
M1577:0.25
M1578:0.25
M1579:0.25
M1580:0.25
M1581:0.25
M1582:0.25
M1583:0.25
M1584:0.25
M1585:0.25
M1586:0.25
M1587:0.25
M1588:0.25
M1589:0.25
M1590:0.25
M1591:0.25
M1592:0.25
M1593:0.25
M1594:0.25
M1595:0.25
M1596:0.25
M1597:0.25
M1598:0.25
M1599:0.25
M1600:0.25
M1601:0.25
M1602:0.25
M1603:0.25
M1604:0.25
M1605:0.25
M1606:0.25
M1607:0.25
M1608:0.25
M1609:0.25
M1610:0.25
M1611:0.25
M1612:0.25
M1613:0.25
M1614:0.25
M1615:0.25
M1616:0.25
M1617:0.25
M1618:0.25
M1619:0.25
M1620:0.25
M1621:0.25
M1622:0.25
M1623:0.25
M1624:0.25
M1625:0.25
M1626:0.25
M1627:0.25
M1628:0.25
M1629:0.25
M1630:0.25
M1631:0.25
M1632:0.25
M1633:0.25
M1634:0.25
M1635:0.25
M1636:0.25
M1637:0.25
M1638:0.25
M1639:0.25
M1640:0.25
M1641:0.25
M1642:0.25
M1643:0.25
M1644:0.25
M1645:0.25
M1646:0.25
M1647:0.25
M1648:0.25
M1649:0.25
M1650:0.25
M1651:0.25
M1652:0.25
M1653:0.25
M1654:0.25
M1655:0.25
M1656:0.25
M1657:0.25
M1658:0.25
M1659:0.25
M1660:0.25
M1661:0.25
M1662:0.25
M1663:0.25
M1664:0.25
M1665:0.25
M1666:0.25
M1667:0.25
M1668:0.25
M1669:0.25
M1670:0.25
M1671:0.25
M1672:0.25
M1673:0.25
M1674:0.25
M1675:0.25
M1676:0.25
M1677:0.25
M1678:0.25
M1679:0.25
M1680:0.25
M1681:0.25
M1682:0.25
M1683:0.25
M1684:0.25
M1685:0.25
M1686:0.25
M1687:0.25
M1688:0.25
M1689:0.25
M1690:0.25
M1691:0.25
M1692:0.25
M1693:0.25
M1694:0.25
M1695:0.25
M1696:0.25
M1697:0.25
M1698:0.25
M1699:0.25
M1700:0.25
M1701:0.25
M1702:0.25
M1703:0.25
M1704:0.25
M1705:0.25
M1706:0.25
M1707:0.25
M1708:0.25
M1709:0.25
M1710:0.25
M1711:0.25
M1712:0.25
M1713:0.25
M1714:0.25
M1715:0.25
M1716:0.25
M1717:0.25
M1718:0.25
M1719:0.25
M1720:0.25
M1721:0.25
M1722:0.25
M1723:0.25
M1724:0.25
M1725:0.25
M1726:0.25
M1727:0.25
M1728:0.25
M1729:0.25
M1730:0.25
M1731:0.25
M1732:0.25
M1733:0.25
M1734:0.25
M1735:0.25
M1736:0.25
M1737:0.25
M1738:0.25
M1739:0.25
M1740:0.25
M1741:0.25
M1742:0.25
M1743:0.25
M1744:0.25
M1745:0.25
M1746:0.25
M1747:0.25
M1748:0.25
M1749:0.25
M1750:0.25
M1751:0.25
M1752:0.25
M1753:0.25
M1754:0.25
M1755:0.25
M1756:0.25
M1757:0.25
M1758:0.25
M1759:0.25
M1760:0.25
M1761:0.25
M1762:0.25
M1763:0.25
M1764:0.25
M1765:0.25
M1766:0.25
M1767:0.25
M1768:0.25
M1769:0.25
M1770:0.25
M1771:0.25
M1772:0.25
M1773:0.25
M1774:0.25
M1775:0.25
M1776:0.25
M1777:0.25
M1778:0.25
M1779:0.25
M1780:0.25
M1781:0.25
M1782:0.25
M1783:0.25
M1784:0.25
M1785:0.25
M1786:0.25
M1787:0.25
M1788:0.25
M1789:0.25
M1790:0.25
M1791:0.25
M1792:0.25
M1793:0.25
M1794:0.25
M1795:0.25
M1796:0.25
M1797:0.25
M1798:0.25
M1799:0.25
M1800:0.25
M1801:0.25
M1802:0.25
M1803:0.25
M1804:0.25
M1805:0.25
M1806:0.25
M1807:0.25
M1808:0.25
M1809:0.25
M1810:0.25
M1811:0.25
M1812:0.25
M1813:0.25
M1814:0.25
M1815:0.25
M1816:0.25
FinishTime:01/11/2018 14:44:03.850
