Input param:JobHistoryConnection:E:\MGALFA\AutomationCode\Sensitivities\FP_IntDn100_1QTROUT\Log\F133OCS.txt
Input param:JobInstanceID:1
Input param:SourceWorkbookLocation:E:\mgalfa\Staging\FairValue\Sensitivity\FPPKSetup\FP PK Setup.xlsx
Input param:SourceSheetName:Setup
Input param:SourceRow:7
Input param:SourceColumn:S
Input param:DestinationWorkbookLocation:E:\MGALFA\Model\Executionfolder\Sensitivities\FP_IntDn100_1QTROUT\FVQtrly.xlsx
Input param:DestinationSheetName:F133OCS
Input param:DestinationRangeStartRow:5
Input param:DestinationRangeStartColumn:B
Input param:DestinationEndRangeRow:5
Input param:DestinationEndRangeColumn:BQS
S7:0.0030625
FinishTime:02/09/2018 17:31:03.606
