Input param:JobHistoryConnection:E:\MGALFA\AutomationCode\Sensitivities\FP_IntDn100_1QTROUT\Log\GMWBLapseAnnInt Perm Table.txt
Input param:JobInstanceID:2
Input param:SourceWorkbookLocation:E:\mgalfa\Staging\FairValue\Sensitivity\FPPKSetup\FP PK Setup.xlsx
Input param:SourceSheetName:Setup
Input param:SourceRangeStartRow:27
Input param:SourceRangeStartColumn:D
Input param:SourceEndRangeRow:27
Input param:SourceEndRangeColumn:D
Input param:DestinationWorkbookLocation:E:\MGALFA\Model\Executionfolder\Sensitivities\FP_IntDn100_1QTROUT\QtrlySens.xlsx
Input param:DestinationSheetName:GMWBLapseAnnInt
Input param:DestinationRangeStartRow:5
Input param:DestinationRangeStartColumn:B
Input param:DestinationEndRangeRow:5
Input param:DestinationEndRangeColumn:B
Source Cells:
D27:0.02717882
FinishTime:02/09/2018 17:30:50.474
