Input param:JobHistoryConnection:E:\MGALFA\AutomationCode\Sensitivities\FP_Type_I_UW_Sensitivities_NewBusiness_MortDn5_1YROUT\Log\F133MgnStart.txt
Input param:JobInstanceID:1
Input param:SourceWorkbookLocation:E:\mgalfa\Staging\FairValue\Sensitivity\FPPKSetup\FP PK Setup.xlsx
Input param:SourceSheetName:Setup
Input param:SourceRangeStartRow:9
Input param:SourceRangeStartColumn:W
Input param:SourceEndRangeRow:9
Input param:SourceEndRangeColumn:W
Input param:DestinationWorkbookLocation:E:\MGALFA\Model\Executionfolder\Sensitivities\FP_Type_I_UW_Sensitivities_NewBusiness_MortDn5_1YROUT\FVQtrly.xlsx
Input param:DestinationSheetName:F133MgnStart
Input param:DestinationRangeStartRow:4
Input param:DestinationRangeStartColumn:B
Input param:DestinationEndRangeRow:4
Input param:DestinationEndRangeColumn:B
Source Cells:
W9:12
FinishTime:08/01/2018 14:16:48.086
