Input param:DashboardID:Type_III_UW_MortDn5
Input param:DashboardProcessName:Copy Input files to Archive
Input param:JobHistoryConnection:E:\mgalfa\AutomationCode\Sensitivities\Type_III_UW_MortDn5\Log\ArchiveType_III_UW_MortDn5InputsHistory.txt
Input param:JobInstanceID:4
Input param:UseDBJobHistory:false
Input param:DirectoryToCreatePattern:\\us.aegon.com\ait\Actuary\TCMActuary\ACTFINAPP\DEV\Model\Archive\Q{QuarterHolder}{YearHolderTwoDigit}\{YearHolderFourDigit}Q{QuarterHolder}_TypeIII\MortDn5\{CurrentYearHolderFourDigit}{CurrentMonthHolderLeadingZero}{CurrentDayHolderLeadingZero}\Sensitivities\IFRS_TypeIII_MortDn5_{CurrentDayHourHolderLeadingZero}{CurrentDayMinuteHolderLeadingZero}{CurrentDaySecondHolderLeadingZero}
Input param:SourceDirectoryPattern:E:\MGALFA\Model\Executionfolder\Sensitivities\Type_III_UW_MortDn5
Input param:Q1MonthMap:1,2,3
Input param:Q2MonthMap:4,5,6
Input param:Q3MonthMap:7,8,9
Input param:Q4MonthMap:10,11,12
Input param:ProcessTimeToMonthOffset:-1
Input param:TwoDigitYear:true
Input param:MonthLeadingZero:true
Input param:OverwriteDestinationFile:true
Input param:ExpectedNumberOfFiles:-1
Input param:Wildcard:*.*
Input param:WildcardExclusions:
Input param:ReplaceFromString:
Input param:ReplaceToString:
Input param:DestinationDirectory:\\us.aegon.com\ait\Actuary\TCMActuary\ACTFINAPP\DEV\Model\Archive\Q218\2018Q2_TypeIII\MortDn5\20180726\Sensitivities\IFRS_TypeIII_MortDn5_022807
FinishTime:07/26/2018 14:28:15.210
