Input param:JobHistoryConnection:E:\mgalfa\AutomationCode\Sensitivities\Type_III_UW_MortDn5\Log\Qscale2_fvqtrly.txt
Input param:JobInstanceID:1
Input param:SourceWorkbookLocation:E:\mgalfa\Staging\FairValue\Sensitivity\ModelInputs\IFRS_Model_Inputs.xlsx
Input param:SourceSheetName:Type III Inputs
Input param:SourceRow:38
Input param:SourceColumn:E
Input param:DestinationWorkbookLocation:E:\MGALFA\Model\Executionfolder\Sensitivities\Type_III_UW_MortDn5\FVQtrly.xlsx
Input param:DestinationSheetName:Qscale2
Input param:DestinationRangeStartRow:4
Input param:DestinationRangeStartColumn:B
Input param:DestinationEndRangeRow:4
Input param:DestinationEndRangeColumn:EU
E38:0.95
FinishTime:07/25/2018 15:56:05.014
