Input param:JobHistoryConnection:E:\mgalfa\AutomationCode\Sensitivities\FP_Type_I_UW_Sensitivities_NewBusiness_LapseDn20_1QTROUT\Log\ClearLogJobHistory.txt
Input param:JobInstanceID:4
Input param:UseDBJobHistory:false
Input param:DirectoryToClear:E:\mgalfa\AutomationCode\Sensitivities\FP_Type_I_UW_Sensitivities_NewBusiness_LapseDn20_1QTROUT\Log
Input param:DeleteSubdirectories:true
FinishTime:02/15/2018 14:18:27.861
