Input param:JobHistoryConnection:E:\MGALFA\AutomationCode\Sensitivities\FP_Type_I_UW_Sensitivities_NewBusiness_LapseDn20_1QTROUT\Log\FP_Type_I_UW_Sensitivities_NewBusiness_LapseDn20_1QTROUT_Perm_Table_wscale9.txt
Input param:JobInstanceID:1
Input param:SourceWorkbookLocation:E:\mgalfa\Staging\FairValue\Sensitivity\ModelInputs\IFRS_Model_Inputs.xlsx
Input param:SourceSheetName:FP Type I UW Inputs
Input param:SourceRow:23
Input param:SourceColumn:E
Input param:DestinationWorkbookLocation:E:\MGALFA\Model\Executionfolder\Sensitivities\FP_Type_I_UW_Sensitivities_NewBusiness_LapseDn20_1QTROUT\FVQtrly.xlsx
Input param:DestinationSheetName:wscale
Input param:DestinationRangeStartRow:12
Input param:DestinationRangeStartColumn:C
Input param:DestinationEndRangeRow:12
Input param:DestinationEndRangeColumn:EV
E23:0.8
FinishTime:02/15/2018 14:19:15.687
