Input param:JobHistoryConnection:E:\mgalfa\AutomationCode\Sensitivities\FP_Type_I_UW_Sensitivities_NewBusiness_LapseDn20_1QTROUT\Log\TextReportConsolidation.txt
Input param:JobInstanceID:1
Input param:LogFileDirectory:E:\mgalfa\AutomationCode\Sensitivities\FP_Type_I_UW_Sensitivities_NewBusiness_LapseDn20_1QTROUT\Log
Input param:OutputFile:E:\MGALFA\Model\Executionfolder\Sensitivities\FP_Type_I_UW_Sensitivities_NewBusiness_LapseDn20_1QTROUT\FP_Type_I_UW_Sensitivities_NewBusiness_LapseDn20_1QTROUTReports.xlsx
FinishTime:02/15/2018 15:04:30.175
