Input param:JobHistoryConnection:E:\MGALFA\AutomationCode\Sensitivities\FP_Type_I_UW_Sensitivities_NewBusiness_LapseDn20_1QTROUT\Log\VarDVol Perm Table.txt
Input param:JobInstanceID:1
Input param:SourceWorkbookLocation:E:\mgalfa\Staging\FairValue\Sensitivity\FPPKSetup\FP PK Setup.xlsx
Input param:SourceSheetName:Setup
Input param:SourceRangeStartRow:5
Input param:SourceRangeStartColumn:G
Input param:SourceEndRangeRow:1816
Input param:SourceEndRangeColumn:G
Input param:DestinationWorkbookLocation:E:\MGALFA\Model\Executionfolder\Sensitivities\FP_Type_I_UW_Sensitivities_NewBusiness_LapseDn20_1QTROUT\QtrlySens.xlsx
Input param:DestinationSheetName:VarDVol
Input param:DestinationRangeStartRow:5
Input param:DestinationRangeStartColumn:B
Input param:DestinationEndRangeRow:5
Input param:DestinationEndRangeColumn:BQS
Source Cells:,,,,,,,,,,,,,,,,,,,,,,,,,,,,,,,,,,,,,,,,,,,,,,,,,,,,,,,,,,,,,,,,,,,,,,,,,,,,,,,,,,,,,,,,,,,,,,,,,,,,,,,,,,,,,,,,,,,,,,,,,,,,,,,,,,,,,,,,,,,,,,,,,,,,,,,,,,,,,,,,,,,,,,,,,,,,,,,,,,,,,,,,,,,,,,,,,,,,,,,,,,,,,,,,,,,,,,,,,,,,,,,,,,,,,,,,,,,,,,,,,,,,,,,,,,,,,,,,,,,,,,,,,,,,,,,,,,,,,,,,,,,,,,,,,,,,,,,,,,,,,,,,,,,,,,,,,,,,,,,,,,,,,,,,,,,,,,,,,,,,,,,,,,,,,,,,,,,,,,,,,,,,,,,,,,,,,,,,,,,,,,,,,,,,,,,,,,,,,,,,,,,,,,,,,,,,,,,,,,,,,,,,,,,,,,,,,,,,,,,,,,,,,,,,,,,,,,,,,,,,,,,,,,,,,,,,,,,,,,,,,,,,,,,,,,,,,,,,,,,,,,,,,,,,,,,,,,,,,,,,,,,,,,,,,,,,,,,,,,,,,,,,,,,,,,,,,,,,,,,,,,,,,,,,,,,,,,,,,,,,,,,,,,,,,,,,,,,,,,,,,,,,,,,,,,,,,,,,,,,,,,,,,,,,,,,,,,,,,,,,,,,,,,,,,,,,,,,,,,,,,,,,,,,,,,,,,,,,,,,,,,,,,,,,,,,,,,,,,,,,,,,,,,,,,,,,,,,,,,,,,,,,,,,,,,,,,,,,,,,,,,,,,,,,,,,,,,,,,,,,,,,,,,,,,,,,,,,,,,,,,,,,,,,,,,,,,,,,,,,,,,,,,,,,,,,,,,,,,,,,,,,,,,,,,,,,,,,,,,,,,,,,,,,,,,,,,,,,,,,,,,,,,,,,,,,,,,,,,,,,,,,,,,,,,,,,,,,,,,,,,,,,,,,,,,,,,,,,,,,,,,,,,,,,,,,,,,,,,,,,,,,,,,,,,,,,,,,,,,,,,,,,,,,,,,,,,,,,,,,,,,,,,,,,,,,,,,,,,,,,,,,,,,,,,,,,,,,,,,,,,,,,,,,,,,,,,,,,,,,,,,,,,,,,,,,,,,,,,,,,,,,,,,,,,,,,,,,,,,,,,,,,,,,,,,,,,,,,,,,,,,,,,,,,,,,,,,,,,,,,,,,,,,,,,,,,,,,,,,,,,,,,,,,,,,,,,,,,,,,,,,,,,,,,,,,,,,,,,,,,,,,,,,,,,,,,,,,,,,,,,,,,,,,,,,,,,,,,,,,,,,,,,,,,,,,,,,,,,,,,,,,,,,,,,,,,,,,,,,,,,,,,,,,,,,,,,,,,,,,,,,,,,,,,,,,,,,,,,,,,,,,,,,,,,,,,,,,,,,,,,,,,,,,,,,,,,,,,,,,,,,,,,,,,,,,,,,,,,,,,,,,,,,,,,,,,,,,,,,,,,,,,,,,,,,,,,,,,,,,,,,,,,,,,,,,,,,,,,,,,,,,,,,,,,,,,,,,,,,,,,,,,,,,,,,,,,,,,,,,,,,,,,,,,,,,,,,,,,,,,,,,,,,,,,,,,,,,,,,,,,,,,,,,,,,,,,,,,,,,,,,,,,,,,,,,,,,,,,,,,,,,,,,,,,,,,,,,,,,,,,,,,,,,,,,,,,,,,,,,,,,,,,,,,,,,,,,,,,,,,,,,,,,,,,,,,,,,,,,,,,,,,,,,,,,,,,,,,,,,,,,,,,,,,,,,,,,,,,,,,,,,,,,,,,,,,,,,,,,,,,,,,,,,,,,,,,,,,,,,,,,,,,,,,,,,,,,,,,,,,,,,,,,,,,,,,,,,,,,,,,,,,,,,,,,,,,,,,,,,,,,,,,,,,,,,,,,,,,,,,,,,,,,,,,,,,,,,,,,,,,,,,,,,,,,,
G5:0.147555
G6:0.147555
G7:0.147555
G8:0.147555
G9:0.147555
G10:0.147555
G11:0.147555
G12:0.147555
G13:0.147555
G14:0.147555
G15:0.147555
G16:0.147555
G17:0.24
G18:0.24
G19:0.24
G20:0.138982096494118
G21:0.138982096494118
G22:0.138982096494118
G23:0.138982096494118
G24:0.138982096494118
G25:0.138982096494118
G26:0.138982096494118
G27:0.138982096494118
G28:0.138982096494118
G29:0.138982096494118
G30:0.138982096494118
G31:0.138982096494118
G32:0.178995118193322
G33:0.178995118193322
G34:0.178995118193322
G35:0.178995118193322
G36:0.178995118193322
G37:0.178995118193322
G38:0.178995118193322
G39:0.178995118193322
G40:0.178995118193322
G41:0.178995118193322
G42:0.178995118193322
G43:0.178995118193322
G44:0.187164123800441
G45:0.187164123800441
G46:0.187164123800441
G47:0.187164123800441
G48:0.187164123800441
G49:0.187164123800441
G50:0.187164123800441
G51:0.187164123800441
G52:0.187164123800441
G53:0.187164123800441
G54:0.187164123800441
G55:0.187164123800441
G56:0.203599457088339
G57:0.203599457088339
G58:0.203599457088339
G59:0.203599457088339
G60:0.203599457088339
G61:0.203599457088339
G62:0.203599457088339
G63:0.203599457088339
G64:0.203599457088339
G65:0.203599457088339
G66:0.203599457088339
G67:0.203599457088339
G68:0.222197392387008
G69:0.222197392387008
G70:0.222197392387008
G71:0.222197392387008
G72:0.222197392387008
G73:0.222197392387008
G74:0.222197392387008
G75:0.222197392387008
G76:0.222197392387008
G77:0.222197392387008
G78:0.222197392387008
G79:0.222197392387008
G80:0.205081652351508
G81:0.205842980277754
G82:0.206604308204
G83:0.207365636130245
G84:0.208126964056491
G85:0.208888291982736
G86:0.209649619908982
G87:0.210410947835228
G88:0.211172275761473
G89:0.211933603687719
G90:0.212694931613965
G91:0.21345625954021
G92:0.214217587466456
G93:0.214978915392701
G94:0.215740243318947
G95:0.216501571245193
G96:0.217262899171438
G97:0.218024227097684
G98:0.218785555023929
G99:0.219546882950175
G100:0.220308210876421
G101:0.221069538802666
G102:0.221830866728912
G103:0.222592194655158
G104:0.223353522581403
G105:0.224114850507649
G106:0.224876178433894
G107:0.22563750636014
G108:0.226398834286386
G109:0.227160162212631
G110:0.227921490138877
G111:0.228682818065123
G112:0.229444145991368
G113:0.230205473917614
G114:0.230966801843859
G115:0.231728129770105
G116:0.232489457696351
G117:0.233250785622596
G118:0.234012113548842
G119:0.234773441475088
G120:0.235534769401333
G121:0.236296097327579
G122:0.237057425253824
G123:0.23781875318007
G124:0.238580081106316
G125:0.239341409032561
G126:0.240102736958807
G127:0.240864064885053
G128:0.241625392811298
G129:0.242386720737544
G130:0.243148048663789
G131:0.243909376590035
G132:0.244670704516281
G133:0.245432032442526
G134:0.246193360368772
G135:0.246954688295018
G136:0.247716016221263
G137:0.248477344147509
G138:0.249238672073754
G139:0.25
G140:0.25
G141:0.25
G142:0.25
G143:0.25
G144:0.25
G145:0.25
G146:0.25
G147:0.25
G148:0.25
G149:0.25
G150:0.25
G151:0.25
G152:0.25
G153:0.25
G154:0.25
G155:0.25
G156:0.25
G157:0.25
G158:0.25
G159:0.25
G160:0.25
G161:0.25
G162:0.25
G163:0.25
G164:0.25
G165:0.25
G166:0.25
G167:0.25
G168:0.25
G169:0.25
G170:0.25
G171:0.25
G172:0.25
G173:0.25
G174:0.25
G175:0.25
G176:0.25
G177:0.25
G178:0.25
G179:0.25
G180:0.25
G181:0.25
G182:0.25
G183:0.25
G184:0.25
G185:0.25
G186:0.25
G187:0.25
G188:0.25
G189:0.25
G190:0.25
G191:0.25
G192:0.25
G193:0.25
G194:0.25
G195:0.25
G196:0.25
G197:0.25
G198:0.25
G199:0.25
G200:0.25
G201:0.25
G202:0.25
G203:0.25
G204:0.25
G205:0.25
G206:0.25
G207:0.25
G208:0.25
G209:0.25
G210:0.25
G211:0.25
G212:0.25
G213:0.25
G214:0.25
G215:0.25
G216:0.25
G217:0.25
G218:0.25
G219:0.25
G220:0.25
G221:0.25
G222:0.25
G223:0.25
G224:0.25
G225:0.25
G226:0.25
G227:0.25
G228:0.25
G229:0.25
G230:0.25
G231:0.25
G232:0.25
G233:0.25
G234:0.25
G235:0.25
G236:0.25
G237:0.25
G238:0.25
G239:0.25
G240:0.25
G241:0.25
G242:0.25
G243:0.25
G244:0.25
G245:0.25
G246:0.25
G247:0.25
G248:0.25
G249:0.25
G250:0.25
G251:0.25
G252:0.25
G253:0.25
G254:0.25
G255:0.25
G256:0.25
G257:0.25
G258:0.25
G259:0.25
G260:0.25
G261:0.25
G262:0.25
G263:0.25
G264:0.25
G265:0.25
G266:0.25
G267:0.25
G268:0.25
G269:0.25
G270:0.25
G271:0.25
G272:0.25
G273:0.25
G274:0.25
G275:0.25
G276:0.25
G277:0.25
G278:0.25
G279:0.25
G280:0.25
G281:0.25
G282:0.25
G283:0.25
G284:0.25
G285:0.25
G286:0.25
G287:0.25
G288:0.25
G289:0.25
G290:0.25
G291:0.25
G292:0.25
G293:0.25
G294:0.25
G295:0.25
G296:0.25
G297:0.25
G298:0.25
G299:0.25
G300:0.25
G301:0.25
G302:0.25
G303:0.25
G304:0.25
G305:0.25
G306:0.25
G307:0.25
G308:0.25
G309:0.25
G310:0.25
G311:0.25
G312:0.25
G313:0.25
G314:0.25
G315:0.25
G316:0.25
G317:0.25
G318:0.25
G319:0.25
G320:0.25
G321:0.25
G322:0.25
G323:0.25
G324:0.25
G325:0.25
G326:0.25
G327:0.25
G328:0.25
G329:0.25
G330:0.25
G331:0.25
G332:0.25
G333:0.25
G334:0.25
G335:0.25
G336:0.25
G337:0.25
G338:0.25
G339:0.25
G340:0.25
G341:0.25
G342:0.25
G343:0.25
G344:0.25
G345:0.25
G346:0.25
G347:0.25
G348:0.25
G349:0.25
G350:0.25
G351:0.25
G352:0.25
G353:0.25
G354:0.25
G355:0.25
G356:0.25
G357:0.25
G358:0.25
G359:0.25
G360:0.25
G361:0.25
G362:0.25
G363:0.25
G364:0.25
G365:0.25
G366:0.25
G367:0.25
G368:0.25
G369:0.25
G370:0.25
G371:0.25
G372:0.25
G373:0.25
G374:0.25
G375:0.25
G376:0.25
G377:0.25
G378:0.25
G379:0.25
G380:0.25
G381:0.25
G382:0.25
G383:0.25
G384:0.25
G385:0.25
G386:0.25
G387:0.25
G388:0.25
G389:0.25
G390:0.25
G391:0.25
G392:0.25
G393:0.25
G394:0.25
G395:0.25
G396:0.25
G397:0.25
G398:0.25
G399:0.25
G400:0.25
G401:0.25
G402:0.25
G403:0.25
G404:0.25
G405:0.25
G406:0.25
G407:0.25
G408:0.25
G409:0.25
G410:0.25
G411:0.25
G412:0.25
G413:0.25
G414:0.25
G415:0.25
G416:0.25
G417:0.25
G418:0.25
G419:0.25
G420:0.25
G421:0.25
G422:0.25
G423:0.25
G424:0.25
G425:0.25
G426:0.25
G427:0.25
G428:0.25
G429:0.25
G430:0.25
G431:0.25
G432:0.25
G433:0.25
G434:0.25
G435:0.25
G436:0.25
G437:0.25
G438:0.25
G439:0.25
G440:0.25
G441:0.25
G442:0.25
G443:0.25
G444:0.25
G445:0.25
G446:0.25
G447:0.25
G448:0.25
G449:0.25
G450:0.25
G451:0.25
G452:0.25
G453:0.25
G454:0.25
G455:0.25
G456:0.25
G457:0.25
G458:0.25
G459:0.25
G460:0.25
G461:0.25
G462:0.25
G463:0.25
G464:0.25
G465:0.25
G466:0.25
G467:0.25
G468:0.25
G469:0.25
G470:0.25
G471:0.25
G472:0.25
G473:0.25
G474:0.25
G475:0.25
G476:0.25
G477:0.25
G478:0.25
G479:0.25
G480:0.25
G481:0.25
G482:0.25
G483:0.25
G484:0.25
G485:0.25
G486:0.25
G487:0.25
G488:0.25
G489:0.25
G490:0.25
G491:0.25
G492:0.25
G493:0.25
G494:0.25
G495:0.25
G496:0.25
G497:0.25
G498:0.25
G499:0.25
G500:0.25
G501:0.25
G502:0.25
G503:0.25
G504:0.25
G505:0.25
G506:0.25
G507:0.25
G508:0.25
G509:0.25
G510:0.25
G511:0.25
G512:0.25
G513:0.25
G514:0.25
G515:0.25
G516:0.25
G517:0.25
G518:0.25
G519:0.25
G520:0.25
G521:0.25
G522:0.25
G523:0.25
G524:0.25
G525:0.25
G526:0.25
G527:0.25
G528:0.25
G529:0.25
G530:0.25
G531:0.25
G532:0.25
G533:0.25
G534:0.25
G535:0.25
G536:0.25
G537:0.25
G538:0.25
G539:0.25
G540:0.25
G541:0.25
G542:0.25
G543:0.25
G544:0.25
G545:0.25
G546:0.25
G547:0.25
G548:0.25
G549:0.25
G550:0.25
G551:0.25
G552:0.25
G553:0.25
G554:0.25
G555:0.25
G556:0.25
G557:0.25
G558:0.25
G559:0.25
G560:0.25
G561:0.25
G562:0.25
G563:0.25
G564:0.25
G565:0.25
G566:0.25
G567:0.25
G568:0.25
G569:0.25
G570:0.25
G571:0.25
G572:0.25
G573:0.25
G574:0.25
G575:0.25
G576:0.25
G577:0.25
G578:0.25
G579:0.25
G580:0.25
G581:0.25
G582:0.25
G583:0.25
G584:0.25
G585:0.25
G586:0.25
G587:0.25
G588:0.25
G589:0.25
G590:0.25
G591:0.25
G592:0.25
G593:0.25
G594:0.25
G595:0.25
G596:0.25
G597:0.25
G598:0.25
G599:0.25
G600:0.25
G601:0.25
G602:0.25
G603:0.25
G604:0.25
G605:0.25
G606:0.25
G607:0.25
G608:0.25
G609:0.25
G610:0.25
G611:0.25
G612:0.25
G613:0.25
G614:0.25
G615:0.25
G616:0.25
G617:0.25
G618:0.25
G619:0.25
G620:0.25
G621:0.25
G622:0.25
G623:0.25
G624:0.25
G625:0.25
G626:0.25
G627:0.25
G628:0.25
G629:0.25
G630:0.25
G631:0.25
G632:0.25
G633:0.25
G634:0.25
G635:0.25
G636:0.25
G637:0.25
G638:0.25
G639:0.25
G640:0.25
G641:0.25
G642:0.25
G643:0.25
G644:0.25
G645:0.25
G646:0.25
G647:0.25
G648:0.25
G649:0.25
G650:0.25
G651:0.25
G652:0.25
G653:0.25
G654:0.25
G655:0.25
G656:0.25
G657:0.25
G658:0.25
G659:0.25
G660:0.25
G661:0.25
G662:0.25
G663:0.25
G664:0.25
G665:0.25
G666:0.25
G667:0.25
G668:0.25
G669:0.25
G670:0.25
G671:0.25
G672:0.25
G673:0.25
G674:0.25
G675:0.25
G676:0.25
G677:0.25
G678:0.25
G679:0.25
G680:0.25
G681:0.25
G682:0.25
G683:0.25
G684:0.25
G685:0.25
G686:0.25
G687:0.25
G688:0.25
G689:0.25
G690:0.25
G691:0.25
G692:0.25
G693:0.25
G694:0.25
G695:0.25
G696:0.25
G697:0.25
G698:0.25
G699:0.25
G700:0.25
G701:0.25
G702:0.25
G703:0.25
G704:0.25
G705:0.25
G706:0.25
G707:0.25
G708:0.25
G709:0.25
G710:0.25
G711:0.25
G712:0.25
G713:0.25
G714:0.25
G715:0.25
G716:0.25
G717:0.25
G718:0.25
G719:0.25
G720:0.25
G721:0.25
G722:0.25
G723:0.25
G724:0.25
G725:0.25
G726:0.25
G727:0.25
G728:0.25
G729:0.25
G730:0.25
G731:0.25
G732:0.25
G733:0.25
G734:0.25
G735:0.25
G736:0.25
G737:0.25
G738:0.25
G739:0.25
G740:0.25
G741:0.25
G742:0.25
G743:0.25
G744:0.25
G745:0.25
G746:0.25
G747:0.25
G748:0.25
G749:0.25
G750:0.25
G751:0.25
G752:0.25
G753:0.25
G754:0.25
G755:0.25
G756:0.25
G757:0.25
G758:0.25
G759:0.25
G760:0.25
G761:0.25
G762:0.25
G763:0.25
G764:0.25
G765:0.25
G766:0.25
G767:0.25
G768:0.25
G769:0.25
G770:0.25
G771:0.25
G772:0.25
G773:0.25
G774:0.25
G775:0.25
G776:0.25
G777:0.25
G778:0.25
G779:0.25
G780:0.25
G781:0.25
G782:0.25
G783:0.25
G784:0.25
G785:0.25
G786:0.25
G787:0.25
G788:0.25
G789:0.25
G790:0.25
G791:0.25
G792:0.25
G793:0.25
G794:0.25
G795:0.25
G796:0.25
G797:0.25
G798:0.25
G799:0.25
G800:0.25
G801:0.25
G802:0.25
G803:0.25
G804:0.25
G805:0.25
G806:0.25
G807:0.25
G808:0.25
G809:0.25
G810:0.25
G811:0.25
G812:0.25
G813:0.25
G814:0.25
G815:0.25
G816:0.25
G817:0.25
G818:0.25
G819:0.25
G820:0.25
G821:0.25
G822:0.25
G823:0.25
G824:0.25
G825:0.25
G826:0.25
G827:0.25
G828:0.25
G829:0.25
G830:0.25
G831:0.25
G832:0.25
G833:0.25
G834:0.25
G835:0.25
G836:0.25
G837:0.25
G838:0.25
G839:0.25
G840:0.25
G841:0.25
G842:0.25
G843:0.25
G844:0.25
G845:0.25
G846:0.25
G847:0.25
G848:0.25
G849:0.25
G850:0.25
G851:0.25
G852:0.25
G853:0.25
G854:0.25
G855:0.25
G856:0.25
G857:0.25
G858:0.25
G859:0.25
G860:0.25
G861:0.25
G862:0.25
G863:0.25
G864:0.25
G865:0.25
G866:0.25
G867:0.25
G868:0.25
G869:0.25
G870:0.25
G871:0.25
G872:0.25
G873:0.25
G874:0.25
G875:0.25
G876:0.25
G877:0.25
G878:0.25
G879:0.25
G880:0.25
G881:0.25
G882:0.25
G883:0.25
G884:0.25
G885:0.25
G886:0.25
G887:0.25
G888:0.25
G889:0.25
G890:0.25
G891:0.25
G892:0.25
G893:0.25
G894:0.25
G895:0.25
G896:0.25
G897:0.25
G898:0.25
G899:0.25
G900:0.25
G901:0.25
G902:0.25
G903:0.25
G904:0.25
G905:0.25
G906:0.25
G907:0.25
G908:0.25
G909:0.25
G910:0.25
G911:0.25
G912:0.25
G913:0.25
G914:0.25
G915:0.25
G916:0.25
G917:0.25
G918:0.25
G919:0.25
G920:0.25
G921:0.25
G922:0.25
G923:0.25
G924:0.25
G925:0.25
G926:0.25
G927:0.25
G928:0.25
G929:0.25
G930:0.25
G931:0.25
G932:0.25
G933:0.25
G934:0.25
G935:0.25
G936:0.25
G937:0.25
G938:0.25
G939:0.25
G940:0.25
G941:0.25
G942:0.25
G943:0.25
G944:0.25
G945:0.25
G946:0.25
G947:0.25
G948:0.25
G949:0.25
G950:0.25
G951:0.25
G952:0.25
G953:0.25
G954:0.25
G955:0.25
G956:0.25
G957:0.25
G958:0.25
G959:0.25
G960:0.25
G961:0.25
G962:0.25
G963:0.25
G964:0.25
G965:0.25
G966:0.25
G967:0.25
G968:0.25
G969:0.25
G970:0.25
G971:0.25
G972:0.25
G973:0.25
G974:0.25
G975:0.25
G976:0.25
G977:0.25
G978:0.25
G979:0.25
G980:0.25
G981:0.25
G982:0.25
G983:0.25
G984:0.25
G985:0.25
G986:0.25
G987:0.25
G988:0.25
G989:0.25
G990:0.25
G991:0.25
G992:0.25
G993:0.25
G994:0.25
G995:0.25
G996:0.25
G997:0.25
G998:0.25
G999:0.25
G1000:0.25
G1001:0.25
G1002:0.25
G1003:0.25
G1004:0.25
G1005:0.25
G1006:0.25
G1007:0.25
G1008:0.25
G1009:0.25
G1010:0.25
G1011:0.25
G1012:0.25
G1013:0.25
G1014:0.25
G1015:0.25
G1016:0.25
G1017:0.25
G1018:0.25
G1019:0.25
G1020:0.25
G1021:0.25
G1022:0.25
G1023:0.25
G1024:0.25
G1025:0.25
G1026:0.25
G1027:0.25
G1028:0.25
G1029:0.25
G1030:0.25
G1031:0.25
G1032:0.25
G1033:0.25
G1034:0.25
G1035:0.25
G1036:0.25
G1037:0.25
G1038:0.25
G1039:0.25
G1040:0.25
G1041:0.25
G1042:0.25
G1043:0.25
G1044:0.25
G1045:0.25
G1046:0.25
G1047:0.25
G1048:0.25
G1049:0.25
G1050:0.25
G1051:0.25
G1052:0.25
G1053:0.25
G1054:0.25
G1055:0.25
G1056:0.25
G1057:0.25
G1058:0.25
G1059:0.25
G1060:0.25
G1061:0.25
G1062:0.25
G1063:0.25
G1064:0.25
G1065:0.25
G1066:0.25
G1067:0.25
G1068:0.25
G1069:0.25
G1070:0.25
G1071:0.25
G1072:0.25
G1073:0.25
G1074:0.25
G1075:0.25
G1076:0.25
G1077:0.25
G1078:0.25
G1079:0.25
G1080:0.25
G1081:0.25
G1082:0.25
G1083:0.25
G1084:0.25
G1085:0.25
G1086:0.25
G1087:0.25
G1088:0.25
G1089:0.25
G1090:0.25
G1091:0.25
G1092:0.25
G1093:0.25
G1094:0.25
G1095:0.25
G1096:0.25
G1097:0.25
G1098:0.25
G1099:0.25
G1100:0.25
G1101:0.25
G1102:0.25
G1103:0.25
G1104:0.25
G1105:0.25
G1106:0.25
G1107:0.25
G1108:0.25
G1109:0.25
G1110:0.25
G1111:0.25
G1112:0.25
G1113:0.25
G1114:0.25
G1115:0.25
G1116:0.25
G1117:0.25
G1118:0.25
G1119:0.25
G1120:0.25
G1121:0.25
G1122:0.25
G1123:0.25
G1124:0.25
G1125:0.25
G1126:0.25
G1127:0.25
G1128:0.25
G1129:0.25
G1130:0.25
G1131:0.25
G1132:0.25
G1133:0.25
G1134:0.25
G1135:0.25
G1136:0.25
G1137:0.25
G1138:0.25
G1139:0.25
G1140:0.25
G1141:0.25
G1142:0.25
G1143:0.25
G1144:0.25
G1145:0.25
G1146:0.25
G1147:0.25
G1148:0.25
G1149:0.25
G1150:0.25
G1151:0.25
G1152:0.25
G1153:0.25
G1154:0.25
G1155:0.25
G1156:0.25
G1157:0.25
G1158:0.25
G1159:0.25
G1160:0.25
G1161:0.25
G1162:0.25
G1163:0.25
G1164:0.25
G1165:0.25
G1166:0.25
G1167:0.25
G1168:0.25
G1169:0.25
G1170:0.25
G1171:0.25
G1172:0.25
G1173:0.25
G1174:0.25
G1175:0.25
G1176:0.25
G1177:0.25
G1178:0.25
G1179:0.25
G1180:0.25
G1181:0.25
G1182:0.25
G1183:0.25
G1184:0.25
G1185:0.25
G1186:0.25
G1187:0.25
G1188:0.25
G1189:0.25
G1190:0.25
G1191:0.25
G1192:0.25
G1193:0.25
G1194:0.25
G1195:0.25
G1196:0.25
G1197:0.25
G1198:0.25
G1199:0.25
G1200:0.25
G1201:0.25
G1202:0.25
G1203:0.25
G1204:0.25
G1205:0.25
G1206:0.25
G1207:0.25
G1208:0.25
G1209:0.25
G1210:0.25
G1211:0.25
G1212:0.25
G1213:0.25
G1214:0.25
G1215:0.25
G1216:0.25
G1217:0.25
G1218:0.25
G1219:0.25
G1220:0.25
G1221:0.25
G1222:0.25
G1223:0.25
G1224:0.25
G1225:0.25
G1226:0.25
G1227:0.25
G1228:0.25
G1229:0.25
G1230:0.25
G1231:0.25
G1232:0.25
G1233:0.25
G1234:0.25
G1235:0.25
G1236:0.25
G1237:0.25
G1238:0.25
G1239:0.25
G1240:0.25
G1241:0.25
G1242:0.25
G1243:0.25
G1244:0.25
G1245:0.25
G1246:0.25
G1247:0.25
G1248:0.25
G1249:0.25
G1250:0.25
G1251:0.25
G1252:0.25
G1253:0.25
G1254:0.25
G1255:0.25
G1256:0.25
G1257:0.25
G1258:0.25
G1259:0.25
G1260:0.25
G1261:0.25
G1262:0.25
G1263:0.25
G1264:0.25
G1265:0.25
G1266:0.25
G1267:0.25
G1268:0.25
G1269:0.25
G1270:0.25
G1271:0.25
G1272:0.25
G1273:0.25
G1274:0.25
G1275:0.25
G1276:0.25
G1277:0.25
G1278:0.25
G1279:0.25
G1280:0.25
G1281:0.25
G1282:0.25
G1283:0.25
G1284:0.25
G1285:0.25
G1286:0.25
G1287:0.25
G1288:0.25
G1289:0.25
G1290:0.25
G1291:0.25
G1292:0.25
G1293:0.25
G1294:0.25
G1295:0.25
G1296:0.25
G1297:0.25
G1298:0.25
G1299:0.25
G1300:0.25
G1301:0.25
G1302:0.25
G1303:0.25
G1304:0.25
G1305:0.25
G1306:0.25
G1307:0.25
G1308:0.25
G1309:0.25
G1310:0.25
G1311:0.25
G1312:0.25
G1313:0.25
G1314:0.25
G1315:0.25
G1316:0.25
G1317:0.25
G1318:0.25
G1319:0.25
G1320:0.25
G1321:0.25
G1322:0.25
G1323:0.25
G1324:0.25
G1325:0.25
G1326:0.25
G1327:0.25
G1328:0.25
G1329:0.25
G1330:0.25
G1331:0.25
G1332:0.25
G1333:0.25
G1334:0.25
G1335:0.25
G1336:0.25
G1337:0.25
G1338:0.25
G1339:0.25
G1340:0.25
G1341:0.25
G1342:0.25
G1343:0.25
G1344:0.25
G1345:0.25
G1346:0.25
G1347:0.25
G1348:0.25
G1349:0.25
G1350:0.25
G1351:0.25
G1352:0.25
G1353:0.25
G1354:0.25
G1355:0.25
G1356:0.25
G1357:0.25
G1358:0.25
G1359:0.25
G1360:0.25
G1361:0.25
G1362:0.25
G1363:0.25
G1364:0.25
G1365:0.25
G1366:0.25
G1367:0.25
G1368:0.25
G1369:0.25
G1370:0.25
G1371:0.25
G1372:0.25
G1373:0.25
G1374:0.25
G1375:0.25
G1376:0.25
G1377:0.25
G1378:0.25
G1379:0.25
G1380:0.25
G1381:0.25
G1382:0.25
G1383:0.25
G1384:0.25
G1385:0.25
G1386:0.25
G1387:0.25
G1388:0.25
G1389:0.25
G1390:0.25
G1391:0.25
G1392:0.25
G1393:0.25
G1394:0.25
G1395:0.25
G1396:0.25
G1397:0.25
G1398:0.25
G1399:0.25
G1400:0.25
G1401:0.25
G1402:0.25
G1403:0.25
G1404:0.25
G1405:0.25
G1406:0.25
G1407:0.25
G1408:0.25
G1409:0.25
G1410:0.25
G1411:0.25
G1412:0.25
G1413:0.25
G1414:0.25
G1415:0.25
G1416:0.25
G1417:0.25
G1418:0.25
G1419:0.25
G1420:0.25
G1421:0.25
G1422:0.25
G1423:0.25
G1424:0.25
G1425:0.25
G1426:0.25
G1427:0.25
G1428:0.25
G1429:0.25
G1430:0.25
G1431:0.25
G1432:0.25
G1433:0.25
G1434:0.25
G1435:0.25
G1436:0.25
G1437:0.25
G1438:0.25
G1439:0.25
G1440:0.25
G1441:0.25
G1442:0.25
G1443:0.25
G1444:0.25
G1445:0.25
G1446:0.25
G1447:0.25
G1448:0.25
G1449:0.25
G1450:0.25
G1451:0.25
G1452:0.25
G1453:0.25
G1454:0.25
G1455:0.25
G1456:0.25
G1457:0.25
G1458:0.25
G1459:0.25
G1460:0.25
G1461:0.25
G1462:0.25
G1463:0.25
G1464:0.25
G1465:0.25
G1466:0.25
G1467:0.25
G1468:0.25
G1469:0.25
G1470:0.25
G1471:0.25
G1472:0.25
G1473:0.25
G1474:0.25
G1475:0.25
G1476:0.25
G1477:0.25
G1478:0.25
G1479:0.25
G1480:0.25
G1481:0.25
G1482:0.25
G1483:0.25
G1484:0.25
G1485:0.25
G1486:0.25
G1487:0.25
G1488:0.25
G1489:0.25
G1490:0.25
G1491:0.25
G1492:0.25
G1493:0.25
G1494:0.25
G1495:0.25
G1496:0.25
G1497:0.25
G1498:0.25
G1499:0.25
G1500:0.25
G1501:0.25
G1502:0.25
G1503:0.25
G1504:0.25
G1505:0.25
G1506:0.25
G1507:0.25
G1508:0.25
G1509:0.25
G1510:0.25
G1511:0.25
G1512:0.25
G1513:0.25
G1514:0.25
G1515:0.25
G1516:0.25
G1517:0.25
G1518:0.25
G1519:0.25
G1520:0.25
G1521:0.25
G1522:0.25
G1523:0.25
G1524:0.25
G1525:0.25
G1526:0.25
G1527:0.25
G1528:0.25
G1529:0.25
G1530:0.25
G1531:0.25
G1532:0.25
G1533:0.25
G1534:0.25
G1535:0.25
G1536:0.25
G1537:0.25
G1538:0.25
G1539:0.25
G1540:0.25
G1541:0.25
G1542:0.25
G1543:0.25
G1544:0.25
G1545:0.25
G1546:0.25
G1547:0.25
G1548:0.25
G1549:0.25
G1550:0.25
G1551:0.25
G1552:0.25
G1553:0.25
G1554:0.25
G1555:0.25
G1556:0.25
G1557:0.25
G1558:0.25
G1559:0.25
G1560:0.25
G1561:0.25
G1562:0.25
G1563:0.25
G1564:0.25
G1565:0.25
G1566:0.25
G1567:0.25
G1568:0.25
G1569:0.25
G1570:0.25
G1571:0.25
G1572:0.25
G1573:0.25
G1574:0.25
G1575:0.25
G1576:0.25
G1577:0.25
G1578:0.25
G1579:0.25
G1580:0.25
G1581:0.25
G1582:0.25
G1583:0.25
G1584:0.25
G1585:0.25
G1586:0.25
G1587:0.25
G1588:0.25
G1589:0.25
G1590:0.25
G1591:0.25
G1592:0.25
G1593:0.25
G1594:0.25
G1595:0.25
G1596:0.25
G1597:0.25
G1598:0.25
G1599:0.25
G1600:0.25
G1601:0.25
G1602:0.25
G1603:0.25
G1604:0.25
G1605:0.25
G1606:0.25
G1607:0.25
G1608:0.25
G1609:0.25
G1610:0.25
G1611:0.25
G1612:0.25
G1613:0.25
G1614:0.25
G1615:0.25
G1616:0.25
G1617:0.25
G1618:0.25
G1619:0.25
G1620:0.25
G1621:0.25
G1622:0.25
G1623:0.25
G1624:0.25
G1625:0.25
G1626:0.25
G1627:0.25
G1628:0.25
G1629:0.25
G1630:0.25
G1631:0.25
G1632:0.25
G1633:0.25
G1634:0.25
G1635:0.25
G1636:0.25
G1637:0.25
G1638:0.25
G1639:0.25
G1640:0.25
G1641:0.25
G1642:0.25
G1643:0.25
G1644:0.25
G1645:0.25
G1646:0.25
G1647:0.25
G1648:0.25
G1649:0.25
G1650:0.25
G1651:0.25
G1652:0.25
G1653:0.25
G1654:0.25
G1655:0.25
G1656:0.25
G1657:0.25
G1658:0.25
G1659:0.25
G1660:0.25
G1661:0.25
G1662:0.25
G1663:0.25
G1664:0.25
G1665:0.25
G1666:0.25
G1667:0.25
G1668:0.25
G1669:0.25
G1670:0.25
G1671:0.25
G1672:0.25
G1673:0.25
G1674:0.25
G1675:0.25
G1676:0.25
G1677:0.25
G1678:0.25
G1679:0.25
G1680:0.25
G1681:0.25
G1682:0.25
G1683:0.25
G1684:0.25
G1685:0.25
G1686:0.25
G1687:0.25
G1688:0.25
G1689:0.25
G1690:0.25
G1691:0.25
G1692:0.25
G1693:0.25
G1694:0.25
G1695:0.25
G1696:0.25
G1697:0.25
G1698:0.25
G1699:0.25
G1700:0.25
G1701:0.25
G1702:0.25
G1703:0.25
G1704:0.25
G1705:0.25
G1706:0.25
G1707:0.25
G1708:0.25
G1709:0.25
G1710:0.25
G1711:0.25
G1712:0.25
G1713:0.25
G1714:0.25
G1715:0.25
G1716:0.25
G1717:0.25
G1718:0.25
G1719:0.25
G1720:0.25
G1721:0.25
G1722:0.25
G1723:0.25
G1724:0.25
G1725:0.25
G1726:0.25
G1727:0.25
G1728:0.25
G1729:0.25
G1730:0.25
G1731:0.25
G1732:0.25
G1733:0.25
G1734:0.25
G1735:0.25
G1736:0.25
G1737:0.25
G1738:0.25
G1739:0.25
G1740:0.25
G1741:0.25
G1742:0.25
G1743:0.25
G1744:0.25
G1745:0.25
G1746:0.25
G1747:0.25
G1748:0.25
G1749:0.25
G1750:0.25
G1751:0.25
G1752:0.25
G1753:0.25
G1754:0.25
G1755:0.25
G1756:0.25
G1757:0.25
G1758:0.25
G1759:0.25
G1760:0.25
G1761:0.25
G1762:0.25
G1763:0.25
G1764:0.25
G1765:0.25
G1766:0.25
G1767:0.25
G1768:0.25
G1769:0.25
G1770:0.25
G1771:0.25
G1772:0.25
G1773:0.25
G1774:0.25
G1775:0.25
G1776:0.25
G1777:0.25
G1778:0.25
G1779:0.25
G1780:0.25
G1781:0.25
G1782:0.25
G1783:0.25
G1784:0.25
G1785:0.25
G1786:0.25
G1787:0.25
G1788:0.25
G1789:0.25
G1790:0.25
G1791:0.25
G1792:0.25
G1793:0.25
G1794:0.25
G1795:0.25
G1796:0.25
G1797:0.25
G1798:0.25
G1799:0.25
G1800:0.25
G1801:0.25
G1802:0.25
G1803:0.25
G1804:0.25
G1805:0.25
G1806:0.25
G1807:0.25
G1808:0.25
G1809:0.25
G1810:0.25
G1811:0.25
G1812:0.25
G1813:0.25
G1814:0.25
G1815:0.25
G1816:0.25
FinishTime:02/15/2018 14:18:36.866
