Input param:JobHistoryConnection:E:\MGALFA\AutomationCode\Sensitivities\FP_Type_I_UW_Sensitivities_NewBusiness_MortUp10_1QTROUT\Log\FP_Type_I_UW_Sensitivities_NewBusiness_MortUp10_1QTROUT_Perm_Table_QsecScale2.txt
Input param:JobInstanceID:1
Input param:SourceWorkbookLocation:E:\mgalfa\Staging\FairValue\Sensitivity\ModelInputs\IFRS_Model_Inputs.xlsx
Input param:SourceSheetName:FP Type I UW Inputs
Input param:SourceRow:27
Input param:SourceColumn:E
Input param:DestinationWorkbookLocation:E:\MGALFA\Model\Executionfolder\Sensitivities\FP_Type_I_UW_Sensitivities_NewBusiness_MortUp10_1QTROUT\FVQtrly.xlsx
Input param:DestinationSheetName:QsecScale2
Input param:DestinationRangeStartRow:4
Input param:DestinationRangeStartColumn:B
Input param:DestinationEndRangeRow:4
Input param:DestinationEndRangeColumn:EU
E27:1.1
FinishTime:02/21/2018 07:42:21.324
