Input param:JobHistoryConnection:E:\MGALFA\AutomationCode\Sensitivities\FP_IntUp50_1QTROUT\Log\ScenarioProjectFileCopyHistory.txt
Input param:JobInstanceID:4
Input param:UseDBJobHistory:false
Input param:DestinationDirectory:E:\MGALFA\Model\Executionfolder\Sensitivities\FP_IntUp50_1QTROUT
Input param:SourceDirectoryPattern:E:\MGALFA\Model\Executionfolder\Scenario
Input param:Q1MonthMap:1,2,3
Input param:Q2MonthMap:4,5,6
Input param:Q3MonthMap:7,8,9
Input param:Q4MonthMap:10,11,12
Input param:ProcessTimeToMonthOffset:-2
Input param:OverwriteDestinationFile:true
Input param:ExpectedNumberOfFiles:-1
Input param:Wildcard:*.*
Input param:WildcardExclusions:.Ares .Ars
Input param:ReplaceFromString:
Input param:ReplaceToString:
File Name Before 1:E:\MGALFA\Model\Executionfolder\Scenario\SCN_RN_1000.Adb2
File Name After 1:E:\MGALFA\Model\Executionfolder\Sensitivities\FP_IntUp50_1QTROUT\SCN_RN_1000.Adb2
File Name Before 2:E:\MGALFA\Model\Executionfolder\Scenario\SCN_RN_1000.Adb2.TRN.zip
File Name After 2:E:\MGALFA\Model\Executionfolder\Sensitivities\FP_IntUp50_1QTROUT\SCN_RN_1000.Adb2.TRN.zip
File Name Before 3:E:\MGALFA\Model\Executionfolder\Scenario\Scn_Rn_1000.Ain2
File Name After 3:E:\MGALFA\Model\Executionfolder\Sensitivities\FP_IntUp50_1QTROUT\Scn_Rn_1000.Ain2
File Name Before 4:E:\MGALFA\Model\Executionfolder\Scenario\Scn_Rn_1000.Asd
File Name After 4:E:\MGALFA\Model\Executionfolder\Sensitivities\FP_IntUp50_1QTROUT\Scn_Rn_1000.Asd
ResolvedDirectoryName:E:\MGALFA\Model\Executionfolder\Scenario
FinishTime:02/09/2018 10:56:25.438
