Input param:JobHistoryConnection:E:\MGALFA\AutomationCode\EquityAttribution\Log\ExternalFileCheckerJobHistory.txt
Input param:JobInstanceID:-1
Input param:UseDBJobHistory:false
Input param:SourceDirectoryPattern:\\us.aegon.com\ait\Actuary\TCMActuary\Valtest\{YearHolderFourDigit}M{MonthHolderLeadingZero}\VA IFRS Reporting\Market Data
Input param:Q1MonthMap:1,2,3
Input param:Q2MonthMap:4,5,6
Input param:Q3MonthMap:7,8,9
Input param:Q4MonthMap:10,11,12
Input param:ProcessTimeToMonthOffset:-1
Input param:OverwriteDestinationFile:true
Input param:ExpectedNumberOfFiles:1
Input param:Wildcard:Market Data*final - blend.xlsx
NumberOfFilesFound:1
ResolvedDirectoryName:\\us.aegon.com\ait\Actuary\TCMActuary\Valtest\2018M03\VA IFRS Reporting\Market Data
FinishTime:04/23/2018 14:27:58.051
