Input param:JobHistoryConnection:E:\MGALFA\AutomationCode\EquityAttribution\Log\MktAssumptionsFileCopyJobHistory.txt
Input param:JobInstanceID:2
Input param:UseDBJobHistory:false
Input param:DestinationDirectory:E:\mgalfa\Staging\FairValue\MarketInputsandAssumptions
Input param:SourceDirectoryPattern:\\us.aegon.com\ait\Actuary\TCMActuary\Valtest\{YearHolderFourDigit}M{MonthHolderLeadingZero}\VA IFRS Reporting\Market Data
Input param:Q1MonthMap:1,2,3
Input param:Q2MonthMap:4,5,6
Input param:Q3MonthMap:7,8,9
Input param:Q4MonthMap:10,11,12
Input param:ProcessTimeToMonthOffset:-1
Input param:OverwriteDestinationFile:true
Input param:ExpectedNumberOfFiles:-1
Input param:Wildcard:Market Data*final - blend.xlsx
Input param:WildcardExclusions:
Input param:ReplaceFromString:\sQ\d{3}\s
Input param:ReplaceToString:
File Name Before 1:\\us.aegon.com\ait\Actuary\TCMActuary\Valtest\2018M03\VA IFRS Reporting\Market Data\Market Data Q118 - final - blend.xlsx
File Name After 1:E:\mgalfa\Staging\FairValue\MarketInputsandAssumptions\Market Data- final - blend.xlsx
ResolvedDirectoryName:\\us.aegon.com\ait\Actuary\TCMActuary\Valtest\2018M03\VA IFRS Reporting\Market Data
FinishTime:04/23/2018 14:27:58.082
