Input param:JobHistoryConnection:E:\MGALFA\AutomationCode\EquityAttribution\Log\StagingFileCheckerJobHistory.txt
Input param:JobInstanceID:-1
Input param:UseDBJobHistory:false
Input param:SourceDirectoryPattern:E:\MGALFA\Staging\FairValue\MarketInputsandAssumptions
Input param:Q1MonthMap:1,2,3
Input param:Q2MonthMap:4,5,6
Input param:Q3MonthMap:7,8,9
Input param:Q4MonthMap:10,11,12
Input param:ProcessTimeToMonthOffset:0
Input param:OverwriteDestinationFile:true
Input param:ExpectedNumberOfFiles:1
Input param:Wildcard:Market Data*final - blend.xlsx
NumberOfFilesFound:1
ResolvedDirectoryName:E:\MGALFA\Staging\FairValue\MarketInputsandAssumptions
FinishTime:04/23/2018 14:27:58.160
