Input param:JobHistoryConnection:E:\mgalfa\AutomationCode\EquityAttribution\Log\SystemPause_JobHistory.txt
Input param:JobInstanceID:2
Input param:SleepTimeInMilliseconds:300000
FinishTime:04/24/2018 08:34:04.919
