Input param:JobHistoryConnection:E:\MGALFA\AutomationCode\Sensitivities\MTP_2YE\Log\VarDVol Perm Table.txt
Input param:JobInstanceID:1
Input param:SourceWorkbookLocation:E:\mgalfa\Staging\FairValue\Sensitivity\FPPKSetup\FP PK Setup.xlsx
Input param:SourceSheetName:Setup
Input param:SourceRangeStartRow:5
Input param:SourceRangeStartColumn:J
Input param:SourceEndRangeRow:1816
Input param:SourceEndRangeColumn:J
Input param:DestinationWorkbookLocation:E:\MGALFA\Model\Executionfolder\Sensitivities\MTP_2YE\QtrlySens.xlsx
Input param:DestinationSheetName:VarDVol
Input param:DestinationRangeStartRow:5
Input param:DestinationRangeStartColumn:B
Input param:DestinationEndRangeRow:5
Input param:DestinationEndRangeColumn:BQS
Source Cells:,,,,,,,,,,,,,,,,,,,,,,,,,,,,,,,,,,,,,,,,,,,,,,,,,,,,,,,,,,,,,,,,,,,,,,,,,,,,,,,,,,,,,,,,,,,,,,,,,,,,,,,,,,,,,,,,,,,,,,,,,,,,,,,,,,,,,,,,,,,,,,,,,,,,,,,,,,,,,,,,,,,,,,,,,,,,,,,,,,,,,,,,,,,,,,,,,,,,,,,,,,,,,,,,,,,,,,,,,,,,,,,,,,,,,,,,,,,,,,,,,,,,,,,,,,,,,,,,,,,,,,,,,,,,,,,,,,,,,,,,,,,,,,,,,,,,,,,,,,,,,,,,,,,,,,,,,,,,,,,,,,,,,,,,,,,,,,,,,,,,,,,,,,,,,,,,,,,,,,,,,,,,,,,,,,,,,,,,,,,,,,,,,,,,,,,,,,,,,,,,,,,,,,,,,,,,,,,,,,,,,,,,,,,,,,,,,,,,,,,,,,,,,,,,,,,,,,,,,,,,,,,,,,,,,,,,,,,,,,,,,,,,,,,,,,,,,,,,,,,,,,,,,,,,,,,,,,,,,,,,,,,,,,,,,,,,,,,,,,,,,,,,,,,,,,,,,,,,,,,,,,,,,,,,,,,,,,,,,,,,,,,,,,,,,,,,,,,,,,,,,,,,,,,,,,,,,,,,,,,,,,,,,,,,,,,,,,,,,,,,,,,,,,,,,,,,,,,,,,,,,,,,,,,,,,,,,,,,,,,,,,,,,,,,,,,,,,,,,,,,,,,,,,,,,,,,,,,,,,,,,,,,,,,,,,,,,,,,,,,,,,,,,,,,,,,,,,,,,,,,,,,,,,,,,,,,,,,,,,,,,,,,,,,,,,,,,,,,,,,,,,,,,,,,,,,,,,,,,,,,,,,,,,,,,,,,,,,,,,,,,,,,,,,,,,,,,,,,,,,,,,,,,,,,,,,,,,,,,,,,,,,,,,,,,,,,,,,,,,,,,,,,,,,,,,,,,,,,,,,,,,,,,,,,,,,,,,,,,,,,,,,,,,,,,,,,,,,,,,,,,,,,,,,,,,,,,,,,,,,,,,,,,,,,,,,,,,,,,,,,,,,,,,,,,,,,,,,,,,,,,,,,,,,,,,,,,,,,,,,,,,,,,,,,,,,,,,,,,,,,,,,,,,,,,,,,,,,,,,,,,,,,,,,,,,,,,,,,,,,,,,,,,,,,,,,,,,,,,,,,,,,,,,,,,,,,,,,,,,,,,,,,,,,,,,,,,,,,,,,,,,,,,,,,,,,,,,,,,,,,,,,,,,,,,,,,,,,,,,,,,,,,,,,,,,,,,,,,,,,,,,,,,,,,,,,,,,,,,,,,,,,,,,,,,,,,,,,,,,,,,,,,,,,,,,,,,,,,,,,,,,,,,,,,,,,,,,,,,,,,,,,,,,,,,,,,,,,,,,,,,,,,,,,,,,,,,,,,,,,,,,,,,,,,,,,,,,,,,,,,,,,,,,,,,,,,,,,,,,,,,,,,,,,,,,,,,,,,,,,,,,,,,,,,,,,,,,,,,,,,,,,,,,,,,,,,,,,,,,,,,,,,,,,,,,,,,,,,,,,,,,,,,,,,,,,,,,,,,,,,,,,,,,,,,,,,,,,,,,,,,,,,,,,,,,,,,,,,,,,,,,,,,,,,,,,,,,,,,,,,,,,,,,,,,,,,,,,,,,,,,,,,,,,,,,,,,,,,,,,,,,,,,,,,,,,,,,,,,,,,,,,,,,,,,,,,,,,,,,,,,,,,,,,,,,,,,,,,,,,,,,,,,,,,,,,,,,,,,,,,,,,,,,,,,,,,,,,,,,,,,,,,,,,,,,,,,,,,,,,,,,,,,,,,,,,,,,,,,,,,,,,,,,,,,,,,,,,,,,,,,,,,,,,,,,,,,,,,,,,,,,,,,,,,,,,,,,,,,,,,,,,,,,,,,,,,,,,,,,,,,,,,,,,,,,,
J5:0.151965
J6:0.151965
J7:0.151965
J8:0.151965
J9:0.151965
J10:0.151965
J11:0.151965
J12:0.151965
J13:0.151965
J14:0.151965
J15:0.151965
J16:0.151965
J17:0.24
J18:0.24
J19:0.24
J20:0.24
J21:0.24
J22:0.24
J23:0.24
J24:0.24
J25:0.24
J26:0.24
J27:0.24
J28:0.24
J29:0.24
J30:0.24
J31:0.24
J32:0.150040158530717
J33:0.150040158530717
J34:0.150040158530717
J35:0.150040158530717
J36:0.150040158530717
J37:0.150040158530717
J38:0.150040158530717
J39:0.150040158530717
J40:0.150040158530717
J41:0.150040158530717
J42:0.150040158530717
J43:0.150040158530717
J44:0.183719797592099
J45:0.183719797592099
J46:0.183719797592099
J47:0.183719797592099
J48:0.183719797592099
J49:0.183719797592099
J50:0.183719797592099
J51:0.183719797592099
J52:0.183719797592099
J53:0.183719797592099
J54:0.183719797592099
J55:0.183719797592099
J56:0.200303435046635
J57:0.200303435046635
J58:0.200303435046635
J59:0.200303435046635
J60:0.200303435046635
J61:0.200303435046635
J62:0.200303435046635
J63:0.200303435046635
J64:0.200303435046635
J65:0.200303435046635
J66:0.200303435046635
J67:0.200303435046635
J68:0.217462213417188
J69:0.217462213417188
J70:0.217462213417188
J71:0.217462213417188
J72:0.217462213417188
J73:0.217462213417188
J74:0.217462213417188
J75:0.217462213417188
J76:0.217462213417188
J77:0.217462213417188
J78:0.217462213417188
J79:0.217462213417188
J80:0.237769283844832
J81:0.237769283844832
J82:0.237769283844832
J83:0.237769283844832
J84:0.237769283844832
J85:0.237769283844832
J86:0.237769283844832
J87:0.237769283844832
J88:0.237769283844832
J89:0.237769283844832
J90:0.237769283844832
J91:0.237769283844832
J92:0.219036450034503
J93:0.219561255966122
J94:0.220086061897741
J95:0.220610867829359
J96:0.221135673760978
J97:0.221660479692596
J98:0.222185285624215
J99:0.222710091555834
J100:0.223234897487452
J101:0.223759703419071
J102:0.224284509350689
J103:0.224809315282308
J104:0.225334121213926
J105:0.225858927145545
J106:0.226383733077164
J107:0.226908539008782
J108:0.227433344940401
J109:0.227958150872019
J110:0.228482956803638
J111:0.229007762735257
J112:0.229532568666875
J113:0.230057374598494
J114:0.230582180530112
J115:0.231106986461731
J116:0.231631792393349
J117:0.232156598324968
J118:0.232681404256587
J119:0.233206210188205
J120:0.233731016119824
J121:0.234255822051442
J122:0.234780627983061
J123:0.23530543391468
J124:0.235830239846298
J125:0.236355045777917
J126:0.236879851709535
J127:0.237404657641154
J128:0.237929463572773
J129:0.238454269504391
J130:0.23897907543601
J131:0.239503881367628
J132:0.240028687299247
J133:0.240553493230865
J134:0.241078299162484
J135:0.241603105094103
J136:0.242127911025721
J137:0.24265271695734
J138:0.243177522888958
J139:0.243702328820577
J140:0.244227134752196
J141:0.244751940683814
J142:0.245276746615433
J143:0.245801552547051
J144:0.24632635847867
J145:0.246851164410289
J146:0.247375970341907
J147:0.247900776273526
J148:0.248425582205144
J149:0.248950388136763
J150:0.249475194068381
J151:0.25
J152:0.25
J153:0.25
J154:0.25
J155:0.25
J156:0.25
J157:0.25
J158:0.25
J159:0.25
J160:0.25
J161:0.25
J162:0.25
J163:0.25
J164:0.25
J165:0.25
J166:0.25
J167:0.25
J168:0.25
J169:0.25
J170:0.25
J171:0.25
J172:0.25
J173:0.25
J174:0.25
J175:0.25
J176:0.25
J177:0.25
J178:0.25
J179:0.25
J180:0.25
J181:0.25
J182:0.25
J183:0.25
J184:0.25
J185:0.25
J186:0.25
J187:0.25
J188:0.25
J189:0.25
J190:0.25
J191:0.25
J192:0.25
J193:0.25
J194:0.25
J195:0.25
J196:0.25
J197:0.25
J198:0.25
J199:0.25
J200:0.25
J201:0.25
J202:0.25
J203:0.25
J204:0.25
J205:0.25
J206:0.25
J207:0.25
J208:0.25
J209:0.25
J210:0.25
J211:0.25
J212:0.25
J213:0.25
J214:0.25
J215:0.25
J216:0.25
J217:0.25
J218:0.25
J219:0.25
J220:0.25
J221:0.25
J222:0.25
J223:0.25
J224:0.25
J225:0.25
J226:0.25
J227:0.25
J228:0.25
J229:0.25
J230:0.25
J231:0.25
J232:0.25
J233:0.25
J234:0.25
J235:0.25
J236:0.25
J237:0.25
J238:0.25
J239:0.25
J240:0.25
J241:0.25
J242:0.25
J243:0.25
J244:0.25
J245:0.25
J246:0.25
J247:0.25
J248:0.25
J249:0.25
J250:0.25
J251:0.25
J252:0.25
J253:0.25
J254:0.25
J255:0.25
J256:0.25
J257:0.25
J258:0.25
J259:0.25
J260:0.25
J261:0.25
J262:0.25
J263:0.25
J264:0.25
J265:0.25
J266:0.25
J267:0.25
J268:0.25
J269:0.25
J270:0.25
J271:0.25
J272:0.25
J273:0.25
J274:0.25
J275:0.25
J276:0.25
J277:0.25
J278:0.25
J279:0.25
J280:0.25
J281:0.25
J282:0.25
J283:0.25
J284:0.25
J285:0.25
J286:0.25
J287:0.25
J288:0.25
J289:0.25
J290:0.25
J291:0.25
J292:0.25
J293:0.25
J294:0.25
J295:0.25
J296:0.25
J297:0.25
J298:0.25
J299:0.25
J300:0.25
J301:0.25
J302:0.25
J303:0.25
J304:0.25
J305:0.25
J306:0.25
J307:0.25
J308:0.25
J309:0.25
J310:0.25
J311:0.25
J312:0.25
J313:0.25
J314:0.25
J315:0.25
J316:0.25
J317:0.25
J318:0.25
J319:0.25
J320:0.25
J321:0.25
J322:0.25
J323:0.25
J324:0.25
J325:0.25
J326:0.25
J327:0.25
J328:0.25
J329:0.25
J330:0.25
J331:0.25
J332:0.25
J333:0.25
J334:0.25
J335:0.25
J336:0.25
J337:0.25
J338:0.25
J339:0.25
J340:0.25
J341:0.25
J342:0.25
J343:0.25
J344:0.25
J345:0.25
J346:0.25
J347:0.25
J348:0.25
J349:0.25
J350:0.25
J351:0.25
J352:0.25
J353:0.25
J354:0.25
J355:0.25
J356:0.25
J357:0.25
J358:0.25
J359:0.25
J360:0.25
J361:0.25
J362:0.25
J363:0.25
J364:0.25
J365:0.25
J366:0.25
J367:0.25
J368:0.25
J369:0.25
J370:0.25
J371:0.25
J372:0.25
J373:0.25
J374:0.25
J375:0.25
J376:0.25
J377:0.25
J378:0.25
J379:0.25
J380:0.25
J381:0.25
J382:0.25
J383:0.25
J384:0.25
J385:0.25
J386:0.25
J387:0.25
J388:0.25
J389:0.25
J390:0.25
J391:0.25
J392:0.25
J393:0.25
J394:0.25
J395:0.25
J396:0.25
J397:0.25
J398:0.25
J399:0.25
J400:0.25
J401:0.25
J402:0.25
J403:0.25
J404:0.25
J405:0.25
J406:0.25
J407:0.25
J408:0.25
J409:0.25
J410:0.25
J411:0.25
J412:0.25
J413:0.25
J414:0.25
J415:0.25
J416:0.25
J417:0.25
J418:0.25
J419:0.25
J420:0.25
J421:0.25
J422:0.25
J423:0.25
J424:0.25
J425:0.25
J426:0.25
J427:0.25
J428:0.25
J429:0.25
J430:0.25
J431:0.25
J432:0.25
J433:0.25
J434:0.25
J435:0.25
J436:0.25
J437:0.25
J438:0.25
J439:0.25
J440:0.25
J441:0.25
J442:0.25
J443:0.25
J444:0.25
J445:0.25
J446:0.25
J447:0.25
J448:0.25
J449:0.25
J450:0.25
J451:0.25
J452:0.25
J453:0.25
J454:0.25
J455:0.25
J456:0.25
J457:0.25
J458:0.25
J459:0.25
J460:0.25
J461:0.25
J462:0.25
J463:0.25
J464:0.25
J465:0.25
J466:0.25
J467:0.25
J468:0.25
J469:0.25
J470:0.25
J471:0.25
J472:0.25
J473:0.25
J474:0.25
J475:0.25
J476:0.25
J477:0.25
J478:0.25
J479:0.25
J480:0.25
J481:0.25
J482:0.25
J483:0.25
J484:0.25
J485:0.25
J486:0.25
J487:0.25
J488:0.25
J489:0.25
J490:0.25
J491:0.25
J492:0.25
J493:0.25
J494:0.25
J495:0.25
J496:0.25
J497:0.25
J498:0.25
J499:0.25
J500:0.25
J501:0.25
J502:0.25
J503:0.25
J504:0.25
J505:0.25
J506:0.25
J507:0.25
J508:0.25
J509:0.25
J510:0.25
J511:0.25
J512:0.25
J513:0.25
J514:0.25
J515:0.25
J516:0.25
J517:0.25
J518:0.25
J519:0.25
J520:0.25
J521:0.25
J522:0.25
J523:0.25
J524:0.25
J525:0.25
J526:0.25
J527:0.25
J528:0.25
J529:0.25
J530:0.25
J531:0.25
J532:0.25
J533:0.25
J534:0.25
J535:0.25
J536:0.25
J537:0.25
J538:0.25
J539:0.25
J540:0.25
J541:0.25
J542:0.25
J543:0.25
J544:0.25
J545:0.25
J546:0.25
J547:0.25
J548:0.25
J549:0.25
J550:0.25
J551:0.25
J552:0.25
J553:0.25
J554:0.25
J555:0.25
J556:0.25
J557:0.25
J558:0.25
J559:0.25
J560:0.25
J561:0.25
J562:0.25
J563:0.25
J564:0.25
J565:0.25
J566:0.25
J567:0.25
J568:0.25
J569:0.25
J570:0.25
J571:0.25
J572:0.25
J573:0.25
J574:0.25
J575:0.25
J576:0.25
J577:0.25
J578:0.25
J579:0.25
J580:0.25
J581:0.25
J582:0.25
J583:0.25
J584:0.25
J585:0.25
J586:0.25
J587:0.25
J588:0.25
J589:0.25
J590:0.25
J591:0.25
J592:0.25
J593:0.25
J594:0.25
J595:0.25
J596:0.25
J597:0.25
J598:0.25
J599:0.25
J600:0.25
J601:0.25
J602:0.25
J603:0.25
J604:0.25
J605:0.25
J606:0.25
J607:0.25
J608:0.25
J609:0.25
J610:0.25
J611:0.25
J612:0.25
J613:0.25
J614:0.25
J615:0.25
J616:0.25
J617:0.25
J618:0.25
J619:0.25
J620:0.25
J621:0.25
J622:0.25
J623:0.25
J624:0.25
J625:0.25
J626:0.25
J627:0.25
J628:0.25
J629:0.25
J630:0.25
J631:0.25
J632:0.25
J633:0.25
J634:0.25
J635:0.25
J636:0.25
J637:0.25
J638:0.25
J639:0.25
J640:0.25
J641:0.25
J642:0.25
J643:0.25
J644:0.25
J645:0.25
J646:0.25
J647:0.25
J648:0.25
J649:0.25
J650:0.25
J651:0.25
J652:0.25
J653:0.25
J654:0.25
J655:0.25
J656:0.25
J657:0.25
J658:0.25
J659:0.25
J660:0.25
J661:0.25
J662:0.25
J663:0.25
J664:0.25
J665:0.25
J666:0.25
J667:0.25
J668:0.25
J669:0.25
J670:0.25
J671:0.25
J672:0.25
J673:0.25
J674:0.25
J675:0.25
J676:0.25
J677:0.25
J678:0.25
J679:0.25
J680:0.25
J681:0.25
J682:0.25
J683:0.25
J684:0.25
J685:0.25
J686:0.25
J687:0.25
J688:0.25
J689:0.25
J690:0.25
J691:0.25
J692:0.25
J693:0.25
J694:0.25
J695:0.25
J696:0.25
J697:0.25
J698:0.25
J699:0.25
J700:0.25
J701:0.25
J702:0.25
J703:0.25
J704:0.25
J705:0.25
J706:0.25
J707:0.25
J708:0.25
J709:0.25
J710:0.25
J711:0.25
J712:0.25
J713:0.25
J714:0.25
J715:0.25
J716:0.25
J717:0.25
J718:0.25
J719:0.25
J720:0.25
J721:0.25
J722:0.25
J723:0.25
J724:0.25
J725:0.25
J726:0.25
J727:0.25
J728:0.25
J729:0.25
J730:0.25
J731:0.25
J732:0.25
J733:0.25
J734:0.25
J735:0.25
J736:0.25
J737:0.25
J738:0.25
J739:0.25
J740:0.25
J741:0.25
J742:0.25
J743:0.25
J744:0.25
J745:0.25
J746:0.25
J747:0.25
J748:0.25
J749:0.25
J750:0.25
J751:0.25
J752:0.25
J753:0.25
J754:0.25
J755:0.25
J756:0.25
J757:0.25
J758:0.25
J759:0.25
J760:0.25
J761:0.25
J762:0.25
J763:0.25
J764:0.25
J765:0.25
J766:0.25
J767:0.25
J768:0.25
J769:0.25
J770:0.25
J771:0.25
J772:0.25
J773:0.25
J774:0.25
J775:0.25
J776:0.25
J777:0.25
J778:0.25
J779:0.25
J780:0.25
J781:0.25
J782:0.25
J783:0.25
J784:0.25
J785:0.25
J786:0.25
J787:0.25
J788:0.25
J789:0.25
J790:0.25
J791:0.25
J792:0.25
J793:0.25
J794:0.25
J795:0.25
J796:0.25
J797:0.25
J798:0.25
J799:0.25
J800:0.25
J801:0.25
J802:0.25
J803:0.25
J804:0.25
J805:0.25
J806:0.25
J807:0.25
J808:0.25
J809:0.25
J810:0.25
J811:0.25
J812:0.25
J813:0.25
J814:0.25
J815:0.25
J816:0.25
J817:0.25
J818:0.25
J819:0.25
J820:0.25
J821:0.25
J822:0.25
J823:0.25
J824:0.25
J825:0.25
J826:0.25
J827:0.25
J828:0.25
J829:0.25
J830:0.25
J831:0.25
J832:0.25
J833:0.25
J834:0.25
J835:0.25
J836:0.25
J837:0.25
J838:0.25
J839:0.25
J840:0.25
J841:0.25
J842:0.25
J843:0.25
J844:0.25
J845:0.25
J846:0.25
J847:0.25
J848:0.25
J849:0.25
J850:0.25
J851:0.25
J852:0.25
J853:0.25
J854:0.25
J855:0.25
J856:0.25
J857:0.25
J858:0.25
J859:0.25
J860:0.25
J861:0.25
J862:0.25
J863:0.25
J864:0.25
J865:0.25
J866:0.25
J867:0.25
J868:0.25
J869:0.25
J870:0.25
J871:0.25
J872:0.25
J873:0.25
J874:0.25
J875:0.25
J876:0.25
J877:0.25
J878:0.25
J879:0.25
J880:0.25
J881:0.25
J882:0.25
J883:0.25
J884:0.25
J885:0.25
J886:0.25
J887:0.25
J888:0.25
J889:0.25
J890:0.25
J891:0.25
J892:0.25
J893:0.25
J894:0.25
J895:0.25
J896:0.25
J897:0.25
J898:0.25
J899:0.25
J900:0.25
J901:0.25
J902:0.25
J903:0.25
J904:0.25
J905:0.25
J906:0.25
J907:0.25
J908:0.25
J909:0.25
J910:0.25
J911:0.25
J912:0.25
J913:0.25
J914:0.25
J915:0.25
J916:0.25
J917:0.25
J918:0.25
J919:0.25
J920:0.25
J921:0.25
J922:0.25
J923:0.25
J924:0.25
J925:0.25
J926:0.25
J927:0.25
J928:0.25
J929:0.25
J930:0.25
J931:0.25
J932:0.25
J933:0.25
J934:0.25
J935:0.25
J936:0.25
J937:0.25
J938:0.25
J939:0.25
J940:0.25
J941:0.25
J942:0.25
J943:0.25
J944:0.25
J945:0.25
J946:0.25
J947:0.25
J948:0.25
J949:0.25
J950:0.25
J951:0.25
J952:0.25
J953:0.25
J954:0.25
J955:0.25
J956:0.25
J957:0.25
J958:0.25
J959:0.25
J960:0.25
J961:0.25
J962:0.25
J963:0.25
J964:0.25
J965:0.25
J966:0.25
J967:0.25
J968:0.25
J969:0.25
J970:0.25
J971:0.25
J972:0.25
J973:0.25
J974:0.25
J975:0.25
J976:0.25
J977:0.25
J978:0.25
J979:0.25
J980:0.25
J981:0.25
J982:0.25
J983:0.25
J984:0.25
J985:0.25
J986:0.25
J987:0.25
J988:0.25
J989:0.25
J990:0.25
J991:0.25
J992:0.25
J993:0.25
J994:0.25
J995:0.25
J996:0.25
J997:0.25
J998:0.25
J999:0.25
J1000:0.25
J1001:0.25
J1002:0.25
J1003:0.25
J1004:0.25
J1005:0.25
J1006:0.25
J1007:0.25
J1008:0.25
J1009:0.25
J1010:0.25
J1011:0.25
J1012:0.25
J1013:0.25
J1014:0.25
J1015:0.25
J1016:0.25
J1017:0.25
J1018:0.25
J1019:0.25
J1020:0.25
J1021:0.25
J1022:0.25
J1023:0.25
J1024:0.25
J1025:0.25
J1026:0.25
J1027:0.25
J1028:0.25
J1029:0.25
J1030:0.25
J1031:0.25
J1032:0.25
J1033:0.25
J1034:0.25
J1035:0.25
J1036:0.25
J1037:0.25
J1038:0.25
J1039:0.25
J1040:0.25
J1041:0.25
J1042:0.25
J1043:0.25
J1044:0.25
J1045:0.25
J1046:0.25
J1047:0.25
J1048:0.25
J1049:0.25
J1050:0.25
J1051:0.25
J1052:0.25
J1053:0.25
J1054:0.25
J1055:0.25
J1056:0.25
J1057:0.25
J1058:0.25
J1059:0.25
J1060:0.25
J1061:0.25
J1062:0.25
J1063:0.25
J1064:0.25
J1065:0.25
J1066:0.25
J1067:0.25
J1068:0.25
J1069:0.25
J1070:0.25
J1071:0.25
J1072:0.25
J1073:0.25
J1074:0.25
J1075:0.25
J1076:0.25
J1077:0.25
J1078:0.25
J1079:0.25
J1080:0.25
J1081:0.25
J1082:0.25
J1083:0.25
J1084:0.25
J1085:0.25
J1086:0.25
J1087:0.25
J1088:0.25
J1089:0.25
J1090:0.25
J1091:0.25
J1092:0.25
J1093:0.25
J1094:0.25
J1095:0.25
J1096:0.25
J1097:0.25
J1098:0.25
J1099:0.25
J1100:0.25
J1101:0.25
J1102:0.25
J1103:0.25
J1104:0.25
J1105:0.25
J1106:0.25
J1107:0.25
J1108:0.25
J1109:0.25
J1110:0.25
J1111:0.25
J1112:0.25
J1113:0.25
J1114:0.25
J1115:0.25
J1116:0.25
J1117:0.25
J1118:0.25
J1119:0.25
J1120:0.25
J1121:0.25
J1122:0.25
J1123:0.25
J1124:0.25
J1125:0.25
J1126:0.25
J1127:0.25
J1128:0.25
J1129:0.25
J1130:0.25
J1131:0.25
J1132:0.25
J1133:0.25
J1134:0.25
J1135:0.25
J1136:0.25
J1137:0.25
J1138:0.25
J1139:0.25
J1140:0.25
J1141:0.25
J1142:0.25
J1143:0.25
J1144:0.25
J1145:0.25
J1146:0.25
J1147:0.25
J1148:0.25
J1149:0.25
J1150:0.25
J1151:0.25
J1152:0.25
J1153:0.25
J1154:0.25
J1155:0.25
J1156:0.25
J1157:0.25
J1158:0.25
J1159:0.25
J1160:0.25
J1161:0.25
J1162:0.25
J1163:0.25
J1164:0.25
J1165:0.25
J1166:0.25
J1167:0.25
J1168:0.25
J1169:0.25
J1170:0.25
J1171:0.25
J1172:0.25
J1173:0.25
J1174:0.25
J1175:0.25
J1176:0.25
J1177:0.25
J1178:0.25
J1179:0.25
J1180:0.25
J1181:0.25
J1182:0.25
J1183:0.25
J1184:0.25
J1185:0.25
J1186:0.25
J1187:0.25
J1188:0.25
J1189:0.25
J1190:0.25
J1191:0.25
J1192:0.25
J1193:0.25
J1194:0.25
J1195:0.25
J1196:0.25
J1197:0.25
J1198:0.25
J1199:0.25
J1200:0.25
J1201:0.25
J1202:0.25
J1203:0.25
J1204:0.25
J1205:0.25
J1206:0.25
J1207:0.25
J1208:0.25
J1209:0.25
J1210:0.25
J1211:0.25
J1212:0.25
J1213:0.25
J1214:0.25
J1215:0.25
J1216:0.25
J1217:0.25
J1218:0.25
J1219:0.25
J1220:0.25
J1221:0.25
J1222:0.25
J1223:0.25
J1224:0.25
J1225:0.25
J1226:0.25
J1227:0.25
J1228:0.25
J1229:0.25
J1230:0.25
J1231:0.25
J1232:0.25
J1233:0.25
J1234:0.25
J1235:0.25
J1236:0.25
J1237:0.25
J1238:0.25
J1239:0.25
J1240:0.25
J1241:0.25
J1242:0.25
J1243:0.25
J1244:0.25
J1245:0.25
J1246:0.25
J1247:0.25
J1248:0.25
J1249:0.25
J1250:0.25
J1251:0.25
J1252:0.25
J1253:0.25
J1254:0.25
J1255:0.25
J1256:0.25
J1257:0.25
J1258:0.25
J1259:0.25
J1260:0.25
J1261:0.25
J1262:0.25
J1263:0.25
J1264:0.25
J1265:0.25
J1266:0.25
J1267:0.25
J1268:0.25
J1269:0.25
J1270:0.25
J1271:0.25
J1272:0.25
J1273:0.25
J1274:0.25
J1275:0.25
J1276:0.25
J1277:0.25
J1278:0.25
J1279:0.25
J1280:0.25
J1281:0.25
J1282:0.25
J1283:0.25
J1284:0.25
J1285:0.25
J1286:0.25
J1287:0.25
J1288:0.25
J1289:0.25
J1290:0.25
J1291:0.25
J1292:0.25
J1293:0.25
J1294:0.25
J1295:0.25
J1296:0.25
J1297:0.25
J1298:0.25
J1299:0.25
J1300:0.25
J1301:0.25
J1302:0.25
J1303:0.25
J1304:0.25
J1305:0.25
J1306:0.25
J1307:0.25
J1308:0.25
J1309:0.25
J1310:0.25
J1311:0.25
J1312:0.25
J1313:0.25
J1314:0.25
J1315:0.25
J1316:0.25
J1317:0.25
J1318:0.25
J1319:0.25
J1320:0.25
J1321:0.25
J1322:0.25
J1323:0.25
J1324:0.25
J1325:0.25
J1326:0.25
J1327:0.25
J1328:0.25
J1329:0.25
J1330:0.25
J1331:0.25
J1332:0.25
J1333:0.25
J1334:0.25
J1335:0.25
J1336:0.25
J1337:0.25
J1338:0.25
J1339:0.25
J1340:0.25
J1341:0.25
J1342:0.25
J1343:0.25
J1344:0.25
J1345:0.25
J1346:0.25
J1347:0.25
J1348:0.25
J1349:0.25
J1350:0.25
J1351:0.25
J1352:0.25
J1353:0.25
J1354:0.25
J1355:0.25
J1356:0.25
J1357:0.25
J1358:0.25
J1359:0.25
J1360:0.25
J1361:0.25
J1362:0.25
J1363:0.25
J1364:0.25
J1365:0.25
J1366:0.25
J1367:0.25
J1368:0.25
J1369:0.25
J1370:0.25
J1371:0.25
J1372:0.25
J1373:0.25
J1374:0.25
J1375:0.25
J1376:0.25
J1377:0.25
J1378:0.25
J1379:0.25
J1380:0.25
J1381:0.25
J1382:0.25
J1383:0.25
J1384:0.25
J1385:0.25
J1386:0.25
J1387:0.25
J1388:0.25
J1389:0.25
J1390:0.25
J1391:0.25
J1392:0.25
J1393:0.25
J1394:0.25
J1395:0.25
J1396:0.25
J1397:0.25
J1398:0.25
J1399:0.25
J1400:0.25
J1401:0.25
J1402:0.25
J1403:0.25
J1404:0.25
J1405:0.25
J1406:0.25
J1407:0.25
J1408:0.25
J1409:0.25
J1410:0.25
J1411:0.25
J1412:0.25
J1413:0.25
J1414:0.25
J1415:0.25
J1416:0.25
J1417:0.25
J1418:0.25
J1419:0.25
J1420:0.25
J1421:0.25
J1422:0.25
J1423:0.25
J1424:0.25
J1425:0.25
J1426:0.25
J1427:0.25
J1428:0.25
J1429:0.25
J1430:0.25
J1431:0.25
J1432:0.25
J1433:0.25
J1434:0.25
J1435:0.25
J1436:0.25
J1437:0.25
J1438:0.25
J1439:0.25
J1440:0.25
J1441:0.25
J1442:0.25
J1443:0.25
J1444:0.25
J1445:0.25
J1446:0.25
J1447:0.25
J1448:0.25
J1449:0.25
J1450:0.25
J1451:0.25
J1452:0.25
J1453:0.25
J1454:0.25
J1455:0.25
J1456:0.25
J1457:0.25
J1458:0.25
J1459:0.25
J1460:0.25
J1461:0.25
J1462:0.25
J1463:0.25
J1464:0.25
J1465:0.25
J1466:0.25
J1467:0.25
J1468:0.25
J1469:0.25
J1470:0.25
J1471:0.25
J1472:0.25
J1473:0.25
J1474:0.25
J1475:0.25
J1476:0.25
J1477:0.25
J1478:0.25
J1479:0.25
J1480:0.25
J1481:0.25
J1482:0.25
J1483:0.25
J1484:0.25
J1485:0.25
J1486:0.25
J1487:0.25
J1488:0.25
J1489:0.25
J1490:0.25
J1491:0.25
J1492:0.25
J1493:0.25
J1494:0.25
J1495:0.25
J1496:0.25
J1497:0.25
J1498:0.25
J1499:0.25
J1500:0.25
J1501:0.25
J1502:0.25
J1503:0.25
J1504:0.25
J1505:0.25
J1506:0.25
J1507:0.25
J1508:0.25
J1509:0.25
J1510:0.25
J1511:0.25
J1512:0.25
J1513:0.25
J1514:0.25
J1515:0.25
J1516:0.25
J1517:0.25
J1518:0.25
J1519:0.25
J1520:0.25
J1521:0.25
J1522:0.25
J1523:0.25
J1524:0.25
J1525:0.25
J1526:0.25
J1527:0.25
J1528:0.25
J1529:0.25
J1530:0.25
J1531:0.25
J1532:0.25
J1533:0.25
J1534:0.25
J1535:0.25
J1536:0.25
J1537:0.25
J1538:0.25
J1539:0.25
J1540:0.25
J1541:0.25
J1542:0.25
J1543:0.25
J1544:0.25
J1545:0.25
J1546:0.25
J1547:0.25
J1548:0.25
J1549:0.25
J1550:0.25
J1551:0.25
J1552:0.25
J1553:0.25
J1554:0.25
J1555:0.25
J1556:0.25
J1557:0.25
J1558:0.25
J1559:0.25
J1560:0.25
J1561:0.25
J1562:0.25
J1563:0.25
J1564:0.25
J1565:0.25
J1566:0.25
J1567:0.25
J1568:0.25
J1569:0.25
J1570:0.25
J1571:0.25
J1572:0.25
J1573:0.25
J1574:0.25
J1575:0.25
J1576:0.25
J1577:0.25
J1578:0.25
J1579:0.25
J1580:0.25
J1581:0.25
J1582:0.25
J1583:0.25
J1584:0.25
J1585:0.25
J1586:0.25
J1587:0.25
J1588:0.25
J1589:0.25
J1590:0.25
J1591:0.25
J1592:0.25
J1593:0.25
J1594:0.25
J1595:0.25
J1596:0.25
J1597:0.25
J1598:0.25
J1599:0.25
J1600:0.25
J1601:0.25
J1602:0.25
J1603:0.25
J1604:0.25
J1605:0.25
J1606:0.25
J1607:0.25
J1608:0.25
J1609:0.25
J1610:0.25
J1611:0.25
J1612:0.25
J1613:0.25
J1614:0.25
J1615:0.25
J1616:0.25
J1617:0.25
J1618:0.25
J1619:0.25
J1620:0.25
J1621:0.25
J1622:0.25
J1623:0.25
J1624:0.25
J1625:0.25
J1626:0.25
J1627:0.25
J1628:0.25
J1629:0.25
J1630:0.25
J1631:0.25
J1632:0.25
J1633:0.25
J1634:0.25
J1635:0.25
J1636:0.25
J1637:0.25
J1638:0.25
J1639:0.25
J1640:0.25
J1641:0.25
J1642:0.25
J1643:0.25
J1644:0.25
J1645:0.25
J1646:0.25
J1647:0.25
J1648:0.25
J1649:0.25
J1650:0.25
J1651:0.25
J1652:0.25
J1653:0.25
J1654:0.25
J1655:0.25
J1656:0.25
J1657:0.25
J1658:0.25
J1659:0.25
J1660:0.25
J1661:0.25
J1662:0.25
J1663:0.25
J1664:0.25
J1665:0.25
J1666:0.25
J1667:0.25
J1668:0.25
J1669:0.25
J1670:0.25
J1671:0.25
J1672:0.25
J1673:0.25
J1674:0.25
J1675:0.25
J1676:0.25
J1677:0.25
J1678:0.25
J1679:0.25
J1680:0.25
J1681:0.25
J1682:0.25
J1683:0.25
J1684:0.25
J1685:0.25
J1686:0.25
J1687:0.25
J1688:0.25
J1689:0.25
J1690:0.25
J1691:0.25
J1692:0.25
J1693:0.25
J1694:0.25
J1695:0.25
J1696:0.25
J1697:0.25
J1698:0.25
J1699:0.25
J1700:0.25
J1701:0.25
J1702:0.25
J1703:0.25
J1704:0.25
J1705:0.25
J1706:0.25
J1707:0.25
J1708:0.25
J1709:0.25
J1710:0.25
J1711:0.25
J1712:0.25
J1713:0.25
J1714:0.25
J1715:0.25
J1716:0.25
J1717:0.25
J1718:0.25
J1719:0.25
J1720:0.25
J1721:0.25
J1722:0.25
J1723:0.25
J1724:0.25
J1725:0.25
J1726:0.25
J1727:0.25
J1728:0.25
J1729:0.25
J1730:0.25
J1731:0.25
J1732:0.25
J1733:0.25
J1734:0.25
J1735:0.25
J1736:0.25
J1737:0.25
J1738:0.25
J1739:0.25
J1740:0.25
J1741:0.25
J1742:0.25
J1743:0.25
J1744:0.25
J1745:0.25
J1746:0.25
J1747:0.25
J1748:0.25
J1749:0.25
J1750:0.25
J1751:0.25
J1752:0.25
J1753:0.25
J1754:0.25
J1755:0.25
J1756:0.25
J1757:0.25
J1758:0.25
J1759:0.25
J1760:0.25
J1761:0.25
J1762:0.25
J1763:0.25
J1764:0.25
J1765:0.25
J1766:0.25
J1767:0.25
J1768:0.25
J1769:0.25
J1770:0.25
J1771:0.25
J1772:0.25
J1773:0.25
J1774:0.25
J1775:0.25
J1776:0.25
J1777:0.25
J1778:0.25
J1779:0.25
J1780:0.25
J1781:0.25
J1782:0.25
J1783:0.25
J1784:0.25
J1785:0.25
J1786:0.25
J1787:0.25
J1788:0.25
J1789:0.25
J1790:0.25
J1791:0.25
J1792:0.25
J1793:0.25
J1794:0.25
J1795:0.25
J1796:0.25
J1797:0.25
J1798:0.25
J1799:0.25
J1800:0.25
J1801:0.25
J1802:0.25
J1803:0.25
J1804:0.25
J1805:0.25
J1806:0.25
J1807:0.25
J1808:0.25
J1809:0.25
J1810:0.25
J1811:0.25
J1812:0.25
J1813:0.25
J1814:0.25
J1815:0.25
J1816:0.25
FinishTime:01/08/2018 08:09:26.951
