Input param:JobHistoryConnection:E:\mgalfa\AutomationCode\Sensitivities\FP_EQSens_EQDn40_1YROUT\Log\ClearExecutionJobHistory.txt
Input param:JobInstanceID:4
Input param:UseDBJobHistory:false
Input param:DirectoryToClear:E:\MGALFA\Model\Executionfolder\Sensitivities\FP_EQSens_EQDn40_1YROUT
Input param:DeleteSubdirectories:true
FinishTime:01/30/2018 14:32:57.227
