Alfa Run Log:Start MG-ALFA script processing: E:\MGALFA\AutomationCode\Sensitivities\MTP_NewBusiness_5YE\Executables\AlfaAutomation\modelscript.asc

Start date and time .... 01-11-2018 at 11:50:18
Workspace Id ........... C:\Program Files (x86)\Milliman\MG-ALFA 10.5.2011\UI\MGALFA105
System version ......... MG-ALFA Version 10.5.2011[10.5.016]


01-11-2018 at 11:50:18 --------------------------------------------------------------------------------

OpenModel "E:\MGALFA\Model\Executionfolder\Sensitivities\MTP_NewBusiness_5YE\MTP_NewBusiness_5YE.ain2"
ValDate 09/2017
Run 133

::AinRun::Message::Begin::

Return Message: 

 Run.133  Yes    Na  Ok--01-11-2018 at 11:54:38  TCM VA URL 2013 TLIC - Single Scenario 

::AinRun::Message::End::
Close


01-11-2018 at 11:54:39 --------------------------------------------------------------------------------

End date and time ...... 01-11-2018 at 11:54:39
End of script .......... 

Input param:JobHistoryConnection:E:\mgalfa\AutomationCode\Sensitivities\MTP_NewBusiness_5YE\Log\AlfaTriggerFileSet.txt
Input param:JobInstanceID:2
Input param:ModelName:MTP_NewBusiness_5YE
Input param:AlfaTriggerFileLocation:E:\MGALFA\AlfaRunTriggerFiles
Input param:PostProcessingTriggerFile:E:\MGALFA\AlfaPostProcessingTriggerFiles\MTP_NewBusiness_5YE.txt
Input param:ProcessLocation:"C:\Program Files (x86)\Milliman\MG-ALFA 10.5.2011\NUX\MgAlfa.exe"
Input param:Arguments:"E:\MGALFA\AutomationCode\Sensitivities\MTP_NewBusiness_5YE\Executables\AlfaAutomation\modelscript.asc"
Input param:ModelAinLocation:E:\MGALFA\Model\Executionfolder\Sensitivities\MTP_NewBusiness_5YE\Ifrs_Fair_Value.Ain2
Input param:RunScenarios:133
Input param:ProcessTimeToMonthOffsetForValDate:-4
Input param:ScriptRunFile:E:\MGALFA\AutomationCode\Sensitivities\MTP_NewBusiness_5YE\Executables\AlfaAutomation\modelscript.asc
Input param:AlfaLogFile:E:\MGALFA\AutomationCode\Sensitivities\MTP_NewBusiness_5YE\Executables\AlfaAutomation\modelscript.asc.Log
Input param:ErrorOutputSizeMinimumInBytes:3219456
Input param:ErrorOutputSizeLocation:E:\MGALFA\Model\Executionfolder\Sensitivities\MTP_NewBusiness_5YE
Input param:ErrorOutputSizeWildcard:*.Arx2
Input param:ErrorIndicatorList:Wrn|Err|Not Processed
Input param:ErrorFileSaveLocation:E:\MGALFA\Model\Executionfolder\Sensitivities\MTP_NewBusiness_5YE\MTP_NewBusiness_5YE_Error.txt
Input param:ToAddress:TAFinVAFVModelers@transamerica.com
Input param:FromAddress:MDLC_DoNotReply@transamerica.com
Input param:Subject:MTP_NewBusiness_5YE Complete
Input param:Body:MG-Alfa automation complete (MTP_NewBusiness_5YE)
Input param:SmtpServer:na-mail.aegon.com
Initial :Scenarios:
Scenarios: :133
ModelAinReName:E:\MGALFA\Model\Executionfolder\Sensitivities\MTP_NewBusiness_5YE\MTP_NewBusiness_5YE.ain2
FinishTime:01/11/2018 11:54:40.274
