Input param:JobHistoryConnection:E:\mgalfa\AutomationCode\Sensitivities\MTP_NewBusiness_5YE\Log\DeletePostRunFileJobHistory.txt
Input param:JobInstanceID:4
Input param:UseDBJobHistory:false
Input param:FileToDelete:E:\MGALFA\AlfaPostProcessingTriggerFiles\MTP_NewBusiness_5YE.txt
FinishTime:01/11/2018 12:00:22.950
