Input param:JobHistoryConnection:E:\MGALFA\AutomationCode\Sensitivities\MTP_NewBusiness_5YE\Log\GMWBLapseAnnInt Perm Table.txt
Input param:JobInstanceID:2
Input param:SourceWorkbookLocation:E:\mgalfa\Staging\FairValue\Sensitivity\FPPKSetup\FP PK Setup.xlsx
Input param:SourceSheetName:Setup
Input param:SourceRangeStartRow:13
Input param:SourceRangeStartColumn:D
Input param:SourceEndRangeRow:13
Input param:SourceEndRangeColumn:D
Input param:DestinationWorkbookLocation:E:\MGALFA\Model\Executionfolder\Sensitivities\MTP_NewBusiness_5YE\QtrlySens.xlsx
Input param:DestinationSheetName:GMWBLapseAnnInt
Input param:DestinationRangeStartRow:5
Input param:DestinationRangeStartColumn:B
Input param:DestinationEndRangeRow:5
Input param:DestinationEndRangeColumn:B
Source Cells:
D13:0.04413894
FinishTime:01/11/2018 11:36:50.184
