Input param:JobHistoryConnection:E:\mgalfa\AutomationCode\Sensitivities\MTP_NewBusiness_5YE\Log\TextReportConsolidation.txt
Input param:JobInstanceID:1
Input param:LogFileDirectory:E:\mgalfa\AutomationCode\Sensitivities\MTP_NewBusiness_5YE\Log
Input param:OutputFile:E:\MGALFA\Model\Executionfolder\Sensitivities\MTP_NewBusiness_5YE\MTP_NewBusiness_5YEReports.xlsx
FinishTime:01/11/2018 12:00:17.670
