Start MG-ALFA script processing: E:\mgalfa\AutomationCode\BOPParallel\Executables\AlfaAutomation\modelscript.asc

Start date and time .... 02-05-2018 at 10:52:34
Workspace Id ........... C:\Program Files (x86)\Milliman\MG-ALFA 10.5.2011\UI\MGALFA105
System version ......... MG-ALFA Version 10.5.2011[10.5.016]


02-05-2018 at 10:52:34 --------------------------------------------------------------------------------

OpenModel "E:\MGALFA\Model\Executionfolder\BOPParallel\BOPParallel.ain2"
ValDate 09/2017
Run 2-37

::AinRun::Message::Begin::

Return Message: 

 Run.002  Yes    Na  Ok (Messages)--02-05-2018 at 11:21:48  TCM IRT VA Partners                     
 Run.003  Yes    Na  Ok (Messages)--02-05-2018 at 11:32:20  TCM DIRECT VA VANGUARD VOBA             
 Run.004  Yes    Na  Ok (Messages)--02-05-2018 at 11:41:06  TCM DIRECT VA VANGUARD                  
 Run.005  Yes    Na  Ok (Messages)--02-05-2018 at 11:49:29  TCM MKTG VA BANK CLOSED                 
 Run.006  Yes    Na  Ok (Messages)--02-05-2018 at 12:09:26  TCM MKTG VA BANK 2003                   
 Run.007  Yes    Na  Ok (Messages)--02-05-2018 at 11:58:57  TCM MKTG VA BANK 2007                   
 Run.008  Yes    Na  Ok (Messages)--02-05-2018 at 12:16:58  TCM MKTG VA PORTFOLIO SELECT            
 Run.009  Yes    Na  Ok (Messages)--02-05-2018 at 12:25:38  TCM MKTG VA BROKER CLOSED - R           
 Run.010  Yes    Na  Ok (Messages)--02-05-2018 at 12:35:30  TCM MKTG VA BROKER 2003 - NR            
 Run.011  Yes    Na  Ok (Messages)--02-05-2018 at 13:05:48  TCM MKTG VA BROKER 2003 - R             
 Run.012  Yes    Na  Ok (Messages)--02-05-2018 at 14:54:30  TCM MKTG VA BROKER 2007                 
 Run.013  Yes    Na  Ok (Messages)--02-05-2018 at 12:46:08  TCM OTHER PRODUCTS P65                  
 Run.014  Yes    Na  Ok (Messages)--02-05-2018 at 12:55:46  TRM SECURE PATH                         
 Run.015  Yes    Na  Ok (Messages)--02-05-2018 at 13:24:24  TFLIC VA POST 050109                    
 Run.016  Yes    Na  Ok (Messages)--02-05-2018 at 16:57:49  TLIC VA POST 050109                     
 Run.017  Yes    Na  Ok (Messages)--02-05-2018 at 14:27:06  AFP VA P65                              
 Run.018  Yes    Na  Ok (Messages)--02-05-2018 at 13:14:27  TCM MKTG VA TLIC TIRE SOP - R           
 Run.019  Yes    Na  Ok (Messages)--02-05-2018 at 13:33:35  RTP / a / VOBA                          
 Run.020  Yes    Na  Ok (Messages)--02-05-2018 at 13:41:59  IVC / a / Voba                          
 Run.021  Yes    Na  Ok (Messages)--02-05-2018 at 13:58:52  Other / a / Voba                        
 Run.022  Yes    Na  Ok (Messages)--02-05-2018 at 13:50:16  IVC / n / Voba                          
 Run.023  Yes    Na  Ok (Messages)--02-05-2018 at 14:16:13  IVC / a / DAC2008                       
 Run.024  Yes    Na  Ok (Messages)--02-05-2018 at 14:07:07  IVC / n / DAC2008                       
 Run.025  Yes    Na  Ok (Messages)--02-05-2018 at 14:35:51  DIA WB WRAP                             
 Run.026  Yes    Na  Ok (Messages)--02-05-2018 at 14:44:07  TCM MGD VA PUERTO RICO - AB             
 Run.027  Yes    Na  Ok (Messages)--02-05-2018 at 15:03:27  TCM MGD VA PUERTO RICO - WB             
 Run.028  Yes    Na  Ok (Messages)--02-05-2018 at 15:13:51  CUNA                                    
 Run.029  Yes    Na  Ok (Messages)--02-05-2018 at 18:39:55  TCM VA POST 10/01/11 TLIC               
 Run.030  Yes    Na  Ok (Messages)--02-05-2018 at 17:46:38  TCM VA post 050113 2013 and 2015 Issues 
 Run.031  Yes    Na  Ok (Messages)--02-05-2018 at 16:02:49  TCM VA post 05/01/2013 TFLIC            
 Run.032  Yes    Na  Ok (Messages)--02-05-2018 at 15:24:02  TCM VA URL 2013 TFLIC                   
 Run.033  Yes    Na  Ok (Messages)--02-05-2018 at 17:08:08  TCM VA URL 2013 TLIC                    
 Run.034  Yes    Na  Ok (Messages)--02-05-2018 at 17:25:28  TCM VA URL 040115 TLIC                  
 Run.035  Yes    Na  Ok (Messages)--02-05-2018 at 19:06:31  TCM VA post 050113 2014 Issues          
 Run.036  Yes    Na  Ok (Messages)--02-05-2018 at 17:36:02  TCM VA Post 010116                      
 Run.037  Yes    Na  Ok (Messages)--02-05-2018 at 16:45:33  TCM VA Post 010117                      

::AinRun::Message::End::
Close


02-05-2018 at 19:06:36 --------------------------------------------------------------------------------

End date and time ...... 02-05-2018 at 19:06:37
End of script .......... 
