Alfa Run Log:
Alfa log for scenarios: 1
Start MG-ALFA script processing: E:\MGALFA\AutomationCode\Sensitivities\FP_EQSens_EQUp10_1YROUT\Executables\AlfaScenarioFileImport\scenarioscript.asc

Start date and time .... 01-30-2018 at 10:38:35
Workspace Id ........... C:\Program Files (x86)\Milliman\MG-ALFA 10.5.2011\UI\MGALFA105
System version ......... MG-ALFA Version 10.5.2011[10.5.016]


01-30-2018 at 10:38:35 --------------------------------------------------------------------------------

OpenModel "E:\MGALFA\Model\Executionfolder\Scenario\SCN_RN_1000.ain2"
ValDate 12/2017
Run 1

::AinRun::Message::Begin::

Return Message: 

 Run.001  Yes    Na  Ok--01-30-2018 at 10:41:24  Not defined 

::AinRun::Message::End::
Close


01-30-2018 at 10:41:24 --------------------------------------------------------------------------------

End date and time ...... 01-30-2018 at 10:41:24
End of script .......... 

Input param:JobHistoryConnection:E:\MGALFA\AutomationCode\Sensitivities\FP_EQSens_EQUp10_1YROUT\Log\AlfaScenarioImportJobHistory.txt
Input param:JobInstanceID:2
Input param:ProcessLocation:"C:\Program Files (x86)\Milliman\MG-ALFA 10.5.2011\NUX\MgAlfa.exe"
Input param:Arguments:"E:\MGALFA\AutomationCode\Sensitivities\FP_EQSens_EQUp10_1YROUT\Executables\AlfaScenarioFileImport\scenarioscript.asc"
Input param:ModelAinLocation:E:\MGALFA\Model\Executionfolder\Scenario\SCN_RN_1000.ain2
Input param:RunScenarios:1
Input param:ProcessTimeToMonthOffsetForValDate:-1
Input param:ScriptRunFile:E:\MGALFA\AutomationCode\Sensitivities\FP_EQSens_EQUp10_1YROUT\Executables\AlfaScenarioFileImport\scenarioscript.asc
Input param:AlfaLogFile:E:\MGALFA\AutomationCode\Sensitivities\FP_EQSens_EQUp10_1YROUT\Executables\AlfaScenarioFileImport\scenarioscript.asc.Log
Input param:ErrorOutputSizeMinimumInBytes:3219456
Input param:ErrorOutputSizeLocation:E:\MGALFA\Model\Executionfolder\Scenario
Input param:ErrorOutputSizeWildcard:*.Arx2
Input param:ErrorIndicatorList:Wrn|Err
Input param:ToAddress:TAFinVAFVModelers@transamerica.com
Input param:FromAddress:MDLC_DoNotReply@transamerica.com
Input param:Subject:Scenario File Import Run Complete
Input param:Body:Scenario File Import Complete (FP_EQSens_EQUp10_1YROUT)
Input param:SmtpServer:na-mail.aegon.com
Initial :Scenarios:
Scenarios: :1
ModelAinReName:E:\MGALFA\Model\Executionfolder\Scenario\SCN_RN_1000.ain2
FinishTime:01/30/2018 10:41:25.231
