Start MG-ALFA script processing: E:\MGALFA\AutomationCode\Sensitivities\FP_EQSens_EQDn25_1YROUT\Executables\AlfaAutomation\modelscript.asc

Start date and time .... 04-19-2018 at 14:45:18
Workspace Id ........... C:\Program Files (x86)\Milliman\MG-ALFA 10.5.2011\UI\MGALFA105
System version ......... MG-ALFA Version 10.5.2011[10.5.016]


04-19-2018 at 14:45:18 --------------------------------------------------------------------------------

OpenModel "E:\MGALFA\Model\Executionfolder\Sensitivities\FP_EQSens_EQDn25_1YROUT\FP_EQSens_EQDn25_1YROUT.ain2"
ValDate 03/2018
Run 102

::AinRun::Message::Begin::

Return Message: 

 Run.102  Yes    Na  Ok (Messages)--04-19-2018 at 14:51:59  TCM IRT VA Partners - Single Scenario 

::AinRun::Message::End::
Close


04-19-2018 at 14:51:59 --------------------------------------------------------------------------------

End date and time ...... 04-19-2018 at 14:51:59
End of script .......... 
