Input param:JobHistoryConnection:E:\mgalfa\AutomationCode\Sensitivities\FP_4YE\Log\F133OCS Perm Table.txt
Input param:JobInstanceID:1
Input param:SourceWorkbookLocation:E:\MGALFA\Staging\FairValue\Sensitivity\FPPKSetup\FP PK Setup.xlsx
Input param:SourceSheetName:Setup
Input param:SourceRow:12
Input param:SourceColumn:S
Input param:DestinationWorkbookLocation:E:\MGALFA\Model\Executionfolder\Sensitivities\FP_4YE\FVQtrly.xlsx
Input param:DestinationSheetName:F133OCS
Input param:DestinationRangeStartRow:5
Input param:DestinationRangeStartColumn:B
Input param:DestinationEndRangeRow:5
Input param:DestinationEndRangeColumn:BQS
S12:0.00390625
FinishTime:01/10/2018 07:51:15.473
