Input param:JobHistoryConnection:E:\mgalfa\AutomationCode\Sensitivities\FP_4YE\Log\GMWBLapseAnnInt Perm Table.txt
Input param:JobInstanceID:1
Input param:SourceWorkbookLocation:E:\MGALFA\Staging\FairValue\Sensitivity\FPPKSetup\FP PK Setup.xlsx
Input param:SourceSheetName:Setup
Input param:SourceRangeStartRow:12
Input param:SourceRangeStartColumn:D
Input param:SourceEndRangeRow:12
Input param:SourceEndRangeColumn:D
Input param:DestinationWorkbookLocation:E:\MGALFA\Model\Executionfolder\Sensitivities\FP_4YE\QtrlySens.xlsx
Input param:DestinationSheetName:GMWBLapseAnnInt
Input param:DestinationRangeStartRow:5
Input param:DestinationRangeStartColumn:B
Input param:DestinationEndRangeRow:5
Input param:DestinationEndRangeColumn:B
Source Cells:
D12:0.04220582
FinishTime:01/10/2018 07:50:55.785
