Input param:JobHistoryConnection:E:\mgalfa\AutomationCode\Sensitivities\FP_IntUp200_1YROUT\Log\DeletePostRunFileJobHistory.txt
Input param:JobInstanceID:4
Input param:UseDBJobHistory:false
Input param:FileToDelete:E:\MGALFA\AlfaPostProcessingTriggerFiles\FP_IntUp200_1YROUT.txt
FinishTime:02/10/2018 16:53:19.582
