Input param:JobHistoryConnection:E:\MGALFA\AutomationCode\Sensitivities\FP_IntUp200_1YROUT\Log\VarVCFFundVol Perm Table.txt
Input param:JobInstanceID:2
Input param:SourceWorkbookLocation:E:\mgalfa\Staging\FairValue\Sensitivity\FPPKSetup\FP PK Setup.xlsx
Input param:SourceSheetName:VarVCFFundVol_IFRS_FV
Input param:SourceRangeStartRow:23
Input param:SourceRangeStartColumn:B
Input param:SourceEndRangeRow:23
Input param:SourceEndRangeColumn:JQI
Input param:DestinationWorkbookLocation:E:\MGALFA\Model\Executionfolder\Sensitivities\FP_IntUp200_1YROUT\VCF_Inputs.xlsx
Input param:DestinationSheetName:VarVCFFundVol_IFRS_FV
Input param:DestinationRangeStartRow:6
Input param:DestinationRangeStartColumn:B
Input param:DestinationEndRangeRow:6
Input param:DestinationEndRangeColumn:JQI
Source Cells:,,,,,,,,,,,,,,,,,,,,,,,,,,,,,,,,,,,,,,,,,,,,,,,,,,,,,,,,,,,,,,,,,,,,,,,,,,,,,,,,,,,,,,,,,,,,,,,,,,,,,,,,,,,,,,,,,,,,,,,,,,,,,,,,,,,,,,,,,,,,,,,,,,,,,,,,,,,,,,,,,,,,,,,,,,,,,,,,,,,,,,,,,,,,,,,,,,,,,,,,,,,,,,,,,,,,,,,,,,,,,,,,,,,,,,,,,,,,,,,,,,,,,,,,,,,,,,,,,,,,,,,,,,,,,,,,,,,,,,,,,,,,,,,,,,,,,,,,,,,,,,,,,,,,,,,,,,,,,,,,,,,,,,,,,,,,,,,,,,,,,,,,,,,,,,,,,,,,,,,,,,,,,,,,,,,,,,,,,,,,,,,,,,,,,,,,,,,,,,,,,,,,,,,,,,,,,,,,,,,,,,,,,,,,,,,,,,,,,,,,,,,,,,,,,,,,,,,,,,,,,,,,,,,,,,,,,,,,,,,,,,,,,,,,,,,,,,,,,,,,,,,,,,,,,,,,,,,,,,,,,,,,,,,,,,,,,,,,,,,,,,,,,,,,,,,,,,,,,,,,,,,,,,,,,,,,,,,,,,,,,,,,,,,,,,,,,,,,,,,,,,,,,,,,,,,,,,,,,,,,,,,,,,,,,,,,,,,,,,,,,,,,,,,,,,,,,,,,,,,,,,,,,,,,,,,,,,,,,,,,,,,,,,,,,,,,,,,,,,,,,,,,,,,,,,,,,,,,,,,,,,,,,,,,,,,,,,,,,,,,,,,,,,,,,,,,,,,,,,,,,,,,,,,,,,,,,,,,,,,,,,,,,,,,,,,,,,,,,,,,,,,,,,,,,,,,,,,,,,,,,,,,,,,,,,,,,,,,,,,,,,,,,,,,,,,,,,,,,,,,,,,,,,,,,,,,,,,,,,,,,,,,,,,,,,,,,,,,,,,,,,,,,,,,,,,,,,,,,,,,,,,,,,,,,,,,,,,,,,,,,,,,,,,,,,,,,,,,,,,,,,,,,,,,,,,,,,,,,,,,,,,,,,,,,,,,,,,,,,,,,,,,,,,,,,,,,,,,,,,,,,,,,,,,,,,,,,,,,,,,,,,,,,,,,,,,,,,,,,,,,,,,,,,,,,,,,,,,,,,,,,,,,,,,,,,,,,,,,,,,,,,,,,,,,,,,,,,,,,,,,,,,,,,,,,,,,,,,,,,,,,,,,,,,,,,,,,,,,,,,,,,,,,,,,,,,,,,,,,,,,,,,,,,,,,,,,,,,,,,,,,,,,,,,,,,,,,,,,,,,,,,,,,,,,,,,,,,,,,,,,,,,,,,,,,,,,,,,,,,,,,,,,,,,,,,,,,,,,,,,,,,,,,,,,,,,,,,,,,,,,,,,,,,,,,,,,,,,,,,,,,,,,,,,,,,,,,,,,,,,,,,,,,,,,,,,,,,,,,,,,,,,,,,,,,,,,,,,,,,,,,,,,,,,,,,,,,,,,,,,,,,,,,,,,,,,,,,,,,,,,,,,,,,,,,,,,,,,,,,,,,,,,,,,,,,,,,,,,,,,,,,,,,,,,,,,,,,,,,,,,,,,,,,,,,,,,,,,,,,,,,,,,,,,,,,,,,,,,,,,,,,,,,,,,,,,,,,,,,,,,,,,,,,,,,,,,,,,,,,,,,,,,,,,,,,,,,,,,,,,,,,,,,,,,,,,,,,,,,,,,,,,,,,,,,,,,,,,,,,,,,,,,,,,,,,,,,,,,,,,,,,,,,,,,,,,,,,,,,,,,,,,,,,,,,,,,,,,,,,,,,,,,,,,,,,,,,,,,,,,,,,,,,,,,,,,,,,,,,,,,,,,,,,,,,,,,,,,,,,,,,,,,,,,,,,,,,,,,,,,,,,,,,,,,,,,,,,,,,,,,,,,,,,,,,,,,,,,,,,,,,,,,,,,,,,,,,,,,,,,,,,,,,,,,,,,,,,,,,,,,,,,,,,,,,,,,,,,,,,,,,,,,,,,,,,,,,,,,,,,,,,,,,,,,,,,,,,,,,,,,,,,,,,,,,,,,,,,,,,,,,,,,,,,,,,,,,,,,,,,,,,,,,,,,,,,,,,,,,,,,,,,,,,,,,,,,,,,,,,,,,,,,,,,,,,,,,,,,,,,,,,,,,,,,,,,,,,,,,,,,,,,,,,,,,,,,,,,,,,,,,,,,,,,,,,,,,,,,,,,,,,,,,,,,,,,,,,,,,,,,,,,,,,,,,,,,,,,,,,,,,,,,,,,,,,,,,,,,,,,,,,,,,,,,,,,,,,,,,,,,,,,,,,,,,,,,,,,,,,,,,,,,,,,,,,,,,,,,,,,,,,,,,,,,,,,,,,,,,,,,,,,,,,,,,,,,,,,,,,,,,,,,,,,,,,,,,,,,,,,,,,,,,,,,,,,,,,,,,,,,,,,,,,,,,,,,,,,,,,,,,,,,,,,,,,,,,,,,,,,,,,,,,,,,,,,,,,,,,,,,,,,,,,,,,,,,,,,,,,,,,,,,,,,,,,,,,,,,,,,,,,,,,,,,,,,,,,,,,,,,,,,,,,,,,,,,,,,,,,,,,,,,,,,,,,,,,,,,,,,,,,,,,,,,,,,,,,,,,,,,,,,,,,,,,,,,,,,,,,,,,,,,,,,,,,,,,,,,,,,,,,,,,,,,,,,,,,,,,,,,,,,,,,,,,,,,,,,,,,,,,,,,,,,,,,,,,,,,,,,,,,,,,,,,,,,,,,,,,,,,,,,,,,,,,,,,,,,,,,,,,,,,,,,,,,,,,,,,,,,,,,,,,,,,,,,,,,,,,,,,,,,,,,,,,,,,,,,,,,,,,,,,,,,,,,,,,,,,,,,,,,,,,,,,,,,,,,,,,,,,,,,,,,,,,,,,,,,,,,,,,,,,,,,,,,,,,,,,,,,,,,,,,,,,,,,,,,,,,,,,,,,,,,,,,,,,,,,,,,,,,,,,,,,,,,,,,,,,,,,,,,,,,,,,,,,,,,,,,,,,,,,,,,,,,,,,,,,,,,,,,,,,,,,,,,,,,,,,,,,,,,,,,,,,,,,,,,,,,,,,,,,,,,,,,,,,,,,,,,,,,,,,,,,,,,,,,,,,,,,,,,,,,,,,,,,,,,,,,,,,,,,,,,,,,,,,,,,,,,,,,,,,,,,,,,,,,,,,,,,,,,,,,,,,,,,,,,,,,,,,,,,,,,,,,,,,,,,,,,,,,,,,,,,,,,,,,,,,,,,,,,,,,,,,,,,,,,,,,,,,,,,,,,,,,,,,,,,,,,,,,,,,,,,,,,,,,,,,,,,,,,,,,,,,,,,,,,,,,,,,,,,,,,,,,,,,,,,,,,,,,,,,,,,,,,,,,,,,,,,,,,,,,,,,,,,,,,,,,,,,,,,,,,,,,,,,,,,,,,,,,,,,,,,,,,,,,,,,,,,,,,,,,,,,,,,,,,,,,,,,,,,,,,,,,,,,,,,,,,,,,,,,,,,,,,,,,,,,,,,,,,,,,,,,,,,,,,,,,,,,,,,,,,,,,,,,,,,,,,,,,,,,,,,,,,,,,,,,,,,,,,,,,,,,,,,,,,,,,,,,,,,,,,,,,,,,,,,,,,,,,,,,,,,,,,,,,,,,,,,,,,,,,,,,,,,,,,,,,,,,,,,,,,,,,,,,,,,,,,,,,,,,,,,,,,,,,,,,,,,,,,,,,,,,,,,,,,,,,,,,,,,,,,,,,,,,,,,,,,,,,,,,,,,,,,,,,,,,,,,,,,,,,,,,,,,,,,,,,,,,,,,,,,,,,,,,,,,,,,,,,,,,,,,,,,,,,,,,,,,,,,,,,,,,,,,,,,,,,,,,,,,,,,,,,,,,,,,,,,,,,,,,,,,,,,,,,,,,,,,,,,,,,,,,,,,,,,,,,,,,,,,,,,,,,,,,,,,,,,,,,,,,,,,,,,,,,,,,,,,,,,,,,,,,,,,,,,,,,,,,,,,,,,,,,,,,,,,,,,,,,,,,,,,,,,,,,,,,,,,,,,,,,,,,,,,,,,,,,,,,,,,,,,,,,,,,,,,,,,,,,,,,,,,,,,,,,,,,,,,,,,,,,,,,,,,,,,,,,,,,,,,,,,,,,,,,,,,,,,,,,,,,,,,,,,,,,,,,,,,,,,,,,,,,,,,,,,,,,,,,,,,,,,,,,,,,,,,,,,,,,,,,,,,,,,,,,,,,,,,,,,,,,,,,,,,,,,,,,,,,,,,,,,,,,,,,,,,,,,,,,,,,,,,,,,,,,,,,,,,,,,,,,,,,,,,,,,,,,,,,,,,,,,,,,,,,,,,,,,,,,,,,,,,,,,,,,,,,,,,,,,,,,,,,,,,,,,,,,,,,,,,,,,,,,,,,,,,,,,,,,,,,,,,,,,,,,,,,,,,,,,,,,,,,,,,,,,,,,,,,,,,,,,,,,,,,,,,,,,,,,,,,,,,,,,,,,,,,,,,,,,,,,,,,,,,,,,,,,,,,,,,,,,,,,,,,,,,,,,,,,,,,,,,,,,,,,,,,,,,,,,,,,,,,,,,,,,,,,,,,,,,,,,,,,,,,,,,,,,,,,,,,,,,,,,,,,,,,,,,,,,,,,,,,,,,,,,,,,,,,,,,,,,,,,,,,,,,,,,,,,,,,,,,,,,,,,,,,,,,,,,,,,,,,,,,,,,,,,,,,,,,,,,,,,,,,,,,,,,,,,,,,,,,,,,,,,,,,,,,,,,,,,,,,,,,,,,,,,,,,,,,,,,,,,,,,,,,,,,,,,,,,,,,,,,,,,,,,,,,,,,,,,,,,,,,,,,,,,,,,,,,,,,,,,,,,,,,,,,,,,,,,,,,,,,,,,,,,,,,,,,,,,,,,,,,,,,,,,,,,,,,,,,,,,,,,,,,,,,,,,,,,,,,,,,,,,,,,,,,,,,,,,,,,,,,,,,,,,,,,,,,,,,,,,,,,,,,,,,,,,,,,,,,,,,,,,,,,,,,,,,,,,,,,,,,,,,,,,,,,,,,,,,,,,,,,,,,,,,,,,,,,,,,,,,,,,,,,,,,,,,,,,,,,,,,,,,,,,,,,,,,,,,,,,,,,,,,,,,,,,,,,,,,,,,,,,,,,,,,,,,,,,,,,,,,,,,,,,,,,,,,,,,,,,,,,,,,,,,,,,,,,,,,,,,,,,,,,,,,,,,,,,,,,,,,,,,,,,,,,,,,,,,,,,,,,,,,,,,,,,,,,,,,,,,,,,,,,,,,,,,,,,,,,,,,,,,,,,,,,,,,,,,,,,,,,,,,,,,,,,,,,,,,,,,,,,,,,,,,,,,,,,,,,,,,,,,,,,,,,,,,,,,,,,,,,,,,,,,,,,,,,,,,,,,,,,,,,,,,,,,,,,,,,,,,,,,,,,,,,,,,,,,,,,,,,,,,,,,,,,,,,,,,,,,,,,,,,,,,,,,,,,,,,,,,,,,,,,,,,,,,,,,,,,,,,,,,,,,,,,,,,,,,,,,,,,,,,,,,,,,,,,,,,,,,,,,,,,,,,,,,,,,,,,,,,,,,,,,,,,,,,,,,,,,,,,,,,,,,,,,,,,,,,,,,,,,,,,,,,,,,,,,,,,,,,,,,,,,,,,,,,,,,,,,,,,,,,,,,,,,,,,,,,,,,,,,,,,,,,,,,,,,,,,,,,,,,,,,,,,,,,,,,,,,,,,,,,,,,,,,,,,,,,,,,,,,,,,,,,,,,,,,,,,,,,,,,,,,,,,,,,,,,,,,,,,,,,,,,,,,,,,,,,,,,,,,,,,,,,,,,,,,,,,,,,,,,,,,,,,,,,,,,,,,,,,,,,,,,,,,,,,,,,,,,,,,,,,,,,,,,,,,,,,,,,,,,,,,,,,,,,,,,,,,,,,,,,,,,,,,,,,,,,,,,,,,,,,,,,,,,,,,,,,,,,,,,,,,,,,,,,,,,,,,,,,,,,,,,,,,,,,,,,,,,,,,,,,,,,,,,,,,,,,,,,,,,,,,,,,,,,,,,,,,,,,,,,,,,,,,,,,,,,,,,,,,,,,,,,,,,,,,,,,,,,,,,,,,,,,,,,,,,,,,,,,,,,,,,,,,,,,,,,,,,,,,,,,,,,,,,,,,,,,,,,,,,,,,,,,,,,,,,,,,,,,,,,,,,,,,,,,,,,,,,,,,,,,,,,,,,,,,,,,,,,,,,,,,,,,,,,,,,,,,,,,,,,,,,,,,,,,,,,,,,,,,,,,,,,,,,,,,,,,,,,,,,,,,,,,,,,,,,,,,,,,,,,,,,,,,,,,,,,,,,,,,,,,,,,,,,,,,,,,,,,,,,,,,,,,,,,,,,,,,,,,,,,,,,,,,,,,,,,,,,,,,,,,,,,,,,,,,,,,,,,,,,,,,,,,,,,,,,,,,,,,,,,,,,,,,,,,,,,,,,,,,,,,,,,,,,,,,,,,,,,,,,,,,,,,,,,,,,,,,,,,,,,,,,,,,,,,,,,,,,,,,,,,,,,,,,,,,,,,,,,,,,,,,,,,,,,,,,,,,,,,,,,,,,,,,,,,,,,,,,,,,,,,,,,,,,,,,,,,,,,,,,,,,,,,,,,,,,,,,,,,,,,,,,,,,,,,,,,,,,,,,,,,,,,,,,,,,,,,,,,,,,,,,,,,,,,,,,,,,,,,,,,,,,,,,,,,,,,,,,,,,,,,,,,,,,,,,,,,,,,,,,,,,,,,,,,,,,,,,,,,,,,,,,,,,,,,,,,,,,,,,,,,,,,,,,,,,,,,,,,,,,,,,,,,,,,,,,,,,,,,,,,,,,,,,,,,,,,,,,,,,,,,,,,,,,,,,,,,,,,,,,,,,,,,,,,,,,,,,,,,,,,,,,,,,,,,,,,,,,,,,,,,,,,,,,,,,,,,,,,,,,,,,,,,,,,,,,,,,,,,,,,,,,,,,,,,,,,,,,,,,,,,,,,,,,,,,,,,,,,,,,,,,,,,,,,,,,,,,,,,,,,,,,,,,,,,,,,,,,,,,,,,,,,,,,,,,,,,,,,,,,,,,,,,,,,,,,,,,,,,,,,,,,,,,,,,,,,,,,,,,,,,,,,,,,,,,,,,,,,,,,,,,,,,,,,,,,,,,,,,,,,,,,,,,,,,,,,,,,,,,,,,,,,,,,,,,,,,,,,,,,,,,,,,,,,,,,,,,,,,,,,,,,,,,,,,,,,,,,,,,,,,,,,,,,,,,,,,,,,,,,,,,,,,,,,,,,,,,,,,,,,,,,,,,,,,,,,,,,,,,,,,,,,,,,,,,,,,,,,,,,,,,,,,,,,,,,,,,,,,,,,,,,,,,,,,,,,,,,,,,,,,,,,,,,,,,,,,,,,,,,,,,,,,,,,,,,,,,,,,,,,,,,,,,,,,,,,,,,,,,,,,,,,,,,,,,,,,,,,,,,,,,,,,,,,,,,,,,,,,,,,,,,,,,,,,,,,,,,,,,,,,,,,,,,,,,,,,,,,,,,,,,,,,,,,,,,,,,,,,,,,,,,,,,,,,,,,,,,,,,,,,,,,,,,,,,,,,,,,,,,,,,,,,,,,,,,,,,,,,,,,,,,,,,,,,,,,,,,,,,,,,,,,,,,,,,,,,,,,,,,,,,,,,,,,,,,,,,,,,,,,,,,,,,,,,,,,,,,,,,,,,,,,,,,,,,,,,,,,,,,,,,,,,,,,,,,,,,,,,,,,,,,,,,,,,,,,,,,,,,,,,,,,,,,,,,,,,,,,,,,,,,,,,,,,,,,,
B23:0
C23:0
D23:0
E23:0
F23:0
G23:0
H23:0
I23:0
J23:0
K23:0
L23:0
M23:0
N23:0
O23:0
P23:0
Q23:0
R23:0
S23:0
T23:0
U23:0
V23:0
W23:0
X23:0
Y23:0
Z23:0
AA23:0
AB23:0
AC23:0
AD23:0
AE23:0
AF23:0
AG23:0
AH23:0
AI23:0
AJ23:0
AK23:0
AL23:0
AM23:0
AN23:0
AO23:0
AP23:0
AQ23:0
AR23:0
AS23:0
AT23:0
AU23:0
AV23:0
AW23:0
AX23:0
AY23:0
AZ23:0
BA23:0
BB23:0
BC23:0
BD23:0
BE23:0
BF23:0
BG23:0
BH23:0
BI23:0
BJ23:0
BK23:0
BL23:0
BM23:0
BN23:0
BO23:0
BP23:0
BQ23:0
BR23:0
BS23:0
BT23:0
BU23:0
BV23:0
BW23:0
BX23:0
BY23:0
BZ23:0
CA23:0
CB23:0
CC23:0
CD23:0
CE23:0
CF23:0
CG23:0
CH23:0
CI23:0
CJ23:0
CK23:0
CL23:0
CM23:0
CN23:0
CO23:0
CP23:0
CQ23:0
CR23:0
CS23:0
CT23:0
CU23:0
CV23:0
CW23:0
CX23:0
CY23:0
CZ23:0
DA23:0
DB23:0
DC23:0
DD23:0
DE23:0
DF23:0
DG23:0
DH23:0
DI23:0
DJ23:0
DK23:0
DL23:0
DM23:0
DN23:0
DO23:0
DP23:0
DQ23:0
DR23:0
DS23:0
DT23:0
DU23:0
DV23:0
DW23:0
DX23:0
DY23:0
DZ23:0
EA23:0
EB23:0
EC23:0
ED23:0
EE23:0
EF23:0
EG23:0
EH23:0
EI23:0
EJ23:0
EK23:0
EL23:0
EM23:0
EN23:0
EO23:0
EP23:0
EQ23:0
ER23:0
ES23:0
ET23:0
EU23:0
EV23:0
EW23:0
EX23:0
EY23:0
EZ23:0
FA23:0
FB23:0
FC23:0
FD23:0
FE23:0
FF23:0
FG23:0
FH23:0
FI23:0
FJ23:0
FK23:0
FL23:0
FM23:0
FN23:0
FO23:0
FP23:0
FQ23:0
FR23:0
FS23:0
FT23:0
FU23:0
FV23:0
FW23:0
FX23:0
FY23:0
FZ23:0
GA23:0
GB23:0
GC23:0
GD23:0
GE23:0
GF23:0
GG23:0
GH23:0
GI23:0
GJ23:0
GK23:0
GL23:0
GM23:0
GN23:0
GO23:0
GP23:0
GQ23:0
GR23:0
GS23:0
GT23:0
GU23:0
GV23:0
GW23:0
GX23:0
GY23:0
GZ23:0
HA23:0
HB23:0
HC23:0
HD23:0
HE23:0
HF23:0
HG23:0
HH23:0
HI23:0
HJ23:0
HK23:0
HL23:0
HM23:0
HN23:0
HO23:0
HP23:0
HQ23:0
HR23:0
HS23:0
HT23:0
HU23:0
HV23:0
HW23:0
HX23:0
HY23:0
HZ23:0
IA23:0
IB23:0
IC23:0
ID23:0
IE23:0
IF23:0
IG23:0
IH23:0
II23:0
IJ23:0
IK23:0
IL23:0
IM23:0
IN23:0
IO23:0
IP23:0
IQ23:0
IR23:0
IS23:0
IT23:0
IU23:0
IV23:0
IW23:0
IX23:0
IY23:0
IZ23:0
JA23:0
JB23:0
JC23:0
JD23:0
JE23:0
JF23:0
JG23:0
JH23:0
JI23:0
JJ23:0
JK23:0
JL23:0
JM23:0
JN23:0
JO23:0
JP23:0
JQ23:0
JR23:0
JS23:0
JT23:0
JU23:0
JV23:0
JW23:0
JX23:0
JY23:0
JZ23:0
KA23:0
KB23:0
KC23:0
KD23:0
KE23:0
KF23:0
KG23:0
KH23:0
KI23:0
KJ23:0
KK23:0
KL23:0
KM23:0
KN23:0
KO23:0
KP23:0
KQ23:0
KR23:0
KS23:0
KT23:0
KU23:0
KV23:0
KW23:0
KX23:0
KY23:0
KZ23:0
LA23:0
LB23:0
LC23:0
LD23:0
LE23:0
LF23:0
LG23:0
LH23:0
LI23:0
LJ23:0
LK23:0
LL23:0
LM23:0
LN23:0
LO23:0
LP23:0
LQ23:0
LR23:0
LS23:0
LT23:0
LU23:0
LV23:0
LW23:0
LX23:0
LY23:0
LZ23:0
MA23:0
MB23:0
MC23:0
MD23:0
ME23:0
MF23:0
MG23:0
MH23:0
MI23:0
MJ23:0
MK23:0
ML23:0
MM23:0
MN23:0
MO23:0
MP23:0
MQ23:0
MR23:0
MS23:0
MT23:0
MU23:0
MV23:0
MW23:0
MX23:0
MY23:0
MZ23:0
NA23:0
NB23:0
NC23:0
ND23:0
NE23:0
NF23:0
NG23:0
NH23:0
NI23:0
NJ23:0
NK23:0
NL23:0
NM23:0
NN23:0
NO23:0
NP23:0
NQ23:0
NR23:0
NS23:0
NT23:0
NU23:0
NV23:0
NW23:0
NX23:0
NY23:0
NZ23:0
OA23:0
OB23:0
OC23:0
OD23:0
OE23:0
OF23:0
OG23:0
OH23:0
OI23:0
OJ23:0
OK23:0
OL23:0
OM23:0
ON23:0
OO23:0
OP23:0
OQ23:0
OR23:0
OS23:0
OT23:0
OU23:0
OV23:0
OW23:0
OX23:0
OY23:0
OZ23:0
PA23:0
PB23:0
PC23:0
PD23:0
PE23:0
PF23:0
PG23:0
PH23:0
PI23:0
PJ23:0
PK23:0
PL23:0
PM23:0
PN23:0
PO23:0
PP23:0
PQ23:0
PR23:0
PS23:0
PT23:0
PU23:0
PV23:0
PW23:0
PX23:0
PY23:0
PZ23:0
QA23:0
QB23:0
QC23:0
QD23:0
QE23:0
QF23:0
QG23:0
QH23:0
QI23:0
QJ23:0
QK23:0
QL23:0
QM23:0
QN23:0
QO23:0
QP23:0
QQ23:0
QR23:0
QS23:0
QT23:0
QU23:0
QV23:0
QW23:0
QX23:0
QY23:0
QZ23:0
RA23:0
RB23:0
RC23:0
RD23:0
RE23:0
RF23:0
RG23:0
RH23:0
RI23:0
RJ23:0
RK23:0
RL23:0
RM23:0
RN23:0
RO23:0
RP23:0
RQ23:0
RR23:0
RS23:0
RT23:0
RU23:0
RV23:0
RW23:0
RX23:0
RY23:0
RZ23:0
SA23:0
SB23:0
SC23:0
SD23:0
SE23:0
SF23:0
SG23:0
SH23:0
SI23:0
SJ23:0
SK23:0
SL23:0
SM23:0
SN23:0
SO23:0
SP23:0
SQ23:0
SR23:0
SS23:0
ST23:0
SU23:0
SV23:0
SW23:0
SX23:0
SY23:0
SZ23:0
TA23:0
TB23:0
TC23:0
TD23:0
TE23:0
TF23:0
TG23:0
TH23:0
TI23:0
TJ23:0
TK23:0
TL23:0
TM23:0
TN23:0
TO23:0
TP23:0
TQ23:0
TR23:0
TS23:0
TT23:0
TU23:0
TV23:0
TW23:0
TX23:0
TY23:0
TZ23:0
UA23:0
UB23:0
UC23:0
UD23:0
UE23:0
UF23:0
UG23:0
UH23:0
UI23:0
UJ23:0
UK23:0
UL23:0
UM23:0
UN23:0
UO23:0
UP23:0
UQ23:0
UR23:0
US23:0
UT23:0
UU23:0
UV23:0
UW23:0
UX23:0
UY23:0
UZ23:0
VA23:0
VB23:0
VC23:0
VD23:0
VE23:0
VF23:0
VG23:0
VH23:0
VI23:0
VJ23:0
VK23:0
VL23:0
VM23:0
VN23:0
VO23:0
VP23:0
VQ23:0
VR23:0
VS23:0
VT23:0
VU23:0
VV23:0
VW23:0
VX23:0
VY23:0
VZ23:0
WA23:0
WB23:0
WC23:0
WD23:0
WE23:0
WF23:0
WG23:0
WH23:0
WI23:0
WJ23:0
WK23:0
WL23:0
WM23:0
WN23:0
WO23:0
WP23:0
WQ23:0
WR23:0
WS23:0
WT23:0
WU23:0
WV23:0
WW23:0
WX23:0
WY23:0
WZ23:0
XA23:0
XB23:0
XC23:0
XD23:0
XE23:0
XF23:0
XG23:0
XH23:0
XI23:0
XJ23:0
XK23:0
XL23:0
XM23:0
XN23:0
XO23:0
XP23:0
XQ23:0
XR23:0
XS23:0
XT23:0
XU23:0
XV23:0
XW23:0
XX23:0
XY23:0
XZ23:0
YA23:0
YB23:0
YC23:0
YD23:0
YE23:0
YF23:0
YG23:0
YH23:0
YI23:0
YJ23:0
YK23:0
YL23:0
YM23:0
YN23:0
YO23:0
YP23:0
YQ23:0
YR23:0
YS23:0
YT23:0
YU23:0
YV23:0
YW23:0
YX23:0
YY23:0
YZ23:0
ZA23:0
ZB23:0
ZC23:0
ZD23:0
ZE23:0
ZF23:0
ZG23:0
ZH23:0
ZI23:0
ZJ23:0
ZK23:0
ZL23:0
ZM23:0
ZN23:0
ZO23:0
ZP23:0
ZQ23:0
ZR23:0
ZS23:0
ZT23:0
ZU23:0
ZV23:0
ZW23:0
ZX23:0
ZY23:0
ZZ23:0
AAA23:0
AAB23:0
AAC23:0
AAD23:0
AAE23:0
AAF23:0
AAG23:0
AAH23:0
AAI23:0
AAJ23:0
AAK23:0
AAL23:0
AAM23:0
AAN23:0
AAO23:0
AAP23:0
AAQ23:0
AAR23:0
AAS23:0
AAT23:0
AAU23:0.2
AAV23:0.2
AAW23:0.2
AAX23:0.2
AAY23:0.2
AAZ23:0.2
ABA23:0.2
ABB23:0.2
ABC23:0.2
ABD23:0.2
ABE23:0.2
ABF23:0.2
ABG23:0.147079142202928
ABH23:0.147079142202928
ABI23:0.147079142202928
ABJ23:0.147079142202928
ABK23:0.147079142202928
ABL23:0.147079142202928
ABM23:0.147079142202928
ABN23:0.147079142202928
ABO23:0.147079142202928
ABP23:0.147079142202928
ABQ23:0.147079142202928
ABR23:0.147079142202928
ABS23:0.184572709136958
ABT23:0.184572709136958
ABU23:0.184572709136958
ABV23:0.184572709136958
ABW23:0.184572709136958
ABX23:0.184572709136958
ABY23:0.184572709136958
ABZ23:0.184572709136958
ACA23:0.184572709136958
ACB23:0.184572709136958
ACC23:0.184572709136958
ACD23:0.184572709136958
ACE23:0.197396039902746
ACF23:0.197396039902746
ACG23:0.197396039902746
ACH23:0.197396039902746
ACI23:0.197396039902746
ACJ23:0.197396039902746
ACK23:0.197396039902746
ACL23:0.197396039902746
ACM23:0.197396039902746
ACN23:0.197396039902746
ACO23:0.197396039902746
ACP23:0.197396039902746
ACQ23:0.214647087460612
ACR23:0.214647087460612
ACS23:0.214647087460612
ACT23:0.214647087460612
ACU23:0.214647087460612
ACV23:0.214647087460612
ACW23:0.214647087460612
ACX23:0.214647087460612
ACY23:0.214647087460612
ACZ23:0.214647087460612
ADA23:0.214647087460612
ADB23:0.214647087460612
ADC23:0.234112795649719
ADD23:0.234112795649719
ADE23:0.234112795649719
ADF23:0.234112795649719
ADG23:0.234112795649719
ADH23:0.234112795649719
ADI23:0.234112795649719
ADJ23:0.234112795649719
ADK23:0.234112795649719
ADL23:0.234112795649719
ADM23:0.234112795649719
ADN23:0.234112795649719
ADO23:0.215962219209842
ADP23:0.216539130748658
ADQ23:0.217116042287474
ADR23:0.21769295382629
ADS23:0.218269865365107
ADT23:0.218846776903923
ADU23:0.219423688442739
ADV23:0.220000599981555
ADW23:0.220577511520372
ADX23:0.221154423059188
ADY23:0.221731334598004
ADZ23:0.22230824613682
AEA23:0.222885157675637
AEB23:0.223462069214453
AEC23:0.224038980753269
AED23:0.224615892292085
AEE23:0.225192803830902
AEF23:0.225769715369718
AEG23:0.226346626908534
AEH23:0.22692353844735
AEI23:0.227500449986167
AEJ23:0.228077361524983
AEK23:0.228654273063799
AEL23:0.229231184602615
AEM23:0.229808096141432
AEN23:0.230385007680248
AEO23:0.230961919219064
AEP23:0.23153883075788
AEQ23:0.232115742296697
AER23:0.232692653835513
AES23:0.233269565374329
AET23:0.233846476913145
AEU23:0.234423388451962
AEV23:0.235000299990778
AEW23:0.235577211529594
AEX23:0.23615412306841
AEY23:0.236731034607226
AEZ23:0.237307946146043
AFA23:0.237884857684859
AFB23:0.238461769223675
AFC23:0.239038680762491
AFD23:0.239615592301308
AFE23:0.240192503840124
AFF23:0.24076941537894
AFG23:0.241346326917756
AFH23:0.241923238456573
AFI23:0.242500149995389
AFJ23:0.243077061534205
AFK23:0.243653973073021
AFL23:0.244230884611838
AFM23:0.244807796150654
AFN23:0.24538470768947
AFO23:0.245961619228286
AFP23:0.246538530767103
AFQ23:0.247115442305919
AFR23:0.247692353844735
AFS23:0.248269265383551
AFT23:0.248846176922367
AFU23:0.249423088461184
AFV23:0.25
AFW23:0.25
AFX23:0.25
AFY23:0.25
AFZ23:0.25
AGA23:0.25
AGB23:0.25
AGC23:0.25
AGD23:0.25
AGE23:0.25
AGF23:0.25
AGG23:0.25
AGH23:0.25
AGI23:0.25
AGJ23:0.25
AGK23:0.25
AGL23:0.25
AGM23:0.25
AGN23:0.25
AGO23:0.25
AGP23:0.25
AGQ23:0.25
AGR23:0.25
AGS23:0.25
AGT23:0.25
AGU23:0.25
AGV23:0.25
AGW23:0.25
AGX23:0.25
AGY23:0.25
AGZ23:0.25
AHA23:0.25
AHB23:0.25
AHC23:0.25
AHD23:0.25
AHE23:0.25
AHF23:0.25
AHG23:0.25
AHH23:0.25
AHI23:0.25
AHJ23:0.25
AHK23:0.25
AHL23:0.25
AHM23:0.25
AHN23:0.25
AHO23:0.25
AHP23:0.25
AHQ23:0.25
AHR23:0.25
AHS23:0.25
AHT23:0.25
AHU23:0.25
AHV23:0.25
AHW23:0.25
AHX23:0.25
AHY23:0.25
AHZ23:0.25
AIA23:0.25
AIB23:0.25
AIC23:0.25
AID23:0.25
AIE23:0.25
AIF23:0.25
AIG23:0.25
AIH23:0.25
AII23:0.25
AIJ23:0.25
AIK23:0.25
AIL23:0.25
AIM23:0.25
AIN23:0.25
AIO23:0.25
AIP23:0.25
AIQ23:0.25
AIR23:0.25
AIS23:0.25
AIT23:0.25
AIU23:0.25
AIV23:0.25
AIW23:0.25
AIX23:0.25
AIY23:0.25
AIZ23:0.25
AJA23:0.25
AJB23:0.25
AJC23:0.25
AJD23:0.25
AJE23:0.25
AJF23:0.25
AJG23:0.25
AJH23:0.25
AJI23:0.25
AJJ23:0.25
AJK23:0.25
AJL23:0.25
AJM23:0.25
AJN23:0.25
AJO23:0.25
AJP23:0.25
AJQ23:0.25
AJR23:0.25
AJS23:0.25
AJT23:0.25
AJU23:0.25
AJV23:0.25
AJW23:0.25
AJX23:0.25
AJY23:0.25
AJZ23:0.25
AKA23:0.25
AKB23:0.25
AKC23:0.25
AKD23:0.25
AKE23:0.25
AKF23:0.25
AKG23:0.25
AKH23:0.25
AKI23:0.25
AKJ23:0.25
AKK23:0.25
AKL23:0.25
AKM23:0.25
AKN23:0.25
AKO23:0.25
AKP23:0.25
AKQ23:0.25
AKR23:0.25
AKS23:0.25
AKT23:0.25
AKU23:0.25
AKV23:0.25
AKW23:0.25
AKX23:0.25
AKY23:0.25
AKZ23:0.25
ALA23:0.25
ALB23:0.25
ALC23:0.25
ALD23:0.25
ALE23:0.25
ALF23:0.25
ALG23:0.25
ALH23:0.25
ALI23:0.25
ALJ23:0.25
ALK23:0.25
ALL23:0.25
ALM23:0.25
ALN23:0.25
ALO23:0.25
ALP23:0.25
ALQ23:0.25
ALR23:0.25
ALS23:0.25
ALT23:0.25
ALU23:0.25
ALV23:0.25
ALW23:0.25
ALX23:0.25
ALY23:0.25
ALZ23:0.25
AMA23:0.25
AMB23:0.25
AMC23:0.25
AMD23:0.25
AME23:0.25
AMF23:0.25
AMG23:0.25
AMH23:0.25
AMI23:0.25
AMJ23:0.25
AMK23:0.25
AML23:0.25
AMM23:0.25
AMN23:0.25
AMO23:0.25
AMP23:0.25
AMQ23:0.25
AMR23:0.25
AMS23:0.25
AMT23:0.25
AMU23:0.25
AMV23:0.25
AMW23:0.25
AMX23:0.25
AMY23:0.25
AMZ23:0.25
ANA23:0.25
ANB23:0.25
ANC23:0.25
AND23:0.25
ANE23:0.25
ANF23:0.25
ANG23:0.25
ANH23:0.25
ANI23:0.25
ANJ23:0.25
ANK23:0.25
ANL23:0.25
ANM23:0.25
ANN23:0.25
ANO23:0.25
ANP23:0.25
ANQ23:0.25
ANR23:0.25
ANS23:0.25
ANT23:0.25
ANU23:0.25
ANV23:0.25
ANW23:0.25
ANX23:0.25
ANY23:0.25
ANZ23:0.25
AOA23:0.25
AOB23:0.25
AOC23:0.25
AOD23:0.25
AOE23:0.25
AOF23:0.25
AOG23:0.25
AOH23:0.25
AOI23:0.25
AOJ23:0.25
AOK23:0.25
AOL23:0.25
AOM23:0.25
AON23:0.25
AOO23:0.25
AOP23:0.25
AOQ23:0.25
AOR23:0.25
AOS23:0.25
AOT23:0.25
AOU23:0.25
AOV23:0.25
AOW23:0.25
AOX23:0.25
AOY23:0.25
AOZ23:0.25
APA23:0.25
APB23:0.25
APC23:0.25
APD23:0.25
APE23:0.25
APF23:0.25
APG23:0.25
APH23:0.25
API23:0.25
APJ23:0.25
APK23:0.25
APL23:0.25
APM23:0.25
APN23:0.25
APO23:0.25
APP23:0.25
APQ23:0.25
APR23:0.25
APS23:0.25
APT23:0.25
APU23:0.25
APV23:0.25
APW23:0.25
APX23:0.25
APY23:0.25
APZ23:0.25
AQA23:0.25
AQB23:0.25
AQC23:0.25
AQD23:0.25
AQE23:0.25
AQF23:0.25
AQG23:0.25
AQH23:0.25
AQI23:0.25
AQJ23:0.25
AQK23:0.25
AQL23:0.25
AQM23:0.25
AQN23:0.25
AQO23:0.25
AQP23:0.25
AQQ23:0.25
AQR23:0.25
AQS23:0.25
AQT23:0.25
AQU23:0.25
AQV23:0.25
AQW23:0.25
AQX23:0.25
AQY23:0.25
AQZ23:0.25
ARA23:0.25
ARB23:0.25
ARC23:0.25
ARD23:0.25
ARE23:0.25
ARF23:0.25
ARG23:0.25
ARH23:0.25
ARI23:0.25
ARJ23:0.25
ARK23:0.25
ARL23:0.25
ARM23:0.25
ARN23:0.25
ARO23:0.25
ARP23:0.25
ARQ23:0.25
ARR23:0.25
ARS23:0.25
ART23:0.25
ARU23:0.25
ARV23:0.25
ARW23:0.25
ARX23:0.25
ARY23:0.25
ARZ23:0.25
ASA23:0.25
ASB23:0.25
ASC23:0.25
ASD23:0.25
ASE23:0.25
ASF23:0.25
ASG23:0.25
ASH23:0.25
ASI23:0.25
ASJ23:0.25
ASK23:0.25
ASL23:0.25
ASM23:0.25
ASN23:0.25
ASO23:0.25
ASP23:0.25
ASQ23:0.25
ASR23:0.25
ASS23:0.25
AST23:0.25
ASU23:0.25
ASV23:0.25
ASW23:0.25
ASX23:0.25
ASY23:0.25
ASZ23:0.25
ATA23:0.25
ATB23:0.25
ATC23:0.25
ATD23:0.25
ATE23:0.25
ATF23:0.25
ATG23:0.25
ATH23:0.25
ATI23:0.25
ATJ23:0.25
ATK23:0.25
ATL23:0.25
ATM23:0.25
ATN23:0.25
ATO23:0.25
ATP23:0.25
ATQ23:0.25
ATR23:0.25
ATS23:0.25
ATT23:0.25
ATU23:0.25
ATV23:0.25
ATW23:0.25
ATX23:0.25
ATY23:0.25
ATZ23:0.25
AUA23:0.25
AUB23:0.25
AUC23:0.25
AUD23:0.25
AUE23:0.25
AUF23:0.25
AUG23:0.25
AUH23:0.25
AUI23:0.25
AUJ23:0.25
AUK23:0.25
AUL23:0.25
AUM23:0.25
AUN23:0.25
AUO23:0.25
AUP23:0.25
AUQ23:0.25
AUR23:0.25
AUS23:0.25
AUT23:0.25
AUU23:0.25
AUV23:0.25
AUW23:0.25
AUX23:0.25
AUY23:0.25
AUZ23:0.25
AVA23:0.25
AVB23:0.25
AVC23:0.25
AVD23:0.25
AVE23:0.25
AVF23:0.25
AVG23:0.25
AVH23:0.25
AVI23:0.25
AVJ23:0.25
AVK23:0.25
AVL23:0.25
AVM23:0.25
AVN23:0.25
AVO23:0.25
AVP23:0.25
AVQ23:0.25
AVR23:0.25
AVS23:0.25
AVT23:0.25
AVU23:0.25
AVV23:0.25
AVW23:0.25
AVX23:0.25
AVY23:0.25
AVZ23:0.25
AWA23:0.25
AWB23:0.25
AWC23:0.25
AWD23:0.25
AWE23:0.25
AWF23:0.25
AWG23:0.25
AWH23:0.25
AWI23:0.25
AWJ23:0.25
AWK23:0.25
AWL23:0.25
AWM23:0.25
AWN23:0.25
AWO23:0.25
AWP23:0.25
AWQ23:0.25
AWR23:0.25
AWS23:0.25
AWT23:0.25
AWU23:0.25
AWV23:0.25
AWW23:0.25
AWX23:0.25
AWY23:0.25
AWZ23:0.25
AXA23:0.25
AXB23:0.25
AXC23:0.25
AXD23:0.25
AXE23:0.25
AXF23:0.25
AXG23:0.25
AXH23:0.25
AXI23:0.25
AXJ23:0.25
AXK23:0.25
AXL23:0.25
AXM23:0.25
AXN23:0.25
AXO23:0.25
AXP23:0.25
AXQ23:0.25
AXR23:0.25
AXS23:0.25
AXT23:0.25
AXU23:0.25
AXV23:0.25
AXW23:0.25
AXX23:0.25
AXY23:0.25
AXZ23:0.25
AYA23:0.25
AYB23:0.25
AYC23:0.25
AYD23:0.25
AYE23:0.25
AYF23:0.25
AYG23:0.25
AYH23:0.25
AYI23:0.25
AYJ23:0.25
AYK23:0.25
AYL23:0.25
AYM23:0.25
AYN23:0.25
AYO23:0.25
AYP23:0.25
AYQ23:0.25
AYR23:0.25
AYS23:0.25
AYT23:0.25
AYU23:0.25
AYV23:0.25
AYW23:0.25
AYX23:0.25
AYY23:0.25
AYZ23:0.25
AZA23:0.25
AZB23:0.25
AZC23:0.25
AZD23:0.25
AZE23:0.25
AZF23:0.25
AZG23:0.25
AZH23:0.25
AZI23:0.25
AZJ23:0.25
AZK23:0.25
AZL23:0.25
AZM23:0.25
AZN23:0.25
AZO23:0.25
AZP23:0.25
AZQ23:0.25
AZR23:0.25
AZS23:0.25
AZT23:0.25
AZU23:0.25
AZV23:0.25
AZW23:0.25
AZX23:0.25
AZY23:0.25
AZZ23:0.25
BAA23:0.25
BAB23:0.25
BAC23:0.25
BAD23:0.25
BAE23:0.25
BAF23:0.25
BAG23:0.25
BAH23:0.25
BAI23:0.25
BAJ23:0.25
BAK23:0.25
BAL23:0.25
BAM23:0.25
BAN23:0.25
BAO23:0.25
BAP23:0.25
BAQ23:0.25
BAR23:0.25
BAS23:0.25
BAT23:0.25
BAU23:0.25
BAV23:0.25
BAW23:0.25
BAX23:0.25
BAY23:0.25
BAZ23:0.25
BBA23:0.25
BBB23:0.25
BBC23:0.25
BBD23:0.25
BBE23:0.25
BBF23:0.25
BBG23:0.25
BBH23:0.25
BBI23:0.25
BBJ23:0.25
BBK23:0.25
BBL23:0.25
BBM23:0.25
BBN23:0.25
BBO23:0.25
BBP23:0.25
BBQ23:0.25
BBR23:0.25
BBS23:0.25
BBT23:0.25
BBU23:0.25
BBV23:0.25
BBW23:0.25
BBX23:0.25
BBY23:0.25
BBZ23:0.25
BCA23:0.25
BCB23:0.25
BCC23:0.25
BCD23:0.25
BCE23:0.25
BCF23:0.25
BCG23:0.25
BCH23:0.25
BCI23:0.25
BCJ23:0.25
BCK23:0.25
BCL23:0.25
BCM23:0.25
BCN23:0.2
BCO23:0.2
BCP23:0.2
BCQ23:0.2
BCR23:0.2
BCS23:0.2
BCT23:0.2
BCU23:0.2
BCV23:0.2
BCW23:0.2
BCX23:0.2
BCY23:0.2
BCZ23:0.167792842175477
BDA23:0.167792842175477
BDB23:0.167792842175477
BDC23:0.167792842175477
BDD23:0.167792842175477
BDE23:0.167792842175477
BDF23:0.167792842175477
BDG23:0.167792842175477
BDH23:0.167792842175477
BDI23:0.167792842175477
BDJ23:0.167792842175477
BDK23:0.167792842175477
BDL23:0.210473815728954
BDM23:0.210473815728954
BDN23:0.210473815728954
BDO23:0.210473815728954
BDP23:0.210473815728954
BDQ23:0.210473815728954
BDR23:0.210473815728954
BDS23:0.210473815728954
BDT23:0.210473815728954
BDU23:0.210473815728954
BDV23:0.210473815728954
BDW23:0.210473815728954
BDX23:0.208272343337222
BDY23:0.208272343337222
BDZ23:0.208272343337222
BEA23:0.208272343337222
BEB23:0.208272343337222
BEC23:0.208272343337222
BED23:0.208272343337222
BEE23:0.208272343337222
BEF23:0.208272343337222
BEG23:0.208272343337222
BEH23:0.208272343337222
BEI23:0.208272343337222
BEJ23:0.217082503774806
BEK23:0.217082503774806
BEL23:0.217082503774806
BEM23:0.217082503774806
BEN23:0.217082503774806
BEO23:0.217082503774806
BEP23:0.217082503774806
BEQ23:0.217082503774806
BER23:0.217082503774806
BES23:0.217082503774806
BET23:0.217082503774806
BEU23:0.217082503774806
BEV23:0.223507460850205
BEW23:0.223507460850205
BEX23:0.223507460850205
BEY23:0.223507460850205
BEZ23:0.223507460850205
BFA23:0.223507460850205
BFB23:0.223507460850205
BFC23:0.223507460850205
BFD23:0.223507460850205
BFE23:0.223507460850205
BFF23:0.223507460850205
BFG23:0.223507460850205
BFH23:0.216849312054287
BFI23:0.217411188121164
BFJ23:0.21797306418804
BFK23:0.218534940254917
BFL23:0.219096816321793
BFM23:0.21965869238867
BFN23:0.220220568455546
BFO23:0.220782444522423
BFP23:0.221344320589299
BFQ23:0.221906196656176
BFR23:0.222468072723052
BFS23:0.223029948789929
BFT23:0.223591824856805
BFU23:0.224153700923682
BFV23:0.224715576990558
BFW23:0.225277453057435
BFX23:0.225839329124311
BFY23:0.226401205191188
BFZ23:0.226963081258064
BGA23:0.227524957324941
BGB23:0.228086833391817
BGC23:0.228648709458694
BGD23:0.22921058552557
BGE23:0.229772461592447
BGF23:0.230334337659323
BGG23:0.2308962137262
BGH23:0.231458089793076
BGI23:0.232019965859953
BGJ23:0.232581841926829
BGK23:0.233143717993705
BGL23:0.233705594060582
BGM23:0.234267470127458
BGN23:0.234829346194335
BGO23:0.235391222261211
BGP23:0.235953098328088
BGQ23:0.236514974394964
BGR23:0.237076850461841
BGS23:0.237638726528717
BGT23:0.238200602595594
BGU23:0.23876247866247
BGV23:0.239324354729347
BGW23:0.239886230796223
BGX23:0.2404481068631
BGY23:0.241009982929976
BGZ23:0.241571858996853
BHA23:0.242133735063729
BHB23:0.242695611130606
BHC23:0.243257487197482
BHD23:0.243819363264359
BHE23:0.244381239331235
BHF23:0.244943115398112
BHG23:0.245504991464988
BHH23:0.246066867531865
BHI23:0.246628743598741
BHJ23:0.247190619665618
BHK23:0.247752495732494
BHL23:0.248314371799371
BHM23:0.248876247866247
BHN23:0.249438123933124
BHO23:0.25
BHP23:0.25
BHQ23:0.25
BHR23:0.25
BHS23:0.25
BHT23:0.25
BHU23:0.25
BHV23:0.25
BHW23:0.25
BHX23:0.25
BHY23:0.25
BHZ23:0.25
BIA23:0.25
BIB23:0.25
BIC23:0.25
BID23:0.25
BIE23:0.25
BIF23:0.25
BIG23:0.25
BIH23:0.25
BII23:0.25
BIJ23:0.25
BIK23:0.25
BIL23:0.25
BIM23:0.25
BIN23:0.25
BIO23:0.25
BIP23:0.25
BIQ23:0.25
BIR23:0.25
BIS23:0.25
BIT23:0.25
BIU23:0.25
BIV23:0.25
BIW23:0.25
BIX23:0.25
BIY23:0.25
BIZ23:0.25
BJA23:0.25
BJB23:0.25
BJC23:0.25
BJD23:0.25
BJE23:0.25
BJF23:0.25
BJG23:0.25
BJH23:0.25
BJI23:0.25
BJJ23:0.25
BJK23:0.25
BJL23:0.25
BJM23:0.25
BJN23:0.25
BJO23:0.25
BJP23:0.25
BJQ23:0.25
BJR23:0.25
BJS23:0.25
BJT23:0.25
BJU23:0.25
BJV23:0.25
BJW23:0.25
BJX23:0.25
BJY23:0.25
BJZ23:0.25
BKA23:0.25
BKB23:0.25
BKC23:0.25
BKD23:0.25
BKE23:0.25
BKF23:0.25
BKG23:0.25
BKH23:0.25
BKI23:0.25
BKJ23:0.25
BKK23:0.25
BKL23:0.25
BKM23:0.25
BKN23:0.25
BKO23:0.25
BKP23:0.25
BKQ23:0.25
BKR23:0.25
BKS23:0.25
BKT23:0.25
BKU23:0.25
BKV23:0.25
BKW23:0.25
BKX23:0.25
BKY23:0.25
BKZ23:0.25
BLA23:0.25
BLB23:0.25
BLC23:0.25
BLD23:0.25
BLE23:0.25
BLF23:0.25
BLG23:0.25
BLH23:0.25
BLI23:0.25
BLJ23:0.25
BLK23:0.25
BLL23:0.25
BLM23:0.25
BLN23:0.25
BLO23:0.25
BLP23:0.25
BLQ23:0.25
BLR23:0.25
BLS23:0.25
BLT23:0.25
BLU23:0.25
BLV23:0.25
BLW23:0.25
BLX23:0.25
BLY23:0.25
BLZ23:0.25
BMA23:0.25
BMB23:0.25
BMC23:0.25
BMD23:0.25
BME23:0.25
BMF23:0.25
BMG23:0.25
BMH23:0.25
BMI23:0.25
BMJ23:0.25
BMK23:0.25
BML23:0.25
BMM23:0.25
BMN23:0.25
BMO23:0.25
BMP23:0.25
BMQ23:0.25
BMR23:0.25
BMS23:0.25
BMT23:0.25
BMU23:0.25
BMV23:0.25
BMW23:0.25
BMX23:0.25
BMY23:0.25
BMZ23:0.25
BNA23:0.25
BNB23:0.25
BNC23:0.25
BND23:0.25
BNE23:0.25
BNF23:0.25
BNG23:0.25
BNH23:0.25
BNI23:0.25
BNJ23:0.25
BNK23:0.25
BNL23:0.25
BNM23:0.25
BNN23:0.25
BNO23:0.25
BNP23:0.25
BNQ23:0.25
BNR23:0.25
BNS23:0.25
BNT23:0.25
BNU23:0.25
BNV23:0.25
BNW23:0.25
BNX23:0.25
BNY23:0.25
BNZ23:0.25
BOA23:0.25
BOB23:0.25
BOC23:0.25
BOD23:0.25
BOE23:0.25
BOF23:0.25
BOG23:0.25
BOH23:0.25
BOI23:0.25
BOJ23:0.25
BOK23:0.25
BOL23:0.25
BOM23:0.25
BON23:0.25
BOO23:0.25
BOP23:0.25
BOQ23:0.25
BOR23:0.25
BOS23:0.25
BOT23:0.25
BOU23:0.25
BOV23:0.25
BOW23:0.25
BOX23:0.25
BOY23:0.25
BOZ23:0.25
BPA23:0.25
BPB23:0.25
BPC23:0.25
BPD23:0.25
BPE23:0.25
BPF23:0.25
BPG23:0.25
BPH23:0.25
BPI23:0.25
BPJ23:0.25
BPK23:0.25
BPL23:0.25
BPM23:0.25
BPN23:0.25
BPO23:0.25
BPP23:0.25
BPQ23:0.25
BPR23:0.25
BPS23:0.25
BPT23:0.25
BPU23:0.25
BPV23:0.25
BPW23:0.25
BPX23:0.25
BPY23:0.25
BPZ23:0.25
BQA23:0.25
BQB23:0.25
BQC23:0.25
BQD23:0.25
BQE23:0.25
BQF23:0.25
BQG23:0.25
BQH23:0.25
BQI23:0.25
BQJ23:0.25
BQK23:0.25
BQL23:0.25
BQM23:0.25
BQN23:0.25
BQO23:0.25
BQP23:0.25
BQQ23:0.25
BQR23:0.25
BQS23:0.25
BQT23:0.25
BQU23:0.25
BQV23:0.25
BQW23:0.25
BQX23:0.25
BQY23:0.25
BQZ23:0.25
BRA23:0.25
BRB23:0.25
BRC23:0.25
BRD23:0.25
BRE23:0.25
BRF23:0.25
BRG23:0.25
BRH23:0.25
BRI23:0.25
BRJ23:0.25
BRK23:0.25
BRL23:0.25
BRM23:0.25
BRN23:0.25
BRO23:0.25
BRP23:0.25
BRQ23:0.25
BRR23:0.25
BRS23:0.25
BRT23:0.25
BRU23:0.25
BRV23:0.25
BRW23:0.25
BRX23:0.25
BRY23:0.25
BRZ23:0.25
BSA23:0.25
BSB23:0.25
BSC23:0.25
BSD23:0.25
BSE23:0.25
BSF23:0.25
BSG23:0.25
BSH23:0.25
BSI23:0.25
BSJ23:0.25
BSK23:0.25
BSL23:0.25
BSM23:0.25
BSN23:0.25
BSO23:0.25
BSP23:0.25
BSQ23:0.25
BSR23:0.25
BSS23:0.25
BST23:0.25
BSU23:0.25
BSV23:0.25
BSW23:0.25
BSX23:0.25
BSY23:0.25
BSZ23:0.25
BTA23:0.25
BTB23:0.25
BTC23:0.25
BTD23:0.25
BTE23:0.25
BTF23:0.25
BTG23:0.25
BTH23:0.25
BTI23:0.25
BTJ23:0.25
BTK23:0.25
BTL23:0.25
BTM23:0.25
BTN23:0.25
BTO23:0.25
BTP23:0.25
BTQ23:0.25
BTR23:0.25
BTS23:0.25
BTT23:0.25
BTU23:0.25
BTV23:0.25
BTW23:0.25
BTX23:0.25
BTY23:0.25
BTZ23:0.25
BUA23:0.25
BUB23:0.25
BUC23:0.25
BUD23:0.25
BUE23:0.25
BUF23:0.25
BUG23:0.25
BUH23:0.25
BUI23:0.25
BUJ23:0.25
BUK23:0.25
BUL23:0.25
BUM23:0.25
BUN23:0.25
BUO23:0.25
BUP23:0.25
BUQ23:0.25
BUR23:0.25
BUS23:0.25
BUT23:0.25
BUU23:0.25
BUV23:0.25
BUW23:0.25
BUX23:0.25
BUY23:0.25
BUZ23:0.25
BVA23:0.25
BVB23:0.25
BVC23:0.25
BVD23:0.25
BVE23:0.25
BVF23:0.25
BVG23:0.25
BVH23:0.25
BVI23:0.25
BVJ23:0.25
BVK23:0.25
BVL23:0.25
BVM23:0.25
BVN23:0.25
BVO23:0.25
BVP23:0.25
BVQ23:0.25
BVR23:0.25
BVS23:0.25
BVT23:0.25
BVU23:0.25
BVV23:0.25
BVW23:0.25
BVX23:0.25
BVY23:0.25
BVZ23:0.25
BWA23:0.25
BWB23:0.25
BWC23:0.25
BWD23:0.25
BWE23:0.25
BWF23:0.25
BWG23:0.25
BWH23:0.25
BWI23:0.25
BWJ23:0.25
BWK23:0.25
BWL23:0.25
BWM23:0.25
BWN23:0.25
BWO23:0.25
BWP23:0.25
BWQ23:0.25
BWR23:0.25
BWS23:0.25
BWT23:0.25
BWU23:0.25
BWV23:0.25
BWW23:0.25
BWX23:0.25
BWY23:0.25
BWZ23:0.25
BXA23:0.25
BXB23:0.25
BXC23:0.25
BXD23:0.25
BXE23:0.25
BXF23:0.25
BXG23:0.25
BXH23:0.25
BXI23:0.25
BXJ23:0.25
BXK23:0.25
BXL23:0.25
BXM23:0.25
BXN23:0.25
BXO23:0.25
BXP23:0.25
BXQ23:0.25
BXR23:0.25
BXS23:0.25
BXT23:0.25
BXU23:0.25
BXV23:0.25
BXW23:0.25
BXX23:0.25
BXY23:0.25
BXZ23:0.25
BYA23:0.25
BYB23:0.25
BYC23:0.25
BYD23:0.25
BYE23:0.25
BYF23:0.25
BYG23:0.25
BYH23:0.25
BYI23:0.25
BYJ23:0.25
BYK23:0.25
BYL23:0.25
BYM23:0.25
BYN23:0.25
BYO23:0.25
BYP23:0.25
BYQ23:0.25
BYR23:0.25
BYS23:0.25
BYT23:0.25
BYU23:0.25
BYV23:0.25
BYW23:0.25
BYX23:0.25
BYY23:0.25
BYZ23:0.25
BZA23:0.25
BZB23:0.25
BZC23:0.25
BZD23:0.25
BZE23:0.25
BZF23:0.25
BZG23:0.25
BZH23:0.25
BZI23:0.25
BZJ23:0.25
BZK23:0.25
BZL23:0.25
BZM23:0.25
BZN23:0.25
BZO23:0.25
BZP23:0.25
BZQ23:0.25
BZR23:0.25
BZS23:0.25
BZT23:0.25
BZU23:0.25
BZV23:0.25
BZW23:0.25
BZX23:0.25
BZY23:0.25
BZZ23:0.25
CAA23:0.25
CAB23:0.25
CAC23:0.25
CAD23:0.25
CAE23:0.25
CAF23:0.25
CAG23:0.25
CAH23:0.25
CAI23:0.25
CAJ23:0.25
CAK23:0.25
CAL23:0.25
CAM23:0.25
CAN23:0.25
CAO23:0.25
CAP23:0.25
CAQ23:0.25
CAR23:0.25
CAS23:0.25
CAT23:0.25
CAU23:0.25
CAV23:0.25
CAW23:0.25
CAX23:0.25
CAY23:0.25
CAZ23:0.25
CBA23:0.25
CBB23:0.25
CBC23:0.25
CBD23:0.25
CBE23:0.25
CBF23:0.25
CBG23:0.25
CBH23:0.25
CBI23:0.25
CBJ23:0.25
CBK23:0.25
CBL23:0.25
CBM23:0.25
CBN23:0.25
CBO23:0.25
CBP23:0.25
CBQ23:0.25
CBR23:0.25
CBS23:0.25
CBT23:0.25
CBU23:0.25
CBV23:0.25
CBW23:0.25
CBX23:0.25
CBY23:0.25
CBZ23:0.25
CCA23:0.25
CCB23:0.25
CCC23:0.25
CCD23:0.25
CCE23:0.25
CCF23:0.25
CCG23:0.25
CCH23:0.25
CCI23:0.25
CCJ23:0.25
CCK23:0.25
CCL23:0.25
CCM23:0.25
CCN23:0.25
CCO23:0.25
CCP23:0.25
CCQ23:0.25
CCR23:0.25
CCS23:0.25
CCT23:0.25
CCU23:0.25
CCV23:0.25
CCW23:0.25
CCX23:0.25
CCY23:0.25
CCZ23:0.25
CDA23:0.25
CDB23:0.25
CDC23:0.25
CDD23:0.25
CDE23:0.25
CDF23:0.25
CDG23:0.25
CDH23:0.25
CDI23:0.25
CDJ23:0.25
CDK23:0.25
CDL23:0.25
CDM23:0.25
CDN23:0.25
CDO23:0.25
CDP23:0.25
CDQ23:0.25
CDR23:0.25
CDS23:0.25
CDT23:0.25
CDU23:0.25
CDV23:0.25
CDW23:0.25
CDX23:0.25
CDY23:0.25
CDZ23:0.25
CEA23:0.25
CEB23:0.25
CEC23:0.25
CED23:0.25
CEE23:0.25
CEF23:0.25
CEG23:0.2
CEH23:0.2
CEI23:0.2
CEJ23:0.2
CEK23:0.2
CEL23:0.2
CEM23:0.2
CEN23:0.2
CEO23:0.2
CEP23:0.2
CEQ23:0.2
CER23:0.2
CES23:0.194780905775433
CET23:0.194780905775433
CEU23:0.194780905775433
CEV23:0.194780905775433
CEW23:0.194780905775433
CEX23:0.194780905775433
CEY23:0.194780905775433
CEZ23:0.194780905775433
CFA23:0.194780905775433
CFB23:0.194780905775433
CFC23:0.194780905775433
CFD23:0.194780905775433
CFE23:0.225696079844528
CFF23:0.225696079844528
CFG23:0.225696079844528
CFH23:0.225696079844528
CFI23:0.225696079844528
CFJ23:0.225696079844528
CFK23:0.225696079844528
CFL23:0.225696079844528
CFM23:0.225696079844528
CFN23:0.225696079844528
CFO23:0.225696079844528
CFP23:0.225696079844528
CFQ23:0.235937526336283
CFR23:0.235937526336283
CFS23:0.235937526336283
CFT23:0.235937526336283
CFU23:0.235937526336283
CFV23:0.235937526336283
CFW23:0.235937526336283
CFX23:0.235937526336283
CFY23:0.235937526336283
CFZ23:0.235937526336283
CGA23:0.235937526336283
CGB23:0.235937526336283
CGC23:0.246863046047564
CGD23:0.246863046047564
CGE23:0.246863046047564
CGF23:0.246863046047564
CGG23:0.246863046047564
CGH23:0.246863046047564
CGI23:0.246863046047564
CGJ23:0.246863046047564
CGK23:0.246863046047564
CGL23:0.246863046047564
CGM23:0.246863046047564
CGN23:0.246863046047564
CGO23:0.264571310181424
CGP23:0.264571310181424
CGQ23:0.264571310181424
CGR23:0.264571310181424
CGS23:0.264571310181424
CGT23:0.264571310181424
CGU23:0.264571310181424
CGV23:0.264571310181424
CGW23:0.264571310181424
CGX23:0.264571310181424
CGY23:0.264571310181424
CGZ23:0.264571310181424
CHA23:0.249971894840839
CHB23:0.250819828826587
CHC23:0.251667762812336
CHD23:0.252515696798084
CHE23:0.253363630783833
CHF23:0.254211564769581
CHG23:0.25505949875533
CHH23:0.255907432741078
CHI23:0.256755366726827
CHJ23:0.257603300712575
CHK23:0.258451234698324
CHL23:0.259299168684072
CHM23:0.260147102669821
CHN23:0.260995036655569
CHO23:0.261842970641318
CHP23:0.262690904627066
CHQ23:0.263538838612815
CHR23:0.264386772598563
CHS23:0.265234706584312
CHT23:0.26608264057006
CHU23:0.266930574555809
CHV23:0.267778508541557
CHW23:0.268626442527306
CHX23:0.269474376513054
CHY23:0.270322310498803
CHZ23:0.271170244484551
CIA23:0.2720181784703
CIB23:0.272866112456048
CIC23:0.273714046441797
CID23:0.274561980427545
CIE23:0.275409914413294
CIF23:0.276257848399042
CIG23:0.277105782384791
CIH23:0.277953716370539
CII23:0.278801650356288
CIJ23:0.279649584342036
CIK23:0.280497518327785
CIL23:0.281345452313533
CIM23:0.282193386299282
CIN23:0.28304132028503
CIO23:0.283889254270779
CIP23:0.284737188256527
CIQ23:0.285585122242276
CIR23:0.286433056228024
CIS23:0.287280990213773
CIT23:0.288128924199521
CIU23:0.28897685818527
CIV23:0.289824792171018
CIW23:0.290672726156767
CIX23:0.291520660142515
CIY23:0.292368594128264
CIZ23:0.293216528114012
CJA23:0.294064462099761
CJB23:0.294912396085509
CJC23:0.295760330071258
CJD23:0.296608264057006
CJE23:0.297456198042754
CJF23:0.298304132028503
CJG23:0.299152066014252
CJH23:0.3
CJI23:0.3
CJJ23:0.3
CJK23:0.3
CJL23:0.3
CJM23:0.3
CJN23:0.3
CJO23:0.3
CJP23:0.3
CJQ23:0.3
CJR23:0.3
CJS23:0.3
CJT23:0.3
CJU23:0.3
CJV23:0.3
CJW23:0.3
CJX23:0.3
CJY23:0.3
CJZ23:0.3
CKA23:0.3
CKB23:0.3
CKC23:0.3
CKD23:0.3
CKE23:0.3
CKF23:0.3
CKG23:0.3
CKH23:0.3
CKI23:0.3
CKJ23:0.3
CKK23:0.3
CKL23:0.3
CKM23:0.3
CKN23:0.3
CKO23:0.3
CKP23:0.3
CKQ23:0.3
CKR23:0.3
CKS23:0.3
CKT23:0.3
CKU23:0.3
CKV23:0.3
CKW23:0.3
CKX23:0.3
CKY23:0.3
CKZ23:0.3
CLA23:0.3
CLB23:0.3
CLC23:0.3
CLD23:0.3
CLE23:0.3
CLF23:0.3
CLG23:0.3
CLH23:0.3
CLI23:0.3
CLJ23:0.3
CLK23:0.3
CLL23:0.3
CLM23:0.3
CLN23:0.3
CLO23:0.3
CLP23:0.3
CLQ23:0.3
CLR23:0.3
CLS23:0.3
CLT23:0.3
CLU23:0.3
CLV23:0.3
CLW23:0.3
CLX23:0.3
CLY23:0.3
CLZ23:0.3
CMA23:0.3
CMB23:0.3
CMC23:0.3
CMD23:0.3
CME23:0.3
CMF23:0.3
CMG23:0.3
CMH23:0.3
CMI23:0.3
CMJ23:0.3
CMK23:0.3
CML23:0.3
CMM23:0.3
CMN23:0.3
CMO23:0.3
CMP23:0.3
CMQ23:0.3
CMR23:0.3
CMS23:0.3
CMT23:0.3
CMU23:0.3
CMV23:0.3
CMW23:0.3
CMX23:0.3
CMY23:0.3
CMZ23:0.3
CNA23:0.3
CNB23:0.3
CNC23:0.3
CND23:0.3
CNE23:0.3
CNF23:0.3
CNG23:0.3
CNH23:0.3
CNI23:0.3
CNJ23:0.3
CNK23:0.3
CNL23:0.3
CNM23:0.3
CNN23:0.3
CNO23:0.3
CNP23:0.3
CNQ23:0.3
CNR23:0.3
CNS23:0.3
CNT23:0.3
CNU23:0.3
CNV23:0.3
CNW23:0.3
CNX23:0.3
CNY23:0.3
CNZ23:0.3
COA23:0.3
COB23:0.3
COC23:0.3
COD23:0.3
COE23:0.3
COF23:0.3
COG23:0.3
COH23:0.3
COI23:0.3
COJ23:0.3
COK23:0.3
COL23:0.3
COM23:0.3
CON23:0.3
COO23:0.3
COP23:0.3
COQ23:0.3
COR23:0.3
COS23:0.3
COT23:0.3
COU23:0.3
COV23:0.3
COW23:0.3
COX23:0.3
COY23:0.3
COZ23:0.3
CPA23:0.3
CPB23:0.3
CPC23:0.3
CPD23:0.3
CPE23:0.3
CPF23:0.3
CPG23:0.3
CPH23:0.3
CPI23:0.3
CPJ23:0.3
CPK23:0.3
CPL23:0.3
CPM23:0.3
CPN23:0.3
CPO23:0.3
CPP23:0.3
CPQ23:0.3
CPR23:0.3
CPS23:0.3
CPT23:0.3
CPU23:0.3
CPV23:0.3
CPW23:0.3
CPX23:0.3
CPY23:0.3
CPZ23:0.3
CQA23:0.3
CQB23:0.3
CQC23:0.3
CQD23:0.3
CQE23:0.3
CQF23:0.3
CQG23:0.3
CQH23:0.3
CQI23:0.3
CQJ23:0.3
CQK23:0.3
CQL23:0.3
CQM23:0.3
CQN23:0.3
CQO23:0.3
CQP23:0.3
CQQ23:0.3
CQR23:0.3
CQS23:0.3
CQT23:0.3
CQU23:0.3
CQV23:0.3
CQW23:0.3
CQX23:0.3
CQY23:0.3
CQZ23:0.3
CRA23:0.3
CRB23:0.3
CRC23:0.3
CRD23:0.3
CRE23:0.3
CRF23:0.3
CRG23:0.3
CRH23:0.3
CRI23:0.3
CRJ23:0.3
CRK23:0.3
CRL23:0.3
CRM23:0.3
CRN23:0.3
CRO23:0.3
CRP23:0.3
CRQ23:0.3
CRR23:0.3
CRS23:0.3
CRT23:0.3
CRU23:0.3
CRV23:0.3
CRW23:0.3
CRX23:0.3
CRY23:0.3
CRZ23:0.3
CSA23:0.3
CSB23:0.3
CSC23:0.3
CSD23:0.3
CSE23:0.3
CSF23:0.3
CSG23:0.3
CSH23:0.3
CSI23:0.3
CSJ23:0.3
CSK23:0.3
CSL23:0.3
CSM23:0.3
CSN23:0.3
CSO23:0.3
CSP23:0.3
CSQ23:0.3
CSR23:0.3
CSS23:0.3
CST23:0.3
CSU23:0.3
CSV23:0.3
CSW23:0.3
CSX23:0.3
CSY23:0.3
CSZ23:0.3
CTA23:0.3
CTB23:0.3
CTC23:0.3
CTD23:0.3
CTE23:0.3
CTF23:0.3
CTG23:0.3
CTH23:0.3
CTI23:0.3
CTJ23:0.3
CTK23:0.3
CTL23:0.3
CTM23:0.3
CTN23:0.3
CTO23:0.3
CTP23:0.3
CTQ23:0.3
CTR23:0.3
CTS23:0.3
CTT23:0.3
CTU23:0.3
CTV23:0.3
CTW23:0.3
CTX23:0.3
CTY23:0.3
CTZ23:0.3
CUA23:0.3
CUB23:0.3
CUC23:0.3
CUD23:0.3
CUE23:0.3
CUF23:0.3
CUG23:0.3
CUH23:0.3
CUI23:0.3
CUJ23:0.3
CUK23:0.3
CUL23:0.3
CUM23:0.3
CUN23:0.3
CUO23:0.3
CUP23:0.3
CUQ23:0.3
CUR23:0.3
CUS23:0.3
CUT23:0.3
CUU23:0.3
CUV23:0.3
CUW23:0.3
CUX23:0.3
CUY23:0.3
CUZ23:0.3
CVA23:0.3
CVB23:0.3
CVC23:0.3
CVD23:0.3
CVE23:0.3
CVF23:0.3
CVG23:0.3
CVH23:0.3
CVI23:0.3
CVJ23:0.3
CVK23:0.3
CVL23:0.3
CVM23:0.3
CVN23:0.3
CVO23:0.3
CVP23:0.3
CVQ23:0.3
CVR23:0.3
CVS23:0.3
CVT23:0.3
CVU23:0.3
CVV23:0.3
CVW23:0.3
CVX23:0.3
CVY23:0.3
CVZ23:0.3
CWA23:0.3
CWB23:0.3
CWC23:0.3
CWD23:0.3
CWE23:0.3
CWF23:0.3
CWG23:0.3
CWH23:0.3
CWI23:0.3
CWJ23:0.3
CWK23:0.3
CWL23:0.3
CWM23:0.3
CWN23:0.3
CWO23:0.3
CWP23:0.3
CWQ23:0.3
CWR23:0.3
CWS23:0.3
CWT23:0.3
CWU23:0.3
CWV23:0.3
CWW23:0.3
CWX23:0.3
CWY23:0.3
CWZ23:0.3
CXA23:0.3
CXB23:0.3
CXC23:0.3
CXD23:0.3
CXE23:0.3
CXF23:0.3
CXG23:0.3
CXH23:0.3
CXI23:0.3
CXJ23:0.3
CXK23:0.3
CXL23:0.3
CXM23:0.3
CXN23:0.3
CXO23:0.3
CXP23:0.3
CXQ23:0.3
CXR23:0.3
CXS23:0.3
CXT23:0.3
CXU23:0.3
CXV23:0.3
CXW23:0.3
CXX23:0.3
CXY23:0.3
CXZ23:0.3
CYA23:0.3
CYB23:0.3
CYC23:0.3
CYD23:0.3
CYE23:0.3
CYF23:0.3
CYG23:0.3
CYH23:0.3
CYI23:0.3
CYJ23:0.3
CYK23:0.3
CYL23:0.3
CYM23:0.3
CYN23:0.3
CYO23:0.3
CYP23:0.3
CYQ23:0.3
CYR23:0.3
CYS23:0.3
CYT23:0.3
CYU23:0.3
CYV23:0.3
CYW23:0.3
CYX23:0.3
CYY23:0.3
CYZ23:0.3
CZA23:0.3
CZB23:0.3
CZC23:0.3
CZD23:0.3
CZE23:0.3
CZF23:0.3
CZG23:0.3
CZH23:0.3
CZI23:0.3
CZJ23:0.3
CZK23:0.3
CZL23:0.3
CZM23:0.3
CZN23:0.3
CZO23:0.3
CZP23:0.3
CZQ23:0.3
CZR23:0.3
CZS23:0.3
CZT23:0.3
CZU23:0.3
CZV23:0.3
CZW23:0.3
CZX23:0.3
CZY23:0.3
CZZ23:0.3
DAA23:0.3
DAB23:0.3
DAC23:0.3
DAD23:0.3
DAE23:0.3
DAF23:0.3
DAG23:0.3
DAH23:0.3
DAI23:0.3
DAJ23:0.3
DAK23:0.3
DAL23:0.3
DAM23:0.3
DAN23:0.3
DAO23:0.3
DAP23:0.3
DAQ23:0.3
DAR23:0.3
DAS23:0.3
DAT23:0.3
DAU23:0.3
DAV23:0.3
DAW23:0.3
DAX23:0.3
DAY23:0.3
DAZ23:0.3
DBA23:0.3
DBB23:0.3
DBC23:0.3
DBD23:0.3
DBE23:0.3
DBF23:0.3
DBG23:0.3
DBH23:0.3
DBI23:0.3
DBJ23:0.3
DBK23:0.3
DBL23:0.3
DBM23:0.3
DBN23:0.3
DBO23:0.3
DBP23:0.3
DBQ23:0.3
DBR23:0.3
DBS23:0.3
DBT23:0.3
DBU23:0.3
DBV23:0.3
DBW23:0.3
DBX23:0.3
DBY23:0.3
DBZ23:0.3
DCA23:0.3
DCB23:0.3
DCC23:0.3
DCD23:0.3
DCE23:0.3
DCF23:0.3
DCG23:0.3
DCH23:0.3
DCI23:0.3
DCJ23:0.3
DCK23:0.3
DCL23:0.3
DCM23:0.3
DCN23:0.3
DCO23:0.3
DCP23:0.3
DCQ23:0.3
DCR23:0.3
DCS23:0.3
DCT23:0.3
DCU23:0.3
DCV23:0.3
DCW23:0.3
DCX23:0.3
DCY23:0.3
DCZ23:0.3
DDA23:0.3
DDB23:0.3
DDC23:0.3
DDD23:0.3
DDE23:0.3
DDF23:0.3
DDG23:0.3
DDH23:0.3
DDI23:0.3
DDJ23:0.3
DDK23:0.3
DDL23:0.3
DDM23:0.3
DDN23:0.3
DDO23:0.3
DDP23:0.3
DDQ23:0.3
DDR23:0.3
DDS23:0.3
DDT23:0.3
DDU23:0.3
DDV23:0.3
DDW23:0.3
DDX23:0.3
DDY23:0.3
DDZ23:0.3
DEA23:0.3
DEB23:0.3
DEC23:0.3
DED23:0.3
DEE23:0.3
DEF23:0.3
DEG23:0.3
DEH23:0.3
DEI23:0.3
DEJ23:0.3
DEK23:0.3
DEL23:0.3
DEM23:0.3
DEN23:0.3
DEO23:0.3
DEP23:0.3
DEQ23:0.3
DER23:0.3
DES23:0.3
DET23:0.3
DEU23:0.3
DEV23:0.3
DEW23:0.3
DEX23:0.3
DEY23:0.3
DEZ23:0.3
DFA23:0.3
DFB23:0.3
DFC23:0.3
DFD23:0.3
DFE23:0.3
DFF23:0.3
DFG23:0.3
DFH23:0.3
DFI23:0.3
DFJ23:0.3
DFK23:0.3
DFL23:0.3
DFM23:0.3
DFN23:0.3
DFO23:0.3
DFP23:0.3
DFQ23:0.3
DFR23:0.3
DFS23:0.3
DFT23:0.3
DFU23:0.3
DFV23:0.3
DFW23:0.3
DFX23:0.3
DFY23:0.3
DFZ23:0
DGA23:0
DGB23:0
DGC23:0
DGD23:0
DGE23:0
DGF23:0
DGG23:0
DGH23:0
DGI23:0
DGJ23:0
DGK23:0
DGL23:0
DGM23:0
DGN23:0
DGO23:0
DGP23:0
DGQ23:0
DGR23:0
DGS23:0
DGT23:0
DGU23:0
DGV23:0
DGW23:0
DGX23:0
DGY23:0
DGZ23:0
DHA23:0
DHB23:0
DHC23:0
DHD23:0
DHE23:0
DHF23:0
DHG23:0
DHH23:0
DHI23:0
DHJ23:0
DHK23:0
DHL23:0
DHM23:0
DHN23:0
DHO23:0
DHP23:0
DHQ23:0
DHR23:0
DHS23:0
DHT23:0
DHU23:0
DHV23:0
DHW23:0
DHX23:0
DHY23:0
DHZ23:0
DIA23:0
DIB23:0
DIC23:0
DID23:0
DIE23:0
DIF23:0
DIG23:0
DIH23:0
DII23:0
DIJ23:0
DIK23:0
DIL23:0
DIM23:0
DIN23:0
DIO23:0
DIP23:0
DIQ23:0
DIR23:0
DIS23:0
DIT23:0
DIU23:0
DIV23:0
DIW23:0
DIX23:0
DIY23:0
DIZ23:0
DJA23:0
DJB23:0
DJC23:0
DJD23:0
DJE23:0
DJF23:0
DJG23:0
DJH23:0
DJI23:0
DJJ23:0
DJK23:0
DJL23:0
DJM23:0
DJN23:0
DJO23:0
DJP23:0
DJQ23:0
DJR23:0
DJS23:0
DJT23:0
DJU23:0
DJV23:0
DJW23:0
DJX23:0
DJY23:0
DJZ23:0
DKA23:0
DKB23:0
DKC23:0
DKD23:0
DKE23:0
DKF23:0
DKG23:0
DKH23:0
DKI23:0
DKJ23:0
DKK23:0
DKL23:0
DKM23:0
DKN23:0
DKO23:0
DKP23:0
DKQ23:0
DKR23:0
DKS23:0
DKT23:0
DKU23:0
DKV23:0
DKW23:0
DKX23:0
DKY23:0
DKZ23:0
DLA23:0
DLB23:0
DLC23:0
DLD23:0
DLE23:0
DLF23:0
DLG23:0
DLH23:0
DLI23:0
DLJ23:0
DLK23:0
DLL23:0
DLM23:0
DLN23:0
DLO23:0
DLP23:0
DLQ23:0
DLR23:0
DLS23:0
DLT23:0
DLU23:0
DLV23:0
DLW23:0
DLX23:0
DLY23:0
DLZ23:0
DMA23:0
DMB23:0
DMC23:0
DMD23:0
DME23:0
DMF23:0
DMG23:0
DMH23:0
DMI23:0
DMJ23:0
DMK23:0
DML23:0
DMM23:0
DMN23:0
DMO23:0
DMP23:0
DMQ23:0
DMR23:0
DMS23:0
DMT23:0
DMU23:0
DMV23:0
DMW23:0
DMX23:0
DMY23:0
DMZ23:0
DNA23:0
DNB23:0
DNC23:0
DND23:0
DNE23:0
DNF23:0
DNG23:0
DNH23:0
DNI23:0
DNJ23:0
DNK23:0
DNL23:0
DNM23:0
DNN23:0
DNO23:0
DNP23:0
DNQ23:0
DNR23:0
DNS23:0
DNT23:0
DNU23:0
DNV23:0
DNW23:0
DNX23:0
DNY23:0
DNZ23:0
DOA23:0
DOB23:0
DOC23:0
DOD23:0
DOE23:0
DOF23:0
DOG23:0
DOH23:0
DOI23:0
DOJ23:0
DOK23:0
DOL23:0
DOM23:0
DON23:0
DOO23:0
DOP23:0
DOQ23:0
DOR23:0
DOS23:0
DOT23:0
DOU23:0
DOV23:0
DOW23:0
DOX23:0
DOY23:0
DOZ23:0
DPA23:0
DPB23:0
DPC23:0
DPD23:0
DPE23:0
DPF23:0
DPG23:0
DPH23:0
DPI23:0
DPJ23:0
DPK23:0
DPL23:0
DPM23:0
DPN23:0
DPO23:0
DPP23:0
DPQ23:0
DPR23:0
DPS23:0
DPT23:0
DPU23:0
DPV23:0
DPW23:0
DPX23:0
DPY23:0
DPZ23:0
DQA23:0
DQB23:0
DQC23:0
DQD23:0
DQE23:0
DQF23:0
DQG23:0
DQH23:0
DQI23:0
DQJ23:0
DQK23:0
DQL23:0
DQM23:0
DQN23:0
DQO23:0
DQP23:0
DQQ23:0
DQR23:0
DQS23:0
DQT23:0
DQU23:0
DQV23:0
DQW23:0
DQX23:0
DQY23:0
DQZ23:0
DRA23:0
DRB23:0
DRC23:0
DRD23:0
DRE23:0
DRF23:0
DRG23:0
DRH23:0
DRI23:0
DRJ23:0
DRK23:0
DRL23:0
DRM23:0
DRN23:0
DRO23:0
DRP23:0
DRQ23:0
DRR23:0
DRS23:0
DRT23:0
DRU23:0
DRV23:0
DRW23:0
DRX23:0
DRY23:0
DRZ23:0
DSA23:0
DSB23:0
DSC23:0
DSD23:0
DSE23:0
DSF23:0
DSG23:0
DSH23:0
DSI23:0
DSJ23:0
DSK23:0
DSL23:0
DSM23:0
DSN23:0
DSO23:0
DSP23:0
DSQ23:0
DSR23:0
DSS23:0
DST23:0
DSU23:0
DSV23:0
DSW23:0
DSX23:0
DSY23:0
DSZ23:0
DTA23:0
DTB23:0
DTC23:0
DTD23:0
DTE23:0
DTF23:0
DTG23:0
DTH23:0
DTI23:0
DTJ23:0
DTK23:0
DTL23:0
DTM23:0
DTN23:0
DTO23:0
DTP23:0
DTQ23:0
DTR23:0
DTS23:0
DTT23:0
DTU23:0
DTV23:0
DTW23:0
DTX23:0
DTY23:0
DTZ23:0
DUA23:0
DUB23:0
DUC23:0
DUD23:0
DUE23:0
DUF23:0
DUG23:0
DUH23:0
DUI23:0
DUJ23:0
DUK23:0
DUL23:0
DUM23:0
DUN23:0
DUO23:0
DUP23:0
DUQ23:0
DUR23:0
DUS23:0
DUT23:0
DUU23:0
DUV23:0
DUW23:0
DUX23:0
DUY23:0
DUZ23:0
DVA23:0
DVB23:0
DVC23:0
DVD23:0
DVE23:0
DVF23:0
DVG23:0
DVH23:0
DVI23:0
DVJ23:0
DVK23:0
DVL23:0
DVM23:0
DVN23:0
DVO23:0
DVP23:0
DVQ23:0
DVR23:0
DVS23:0
DVT23:0
DVU23:0
DVV23:0
DVW23:0
DVX23:0
DVY23:0
DVZ23:0
DWA23:0
DWB23:0
DWC23:0
DWD23:0
DWE23:0
DWF23:0
DWG23:0
DWH23:0
DWI23:0
DWJ23:0
DWK23:0
DWL23:0
DWM23:0
DWN23:0
DWO23:0
DWP23:0
DWQ23:0
DWR23:0
DWS23:0
DWT23:0
DWU23:0
DWV23:0
DWW23:0
DWX23:0
DWY23:0
DWZ23:0
DXA23:0
DXB23:0
DXC23:0
DXD23:0
DXE23:0
DXF23:0
DXG23:0
DXH23:0
DXI23:0
DXJ23:0
DXK23:0
DXL23:0
DXM23:0
DXN23:0
DXO23:0
DXP23:0
DXQ23:0
DXR23:0
DXS23:0
DXT23:0
DXU23:0
DXV23:0
DXW23:0
DXX23:0
DXY23:0
DXZ23:0
DYA23:0
DYB23:0
DYC23:0
DYD23:0
DYE23:0
DYF23:0
DYG23:0
DYH23:0
DYI23:0
DYJ23:0
DYK23:0
DYL23:0
DYM23:0
DYN23:0
DYO23:0
DYP23:0
DYQ23:0
DYR23:0
DYS23:0
DYT23:0
DYU23:0
DYV23:0
DYW23:0
DYX23:0
DYY23:0
DYZ23:0
DZA23:0
DZB23:0
DZC23:0
DZD23:0
DZE23:0
DZF23:0
DZG23:0
DZH23:0
DZI23:0
DZJ23:0
DZK23:0
DZL23:0
DZM23:0
DZN23:0
DZO23:0
DZP23:0
DZQ23:0
DZR23:0
DZS23:0
DZT23:0
DZU23:0
DZV23:0
DZW23:0
DZX23:0
DZY23:0
DZZ23:0
EAA23:0
EAB23:0
EAC23:0
EAD23:0
EAE23:0
EAF23:0
EAG23:0
EAH23:0
EAI23:0
EAJ23:0
EAK23:0
EAL23:0
EAM23:0
EAN23:0
EAO23:0
EAP23:0
EAQ23:0
EAR23:0
EAS23:0
EAT23:0
EAU23:0
EAV23:0
EAW23:0
EAX23:0
EAY23:0
EAZ23:0
EBA23:0
EBB23:0
EBC23:0
EBD23:0
EBE23:0
EBF23:0
EBG23:0
EBH23:0
EBI23:0
EBJ23:0
EBK23:0
EBL23:0
EBM23:0
EBN23:0
EBO23:0
EBP23:0
EBQ23:0
EBR23:0
EBS23:0
EBT23:0
EBU23:0
EBV23:0
EBW23:0
EBX23:0
EBY23:0
EBZ23:0
ECA23:0
ECB23:0
ECC23:0
ECD23:0
ECE23:0
ECF23:0
ECG23:0
ECH23:0
ECI23:0
ECJ23:0
ECK23:0
ECL23:0
ECM23:0
ECN23:0
ECO23:0
ECP23:0
ECQ23:0
ECR23:0
ECS23:0
ECT23:0
ECU23:0
ECV23:0
ECW23:0
ECX23:0
ECY23:0
ECZ23:0
EDA23:0
EDB23:0
EDC23:0
EDD23:0
EDE23:0
EDF23:0
EDG23:0
EDH23:0
EDI23:0
EDJ23:0
EDK23:0
EDL23:0
EDM23:0
EDN23:0
EDO23:0
EDP23:0
EDQ23:0
EDR23:0
EDS23:0
EDT23:0
EDU23:0
EDV23:0
EDW23:0
EDX23:0
EDY23:0
EDZ23:0
EEA23:0
EEB23:0
EEC23:0
EED23:0
EEE23:0
EEF23:0
EEG23:0
EEH23:0
EEI23:0
EEJ23:0
EEK23:0
EEL23:0
EEM23:0
EEN23:0
EEO23:0
EEP23:0
EEQ23:0
EER23:0
EES23:0
EET23:0
EEU23:0
EEV23:0
EEW23:0
EEX23:0
EEY23:0
EEZ23:0
EFA23:0
EFB23:0
EFC23:0
EFD23:0
EFE23:0
EFF23:0
EFG23:0
EFH23:0
EFI23:0
EFJ23:0
EFK23:0
EFL23:0
EFM23:0
EFN23:0
EFO23:0
EFP23:0
EFQ23:0
EFR23:0
EFS23:0
EFT23:0
EFU23:0
EFV23:0
EFW23:0
EFX23:0
EFY23:0
EFZ23:0
EGA23:0
EGB23:0
EGC23:0
EGD23:0
EGE23:0
EGF23:0
EGG23:0
EGH23:0
EGI23:0
EGJ23:0
EGK23:0
EGL23:0
EGM23:0
EGN23:0
EGO23:0
EGP23:0
EGQ23:0
EGR23:0
EGS23:0
EGT23:0
EGU23:0
EGV23:0
EGW23:0
EGX23:0
EGY23:0
EGZ23:0
EHA23:0
EHB23:0
EHC23:0
EHD23:0
EHE23:0
EHF23:0
EHG23:0
EHH23:0
EHI23:0
EHJ23:0
EHK23:0
EHL23:0
EHM23:0
EHN23:0
EHO23:0
EHP23:0
EHQ23:0
EHR23:0
EHS23:0.035
EHT23:0.035
EHU23:0.035
EHV23:0.035
EHW23:0.035
EHX23:0.035
EHY23:0.035
EHZ23:0.035
EIA23:0.035
EIB23:0.035
EIC23:0.035
EID23:0.035
EIE23:0.0352134987522032
EIF23:0.0352134987522032
EIG23:0.0352134987522032
EIH23:0.0352134987522032
EII23:0.0352134987522032
EIJ23:0.0352134987522032
EIK23:0.0352134987522032
EIL23:0.0352134987522032
EIM23:0.0352134987522032
EIN23:0.0352134987522032
EIO23:0.0352134987522032
EIP23:0.0352134987522032
EIQ23:0.0426120095289667
EIR23:0.0426120095289667
EIS23:0.0426120095289667
EIT23:0.0426120095289667
EIU23:0.0426120095289667
EIV23:0.0426120095289667
EIW23:0.0426120095289667
EIX23:0.0426120095289667
EIY23:0.0426120095289667
EIZ23:0.0426120095289667
EJA23:0.0426120095289667
EJB23:0.0426120095289667
EJC23:0.0456832037783521
EJD23:0.0456832037783521
EJE23:0.0456832037783521
EJF23:0.0456832037783521
EJG23:0.0456832037783521
EJH23:0.0456832037783521
EJI23:0.0456832037783521
EJJ23:0.0456832037783521
EJK23:0.0456832037783521
EJL23:0.0456832037783521
EJM23:0.0456832037783521
EJN23:0.0456832037783521
EJO23:0.0458021169861271
EJP23:0.0458021169861271
EJQ23:0.0458021169861271
EJR23:0.0458021169861271
EJS23:0.0458021169861271
EJT23:0.0458021169861271
EJU23:0.0458021169861271
EJV23:0.0458021169861271
EJW23:0.0458021169861271
EJX23:0.0458021169861271
EJY23:0.0458021169861271
EJZ23:0.0458021169861271
EKA23:0.0479862333218641
EKB23:0.0479862333218641
EKC23:0.0479862333218641
EKD23:0.0479862333218641
EKE23:0.0479862333218641
EKF23:0.0479862333218641
EKG23:0.0479862333218641
EKH23:0.0479862333218641
EKI23:0.0479862333218641
EKJ23:0.0479862333218641
EKK23:0.0479862333218641
EKL23:0.0479862333218641
EKM23:0.05
EKN23:0.05
EKO23:0.05
EKP23:0.05
EKQ23:0.05
EKR23:0.05
EKS23:0.05
EKT23:0.05
EKU23:0.05
EKV23:0.05
EKW23:0.05
EKX23:0.05
EKY23:0.05
EKZ23:0.05
ELA23:0.05
ELB23:0.05
ELC23:0.05
ELD23:0.05
ELE23:0.05
ELF23:0.05
ELG23:0.05
ELH23:0.05
ELI23:0.05
ELJ23:0.05
ELK23:0.05
ELL23:0.05
ELM23:0.05
ELN23:0.05
ELO23:0.05
ELP23:0.05
ELQ23:0.05
ELR23:0.05
ELS23:0.05
ELT23:0.05
ELU23:0.05
ELV23:0.05
ELW23:0.05
ELX23:0.05
ELY23:0.05
ELZ23:0.05
EMA23:0.05
EMB23:0.05
EMC23:0.05
EMD23:0.05
EME23:0.05
EMF23:0.05
EMG23:0.05
EMH23:0.05
EMI23:0.05
EMJ23:0.05
EMK23:0.05
EML23:0.05
EMM23:0.05
EMN23:0.05
EMO23:0.05
EMP23:0.05
EMQ23:0.05
EMR23:0.05
EMS23:0.05
EMT23:0.05
EMU23:0.05
EMV23:0.05
EMW23:0.05
EMX23:0.05
EMY23:0.05
EMZ23:0.05
ENA23:0.05
ENB23:0.05
ENC23:0.05
END23:0.05
ENE23:0.05
ENF23:0.05
ENG23:0.05
ENH23:0.05
ENI23:0.05
ENJ23:0.05
ENK23:0.05
ENL23:0.05
ENM23:0.05
ENN23:0.05
ENO23:0.05
ENP23:0.05
ENQ23:0.05
ENR23:0.05
ENS23:0.05
ENT23:0.05
ENU23:0.05
ENV23:0.05
ENW23:0.05
ENX23:0.05
ENY23:0.05
ENZ23:0.05
EOA23:0.05
EOB23:0.05
EOC23:0.05
EOD23:0.05
EOE23:0.05
EOF23:0.05
EOG23:0.05
EOH23:0.05
EOI23:0.05
EOJ23:0.05
EOK23:0.05
EOL23:0.05
EOM23:0.05
EON23:0.05
EOO23:0.05
EOP23:0.05
EOQ23:0.05
EOR23:0.05
EOS23:0.05
EOT23:0.05
EOU23:0.05
EOV23:0.05
EOW23:0.05
EOX23:0.05
EOY23:0.05
EOZ23:0.05
EPA23:0.05
EPB23:0.05
EPC23:0.05
EPD23:0.05
EPE23:0.05
EPF23:0.05
EPG23:0.05
EPH23:0.05
EPI23:0.05
EPJ23:0.05
EPK23:0.05
EPL23:0.05
EPM23:0.05
EPN23:0.05
EPO23:0.05
EPP23:0.05
EPQ23:0.05
EPR23:0.05
EPS23:0.05
EPT23:0.05
EPU23:0.05
EPV23:0.05
EPW23:0.05
EPX23:0.05
EPY23:0.05
EPZ23:0.05
EQA23:0.05
EQB23:0.05
EQC23:0.05
EQD23:0.05
EQE23:0.05
EQF23:0.05
EQG23:0.05
EQH23:0.05
EQI23:0.05
EQJ23:0.05
EQK23:0.05
EQL23:0.05
EQM23:0.05
EQN23:0.05
EQO23:0.05
EQP23:0.05
EQQ23:0.05
EQR23:0.05
EQS23:0.05
EQT23:0.05
EQU23:0.05
EQV23:0.05
EQW23:0.05
EQX23:0.05
EQY23:0.05
EQZ23:0.05
ERA23:0.05
ERB23:0.05
ERC23:0.05
ERD23:0.05
ERE23:0.05
ERF23:0.05
ERG23:0.05
ERH23:0.05
ERI23:0.05
ERJ23:0.05
ERK23:0.05
ERL23:0.05
ERM23:0.05
ERN23:0.05
ERO23:0.05
ERP23:0.05
ERQ23:0.05
ERR23:0.05
ERS23:0.05
ERT23:0.05
ERU23:0.05
ERV23:0.05
ERW23:0.05
ERX23:0.05
ERY23:0.05
ERZ23:0.05
ESA23:0.05
ESB23:0.05
ESC23:0.05
ESD23:0.05
ESE23:0.05
ESF23:0.05
ESG23:0.05
ESH23:0.05
ESI23:0.05
ESJ23:0.05
ESK23:0.05
ESL23:0.05
ESM23:0.05
ESN23:0.05
ESO23:0.05
ESP23:0.05
ESQ23:0.05
ESR23:0.05
ESS23:0.05
EST23:0.05
ESU23:0.05
ESV23:0.05
ESW23:0.05
ESX23:0.05
ESY23:0.05
ESZ23:0.05
ETA23:0.05
ETB23:0.05
ETC23:0.05
ETD23:0.05
ETE23:0.05
ETF23:0.05
ETG23:0.05
ETH23:0.05
ETI23:0.05
ETJ23:0.05
ETK23:0.05
ETL23:0.05
ETM23:0.05
ETN23:0.05
ETO23:0.05
ETP23:0.05
ETQ23:0.05
ETR23:0.05
ETS23:0.05
ETT23:0.05
ETU23:0.05
ETV23:0.05
ETW23:0.05
ETX23:0.05
ETY23:0.05
ETZ23:0.05
EUA23:0.05
EUB23:0.05
EUC23:0.05
EUD23:0.05
EUE23:0.05
EUF23:0.05
EUG23:0.05
EUH23:0.05
EUI23:0.05
EUJ23:0.05
EUK23:0.05
EUL23:0.05
EUM23:0.05
EUN23:0.05
EUO23:0.05
EUP23:0.05
EUQ23:0.05
EUR23:0.05
EUS23:0.05
EUT23:0.05
EUU23:0.05
EUV23:0.05
EUW23:0.05
EUX23:0.05
EUY23:0.05
EUZ23:0.05
EVA23:0.05
EVB23:0.05
EVC23:0.05
EVD23:0.05
EVE23:0.05
EVF23:0.05
EVG23:0.05
EVH23:0.05
EVI23:0.05
EVJ23:0.05
EVK23:0.05
EVL23:0.05
EVM23:0.05
EVN23:0.05
EVO23:0.05
EVP23:0.05
EVQ23:0.05
EVR23:0.05
EVS23:0.05
EVT23:0.05
EVU23:0.05
EVV23:0.05
EVW23:0.05
EVX23:0.05
EVY23:0.05
EVZ23:0.05
EWA23:0.05
EWB23:0.05
EWC23:0.05
EWD23:0.05
EWE23:0.05
EWF23:0.05
EWG23:0.05
EWH23:0.05
EWI23:0.05
EWJ23:0.05
EWK23:0.05
EWL23:0.05
EWM23:0.05
EWN23:0.05
EWO23:0.05
EWP23:0.05
EWQ23:0.05
EWR23:0.05
EWS23:0.05
EWT23:0.05
EWU23:0.05
EWV23:0.05
EWW23:0.05
EWX23:0.05
EWY23:0.05
EWZ23:0.05
EXA23:0.05
EXB23:0.05
EXC23:0.05
EXD23:0.05
EXE23:0.05
EXF23:0.05
EXG23:0.05
EXH23:0.05
EXI23:0.05
EXJ23:0.05
EXK23:0.05
EXL23:0.05
EXM23:0.05
EXN23:0.05
EXO23:0.05
EXP23:0.05
EXQ23:0.05
EXR23:0.05
EXS23:0.05
EXT23:0.05
EXU23:0.05
EXV23:0.05
EXW23:0.05
EXX23:0.05
EXY23:0.05
EXZ23:0.05
EYA23:0.05
EYB23:0.05
EYC23:0.05
EYD23:0.05
EYE23:0.05
EYF23:0.05
EYG23:0.05
EYH23:0.05
EYI23:0.05
EYJ23:0.05
EYK23:0.05
EYL23:0.05
EYM23:0.05
EYN23:0.05
EYO23:0.05
EYP23:0.05
EYQ23:0.05
EYR23:0.05
EYS23:0.05
EYT23:0.05
EYU23:0.05
EYV23:0.05
EYW23:0.05
EYX23:0.05
EYY23:0.05
EYZ23:0.05
EZA23:0.05
EZB23:0.05
EZC23:0.05
EZD23:0.05
EZE23:0.05
EZF23:0.05
EZG23:0.05
EZH23:0.05
EZI23:0.05
EZJ23:0.05
EZK23:0.05
EZL23:0.05
EZM23:0.05
EZN23:0.05
EZO23:0.05
EZP23:0.05
EZQ23:0.05
EZR23:0.05
EZS23:0.05
EZT23:0.05
EZU23:0.05
EZV23:0.05
EZW23:0.05
EZX23:0.05
EZY23:0.05
EZZ23:0.05
FAA23:0.05
FAB23:0.05
FAC23:0.05
FAD23:0.05
FAE23:0.05
FAF23:0.05
FAG23:0.05
FAH23:0.05
FAI23:0.05
FAJ23:0.05
FAK23:0.05
FAL23:0.05
FAM23:0.05
FAN23:0.05
FAO23:0.05
FAP23:0.05
FAQ23:0.05
FAR23:0.05
FAS23:0.05
FAT23:0.05
FAU23:0.05
FAV23:0.05
FAW23:0.05
FAX23:0.05
FAY23:0.05
FAZ23:0.05
FBA23:0.05
FBB23:0.05
FBC23:0.05
FBD23:0.05
FBE23:0.05
FBF23:0.05
FBG23:0.05
FBH23:0.05
FBI23:0.05
FBJ23:0.05
FBK23:0.05
FBL23:0.05
FBM23:0.05
FBN23:0.05
FBO23:0.05
FBP23:0.05
FBQ23:0.05
FBR23:0.05
FBS23:0.05
FBT23:0.05
FBU23:0.05
FBV23:0.05
FBW23:0.05
FBX23:0.05
FBY23:0.05
FBZ23:0.05
FCA23:0.05
FCB23:0.05
FCC23:0.05
FCD23:0.05
FCE23:0.05
FCF23:0.05
FCG23:0.05
FCH23:0.05
FCI23:0.05
FCJ23:0.05
FCK23:0.05
FCL23:0.05
FCM23:0.05
FCN23:0.05
FCO23:0.05
FCP23:0.05
FCQ23:0.05
FCR23:0.05
FCS23:0.05
FCT23:0.05
FCU23:0.05
FCV23:0.05
FCW23:0.05
FCX23:0.05
FCY23:0.05
FCZ23:0.05
FDA23:0.05
FDB23:0.05
FDC23:0.05
FDD23:0.05
FDE23:0.05
FDF23:0.05
FDG23:0.05
FDH23:0.05
FDI23:0.05
FDJ23:0.05
FDK23:0.05
FDL23:0.05
FDM23:0.05
FDN23:0.05
FDO23:0.05
FDP23:0.05
FDQ23:0.05
FDR23:0.05
FDS23:0.05
FDT23:0.05
FDU23:0.05
FDV23:0.05
FDW23:0.05
FDX23:0.05
FDY23:0.05
FDZ23:0.05
FEA23:0.05
FEB23:0.05
FEC23:0.05
FED23:0.05
FEE23:0.05
FEF23:0.05
FEG23:0.05
FEH23:0.05
FEI23:0.05
FEJ23:0.05
FEK23:0.05
FEL23:0.05
FEM23:0.05
FEN23:0.05
FEO23:0.05
FEP23:0.05
FEQ23:0.05
FER23:0.05
FES23:0.05
FET23:0.05
FEU23:0.05
FEV23:0.05
FEW23:0.05
FEX23:0.05
FEY23:0.05
FEZ23:0.05
FFA23:0.05
FFB23:0.05
FFC23:0.05
FFD23:0.05
FFE23:0.05
FFF23:0.05
FFG23:0.05
FFH23:0.05
FFI23:0.05
FFJ23:0.05
FFK23:0.05
FFL23:0.05
FFM23:0.05
FFN23:0.05
FFO23:0.05
FFP23:0.05
FFQ23:0.05
FFR23:0.05
FFS23:0.05
FFT23:0.05
FFU23:0.05
FFV23:0.05
FFW23:0.05
FFX23:0.05
FFY23:0.05
FFZ23:0.05
FGA23:0.05
FGB23:0.05
FGC23:0.05
FGD23:0.05
FGE23:0.05
FGF23:0.05
FGG23:0.05
FGH23:0.05
FGI23:0.05
FGJ23:0.05
FGK23:0.05
FGL23:0.05
FGM23:0.05
FGN23:0.05
FGO23:0.05
FGP23:0.05
FGQ23:0.05
FGR23:0.05
FGS23:0.05
FGT23:0.05
FGU23:0.05
FGV23:0.05
FGW23:0.05
FGX23:0.05
FGY23:0.05
FGZ23:0.05
FHA23:0.05
FHB23:0.05
FHC23:0.05
FHD23:0.05
FHE23:0.05
FHF23:0.05
FHG23:0.05
FHH23:0.05
FHI23:0.05
FHJ23:0.05
FHK23:0.05
FHL23:0.05
FHM23:0.05
FHN23:0.05
FHO23:0.05
FHP23:0.05
FHQ23:0.05
FHR23:0.05
FHS23:0.05
FHT23:0.05
FHU23:0.05
FHV23:0.05
FHW23:0.05
FHX23:0.05
FHY23:0.05
FHZ23:0.05
FIA23:0.05
FIB23:0.05
FIC23:0.05
FID23:0.05
FIE23:0.05
FIF23:0.05
FIG23:0.05
FIH23:0.05
FII23:0.05
FIJ23:0.05
FIK23:0.05
FIL23:0.05
FIM23:0.05
FIN23:0.05
FIO23:0.05
FIP23:0.05
FIQ23:0.05
FIR23:0.05
FIS23:0.05
FIT23:0.05
FIU23:0.05
FIV23:0.05
FIW23:0.05
FIX23:0.05
FIY23:0.05
FIZ23:0.05
FJA23:0.05
FJB23:0.05
FJC23:0.05
FJD23:0.05
FJE23:0.05
FJF23:0.05
FJG23:0.05
FJH23:0.05
FJI23:0.05
FJJ23:0.05
FJK23:0.05
FJL23:0.035
FJM23:0.035
FJN23:0.035
FJO23:0.035
FJP23:0.035
FJQ23:0.035
FJR23:0.035
FJS23:0.035
FJT23:0.035
FJU23:0.035
FJV23:0.035
FJW23:0.035
FJX23:0.115213498752203
FJY23:0.115213498752203
FJZ23:0.115213498752203
FKA23:0.115213498752203
FKB23:0.115213498752203
FKC23:0.115213498752203
FKD23:0.115213498752203
FKE23:0.115213498752203
FKF23:0.115213498752203
FKG23:0.115213498752203
FKH23:0.115213498752203
FKI23:0.115213498752203
FKJ23:0.122612009528967
FKK23:0.122612009528967
FKL23:0.122612009528967
FKM23:0.122612009528967
FKN23:0.122612009528967
FKO23:0.122612009528967
FKP23:0.122612009528967
FKQ23:0.122612009528967
FKR23:0.122612009528967
FKS23:0.122612009528967
FKT23:0.122612009528967
FKU23:0.122612009528967
FKV23:0.125683203778352
FKW23:0.125683203778352
FKX23:0.125683203778352
FKY23:0.125683203778352
FKZ23:0.125683203778352
FLA23:0.125683203778352
FLB23:0.125683203778352
FLC23:0.125683203778352
FLD23:0.125683203778352
FLE23:0.125683203778352
FLF23:0.125683203778352
FLG23:0.125683203778352
FLH23:0.125802116986127
FLI23:0.125802116986127
FLJ23:0.125802116986127
FLK23:0.125802116986127
FLL23:0.125802116986127
FLM23:0.125802116986127
FLN23:0.125802116986127
FLO23:0.125802116986127
FLP23:0.125802116986127
FLQ23:0.125802116986127
FLR23:0.125802116986127
FLS23:0.125802116986127
FLT23:0.127986233321864
FLU23:0.127986233321864
FLV23:0.127986233321864
FLW23:0.127986233321864
FLX23:0.127986233321864
FLY23:0.127986233321864
FLZ23:0.127986233321864
FMA23:0.127986233321864
FMB23:0.127986233321864
FMC23:0.127986233321864
FMD23:0.127986233321864
FME23:0.127986233321864
FMF23:0.13
FMG23:0.13
FMH23:0.13
FMI23:0.13
FMJ23:0.13
FMK23:0.13
FML23:0.13
FMM23:0.13
FMN23:0.13
FMO23:0.13
FMP23:0.13
FMQ23:0.13
FMR23:0.13
FMS23:0.13
FMT23:0.13
FMU23:0.13
FMV23:0.13
FMW23:0.13
FMX23:0.13
FMY23:0.13
FMZ23:0.13
FNA23:0.13
FNB23:0.13
FNC23:0.13
FND23:0.13
FNE23:0.13
FNF23:0.13
FNG23:0.13
FNH23:0.13
FNI23:0.13
FNJ23:0.13
FNK23:0.13
FNL23:0.13
FNM23:0.13
FNN23:0.13
FNO23:0.13
FNP23:0.13
FNQ23:0.13
FNR23:0.13
FNS23:0.13
FNT23:0.13
FNU23:0.13
FNV23:0.13
FNW23:0.13
FNX23:0.13
FNY23:0.13
FNZ23:0.13
FOA23:0.13
FOB23:0.13
FOC23:0.13
FOD23:0.13
FOE23:0.13
FOF23:0.13
FOG23:0.13
FOH23:0.13
FOI23:0.13
FOJ23:0.13
FOK23:0.13
FOL23:0.13
FOM23:0.13
FON23:0.13
FOO23:0.13
FOP23:0.13
FOQ23:0.13
FOR23:0.13
FOS23:0.13
FOT23:0.13
FOU23:0.13
FOV23:0.13
FOW23:0.13
FOX23:0.13
FOY23:0.13
FOZ23:0.13
FPA23:0.13
FPB23:0.13
FPC23:0.13
FPD23:0.13
FPE23:0.13
FPF23:0.13
FPG23:0.13
FPH23:0.13
FPI23:0.13
FPJ23:0.13
FPK23:0.13
FPL23:0.13
FPM23:0.13
FPN23:0.13
FPO23:0.13
FPP23:0.13
FPQ23:0.13
FPR23:0.13
FPS23:0.13
FPT23:0.13
FPU23:0.13
FPV23:0.13
FPW23:0.13
FPX23:0.13
FPY23:0.13
FPZ23:0.13
FQA23:0.13
FQB23:0.13
FQC23:0.13
FQD23:0.13
FQE23:0.13
FQF23:0.13
FQG23:0.13
FQH23:0.13
FQI23:0.13
FQJ23:0.13
FQK23:0.13
FQL23:0.13
FQM23:0.13
FQN23:0.13
FQO23:0.13
FQP23:0.13
FQQ23:0.13
FQR23:0.13
FQS23:0.13
FQT23:0.13
FQU23:0.13
FQV23:0.13
FQW23:0.13
FQX23:0.13
FQY23:0.13
FQZ23:0.13
FRA23:0.13
FRB23:0.13
FRC23:0.13
FRD23:0.13
FRE23:0.13
FRF23:0.13
FRG23:0.13
FRH23:0.13
FRI23:0.13
FRJ23:0.13
FRK23:0.13
FRL23:0.13
FRM23:0.13
FRN23:0.13
FRO23:0.13
FRP23:0.13
FRQ23:0.13
FRR23:0.13
FRS23:0.13
FRT23:0.13
FRU23:0.13
FRV23:0.13
FRW23:0.13
FRX23:0.13
FRY23:0.13
FRZ23:0.13
FSA23:0.13
FSB23:0.13
FSC23:0.13
FSD23:0.13
FSE23:0.13
FSF23:0.13
FSG23:0.13
FSH23:0.13
FSI23:0.13
FSJ23:0.13
FSK23:0.13
FSL23:0.13
FSM23:0.13
FSN23:0.13
FSO23:0.13
FSP23:0.13
FSQ23:0.13
FSR23:0.13
FSS23:0.13
FST23:0.13
FSU23:0.13
FSV23:0.13
FSW23:0.13
FSX23:0.13
FSY23:0.13
FSZ23:0.13
FTA23:0.13
FTB23:0.13
FTC23:0.13
FTD23:0.13
FTE23:0.13
FTF23:0.13
FTG23:0.13
FTH23:0.13
FTI23:0.13
FTJ23:0.13
FTK23:0.13
FTL23:0.13
FTM23:0.13
FTN23:0.13
FTO23:0.13
FTP23:0.13
FTQ23:0.13
FTR23:0.13
FTS23:0.13
FTT23:0.13
FTU23:0.13
FTV23:0.13
FTW23:0.13
FTX23:0.13
FTY23:0.13
FTZ23:0.13
FUA23:0.13
FUB23:0.13
FUC23:0.13
FUD23:0.13
FUE23:0.13
FUF23:0.13
FUG23:0.13
FUH23:0.13
FUI23:0.13
FUJ23:0.13
FUK23:0.13
FUL23:0.13
FUM23:0.13
FUN23:0.13
FUO23:0.13
FUP23:0.13
FUQ23:0.13
FUR23:0.13
FUS23:0.13
FUT23:0.13
FUU23:0.13
FUV23:0.13
FUW23:0.13
FUX23:0.13
FUY23:0.13
FUZ23:0.13
FVA23:0.13
FVB23:0.13
FVC23:0.13
FVD23:0.13
FVE23:0.13
FVF23:0.13
FVG23:0.13
FVH23:0.13
FVI23:0.13
FVJ23:0.13
FVK23:0.13
FVL23:0.13
FVM23:0.13
FVN23:0.13
FVO23:0.13
FVP23:0.13
FVQ23:0.13
FVR23:0.13
FVS23:0.13
FVT23:0.13
FVU23:0.13
FVV23:0.13
FVW23:0.13
FVX23:0.13
FVY23:0.13
FVZ23:0.13
FWA23:0.13
FWB23:0.13
FWC23:0.13
FWD23:0.13
FWE23:0.13
FWF23:0.13
FWG23:0.13
FWH23:0.13
FWI23:0.13
FWJ23:0.13
FWK23:0.13
FWL23:0.13
FWM23:0.13
FWN23:0.13
FWO23:0.13
FWP23:0.13
FWQ23:0.13
FWR23:0.13
FWS23:0.13
FWT23:0.13
FWU23:0.13
FWV23:0.13
FWW23:0.13
FWX23:0.13
FWY23:0.13
FWZ23:0.13
FXA23:0.13
FXB23:0.13
FXC23:0.13
FXD23:0.13
FXE23:0.13
FXF23:0.13
FXG23:0.13
FXH23:0.13
FXI23:0.13
FXJ23:0.13
FXK23:0.13
FXL23:0.13
FXM23:0.13
FXN23:0.13
FXO23:0.13
FXP23:0.13
FXQ23:0.13
FXR23:0.13
FXS23:0.13
FXT23:0.13
FXU23:0.13
FXV23:0.13
FXW23:0.13
FXX23:0.13
FXY23:0.13
FXZ23:0.13
FYA23:0.13
FYB23:0.13
FYC23:0.13
FYD23:0.13
FYE23:0.13
FYF23:0.13
FYG23:0.13
FYH23:0.13
FYI23:0.13
FYJ23:0.13
FYK23:0.13
FYL23:0.13
FYM23:0.13
FYN23:0.13
FYO23:0.13
FYP23:0.13
FYQ23:0.13
FYR23:0.13
FYS23:0.13
FYT23:0.13
FYU23:0.13
FYV23:0.13
FYW23:0.13
FYX23:0.13
FYY23:0.13
FYZ23:0.13
FZA23:0.13
FZB23:0.13
FZC23:0.13
FZD23:0.13
FZE23:0.13
FZF23:0.13
FZG23:0.13
FZH23:0.13
FZI23:0.13
FZJ23:0.13
FZK23:0.13
FZL23:0.13
FZM23:0.13
FZN23:0.13
FZO23:0.13
FZP23:0.13
FZQ23:0.13
FZR23:0.13
FZS23:0.13
FZT23:0.13
FZU23:0.13
FZV23:0.13
FZW23:0.13
FZX23:0.13
FZY23:0.13
FZZ23:0.13
GAA23:0.13
GAB23:0.13
GAC23:0.13
GAD23:0.13
GAE23:0.13
GAF23:0.13
GAG23:0.13
GAH23:0.13
GAI23:0.13
GAJ23:0.13
GAK23:0.13
GAL23:0.13
GAM23:0.13
GAN23:0.13
GAO23:0.13
GAP23:0.13
GAQ23:0.13
GAR23:0.13
GAS23:0.13
GAT23:0.13
GAU23:0.13
GAV23:0.13
GAW23:0.13
GAX23:0.13
GAY23:0.13
GAZ23:0.13
GBA23:0.13
GBB23:0.13
GBC23:0.13
GBD23:0.13
GBE23:0.13
GBF23:0.13
GBG23:0.13
GBH23:0.13
GBI23:0.13
GBJ23:0.13
GBK23:0.13
GBL23:0.13
GBM23:0.13
GBN23:0.13
GBO23:0.13
GBP23:0.13
GBQ23:0.13
GBR23:0.13
GBS23:0.13
GBT23:0.13
GBU23:0.13
GBV23:0.13
GBW23:0.13
GBX23:0.13
GBY23:0.13
GBZ23:0.13
GCA23:0.13
GCB23:0.13
GCC23:0.13
GCD23:0.13
GCE23:0.13
GCF23:0.13
GCG23:0.13
GCH23:0.13
GCI23:0.13
GCJ23:0.13
GCK23:0.13
GCL23:0.13
GCM23:0.13
GCN23:0.13
GCO23:0.13
GCP23:0.13
GCQ23:0.13
GCR23:0.13
GCS23:0.13
GCT23:0.13
GCU23:0.13
GCV23:0.13
GCW23:0.13
GCX23:0.13
GCY23:0.13
GCZ23:0.13
GDA23:0.13
GDB23:0.13
GDC23:0.13
GDD23:0.13
GDE23:0.13
GDF23:0.13
GDG23:0.13
GDH23:0.13
GDI23:0.13
GDJ23:0.13
GDK23:0.13
GDL23:0.13
GDM23:0.13
GDN23:0.13
GDO23:0.13
GDP23:0.13
GDQ23:0.13
GDR23:0.13
GDS23:0.13
GDT23:0.13
GDU23:0.13
GDV23:0.13
GDW23:0.13
GDX23:0.13
GDY23:0.13
GDZ23:0.13
GEA23:0.13
GEB23:0.13
GEC23:0.13
GED23:0.13
GEE23:0.13
GEF23:0.13
GEG23:0.13
GEH23:0.13
GEI23:0.13
GEJ23:0.13
GEK23:0.13
GEL23:0.13
GEM23:0.13
GEN23:0.13
GEO23:0.13
GEP23:0.13
GEQ23:0.13
GER23:0.13
GES23:0.13
GET23:0.13
GEU23:0.13
GEV23:0.13
GEW23:0.13
GEX23:0.13
GEY23:0.13
GEZ23:0.13
GFA23:0.13
GFB23:0.13
GFC23:0.13
GFD23:0.13
GFE23:0.13
GFF23:0.13
GFG23:0.13
GFH23:0.13
GFI23:0.13
GFJ23:0.13
GFK23:0.13
GFL23:0.13
GFM23:0.13
GFN23:0.13
GFO23:0.13
GFP23:0.13
GFQ23:0.13
GFR23:0.13
GFS23:0.13
GFT23:0.13
GFU23:0.13
GFV23:0.13
GFW23:0.13
GFX23:0.13
GFY23:0.13
GFZ23:0.13
GGA23:0.13
GGB23:0.13
GGC23:0.13
GGD23:0.13
GGE23:0.13
GGF23:0.13
GGG23:0.13
GGH23:0.13
GGI23:0.13
GGJ23:0.13
GGK23:0.13
GGL23:0.13
GGM23:0.13
GGN23:0.13
GGO23:0.13
GGP23:0.13
GGQ23:0.13
GGR23:0.13
GGS23:0.13
GGT23:0.13
GGU23:0.13
GGV23:0.13
GGW23:0.13
GGX23:0.13
GGY23:0.13
GGZ23:0.13
GHA23:0.13
GHB23:0.13
GHC23:0.13
GHD23:0.13
GHE23:0.13
GHF23:0.13
GHG23:0.13
GHH23:0.13
GHI23:0.13
GHJ23:0.13
GHK23:0.13
GHL23:0.13
GHM23:0.13
GHN23:0.13
GHO23:0.13
GHP23:0.13
GHQ23:0.13
GHR23:0.13
GHS23:0.13
GHT23:0.13
GHU23:0.13
GHV23:0.13
GHW23:0.13
GHX23:0.13
GHY23:0.13
GHZ23:0.13
GIA23:0.13
GIB23:0.13
GIC23:0.13
GID23:0.13
GIE23:0.13
GIF23:0.13
GIG23:0.13
GIH23:0.13
GII23:0.13
GIJ23:0.13
GIK23:0.13
GIL23:0.13
GIM23:0.13
GIN23:0.13
GIO23:0.13
GIP23:0.13
GIQ23:0.13
GIR23:0.13
GIS23:0.13
GIT23:0.13
GIU23:0.13
GIV23:0.13
GIW23:0.13
GIX23:0.13
GIY23:0.13
GIZ23:0.13
GJA23:0.13
GJB23:0.13
GJC23:0.13
GJD23:0.13
GJE23:0.13
GJF23:0.13
GJG23:0.13
GJH23:0.13
GJI23:0.13
GJJ23:0.13
GJK23:0.13
GJL23:0.13
GJM23:0.13
GJN23:0.13
GJO23:0.13
GJP23:0.13
GJQ23:0.13
GJR23:0.13
GJS23:0.13
GJT23:0.13
GJU23:0.13
GJV23:0.13
GJW23:0.13
GJX23:0.13
GJY23:0.13
GJZ23:0.13
GKA23:0.13
GKB23:0.13
GKC23:0.13
GKD23:0.13
GKE23:0.13
GKF23:0.13
GKG23:0.13
GKH23:0.13
GKI23:0.13
GKJ23:0.13
GKK23:0.13
GKL23:0.13
GKM23:0.13
GKN23:0.13
GKO23:0.13
GKP23:0.13
GKQ23:0.13
GKR23:0.13
GKS23:0.13
GKT23:0.13
GKU23:0.13
GKV23:0.13
GKW23:0.13
GKX23:0.13
GKY23:0.13
GKZ23:0.13
GLA23:0.13
GLB23:0.13
GLC23:0.13
GLD23:0.13
GLE23:0.2
GLF23:0.2
GLG23:0.2
GLH23:0.2
GLI23:0.2
GLJ23:0.2
GLK23:0.2
GLL23:0.2
GLM23:0.2
GLN23:0.2
GLO23:0.2
GLP23:0.2
GLQ23:0.146536912357911
GLR23:0.146536912357911
GLS23:0.146536912357911
GLT23:0.146536912357911
GLU23:0.146536912357911
GLV23:0.146536912357911
GLW23:0.146536912357911
GLX23:0.146536912357911
GLY23:0.146536912357911
GLZ23:0.146536912357911
GMA23:0.146536912357911
GMB23:0.146536912357911
GMC23:0.178767078482011
GMD23:0.178767078482011
GME23:0.178767078482011
GMF23:0.178767078482011
GMG23:0.178767078482011
GMH23:0.178767078482011
GMI23:0.178767078482011
GMJ23:0.178767078482011
GMK23:0.178767078482011
GML23:0.178767078482011
GMM23:0.178767078482011
GMN23:0.178767078482011
GMO23:0.194635672211125
GMP23:0.194635672211125
GMQ23:0.194635672211125
GMR23:0.194635672211125
GMS23:0.194635672211125
GMT23:0.194635672211125
GMU23:0.194635672211125
GMV23:0.194635672211125
GMW23:0.194635672211125
GMX23:0.194635672211125
GMY23:0.194635672211125
GMZ23:0.194635672211125
GNA23:0.202493105557263
GNB23:0.202493105557263
GNC23:0.202493105557263
GND23:0.202493105557263
GNE23:0.202493105557263
GNF23:0.202493105557263
GNG23:0.202493105557263
GNH23:0.202493105557263
GNI23:0.202493105557263
GNJ23:0.202493105557263
GNK23:0.202493105557263
GNL23:0.202493105557263
GNM23:0.226742389852093
GNN23:0.226742389852093
GNO23:0.226742389852093
GNP23:0.226742389852093
GNQ23:0.226742389852093
GNR23:0.226742389852093
GNS23:0.226742389852093
GNT23:0.226742389852093
GNU23:0.226742389852093
GNV23:0.226742389852093
GNW23:0.226742389852093
GNX23:0.226742389852093
GNY23:0.208657771608936
GNZ23:0.209358487344378
GOA23:0.210059203079819
GOB23:0.210759918815261
GOC23:0.211460634550703
GOD23:0.212161350286145
GOE23:0.212862066021586
GOF23:0.213562781757028
GOG23:0.21426349749247
GOH23:0.214964213227912
GOI23:0.215664928963353
GOJ23:0.216365644698795
GOK23:0.217066360434237
GOL23:0.217767076169679
GOM23:0.218467791905121
GON23:0.219168507640562
GOO23:0.219869223376004
GOP23:0.220569939111446
GOQ23:0.221270654846888
GOR23:0.221971370582329
GOS23:0.222672086317771
GOT23:0.223372802053213
GOU23:0.224073517788655
GOV23:0.224774233524096
GOW23:0.225474949259538
GOX23:0.22617566499498
GOY23:0.226876380730422
GOZ23:0.227577096465863
GPA23:0.228277812201305
GPB23:0.228978527936747
GPC23:0.229679243672189
GPD23:0.230379959407631
GPE23:0.231080675143072
GPF23:0.231781390878514
GPG23:0.232482106613956
GPH23:0.233182822349398
GPI23:0.233883538084839
GPJ23:0.234584253820281
GPK23:0.235284969555723
GPL23:0.235985685291165
GPM23:0.236686401026606
GPN23:0.237387116762048
GPO23:0.23808783249749
GPP23:0.238788548232932
GPQ23:0.239489263968373
GPR23:0.240189979703815
GPS23:0.240890695439257
GPT23:0.241591411174699
GPU23:0.242292126910141
GPV23:0.242992842645582
GPW23:0.243693558381024
GPX23:0.244394274116466
GPY23:0.245094989851908
GPZ23:0.245795705587349
GQA23:0.246496421322791
GQB23:0.247197137058233
GQC23:0.247897852793675
GQD23:0.248598568529116
GQE23:0.249299284264558
GQF23:0.25
GQG23:0.25
GQH23:0.25
GQI23:0.25
GQJ23:0.25
GQK23:0.25
GQL23:0.25
GQM23:0.25
GQN23:0.25
GQO23:0.25
GQP23:0.25
GQQ23:0.25
GQR23:0.25
GQS23:0.25
GQT23:0.25
GQU23:0.25
GQV23:0.25
GQW23:0.25
GQX23:0.25
GQY23:0.25
GQZ23:0.25
GRA23:0.25
GRB23:0.25
GRC23:0.25
GRD23:0.25
GRE23:0.25
GRF23:0.25
GRG23:0.25
GRH23:0.25
GRI23:0.25
GRJ23:0.25
GRK23:0.25
GRL23:0.25
GRM23:0.25
GRN23:0.25
GRO23:0.25
GRP23:0.25
GRQ23:0.25
GRR23:0.25
GRS23:0.25
GRT23:0.25
GRU23:0.25
GRV23:0.25
GRW23:0.25
GRX23:0.25
GRY23:0.25
GRZ23:0.25
GSA23:0.25
GSB23:0.25
GSC23:0.25
GSD23:0.25
GSE23:0.25
GSF23:0.25
GSG23:0.25
GSH23:0.25
GSI23:0.25
GSJ23:0.25
GSK23:0.25
GSL23:0.25
GSM23:0.25
GSN23:0.25
GSO23:0.25
GSP23:0.25
GSQ23:0.25
GSR23:0.25
GSS23:0.25
GST23:0.25
GSU23:0.25
GSV23:0.25
GSW23:0.25
GSX23:0.25
GSY23:0.25
GSZ23:0.25
GTA23:0.25
GTB23:0.25
GTC23:0.25
GTD23:0.25
GTE23:0.25
GTF23:0.25
GTG23:0.25
GTH23:0.25
GTI23:0.25
GTJ23:0.25
GTK23:0.25
GTL23:0.25
GTM23:0.25
GTN23:0.25
GTO23:0.25
GTP23:0.25
GTQ23:0.25
GTR23:0.25
GTS23:0.25
GTT23:0.25
GTU23:0.25
GTV23:0.25
GTW23:0.25
GTX23:0.25
GTY23:0.25
GTZ23:0.25
GUA23:0.25
GUB23:0.25
GUC23:0.25
GUD23:0.25
GUE23:0.25
GUF23:0.25
GUG23:0.25
GUH23:0.25
GUI23:0.25
GUJ23:0.25
GUK23:0.25
GUL23:0.25
GUM23:0.25
GUN23:0.25
GUO23:0.25
GUP23:0.25
GUQ23:0.25
GUR23:0.25
GUS23:0.25
GUT23:0.25
GUU23:0.25
GUV23:0.25
GUW23:0.25
GUX23:0.25
GUY23:0.25
GUZ23:0.25
GVA23:0.25
GVB23:0.25
GVC23:0.25
GVD23:0.25
GVE23:0.25
GVF23:0.25
GVG23:0.25
GVH23:0.25
GVI23:0.25
GVJ23:0.25
GVK23:0.25
GVL23:0.25
GVM23:0.25
GVN23:0.25
GVO23:0.25
GVP23:0.25
GVQ23:0.25
GVR23:0.25
GVS23:0.25
GVT23:0.25
GVU23:0.25
GVV23:0.25
GVW23:0.25
GVX23:0.25
GVY23:0.25
GVZ23:0.25
GWA23:0.25
GWB23:0.25
GWC23:0.25
GWD23:0.25
GWE23:0.25
GWF23:0.25
GWG23:0.25
GWH23:0.25
GWI23:0.25
GWJ23:0.25
GWK23:0.25
GWL23:0.25
GWM23:0.25
GWN23:0.25
GWO23:0.25
GWP23:0.25
GWQ23:0.25
GWR23:0.25
GWS23:0.25
GWT23:0.25
GWU23:0.25
GWV23:0.25
GWW23:0.25
GWX23:0.25
GWY23:0.25
GWZ23:0.25
GXA23:0.25
GXB23:0.25
GXC23:0.25
GXD23:0.25
GXE23:0.25
GXF23:0.25
GXG23:0.25
GXH23:0.25
GXI23:0.25
GXJ23:0.25
GXK23:0.25
GXL23:0.25
GXM23:0.25
GXN23:0.25
GXO23:0.25
GXP23:0.25
GXQ23:0.25
GXR23:0.25
GXS23:0.25
GXT23:0.25
GXU23:0.25
GXV23:0.25
GXW23:0.25
GXX23:0.25
GXY23:0.25
GXZ23:0.25
GYA23:0.25
GYB23:0.25
GYC23:0.25
GYD23:0.25
GYE23:0.25
GYF23:0.25
GYG23:0.25
GYH23:0.25
GYI23:0.25
GYJ23:0.25
GYK23:0.25
GYL23:0.25
GYM23:0.25
GYN23:0.25
GYO23:0.25
GYP23:0.25
GYQ23:0.25
GYR23:0.25
GYS23:0.25
GYT23:0.25
GYU23:0.25
GYV23:0.25
GYW23:0.25
GYX23:0.25
GYY23:0.25
GYZ23:0.25
GZA23:0.25
GZB23:0.25
GZC23:0.25
GZD23:0.25
GZE23:0.25
GZF23:0.25
GZG23:0.25
GZH23:0.25
GZI23:0.25
GZJ23:0.25
GZK23:0.25
GZL23:0.25
GZM23:0.25
GZN23:0.25
GZO23:0.25
GZP23:0.25
GZQ23:0.25
GZR23:0.25
GZS23:0.25
GZT23:0.25
GZU23:0.25
GZV23:0.25
GZW23:0.25
GZX23:0.25
GZY23:0.25
GZZ23:0.25
HAA23:0.25
HAB23:0.25
HAC23:0.25
HAD23:0.25
HAE23:0.25
HAF23:0.25
HAG23:0.25
HAH23:0.25
HAI23:0.25
HAJ23:0.25
HAK23:0.25
HAL23:0.25
HAM23:0.25
HAN23:0.25
HAO23:0.25
HAP23:0.25
HAQ23:0.25
HAR23:0.25
HAS23:0.25
HAT23:0.25
HAU23:0.25
HAV23:0.25
HAW23:0.25
HAX23:0.25
HAY23:0.25
HAZ23:0.25
HBA23:0.25
HBB23:0.25
HBC23:0.25
HBD23:0.25
HBE23:0.25
HBF23:0.25
HBG23:0.25
HBH23:0.25
HBI23:0.25
HBJ23:0.25
HBK23:0.25
HBL23:0.25
HBM23:0.25
HBN23:0.25
HBO23:0.25
HBP23:0.25
HBQ23:0.25
HBR23:0.25
HBS23:0.25
HBT23:0.25
HBU23:0.25
HBV23:0.25
HBW23:0.25
HBX23:0.25
HBY23:0.25
HBZ23:0.25
HCA23:0.25
HCB23:0.25
HCC23:0.25
HCD23:0.25
HCE23:0.25
HCF23:0.25
HCG23:0.25
HCH23:0.25
HCI23:0.25
HCJ23:0.25
HCK23:0.25
HCL23:0.25
HCM23:0.25
HCN23:0.25
HCO23:0.25
HCP23:0.25
HCQ23:0.25
HCR23:0.25
HCS23:0.25
HCT23:0.25
HCU23:0.25
HCV23:0.25
HCW23:0.25
HCX23:0.25
HCY23:0.25
HCZ23:0.25
HDA23:0.25
HDB23:0.25
HDC23:0.25
HDD23:0.25
HDE23:0.25
HDF23:0.25
HDG23:0.25
HDH23:0.25
HDI23:0.25
HDJ23:0.25
HDK23:0.25
HDL23:0.25
HDM23:0.25
HDN23:0.25
HDO23:0.25
HDP23:0.25
HDQ23:0.25
HDR23:0.25
HDS23:0.25
HDT23:0.25
HDU23:0.25
HDV23:0.25
HDW23:0.25
HDX23:0.25
HDY23:0.25
HDZ23:0.25
HEA23:0.25
HEB23:0.25
HEC23:0.25
HED23:0.25
HEE23:0.25
HEF23:0.25
HEG23:0.25
HEH23:0.25
HEI23:0.25
HEJ23:0.25
HEK23:0.25
HEL23:0.25
HEM23:0.25
HEN23:0.25
HEO23:0.25
HEP23:0.25
HEQ23:0.25
HER23:0.25
HES23:0.25
HET23:0.25
HEU23:0.25
HEV23:0.25
HEW23:0.25
HEX23:0.25
HEY23:0.25
HEZ23:0.25
HFA23:0.25
HFB23:0.25
HFC23:0.25
HFD23:0.25
HFE23:0.25
HFF23:0.25
HFG23:0.25
HFH23:0.25
HFI23:0.25
HFJ23:0.25
HFK23:0.25
HFL23:0.25
HFM23:0.25
HFN23:0.25
HFO23:0.25
HFP23:0.25
HFQ23:0.25
HFR23:0.25
HFS23:0.25
HFT23:0.25
HFU23:0.25
HFV23:0.25
HFW23:0.25
HFX23:0.25
HFY23:0.25
HFZ23:0.25
HGA23:0.25
HGB23:0.25
HGC23:0.25
HGD23:0.25
HGE23:0.25
HGF23:0.25
HGG23:0.25
HGH23:0.25
HGI23:0.25
HGJ23:0.25
HGK23:0.25
HGL23:0.25
HGM23:0.25
HGN23:0.25
HGO23:0.25
HGP23:0.25
HGQ23:0.25
HGR23:0.25
HGS23:0.25
HGT23:0.25
HGU23:0.25
HGV23:0.25
HGW23:0.25
HGX23:0.25
HGY23:0.25
HGZ23:0.25
HHA23:0.25
HHB23:0.25
HHC23:0.25
HHD23:0.25
HHE23:0.25
HHF23:0.25
HHG23:0.25
HHH23:0.25
HHI23:0.25
HHJ23:0.25
HHK23:0.25
HHL23:0.25
HHM23:0.25
HHN23:0.25
HHO23:0.25
HHP23:0.25
HHQ23:0.25
HHR23:0.25
HHS23:0.25
HHT23:0.25
HHU23:0.25
HHV23:0.25
HHW23:0.25
HHX23:0.25
HHY23:0.25
HHZ23:0.25
HIA23:0.25
HIB23:0.25
HIC23:0.25
HID23:0.25
HIE23:0.25
HIF23:0.25
HIG23:0.25
HIH23:0.25
HII23:0.25
HIJ23:0.25
HIK23:0.25
HIL23:0.25
HIM23:0.25
HIN23:0.25
HIO23:0.25
HIP23:0.25
HIQ23:0.25
HIR23:0.25
HIS23:0.25
HIT23:0.25
HIU23:0.25
HIV23:0.25
HIW23:0.25
HIX23:0.25
HIY23:0.25
HIZ23:0.25
HJA23:0.25
HJB23:0.25
HJC23:0.25
HJD23:0.25
HJE23:0.25
HJF23:0.25
HJG23:0.25
HJH23:0.25
HJI23:0.25
HJJ23:0.25
HJK23:0.25
HJL23:0.25
HJM23:0.25
HJN23:0.25
HJO23:0.25
HJP23:0.25
HJQ23:0.25
HJR23:0.25
HJS23:0.25
HJT23:0.25
HJU23:0.25
HJV23:0.25
HJW23:0.25
HJX23:0.25
HJY23:0.25
HJZ23:0.25
HKA23:0.25
HKB23:0.25
HKC23:0.25
HKD23:0.25
HKE23:0.25
HKF23:0.25
HKG23:0.25
HKH23:0.25
HKI23:0.25
HKJ23:0.25
HKK23:0.25
HKL23:0.25
HKM23:0.25
HKN23:0.25
HKO23:0.25
HKP23:0.25
HKQ23:0.25
HKR23:0.25
HKS23:0.25
HKT23:0.25
HKU23:0.25
HKV23:0.25
HKW23:0.25
HKX23:0.25
HKY23:0.25
HKZ23:0.25
HLA23:0.25
HLB23:0.25
HLC23:0.25
HLD23:0.25
HLE23:0.25
HLF23:0.25
HLG23:0.25
HLH23:0.25
HLI23:0.25
HLJ23:0.25
HLK23:0.25
HLL23:0.25
HLM23:0.25
HLN23:0.25
HLO23:0.25
HLP23:0.25
HLQ23:0.25
HLR23:0.25
HLS23:0.25
HLT23:0.25
HLU23:0.25
HLV23:0.25
HLW23:0.25
HLX23:0.25
HLY23:0.25
HLZ23:0.25
HMA23:0.25
HMB23:0.25
HMC23:0.25
HMD23:0.25
HME23:0.25
HMF23:0.25
HMG23:0.25
HMH23:0.25
HMI23:0.25
HMJ23:0.25
HMK23:0.25
HML23:0.25
HMM23:0.25
HMN23:0.25
HMO23:0.25
HMP23:0.25
HMQ23:0.25
HMR23:0.25
HMS23:0.25
HMT23:0.25
HMU23:0.25
HMV23:0.25
HMW23:0.25
HMX23:0
HMY23:0
HMZ23:0
HNA23:0
HNB23:0
HNC23:0
HND23:0
HNE23:0
HNF23:0
HNG23:0
HNH23:0
HNI23:0
HNJ23:0
HNK23:0
HNL23:0
HNM23:0
HNN23:0
HNO23:0
HNP23:0
HNQ23:0
HNR23:0
HNS23:0
HNT23:0
HNU23:0
HNV23:0
HNW23:0
HNX23:0
HNY23:0
HNZ23:0
HOA23:0
HOB23:0
HOC23:0
HOD23:0
HOE23:0
HOF23:0
HOG23:0
HOH23:0
HOI23:0
HOJ23:0
HOK23:0
HOL23:0
HOM23:0
HON23:0
HOO23:0
HOP23:0
HOQ23:0
HOR23:0
HOS23:0
HOT23:0
HOU23:0
HOV23:0
HOW23:0
HOX23:0
HOY23:0
HOZ23:0
HPA23:0
HPB23:0
HPC23:0
HPD23:0
HPE23:0
HPF23:0
HPG23:0
HPH23:0
HPI23:0
HPJ23:0
HPK23:0
HPL23:0
HPM23:0
HPN23:0
HPO23:0
HPP23:0
HPQ23:0
HPR23:0
HPS23:0
HPT23:0
HPU23:0
HPV23:0
HPW23:0
HPX23:0
HPY23:0
HPZ23:0
HQA23:0
HQB23:0
HQC23:0
HQD23:0
HQE23:0
HQF23:0
HQG23:0
HQH23:0
HQI23:0
HQJ23:0
HQK23:0
HQL23:0
HQM23:0
HQN23:0
HQO23:0
HQP23:0
HQQ23:0
HQR23:0
HQS23:0
HQT23:0
HQU23:0
HQV23:0
HQW23:0
HQX23:0
HQY23:0
HQZ23:0
HRA23:0
HRB23:0
HRC23:0
HRD23:0
HRE23:0
HRF23:0
HRG23:0
HRH23:0
HRI23:0
HRJ23:0
HRK23:0
HRL23:0
HRM23:0
HRN23:0
HRO23:0
HRP23:0
HRQ23:0
HRR23:0
HRS23:0
HRT23:0
HRU23:0
HRV23:0
HRW23:0
HRX23:0
HRY23:0
HRZ23:0
HSA23:0
HSB23:0
HSC23:0
HSD23:0
HSE23:0
HSF23:0
HSG23:0
HSH23:0
HSI23:0
HSJ23:0
HSK23:0
HSL23:0
HSM23:0
HSN23:0
HSO23:0
HSP23:0
HSQ23:0
HSR23:0
HSS23:0
HST23:0
HSU23:0
HSV23:0
HSW23:0
HSX23:0
HSY23:0
HSZ23:0
HTA23:0
HTB23:0
HTC23:0
HTD23:0
HTE23:0
HTF23:0
HTG23:0
HTH23:0
HTI23:0
HTJ23:0
HTK23:0
HTL23:0
HTM23:0
HTN23:0
HTO23:0
HTP23:0
HTQ23:0
HTR23:0
HTS23:0
HTT23:0
HTU23:0
HTV23:0
HTW23:0
HTX23:0
HTY23:0
HTZ23:0
HUA23:0
HUB23:0
HUC23:0
HUD23:0
HUE23:0
HUF23:0
HUG23:0
HUH23:0
HUI23:0
HUJ23:0
HUK23:0
HUL23:0
HUM23:0
HUN23:0
HUO23:0
HUP23:0
HUQ23:0
HUR23:0
HUS23:0
HUT23:0
HUU23:0
HUV23:0
HUW23:0
HUX23:0
HUY23:0
HUZ23:0
HVA23:0
HVB23:0
HVC23:0
HVD23:0
HVE23:0
HVF23:0
HVG23:0
HVH23:0
HVI23:0
HVJ23:0
HVK23:0
HVL23:0
HVM23:0
HVN23:0
HVO23:0
HVP23:0
HVQ23:0
HVR23:0
HVS23:0
HVT23:0
HVU23:0
HVV23:0
HVW23:0
HVX23:0
HVY23:0
HVZ23:0
HWA23:0
HWB23:0
HWC23:0
HWD23:0
HWE23:0
HWF23:0
HWG23:0
HWH23:0
HWI23:0
HWJ23:0
HWK23:0
HWL23:0
HWM23:0
HWN23:0
HWO23:0
HWP23:0
HWQ23:0
HWR23:0
HWS23:0
HWT23:0
HWU23:0
HWV23:0
HWW23:0
HWX23:0
HWY23:0
HWZ23:0
HXA23:0
HXB23:0
HXC23:0
HXD23:0
HXE23:0
HXF23:0
HXG23:0
HXH23:0
HXI23:0
HXJ23:0
HXK23:0
HXL23:0
HXM23:0
HXN23:0
HXO23:0
HXP23:0
HXQ23:0
HXR23:0
HXS23:0
HXT23:0
HXU23:0
HXV23:0
HXW23:0
HXX23:0
HXY23:0
HXZ23:0
HYA23:0
HYB23:0
HYC23:0
HYD23:0
HYE23:0
HYF23:0
HYG23:0
HYH23:0
HYI23:0
HYJ23:0
HYK23:0
HYL23:0
HYM23:0
HYN23:0
HYO23:0
HYP23:0
HYQ23:0
HYR23:0
HYS23:0
HYT23:0
HYU23:0
HYV23:0
HYW23:0
HYX23:0
HYY23:0
HYZ23:0
HZA23:0
HZB23:0
HZC23:0
HZD23:0
HZE23:0
HZF23:0
HZG23:0
HZH23:0
HZI23:0
HZJ23:0
HZK23:0
HZL23:0
HZM23:0
HZN23:0
HZO23:0
HZP23:0
HZQ23:0
HZR23:0
HZS23:0
HZT23:0
HZU23:0
HZV23:0
HZW23:0
HZX23:0
HZY23:0
HZZ23:0
IAA23:0
IAB23:0
IAC23:0
IAD23:0
IAE23:0
IAF23:0
IAG23:0
IAH23:0
IAI23:0
IAJ23:0
IAK23:0
IAL23:0
IAM23:0
IAN23:0
IAO23:0
IAP23:0
IAQ23:0
IAR23:0
IAS23:0
IAT23:0
IAU23:0
IAV23:0
IAW23:0
IAX23:0
IAY23:0
IAZ23:0
IBA23:0
IBB23:0
IBC23:0
IBD23:0
IBE23:0
IBF23:0
IBG23:0
IBH23:0
IBI23:0
IBJ23:0
IBK23:0
IBL23:0
IBM23:0
IBN23:0
IBO23:0
IBP23:0
IBQ23:0
IBR23:0
IBS23:0
IBT23:0
IBU23:0
IBV23:0
IBW23:0
IBX23:0
IBY23:0
IBZ23:0
ICA23:0
ICB23:0
ICC23:0
ICD23:0
ICE23:0
ICF23:0
ICG23:0
ICH23:0
ICI23:0
ICJ23:0
ICK23:0
ICL23:0
ICM23:0
ICN23:0
ICO23:0
ICP23:0
ICQ23:0
ICR23:0
ICS23:0
ICT23:0
ICU23:0
ICV23:0
ICW23:0
ICX23:0
ICY23:0
ICZ23:0
IDA23:0
IDB23:0
IDC23:0
IDD23:0
IDE23:0
IDF23:0
IDG23:0
IDH23:0
IDI23:0
IDJ23:0
IDK23:0
IDL23:0
IDM23:0
IDN23:0
IDO23:0
IDP23:0
IDQ23:0
IDR23:0
IDS23:0
IDT23:0
IDU23:0
IDV23:0
IDW23:0
IDX23:0
IDY23:0
IDZ23:0
IEA23:0
IEB23:0
IEC23:0
IED23:0
IEE23:0
IEF23:0
IEG23:0
IEH23:0
IEI23:0
IEJ23:0
IEK23:0
IEL23:0
IEM23:0
IEN23:0
IEO23:0
IEP23:0
IEQ23:0
IER23:0
IES23:0
IET23:0
IEU23:0
IEV23:0
IEW23:0
IEX23:0
IEY23:0
IEZ23:0
IFA23:0
IFB23:0
IFC23:0
IFD23:0
IFE23:0
IFF23:0
IFG23:0
IFH23:0
IFI23:0
IFJ23:0
IFK23:0
IFL23:0
IFM23:0
IFN23:0
IFO23:0
IFP23:0
IFQ23:0
IFR23:0
IFS23:0
IFT23:0
IFU23:0
IFV23:0
IFW23:0
IFX23:0
IFY23:0
IFZ23:0
IGA23:0
IGB23:0
IGC23:0
IGD23:0
IGE23:0
IGF23:0
IGG23:0
IGH23:0
IGI23:0
IGJ23:0
IGK23:0
IGL23:0
IGM23:0
IGN23:0
IGO23:0
IGP23:0
IGQ23:0
IGR23:0
IGS23:0
IGT23:0
IGU23:0
IGV23:0
IGW23:0
IGX23:0
IGY23:0
IGZ23:0
IHA23:0
IHB23:0
IHC23:0
IHD23:0
IHE23:0
IHF23:0
IHG23:0
IHH23:0
IHI23:0
IHJ23:0
IHK23:0
IHL23:0
IHM23:0
IHN23:0
IHO23:0
IHP23:0
IHQ23:0
IHR23:0
IHS23:0
IHT23:0
IHU23:0
IHV23:0
IHW23:0
IHX23:0
IHY23:0
IHZ23:0
IIA23:0
IIB23:0
IIC23:0
IID23:0
IIE23:0
IIF23:0
IIG23:0
IIH23:0
III23:0
IIJ23:0
IIK23:0
IIL23:0
IIM23:0
IIN23:0
IIO23:0
IIP23:0
IIQ23:0
IIR23:0
IIS23:0
IIT23:0
IIU23:0
IIV23:0
IIW23:0
IIX23:0
IIY23:0
IIZ23:0
IJA23:0
IJB23:0
IJC23:0
IJD23:0
IJE23:0
IJF23:0
IJG23:0
IJH23:0
IJI23:0
IJJ23:0
IJK23:0
IJL23:0
IJM23:0
IJN23:0
IJO23:0
IJP23:0
IJQ23:0
IJR23:0
IJS23:0
IJT23:0
IJU23:0
IJV23:0
IJW23:0
IJX23:0
IJY23:0
IJZ23:0
IKA23:0
IKB23:0
IKC23:0
IKD23:0
IKE23:0
IKF23:0
IKG23:0
IKH23:0
IKI23:0
IKJ23:0
IKK23:0
IKL23:0
IKM23:0
IKN23:0
IKO23:0
IKP23:0
IKQ23:0
IKR23:0
IKS23:0
IKT23:0
IKU23:0
IKV23:0
IKW23:0
IKX23:0
IKY23:0
IKZ23:0
ILA23:0
ILB23:0
ILC23:0
ILD23:0
ILE23:0
ILF23:0
ILG23:0
ILH23:0
ILI23:0
ILJ23:0
ILK23:0
ILL23:0
ILM23:0
ILN23:0
ILO23:0
ILP23:0
ILQ23:0
ILR23:0
ILS23:0
ILT23:0
ILU23:0
ILV23:0
ILW23:0
ILX23:0
ILY23:0
ILZ23:0
IMA23:0
IMB23:0
IMC23:0
IMD23:0
IME23:0
IMF23:0
IMG23:0
IMH23:0
IMI23:0
IMJ23:0
IMK23:0
IML23:0
IMM23:0
IMN23:0
IMO23:0
IMP23:0
IMQ23:0
IMR23:0
IMS23:0
IMT23:0
IMU23:0
IMV23:0
IMW23:0
IMX23:0
IMY23:0
IMZ23:0
INA23:0
INB23:0
INC23:0
IND23:0
INE23:0
INF23:0
ING23:0
INH23:0
INI23:0
INJ23:0
INK23:0
INL23:0
INM23:0
INN23:0
INO23:0
INP23:0
INQ23:0
INR23:0
INS23:0
INT23:0
INU23:0
INV23:0
INW23:0
INX23:0
INY23:0
INZ23:0
IOA23:0
IOB23:0
IOC23:0
IOD23:0
IOE23:0
IOF23:0
IOG23:0
IOH23:0
IOI23:0
IOJ23:0
IOK23:0
IOL23:0
IOM23:0
ION23:0
IOO23:0
IOP23:0
IOQ23:0
IOR23:0
IOS23:0
IOT23:0
IOU23:0
IOV23:0
IOW23:0
IOX23:0
IOY23:0
IOZ23:0
IPA23:0
IPB23:0
IPC23:0
IPD23:0
IPE23:0
IPF23:0
IPG23:0
IPH23:0
IPI23:0
IPJ23:0
IPK23:0
IPL23:0
IPM23:0
IPN23:0
IPO23:0
IPP23:0
IPQ23:0
IPR23:0
IPS23:0
IPT23:0
IPU23:0
IPV23:0
IPW23:0
IPX23:0
IPY23:0
IPZ23:0
IQA23:0
IQB23:0
IQC23:0
IQD23:0
IQE23:0
IQF23:0
IQG23:0
IQH23:0
IQI23:0
IQJ23:0
IQK23:0
IQL23:0
IQM23:0
IQN23:0
IQO23:0
IQP23:0
IQQ23:0
IQR23:0
IQS23:0
IQT23:0
IQU23:0
IQV23:0
IQW23:0
IQX23:0
IQY23:0
IQZ23:0
IRA23:0
IRB23:0
IRC23:0
IRD23:0
IRE23:0
IRF23:0
IRG23:0
IRH23:0
IRI23:0
IRJ23:0
IRK23:0
IRL23:0
IRM23:0
IRN23:0
IRO23:0
IRP23:0
IRQ23:0
IRR23:0
IRS23:0
IRT23:0
IRU23:0
IRV23:0
IRW23:0
IRX23:0
IRY23:0
IRZ23:0
ISA23:0
ISB23:0
ISC23:0
ISD23:0
ISE23:0
ISF23:0
ISG23:0
ISH23:0
ISI23:0
ISJ23:0
ISK23:0
ISL23:0
ISM23:0
ISN23:0
ISO23:0
ISP23:0
ISQ23:0
ISR23:0
ISS23:0
IST23:0
ISU23:0
ISV23:0
ISW23:0
ISX23:0
ISY23:0
ISZ23:0
ITA23:0
ITB23:0
ITC23:0
ITD23:0
ITE23:0
ITF23:0
ITG23:0
ITH23:0
ITI23:0
ITJ23:0
ITK23:0
ITL23:0
ITM23:0
ITN23:0
ITO23:0
ITP23:0
ITQ23:0
ITR23:0
ITS23:0
ITT23:0
ITU23:0
ITV23:0
ITW23:0
ITX23:0
ITY23:0
ITZ23:0
IUA23:0
IUB23:0
IUC23:0
IUD23:0
IUE23:0
IUF23:0
IUG23:0
IUH23:0
IUI23:0
IUJ23:0
IUK23:0
IUL23:0
IUM23:0
IUN23:0
IUO23:0
IUP23:0
IUQ23:0
IUR23:0
IUS23:0
IUT23:0
IUU23:0
IUV23:0
IUW23:0
IUX23:0
IUY23:0
IUZ23:0
IVA23:0
IVB23:0
IVC23:0
IVD23:0
IVE23:0
IVF23:0
IVG23:0
IVH23:0
IVI23:0
IVJ23:0
IVK23:0
IVL23:0
IVM23:0
IVN23:0
IVO23:0
IVP23:0
IVQ23:0
IVR23:0
IVS23:0
IVT23:0
IVU23:0
IVV23:0
IVW23:0
IVX23:0
IVY23:0
IVZ23:0
IWA23:0
IWB23:0
IWC23:0
IWD23:0
IWE23:0
IWF23:0
IWG23:0
IWH23:0
IWI23:0
IWJ23:0
IWK23:0
IWL23:0
IWM23:0
IWN23:0
IWO23:0
IWP23:0
IWQ23:0
IWR23:0
IWS23:0
IWT23:0
IWU23:0
IWV23:0
IWW23:0
IWX23:0
IWY23:0
IWZ23:0
IXA23:0
IXB23:0
IXC23:0
IXD23:0
IXE23:0
IXF23:0
IXG23:0
IXH23:0
IXI23:0
IXJ23:0
IXK23:0
IXL23:0
IXM23:0
IXN23:0
IXO23:0
IXP23:0
IXQ23:0
IXR23:0
IXS23:0
IXT23:0
IXU23:0
IXV23:0
IXW23:0
IXX23:0
IXY23:0
IXZ23:0
IYA23:0
IYB23:0
IYC23:0
IYD23:0
IYE23:0
IYF23:0
IYG23:0
IYH23:0
IYI23:0
IYJ23:0
IYK23:0
IYL23:0
IYM23:0
IYN23:0
IYO23:0
IYP23:0
IYQ23:0
IYR23:0
IYS23:0
IYT23:0
IYU23:0
IYV23:0
IYW23:0
IYX23:0
IYY23:0
IYZ23:0
IZA23:0
IZB23:0
IZC23:0
IZD23:0
IZE23:0
IZF23:0
IZG23:0
IZH23:0
IZI23:0
IZJ23:0
IZK23:0
IZL23:0
IZM23:0
IZN23:0
IZO23:0
IZP23:0
IZQ23:0
IZR23:0
IZS23:0
IZT23:0
IZU23:0
IZV23:0
IZW23:0
IZX23:0
IZY23:0
IZZ23:0
JAA23:0
JAB23:0
JAC23:0
JAD23:0
JAE23:0
JAF23:0
JAG23:0
JAH23:0
JAI23:0
JAJ23:0
JAK23:0
JAL23:0
JAM23:0
JAN23:0
JAO23:0
JAP23:0
JAQ23:0
JAR23:0
JAS23:0
JAT23:0
JAU23:0
JAV23:0
JAW23:0
JAX23:0
JAY23:0
JAZ23:0
JBA23:0
JBB23:0
JBC23:0
JBD23:0
JBE23:0
JBF23:0
JBG23:0
JBH23:0
JBI23:0
JBJ23:0
JBK23:0
JBL23:0
JBM23:0
JBN23:0
JBO23:0
JBP23:0
JBQ23:0
JBR23:0
JBS23:0
JBT23:0
JBU23:0
JBV23:0
JBW23:0
JBX23:0
JBY23:0
JBZ23:0
JCA23:0
JCB23:0
JCC23:0
JCD23:0
JCE23:0
JCF23:0
JCG23:0
JCH23:0
JCI23:0
JCJ23:0
JCK23:0
JCL23:0
JCM23:0
JCN23:0
JCO23:0
JCP23:0
JCQ23:0
JCR23:0
JCS23:0
JCT23:0
JCU23:0
JCV23:0
JCW23:0
JCX23:0
JCY23:0
JCZ23:0
JDA23:0
JDB23:0
JDC23:0
JDD23:0
JDE23:0
JDF23:0
JDG23:0
JDH23:0
JDI23:0
JDJ23:0
JDK23:0
JDL23:0
JDM23:0
JDN23:0
JDO23:0
JDP23:0
JDQ23:0
JDR23:0
JDS23:0
JDT23:0
JDU23:0
JDV23:0
JDW23:0
JDX23:0
JDY23:0
JDZ23:0
JEA23:0
JEB23:0
JEC23:0
JED23:0
JEE23:0
JEF23:0
JEG23:0
JEH23:0
JEI23:0
JEJ23:0
JEK23:0
JEL23:0
JEM23:0
JEN23:0
JEO23:0
JEP23:0
JEQ23:0
JER23:0
JES23:0
JET23:0
JEU23:0
JEV23:0
JEW23:0
JEX23:0
JEY23:0
JEZ23:0
JFA23:0
JFB23:0
JFC23:0
JFD23:0
JFE23:0
JFF23:0
JFG23:0
JFH23:0
JFI23:0
JFJ23:0
JFK23:0
JFL23:0
JFM23:0
JFN23:0
JFO23:0
JFP23:0
JFQ23:0
JFR23:0
JFS23:0
JFT23:0
JFU23:0
JFV23:0
JFW23:0
JFX23:0
JFY23:0
JFZ23:0
JGA23:0
JGB23:0
JGC23:0
JGD23:0
JGE23:0
JGF23:0
JGG23:0
JGH23:0
JGI23:0
JGJ23:0
JGK23:0
JGL23:0
JGM23:0
JGN23:0
JGO23:0
JGP23:0
JGQ23:0
JGR23:0
JGS23:0
JGT23:0
JGU23:0
JGV23:0
JGW23:0
JGX23:0
JGY23:0
JGZ23:0
JHA23:0
JHB23:0
JHC23:0
JHD23:0
JHE23:0
JHF23:0
JHG23:0
JHH23:0
JHI23:0
JHJ23:0
JHK23:0
JHL23:0
JHM23:0
JHN23:0
JHO23:0
JHP23:0
JHQ23:0
JHR23:0
JHS23:0
JHT23:0
JHU23:0
JHV23:0
JHW23:0
JHX23:0
JHY23:0
JHZ23:0
JIA23:0
JIB23:0
JIC23:0
JID23:0
JIE23:0
JIF23:0
JIG23:0
JIH23:0
JII23:0
JIJ23:0
JIK23:0
JIL23:0
JIM23:0
JIN23:0
JIO23:0
JIP23:0
JIQ23:0
JIR23:0
JIS23:0
JIT23:0
JIU23:0
JIV23:0
JIW23:0
JIX23:0
JIY23:0
JIZ23:0
JJA23:0
JJB23:0
JJC23:0
JJD23:0
JJE23:0
JJF23:0
JJG23:0
JJH23:0
JJI23:0
JJJ23:0
JJK23:0
JJL23:0
JJM23:0
JJN23:0
JJO23:0
JJP23:0
JJQ23:0
JJR23:0
JJS23:0
JJT23:0
JJU23:0
JJV23:0
JJW23:0
JJX23:0
JJY23:0
JJZ23:0
JKA23:0
JKB23:0
JKC23:0
JKD23:0
JKE23:0
JKF23:0
JKG23:0
JKH23:0
JKI23:0
JKJ23:0
JKK23:0
JKL23:0
JKM23:0
JKN23:0
JKO23:0
JKP23:0
JKQ23:0
JKR23:0
JKS23:0
JKT23:0
JKU23:0
JKV23:0
JKW23:0
JKX23:0
JKY23:0
JKZ23:0
JLA23:0
JLB23:0
JLC23:0
JLD23:0
JLE23:0
JLF23:0
JLG23:0
JLH23:0
JLI23:0
JLJ23:0
JLK23:0
JLL23:0
JLM23:0
JLN23:0
JLO23:0
JLP23:0
JLQ23:0
JLR23:0
JLS23:0
JLT23:0
JLU23:0
JLV23:0
JLW23:0
JLX23:0
JLY23:0
JLZ23:0
JMA23:0
JMB23:0
JMC23:0
JMD23:0
JME23:0
JMF23:0
JMG23:0
JMH23:0
JMI23:0
JMJ23:0
JMK23:0
JML23:0
JMM23:0
JMN23:0
JMO23:0
JMP23:0
JMQ23:0
JMR23:0
JMS23:0
JMT23:0
JMU23:0
JMV23:0
JMW23:0
JMX23:0
JMY23:0
JMZ23:0
JNA23:0
JNB23:0
JNC23:0
JND23:0
JNE23:0
JNF23:0
JNG23:0
JNH23:0
JNI23:0
JNJ23:0
JNK23:0
JNL23:0
JNM23:0
JNN23:0
JNO23:0
JNP23:0
JNQ23:0
JNR23:0
JNS23:0
JNT23:0
JNU23:0
JNV23:0
JNW23:0
JNX23:0
JNY23:0
JNZ23:0
JOA23:0
JOB23:0
JOC23:0
JOD23:0
JOE23:0
JOF23:0
JOG23:0
JOH23:0
JOI23:0
JOJ23:0
JOK23:0
JOL23:0
JOM23:0
JON23:0
JOO23:0
JOP23:0
JOQ23:0
JOR23:0
JOS23:0
JOT23:0
JOU23:0
JOV23:0
JOW23:0
JOX23:0
JOY23:0
JOZ23:0
JPA23:0
JPB23:0
JPC23:0
JPD23:0
JPE23:0
JPF23:0
JPG23:0
JPH23:0
JPI23:0
JPJ23:0
JPK23:0
JPL23:0
JPM23:0
JPN23:0
JPO23:0
JPP23:0
JPQ23:0
JPR23:0
JPS23:0
JPT23:0
JPU23:0
JPV23:0
JPW23:0
JPX23:0
JPY23:0
JPZ23:0
JQA23:0
JQB23:0
JQC23:0
JQD23:0
JQE23:0
JQF23:0
JQG23:0
JQH23:0
JQI23:0
FinishTime:02/10/2018 12:19:39.885
