Start MG-ALFA script processing: E:\MGALFA\AutomationCode\Sensitivities\FP_EQSens_EQDn20_1QTROUT\Executables\AlfaScenarioFileImport\scenarioscript.asc

Start date and time .... 01-24-2018 at 12:31:49
Workspace Id ........... C:\Program Files (x86)\Milliman\MG-ALFA 10.5.2011\UI\MGALFA105
System version ......... MG-ALFA Version 10.5.2011[10.5.016]


01-24-2018 at 12:31:49 --------------------------------------------------------------------------------

OpenModel "E:\MGALFA\Model\Executionfolder\Scenario\SCN_RN_1000.ain2"
ValDate 12/2017
Run 1

::AinRun::Message::Begin::

Return Message: 

 Run.001  Yes    Na  Ok--01-24-2018 at 12:34:23  Not defined 

::AinRun::Message::End::
Close


01-24-2018 at 12:34:23 --------------------------------------------------------------------------------

End date and time ...... 01-24-2018 at 12:34:23
End of script .......... 
