Input param:JobHistoryConnection:E:\MGALFA\AutomationCode\Sensitivities\FP_1QTROUT\Log\ClearScenarioFolder.txt
Input param:JobInstanceID:4
Input param:UseDBJobHistory:false
Input param:DirectoryToClear:E:\MGALFA\Staging\FairValue\Scenario
Input param:DeleteSubdirectories:true
FinishTime:02/12/2018 14:11:22.005
