Input param:JobHistoryConnection:E:\mgalfa\AutomationCode\Sensitivities\FP_1QTROUT\Log\ClearLogJobHistory.txt
Input param:JobInstanceID:4
Input param:UseDBJobHistory:false
Input param:DirectoryToClear:E:\MGALFA\AutomationCode\Sensitivities\FP_1QTROUT\Log
Input param:DeleteSubdirectories:true
FinishTime:02/12/2018 14:07:50.323
