Input param:JobHistoryConnection:E:\mgalfa\AutomationCode\Sensitivities\FP_1QTROUT\Log\FP_1QTROUT_ScenarioFileCopyJobHistory.txt
Input param:JobInstanceID:4
Input param:UseDBJobHistory:false
Input param:DestinationDirectory:E:\mgalfa\Staging\FairValue\Scenario
Input param:SourceDirectoryPattern:\\us.aegon.com\ait\Actuary\TCMActuary\Valtest\sharedactuarial\EquityRisk\{YearHolderFourDigit}\Q{QuarterHolder}{YearHolderTwoDigit}\RN\Stochastic\TCM\FP\1QTROUT
Input param:Q1MonthMap:1,2,3
Input param:Q2MonthMap:4,5,6
Input param:Q3MonthMap:7,8,9
Input param:Q4MonthMap:10,11,12
Input param:ProcessTimeToMonthOffset:-2
Input param:OverwriteDestinationFile:true
Input param:ExpectedNumberOfFiles:1
Input param:Wildcard:TCMALFA1_FP_*_Base_1000BDG.agu
Input param:WildcardExclusions:
Input param:ReplaceFromString:FP_\d{6}_Base_1000BDG
Input param:ReplaceToString:RN_Base_1000
ResolvedDirectoryName:\\us.aegon.com\ait\Actuary\TCMActuary\Valtest\sharedactuarial\EquityRisk\2017\Q417\RN\Stochastic\TCM\FP\1QTROUT
FinishTime:02/12/2018 14:07:52.073
