Input param:JobHistoryConnection:E:\mgalfa\AutomationCode\Sensitivities\FP_Type_I_UW_Sensitivities_NewBusiness_LapseUp20_1QTROUT\Log\ClearExecutionJobHistory.txt
Input param:JobInstanceID:4
Input param:UseDBJobHistory:false
Input param:DirectoryToClear:E:\MGALFA\Model\Executionfolder\Sensitivities\FP_Type_I_UW_Sensitivities_NewBusiness_LapseUp20_1QTROUT
Input param:DeleteSubdirectories:true
FinishTime:02/21/2018 08:52:55.051
