Input param:JobHistoryConnection:E:\mgalfa\AutomationCode\Sensitivities\FP_Type_I_UW_Sensitivities_NewBusiness_LapseUp20_1QTROUT\Log\FP_Type_I_UW_DetNBthru1QTROUTInforceFileCopyJobHistory.txt
Input param:JobInstanceID:4
Input param:UseDBJobHistory:false
Input param:DestinationDirectory:E:\MGALFA\Model\Executionfolder\Sensitivities\FP_Type_I_UW_Sensitivities_NewBusiness_LapseUp20_1QTROUT
Input param:SourceDirectoryPattern:\\us.aegon.com\ait\Actuary\TCMActuary\Valtest\InForce_File\Q{QuarterHolder}{YearHolderTwoDigit}\AILFiles\FPNB
Input param:Q1MonthMap:1,2,3
Input param:Q2MonthMap:4,5,6
Input param:Q3MonthMap:7,8,9
Input param:Q4MonthMap:10,11,12
Input param:ProcessTimeToMonthOffset:-2
Input param:OverwriteDestinationFile:true
Input param:ExpectedNumberOfFiles:1
Input param:Wildcard:*DetNBthruQ*_1QTROUT.ail2
Input param:WildcardExclusions:
Input param:ReplaceFromString:\S{21}1QTROUT
Input param:ReplaceToString:P65_P5_VANG
ResolvedDirectoryName:\\us.aegon.com\ait\Actuary\TCMActuary\Valtest\InForce_File\Q417\AILFiles\FPNB
FinishTime:02/21/2018 08:17:00.879
