OpenModel "E:\MGALFA\Model\Executionfolder\Sensitivities\FP_Type_I_UW_Sensitivities_NewBusiness_LapseUp20_1YROUT\FP_Type_I_UW_Sensitivities_NewBusiness_LapseUp20_1YROUT.ain2"
ValDate 12/2017
Run 33
Close
