Start MG-ALFA script processing: E:\MGALFA\AutomationCode\Sensitivities\FP_Type_I_UW_Sensitivities_NewBusiness_LapseUp20_1YROUT\Executables\AlfaAutomation\modelscript.asc

Start date and time .... 02-15-2018 at 14:00:21
Workspace Id ........... C:\Program Files (x86)\Milliman\MG-ALFA 10.5.2011\UI\MGALFA105
System version ......... MG-ALFA Version 10.5.2011[10.5.016]


02-15-2018 at 14:00:21 --------------------------------------------------------------------------------

OpenModel "E:\MGALFA\Model\Executionfolder\Sensitivities\FP_Type_I_UW_Sensitivities_NewBusiness_LapseUp20_1YROUT\FP_Type_I_UW_Sensitivities_NewBusiness_LapseUp20_1YROUT.ain2"
ValDate 12/2017
Run 33

::AinRun::Message::Begin::

Return Message: 

 Run.033  Yes    Na  Ok (Messages)--02-15-2018 at 14:41:45  TCM VA URL 2013 TLIC 

::AinRun::Message::End::
Close


02-15-2018 at 14:41:46 --------------------------------------------------------------------------------

End date and time ...... 02-15-2018 at 14:41:46
End of script .......... 
