Input param:JobHistoryConnection:E:\MGALFA\AutomationCode\Sensitivities\FP_Type_I_UW_Sensitivities_NewBusiness_LapseDn20_1YROUT\Log\FP_Type_I_UW_Sensitivities_NewBusiness_LapseDn20_1YROUT_Perm_Table_wscale1.txt
Input param:JobInstanceID:1
Input param:SourceWorkbookLocation:E:\mgalfa\Staging\FairValue\Sensitivity\ModelInputs\IFRS_Model_Inputs.xlsx
Input param:SourceSheetName:FP Type I UW Inputs
Input param:SourceRow:15
Input param:SourceColumn:E
Input param:DestinationWorkbookLocation:E:\MGALFA\Model\Executionfolder\Sensitivities\FP_Type_I_UW_Sensitivities_NewBusiness_LapseDn20_1YROUT\FVQtrly.xlsx
Input param:DestinationSheetName:wscale
Input param:DestinationRangeStartRow:4
Input param:DestinationRangeStartColumn:C
Input param:DestinationEndRangeRow:4
Input param:DestinationEndRangeColumn:EV
E15:0.8
FinishTime:02/16/2018 07:28:04.269
