OpenModel "E:\MGALFA\Model\Executionfolder\Sensitivities\FP_Type_I_UW_Sensitivities_NewBusiness_LapseDn20_1QTROUT\FP_Type_I_UW_Sensitivities_NewBusiness_LapseDn20_1QTROUT.ain2"
ValDate 12/2017
Run 33
Close
