Input param:JobHistoryConnection:E:\mgalfa\AutomationCode\Sensitivities\FP_IntUp100_1QTROUT\Log\ClearLogJobHistory.txt
Input param:JobInstanceID:4
Input param:UseDBJobHistory:false
Input param:DirectoryToClear:E:\mgalfa\AutomationCode\Sensitivities\FP_IntUp100_1QTROUT\Log
Input param:DeleteSubdirectories:true
FinishTime:02/09/2018 16:47:37.130
