Start MG-ALFA script processing: E:\MGALFA\AutomationCode\Sensitivities\FP_IntDn50_1QTROUT\Executables\AlfaScenarioFileImport\scenarioscript.asc

Start date and time .... 02-09-2018 at 10:34:21
Workspace Id ........... C:\Program Files (x86)\Milliman\MG-ALFA 10.5.2011\UI\MGALFA105
System version ......... MG-ALFA Version 10.5.2011[10.5.016]


02-09-2018 at 10:34:21 --------------------------------------------------------------------------------

OpenModel "E:\MGALFA\Model\Executionfolder\Scenario\SCN_RN_1000.ain2"
ValDate 12/2017
Run 1

::AinRun::Message::Begin::

Return Message: 

 Run.001  Yes    Na  Ok--02-09-2018 at 10:36:55  Not defined 

::AinRun::Message::End::
Close


02-09-2018 at 10:36:55 --------------------------------------------------------------------------------

End date and time ...... 02-09-2018 at 10:36:55
End of script .......... 
