Start MG-ALFA script processing: E:\MGALFA\AutomationCode\Sensitivities\Type_III_UW_MortDn10\Executables\AlfaAutomation\modelscript.asc

Start date and time .... 02-14-2018 at 08:35:20
Workspace Id ........... C:\Program Files (x86)\Milliman\MG-ALFA 10.5.2011\UI\MGALFA105
System version ......... MG-ALFA Version 10.5.2011[10.5.016]


02-14-2018 at 08:35:20 --------------------------------------------------------------------------------

OpenModel "E:\MGALFA\Model\Executionfolder\Sensitivities\Type_III_UW_MortDn10\Type_III_UW_MortDn10.ain2"
ValDate 12/2017
Run 29

::AinRun::Message::Begin::

Return Message: 

 Run.029  Yes    Na  Ok (Messages)--02-14-2018 at 13:50:20  TCM VA POST 10/01/11 TLIC 

::AinRun::Message::End::
Close


02-14-2018 at 13:50:21 --------------------------------------------------------------------------------

End date and time ...... 02-14-2018 at 13:50:22
End of script .......... 
