Start MG-ALFA script processing: E:\mgalfa\AutomationCode\Sensitivities\FP_6YE\Executables\AlfaAutomation\modelscript.asc

Start date and time .... 01-09-2018 at 09:50:18
Workspace Id ........... C:\Program Files (x86)\Milliman\MG-ALFA 10.5.2011\UI\MGALFA105
System version ......... MG-ALFA Version 10.5.2011[10.5.016]


01-09-2018 at 09:50:18 --------------------------------------------------------------------------------

OpenModel "E:\mgalfa\Model\Executionfolder\Sensitivities\FP_6YE\FP_6YE.ain2"
ValDate 09/2017
Run 133

::AinRun::Message::Begin::

Return Message: 

 Run.133  Yes    Na  Ok--01-09-2018 at 09:58:45  TCM VA URL 2013 TLIC - Single Scenario 

::AinRun::Message::End::
Close


01-09-2018 at 09:58:45 --------------------------------------------------------------------------------

End date and time ...... 01-09-2018 at 09:58:45
End of script .......... 
