Input param:JobHistoryConnection:E:\mgalfa\AutomationCode\Sensitivities\FV_Greeks_Agg_Up_5\Log\ClearLogJobHistory.txt
Input param:JobInstanceID:4
Input param:UseDBJobHistory:false
Input param:DirectoryToClear:E:\mgalfa\AutomationCode\Sensitivities\FV_Greeks_Agg_Up_5\Log
Input param:DeleteSubdirectories:true
FinishTime:03/01/2018 08:29:11.196
