Start MG-ALFA script processing: E:\mgalfa\AutomationCode\DAC\BOPParallel\Executables\AlfaAutomation\modelscript.asc

Start date and time .... 05-14-2018 at 12:25:18
Workspace Id ........... C:\Program Files (x86)\Milliman\MG-ALFA 10.5.2011\UI\MGALFA105
System version ......... MG-ALFA Version 10.5.2011[10.5.016]


05-14-2018 at 12:25:18 --------------------------------------------------------------------------------

OpenModel "E:\mgalfa\Model\ExecutionFolder\DAC\BOPParallel\DACBOPParallel.ain2"
ValDate 02/2018
Run 2-3

::AinRun::Message::Begin::

Return Message: 

 Run.002  Yes    Na  Ok (Messages)--05-14-2018 at 13:36:29  TCM IRT VA PARTNERS         
 Run.003  Yes    Na  Ok (Messages)--05-14-2018 at 14:06:02  TCM DIRECT VA VANGUARD VOBA 

::AinRun::Message::End::
Close


05-14-2018 at 14:06:02 --------------------------------------------------------------------------------

End date and time ...... 05-14-2018 at 14:06:13
End of script .......... 
