Start MG-ALFA script processing: E:\MGALFA\AutomationCode\Sensitivities\FP_EQSens_EQDn20_1YROUT\Executables\AlfaAutomation\modelscript.asc

Start date and time .... 01-30-2018 at 10:40:19
Workspace Id ........... C:\Program Files (x86)\Milliman\MG-ALFA 10.5.2011\UI\MGALFA105
System version ......... MG-ALFA Version 10.5.2011[10.5.016]


01-30-2018 at 10:40:19 --------------------------------------------------------------------------------

OpenModel "E:\MGALFA\Model\Executionfolder\Sensitivities\FP_EQSens_EQDn20_1YROUT\FP_EQSens_EQDn20_1YROUT.ain2"
ValDate 12/2017
Run 29

::AinRun::Message::Begin::

Return Message: 

 Run.029  Yes    Na  Ok (Messages)--01-30-2018 at 14:26:05  TCM VA POST 10/01/11 TLIC 

::AinRun::Message::End::
Close


01-30-2018 at 14:26:06 --------------------------------------------------------------------------------

End date and time ...... 01-30-2018 at 14:26:07
End of script .......... 
