Start MG-ALFA script processing: E:\MGALFA\AutomationCode\Sensitivities\FP_EQSens_EQDn25_1QTROUT\Executables\AlfaScenarioFileImport\scenarioscript.asc

Start date and time .... 04-20-2018 at 14:41:17
Workspace Id ........... C:\Program Files (x86)\Milliman\MG-ALFA 10.5.2011\UI\MGALFA105
System version ......... MG-ALFA Version 10.5.2011[10.5.016]


04-20-2018 at 14:41:17 --------------------------------------------------------------------------------

OpenModel "E:\MGALFA\Model\Executionfolder\Scenario\SCN_RN_1000.ain2"
ValDate 03/2018
Run 1

::AinRun::Message::Begin::

Return Message: 

 Run.001  Yes    Na  Ok--04-20-2018 at 14:43:59  Not defined 

::AinRun::Message::End::
Close


04-20-2018 at 14:43:59 --------------------------------------------------------------------------------

End date and time ...... 04-20-2018 at 14:43:59
End of script .......... 
