Input param:JobHistoryConnection:E:\mgalfa\AutomationCode\Sensitivities\FP_Type_I_UW_Sensitivities_LapseDn20_1YROUT\Log\DeletePostRunFileJobHistory.txt
Input param:JobInstanceID:4
Input param:UseDBJobHistory:false
Input param:FileToDelete:E:\MGALFA\AlfaPostProcessingTriggerFiles\FP_Type_I_UW_Sensitivities_LapseDn20_1YROUT.txt
FinishTime:02/15/2018 13:27:32.409
