Input param:JobHistoryConnection:E:\MGALFA\AutomationCode\Sensitivities\FP_Type_I_UW_Sensitivities_LapseDn20_1YROUT\Log\FP_Type_I_UW_Sensitivities_LapseDn20_1YROUT_Perm_Table_wscale3.txt
Input param:JobInstanceID:1
Input param:SourceWorkbookLocation:E:\mgalfa\Staging\FairValue\Sensitivity\ModelInputs\IFRS_Model_Inputs.xlsx
Input param:SourceSheetName:FP Type I UW Inputs
Input param:SourceRow:17
Input param:SourceColumn:E
Input param:DestinationWorkbookLocation:E:\MGALFA\Model\Executionfolder\Sensitivities\FP_Type_I_UW_Sensitivities_LapseDn20_1YROUT\FVQtrly.xlsx
Input param:DestinationSheetName:wscale
Input param:DestinationRangeStartRow:6
Input param:DestinationRangeStartColumn:C
Input param:DestinationEndRangeRow:6
Input param:DestinationEndRangeColumn:EV
E17:0.6
FinishTime:02/15/2018 11:51:48.290
