Input param:JobHistoryConnection:E:\MGALFA\AutomationCode\Sensitivities\FP_Type_I_UW_Sensitivities_LapseDn20_1YROUT\Log\ModelsInputFileCopyJobHistory.txt
Input param:JobInstanceID:4
Input param:UseDBJobHistory:false
Input param:DestinationDirectory:E:\mgalfa\Staging\FairValue\Sensitivity\ModelInputs
Input param:SourceDirectoryPattern:\\us.aegon.com\ait\Actuary\TCMActuary\Valtest\{YearHolderFourDigit}M{MonthHolderLeadingZero}\Riders\zAlfa\Projects\Model_Inputs
Input param:Q1MonthMap:1,2,3
Input param:Q2MonthMap:4,5,6
Input param:Q3MonthMap:7,8,9
Input param:Q4MonthMap:10,11,12
Input param:ProcessTimeToMonthOffset:-2
Input param:OverwriteDestinationFile:true
Input param:ExpectedNumberOfFiles:1
Input param:Wildcard:Q*_IFRS_Model_Inputs.xlsx
Input param:WildcardExclusions:
Input param:ReplaceFromString:Q\d{3}_
Input param:ReplaceToString:
ResolvedDirectoryName:\\us.aegon.com\ait\Actuary\TCMActuary\Valtest\2017M12\Riders\zAlfa\Projects\Model_Inputs
FinishTime:02/15/2018 11:51:08.622
