Start MG-ALFA script processing: E:\MGALFA\AutomationCode\Sensitivities\FP_NewBusiness_1YROUT\Executables\AlfaAutomation\modelscript.asc

Start date and time .... 01-05-2018 at 19:35:18
Workspace Id ........... C:\Program Files (x86)\Milliman\MG-ALFA 10.5.2011\UI\MGALFA105
System version ......... MG-ALFA Version 10.5.2011[10.5.016]


01-05-2018 at 19:35:18 --------------------------------------------------------------------------------

OpenModel "E:\MGALFA\Model\Executionfolder\Sensitivities\FP_NewBusiness_1YROUT\FP_NewBusiness_1YROUT.ain2"
ValDate 09/2017
Run 133

::AinRun::Message::Begin::

Return Message: 

 Run.133  Yes    Na  Ok--01-05-2018 at 19:37:58  TCM VA URL 2013 TLIC - Single Scenario 

::AinRun::Message::End::
Close


01-05-2018 at 19:37:58 --------------------------------------------------------------------------------

End date and time ...... 01-05-2018 at 19:37:59
End of script .......... 
