Input param:DashboardID:FP_Type_I_UW_Sensitivities_MortDn5_1QTROUT
Input param:DashboardProcessName:SystemPause
Input param:DashboardConnection:null
Input param:JobHistoryConnection:E:\mgalfa\AutomationCode\Sensitivities\FP_Type_I_UW_Sensitivities_MortDn5_1QTROUT\Log\SystemPause_JobHistory.txt
Input param:JobInstanceID:2
Input param:SleepTimeInMilliseconds:300000
FinishTime:07/26/2018 14:19:40.881
