Input param:JobHistoryConnection:E:\mgalfa\AutomationCode\Sensitivities\FP_EQSens_EQUp20_1YROUT\Log\TextReportConsolidation.txt
Input param:JobInstanceID:1
Input param:LogFileDirectory:E:\mgalfa\AutomationCode\Sensitivities\FP_EQSens_EQUp20_1YROUT\Log
Input param:OutputFile:E:\MGALFA\Model\Executionfolder\Sensitivities\FP_EQSens_EQUp20_1YROUT\FP_EQSens_EQUp20_1YROUTreports.xlsx
FinishTime:01/30/2018 15:55:36.750
