Input param:JobHistoryConnection:E:\mgalfa\AutomationCode\Sensitivities\FP_2YE\Log\ClearLogJobHistory.txt
Input param:JobInstanceID:4
Input param:UseDBJobHistory:false
Input param:DirectoryToClear:E:\mgalfa\AutomationCode\Sensitivities\FP_2YE\Log
Input param:DeleteSubdirectories:true
FinishTime:01/05/2018 17:57:16.953
