Input param:JobHistoryConnection:E:\mgalfa\AutomationCode\Sensitivities\MTP_NewBusiness_4YE\Log\ClearLogJobHistory.txt
Input param:JobInstanceID:4
Input param:UseDBJobHistory:false
Input param:DirectoryToClear:E:\MGALFA\AutomationCode\Sensitivities\MTP_NewBusiness_4YE\Log
Input param:DeleteSubdirectories:true
FinishTime:01/11/2018 11:40:40.515
