Start MG-ALFA script processing: E:\MGALFA\AutomationCode\Sensitivities\FP_NewBusiness_1QTROUT\Executables\AlfaScenarioFileImport\scenarioscript.asc

Start date and time .... 01-05-2018 at 18:57:05
Workspace Id ........... C:\Program Files (x86)\Milliman\MG-ALFA 10.5.2011\UI\MGALFA105
System version ......... MG-ALFA Version 10.5.2011[10.5.016]


01-05-2018 at 18:57:05 --------------------------------------------------------------------------------

OpenModel "E:\MGALFA\Model\Executionfolder\Scenario\SCN_RN_1000.ain2"
ValDate 09/2017
Run 1

::AinRun::Message::Begin::

Return Message: 

 Run.001  Yes    Na  Ok--01-05-2018 at 18:59:39  Not defined 

::AinRun::Message::End::
Close


01-05-2018 at 18:59:39 --------------------------------------------------------------------------------

End date and time ...... 01-05-2018 at 18:59:39
End of script .......... 
