Start MG-ALFA script processing: E:\MGALFA\AutomationCode\Sensitivities\FP_IntDn100_1QTROUT\Executables\AlfaAutomation\modelscript.asc

Start date and time .... 02-09-2018 at 17:35:20
Workspace Id ........... C:\Program Files (x86)\Milliman\MG-ALFA 10.5.2011\UI\MGALFA105
System version ......... MG-ALFA Version 10.5.2011[10.5.016]


02-09-2018 at 17:35:20 --------------------------------------------------------------------------------

OpenModel "E:\MGALFA\Model\Executionfolder\Sensitivities\FP_IntDn100_1QTROUT\FP_IntDn100_1QTROUT.ain2"
ValDate 12/2017
Run 29

::AinRun::Message::Begin::

Return Message: 

 Run.029  Yes    Na  Ok (Messages)--02-10-2018 at 00:57:44  TCM VA POST 10/01/11 TLIC 

::AinRun::Message::End::
Close


02-10-2018 at 00:57:45 --------------------------------------------------------------------------------

End date and time ...... 02-10-2018 at 00:57:45
End of script .......... 
