Input param:JobHistoryConnection:E:\mgalfa\AutomationCode\Sensitivities\FP_EQSens_EQDn25_1YROUT\Log\ClearLogJobHistory.txt
Input param:JobInstanceID:4
Input param:UseDBJobHistory:false
Input param:DirectoryToClear:E:\MGALFA\AutomationCode\Sensitivities\FP_EQSens_EQDn25_1YROUT\Log
Input param:DeleteSubdirectories:true
FinishTime:04/19/2018 14:38:25.840
