Input param:JobHistoryConnection:E:\mgalfa\AutomationCode\Sensitivities\FP_EQSens_EQDn25_1YROUT\Log\DeletePostRunFileJobHistory.txt
Input param:JobInstanceID:4
Input param:UseDBJobHistory:false
Input param:FileToDelete:E:\MGALFA\AlfaPostProcessingTriggerFiles\FP_EQSens_EQDn25_1YROUT.txt
FinishTime:04/19/2018 14:57:19.304
