Input param:JobHistoryConnection:E:\mgalfa\AutomationCode\Sensitivities\FP_EQSens_EQDn25_1YROUT\Log\TextReportConsolidation.txt
Input param:JobInstanceID:1
Input param:LogFileDirectory:E:\mgalfa\AutomationCode\Sensitivities\FP_EQSens_EQDn25_1YROUT\Log
Input param:OutputFile:E:\MGALFA\Model\Executionfolder\Sensitivities\FP_EQSens_EQDn25_1YROUT\FP_EQSens_EQDn25_1YROUTreports.xlsx
FinishTime:04/19/2018 14:57:10.116
