Input param:JobHistoryConnection:E:\MGALFA\AutomationCode\Sensitivities\FP_EQSens_EQDn20_1QTROUT\Log\Var3Shock.txt
Input param:JobInstanceID:1
Input param:SourceWorkbookLocation:E:\mgalfa\Staging\FairValue\Sensitivity\FPPKSetup\FP PK Setup.xlsx
Input param:SourceSheetName:Setup
Input param:SourceRangeStartRow:7
Input param:SourceRangeStartColumn:Z
Input param:SourceEndRangeRow:7
Input param:SourceEndRangeColumn:Z
Input param:DestinationWorkbookLocation:E:\MGALFA\Model\Executionfolder\Sensitivities\FP_EQSens_EQDn20_1QTROUT\FVQtrly.xlsx
Input param:DestinationSheetName:Var3Shock%
Input param:DestinationRangeStartRow:5
Input param:DestinationRangeStartColumn:B
Input param:DestinationEndRangeRow:5
Input param:DestinationEndRangeColumn:B
Source Cells:
Z7:-0.2
FinishTime:01/24/2018 12:31:12.625
