Start MG-ALFA script processing: E:\MGALFA\AutomationCode\Sensitivities\FV_Greeks_Equity_Down_5\Executables\AlfaAutomation\modelscript.asc

Start date and time .... 12-27-2017 at 12:15:18
Workspace Id ........... C:\Program Files (x86)\Milliman\MG-ALFA 10.5.2011\UI\MGALFA105
System version ......... MG-ALFA Version 10.5.2011[10.5.016]


12-27-2017 at 12:15:18 --------------------------------------------------------------------------------

OpenModel "E:\MGALFA\Model\Executionfolder\Sensitivities\FV_Greeks_Equity_Down_5\FV_Greeks_Equity_Down_5.ain2"
ValDate 09/2017
Run 12

::AinRun::Message::Begin::

Return Message: 

 Run.012  Yes    Na  Ok (Messages)--12-27-2017 at 13:35:40  TCM MKTG VA BROKER 2007 

::AinRun::Message::End::
Close


12-27-2017 at 13:35:40 --------------------------------------------------------------------------------

End date and time ...... 12-27-2017 at 13:35:42
End of script .......... 
