Input param:JobHistoryConnection:E:\mgalfa\AutomationCode\Sensitivities\FP_EQSens_EQDn25_1YROUT\Log\SystemPause_JobHistory.txt
Input param:JobInstanceID:2
Input param:SleepTimeInMilliseconds:300000
FinishTime:04/19/2018 14:57:09.714
