Input param:JobHistoryConnection:E:\mgalfa\AutomationCode\Sensitivities\FP_EQSens_EQUp10_1QTROUT\Log\TextReportConsolidation.txt
Input param:JobInstanceID:1
Input param:LogFileDirectory:E:\mgalfa\AutomationCode\Sensitivities\FP_EQSens_EQUp10_1QTROUT\Log
Input param:OutputFile:E:\MGALFA\Model\Executionfolder\Sensitivities\FP_EQSens_EQUp10_1QTROUT\FP_EQSens_EQUp10_1QTROUTreports.xlsx
FinishTime:02/09/2018 15:00:03.640
