Input param:JobHistoryConnection:E:\MGALFA\AutomationCode\Sensitivities\FP_Type_I_UW_Sensitivities_NewBusiness_MortDn5_1QTROUT\Log\ClearScenarioFolder.txt
Input param:JobInstanceID:4
Input param:UseDBJobHistory:false
Input param:DirectoryToClear:E:\MGALFA\Staging\FairValue\Scenario
Input param:DeleteSubdirectories:true
FinishTime:08/01/2018 14:40:55.677
