Input param:DashboardID:FP_Type_I_UW_Sensitivities_NewBusiness_MortDn5_1QTROUT
Input param:DashboardProcessName:ClearDirectoryPostRun
Input param:JobHistoryConnection:E:\mgalfa\AutomationCode\Sensitivities\FP_Type_I_UW_Sensitivities_NewBusiness_MortDn5_1QTROUT\Log\ClearExecutionJobHistory.txt
Input param:JobInstanceID:4
Input param:UseDBJobHistory:false
Input param:DirectoryToClear:E:\MGALFA\Model\Executionfolder\Sensitivities\FP_Type_I_UW_Sensitivities_NewBusiness_MortDn5_1QTROUT
Input param:DeleteSubdirectories:true
FinishTime:08/01/2018 15:21:39.617
