Input param:JobHistoryConnection:E:\MGALFA\AutomationCode\Sensitivities\FP_Type_I_UW_Sensitivities_MortDn10_1YROUT\Log\FP_Type_I_UW_Sensitivities_MortDn10_1YROUT_Perm_Table_Qscale2.txt
Input param:JobInstanceID:1
Input param:SourceWorkbookLocation:E:\mgalfa\Staging\FairValue\Sensitivity\ModelInputs\IFRS_Model_Inputs.xlsx
Input param:SourceSheetName:FP Type I UW Inputs
Input param:SourceRow:30
Input param:SourceColumn:E
Input param:DestinationWorkbookLocation:E:\MGALFA\Model\Executionfolder\Sensitivities\FP_Type_I_UW_Sensitivities_MortDn10_1YROUT\FVQtrly.xlsx
Input param:DestinationSheetName:Qscale2
Input param:DestinationRangeStartRow:4
Input param:DestinationRangeStartColumn:B
Input param:DestinationEndRangeRow:4
Input param:DestinationEndRangeColumn:EU
E30:0.9
FinishTime:02/20/2018 15:07:29.121
