Start MG-ALFA script processing: E:\MGALFA\AutomationCode\Sensitivities\FP_Type_I_UW_Sensitivities_NewBusiness_LapseDn20_1YROUT\Executables\AlfaScenarioFileImport\scenarioscript.asc

Start date and time .... 02-16-2018 at 07:28:35
Workspace Id ........... C:\Program Files (x86)\Milliman\MG-ALFA 10.5.2011\UI\MGALFA105
System version ......... MG-ALFA Version 10.5.2011[10.5.016]


02-16-2018 at 07:28:35 --------------------------------------------------------------------------------

OpenModel "E:\MGALFA\Model\Executionfolder\Scenario\SCN_RN_1000.ain2"
ValDate 12/2017
Run 1

::AinRun::Message::Begin::

Return Message: 

 Run.001  Yes    Na  Ok--02-16-2018 at 07:31:02  Not defined 

::AinRun::Message::End::
Close


02-16-2018 at 07:31:02 --------------------------------------------------------------------------------

End date and time ...... 02-16-2018 at 07:31:02
End of script .......... 
