Input param:JobHistoryConnection:E:\MGALFA\AutomationCode\Sensitivities\FP_IntUp50_1YROUT\Log\ClearScenarioFolder.txt
Input param:JobInstanceID:4
Input param:UseDBJobHistory:false
Input param:DirectoryToClear:E:\MGALFA\Staging\FairValue\Scenario
Input param:DeleteSubdirectories:true
FinishTime:02/09/2018 15:31:08.170
