Input param:JobHistoryConnection:E:\MGALFA\AutomationCode\Sensitivities\Type_III_UW_LapseDn20\Log\FVQtrlyType_III_UW_LapseDn20_Perm_Table_wscale1.txt
Input param:JobInstanceID:1
Input param:SourceWorkbookLocation:E:\mgalfa\Staging\FairValue\Sensitivity\ModelInputs\IFRS_Model_Inputs.xlsx
Input param:SourceSheetName:Type III Inputs
Input param:SourceRow:15
Input param:SourceColumn:E
Input param:DestinationWorkbookLocation:E:\MGALFA\Model\Executionfolder\Sensitivities\Type_III_UW_LapseDn20\FVQtrly.xlsx
Input param:DestinationSheetName:wscale
Input param:DestinationRangeStartRow:4
Input param:DestinationRangeStartColumn:C
Input param:DestinationEndRangeRow:4
Input param:DestinationEndRangeColumn:EV
E15:0.8
FinishTime:03/06/2018 08:42:43.541
